word pos prefw1 prefw2 prefw3 prefp1 prefp2 prefp3 suffw1 suffp1 len headw1 headw2 headw3 headp1 headp2 headp3 head position numb perc money date
nanopartikulen__toxikotasuna__.	EDU	Nanopartikulen	toxikotasuna	<NA>	PROPN	NOUN	<NA>	.	PUNCT	veryshort	toxikotasuna	<NA>	<NA>	NOUN	<NA>	<NA>	IN-HEAD	first	<NA>	<NA>	<NA>	<NA>
nano__tamainako__partikulen__ezaugarri__fisikokimikoak__tamaina__arrunteko__substantzia__baliokideen__ezaugarrien__desberdinak__dira__,	EDU	Nano	tamainako	partikulen	PROPN	NOUN	NOUN	,	PUNCT	short	ezaugarrien	<NA>	<NA>	NOUN	<NA>	<NA>	IN-HEAD	beginning	<NA>	<NA>	<NA>	<NA>
eta__sarritan__ezin__dira__aurreikusi__ere__.	EDU	eta	sarritan	ezin	CONJ	ADV	NOUN	.	PUNCT	short	eta	dira	<NA>	CONJ	VERB	<NA>	OUT-HEAD	beginning	<NA>	<NA>	<NA>	<NA>
nanomaterialak__gero__eta__gehiago__erabiltzearekin__batera__,	EDU	Nanomaterialak	gero	eta	NOUN	ADV	CONJ	,	PUNCT	short	Nanomaterialak	<NA>	<NA>	NOUN	<NA>	<NA>	OUT-HEAD	beginning	<NA>	<NA>	<NA>	<NA>
ingurumen__eta__osasunaren__gainean__eurek__eduki__ditzaketen__arriskuei__buruzko__ikerketak__bultzatu__beharra__dago__.	EDU	ingurumen	eta	osasunaren	ADV	CONJ	NOUN	.	PUNCT	short	ikerketak	dago	<NA>	NOUN	VERB	<NA>	IN-HEAD	beginning	<NA>	<NA>	<NA>	<NA>
injinerututako__nanomaterialen__erabiltze__eta__eskukatzeari__dagokien__kezka__nagusia__,__beraien__toxizitatearen__oinarria__,__seguru__asko__,__screening__toxizitate-test__estandarrek__gaur__egun__barne__hartzen__ez__dituzten__ezaugarri__fisikokimikoak__izatea__dugu__.	EDU	Injinerututako	nanomaterialen	erabiltze	VERB	ADJ	VERB	.	PUNCT	verylong	izatea	<NA>	<NA>	VERB	<NA>	<NA>	OUT-HEAD	first-middle	<NA>	<NA>	<NA>	<NA>
horrez__gain__,__partikula__horien__erabilpen__komertzialak__kezka__handia__sortu__du__,	EDU	Horrez	gain	,	DET	NOUN	PUNCT	,	PUNCT	short	sortu	<NA>	<NA>	VERB	<NA>	<NA>	IN-HEAD	first-middle	<NA>	<NA>	<NA>	<NA>
zuzenean__euren__sakabanaketa__zabala__ekar__baitezake__,__bai__-LRB-__1__-RRB-__industri__isurketen__zein__etxeko__hondakinen__erreken__bitartez__,__eta__baita__ere__-LRB-__2__-RRB-__norberaren__zaintzan__zein__fuel-katalizatzaileen__moduko__erabilpen__orokorreko__bestelako__produktuen__bitartez__.	EDU	zuzenean	euren	sakabanaketa	ADV	PRON	NOUN	.	PUNCT	verylong	zuzenean	bai	-RRB-	ADV	PART	PUNCT	OUT-HEAD	first-middle	numb	<NA>	<NA>	<NA>
horrelako__sakabanaketa__zabalak__ingurumen__zein__giza-osasunaren__gainean__izan__ditzakeen__ondorioak__ez__dira__oraindik__ezagutzen__.	EDU	Horrelako	sakabanaketa	zabalak	ADJ	NOUN	ADJ	.	PUNCT	short	ezagutzen	<NA>	<NA>	VERB	<NA>	<NA>	IN-HEAD	first-middle	<NA>	<NA>	<NA>	<NA>
testuinguru__honetan__,__bzit__taldeak__,__e.__valsami-jones__-LRB-__natural__history__museum__,__london__-RRB-__dr.-ak__zuzentzen__duen__eb__-ko__7.__fp-ko__nanoreto__x__-LRB-__2008-2012__-RRB-__ikerketa-proiektuan__lanean__dihardu__.	EDU	Testuinguru	-ak	honetan	NOUN	NOUN	DET	.	PUNCT	verylong	zuzentzen	Dr.	<NA>	VERB	PROPN	<NA>	IN-HEAD	first-middle	numb	<NA>	<NA>	date
nano__reto__x-en__helburu__gidaria__da__osasunaren__eta__ingurumenaren__gainean__injinerututako__metal-nanopartikulek__dituzten__efektuei__dagozkien__zalantza__zientifikoak__argitzeko__ahalegintze__globala__izango__dena__ezagumendu__berriez__hornitzea__,__zein__industriak__eta__gobernuek__nanomaterial__horien__arrisku-ebaluaketari__ekiten__hasteko__informazio__berriaren__corpusa__eta__tresna__berri__bat__eskaintzea__.	EDU	NANO	RETO	X-en	PROPN	PROPN	PROPN	.	PUNCT	verylong	hornitzea	<NA>	<NA>	VERB	<NA>	<NA>	IN-HEAD	first-middle	<NA>	<NA>	<NA>	<NA>
nanoreto__x-ek__honako__bost__gako-galdera__hauei__erantzun__nahi__die__:	EDU	NANORETO	X-ek	honako	PROPN	PROPN	ADJ	:	PUNCT	short	die	<NA>	<NA>	VERB	<NA>	<NA>	IN-HEAD	second-middle	<NA>	<NA>	<NA>	<NA>
-LRB-__1__-RRB-__ingurumenak__nola__aldaraz__litzake__bertan__askatutako__nanopartikulen__ezaugarri__fisikokimikoak__eta__bioerreakzionagarritasuna__?	EDU	-LRB-	1	-RRB-	PUNCT	NUM	PUNCT	?	PUNCT	short	aldaraz	<NA>	<NA>	VERB	<NA>	<NA>	IN-HEAD	second-middle	numb	<NA>	<NA>	<NA>
-LRB-__2__-RRB-__nola__eragin__lezake__horrek__ugaztunen__zelulekin__eta__organismo__urtarrekin__zein__beraien__zelulekin__interakzionatzeko__eta__euren__baitan__sartzeko__partikula__horiek__duten__gaitasuna__-LRB-__bioeskuragarritasuna__-RRB-__;	EDU	-LRB-	2	-RRB-	PUNCT	NUM	PUNCT	;	PUNCT	verylong	-LRB-	2	eragin	PUNCT	NUM	VERB	IN-HEAD	second-middle	numb	<NA>	<NA>	<NA>
eta__bioeskuragarritasun__horrek__toxikotasuna__sorraraziko__ote__luke__?	EDU	eta	bioeskuragarritasun	horrek	CONJ	NOUN	DET	?	PUNCT	short	eta	luke	<NA>	CONJ	VERB	<NA>	OUT-HEAD	second-middle	<NA>	<NA>	<NA>	<NA>
-LRB-__3__-RRB-__ba__al__dago__ezaugarri__fisikokimikoei__dagokien__erreaktibotasun__eta/edo__toxikotasun__zelularraren__patroi__zehatzen__bat__-LRB-__adb.__aktibitate__hierarkia__bat__-RRB-__?	EDU	-LRB-	aktibitate	3	PUNCT	NOUN	NUM	.	PUNCT	long	hierarkia	-RRB-	dago	NOUN	PUNCT	VERB	IN-HEAD	second-middle	numb	<NA>	<NA>	<NA>
-LRB-__4__-RRB-__aurreko__hiru__jiteak__ikertzean	EDU	-LRB-	4	-RRB-	PUNCT	NUM	PUNCT	ikertzean	VERB	short	4	ikertzean	<NA>	NUM	VERB	<NA>	OUT-HEAD	second-middle	numb	<NA>	<NA>	<NA>
atzemandako__baldintzen__zein__konbinaketak__sorraraziko__luke__arriskua__giza-osasunean__eta__ingurumenean__?	EDU	atzemandako	baldintzen	zein	VERB	NOUN	CONJ	?	PUNCT	short	luke	<NA>	<NA>	VERB	<NA>	<NA>	IN-HEAD	end	<NA>	<NA>	<NA>	<NA>
-LRB-__5__-RRB-__nola__inkorporatu__liteke__informazio__guzti__hori__arrisku-ebaluaketarako__eredu__batean__?	EDU	-LRB-	5	-RRB-	PUNCT	NUM	PUNCT	?	PUNCT	short	-LRB-	5	inkorporatu	PUNCT	NUM	VERB	IN-HEAD	end	numb	<NA>	<NA>	<NA>
gure__taldeak__nanoreto__xen__dituen__betebehar__nagusiak__hauexek__dira__:__-LRB-__1__-RRB-__muskuilu__eta__zebra__arrainek__nanopartikulak__in__vivo__nola__hartzen__dituzten__ikertzea__eta__autometalografia__,	EDU	Gure	-LRB-	taldeak	PRON	PUNCT	NOUN	,	PUNCT	verylong	hauexek	hartzen	<NA>	NOUN	VERB	<NA>	IN-HEAD	end	numb	<NA>	<NA>	<NA>
x-izpien__mikroanalisia__zein__mikroskopia__elektronikoa__erabiliz	EDU	X-izpien	mikroanalisia	zein	NOUN	ADJ	DET	erabiliz	VERB	short	erabiliz	<NA>	<NA>	VERB	<NA>	<NA>	OUT-HEAD	end	<NA>	<NA>	<NA>	<NA>
nanopartikulak__barneratzeko__mekanismoak__eta__bidezidorrak__ezagutzea__,__-LRB-__2__-RRB-__zelula__mailako__kalteak__muskuilu__eta__zebra__arrainetan__-LRB-__lisosomen__mintzen__egonkortasuna__,__liseri-guruinaren/gibelaren__,__gonadaren__zein__zakatzen__histopatologia__,__metalotioneinen__indukzioa__,__geneen__adierazpen__mailak__,__estres__oxidatiboa__-RRB-__eta__organismo__mailako__kalteak__muskuiluetan__-LRB-__hilkortasuna__-RRB-__zehaztea__,__-LRB-__3__-RRB-__nanopartikulen__barneratzea__zein__erreakzionagarritasuna__in__vitro__ikertzea__eta__toxikotasun-mekanismo__posibleak__aurkizea__,	EDU	nanopartikulak	barneratzeko	mekanismoak	NOUN	VERB	NOUN	,	PUNCT	verylong	mekanismoak	eta	ezagutzea	NOUN	CONJ	VERB	OUT-HEAD	end	numb	<NA>	<NA>	<NA>
muskuiluen__hemozitoen__eta__zakatz-zelulen__kultibo__primarioak__erabiliz__,	EDU	muskuiluen	hemozitoen	eta	NOUN	NOUN	CONJ	,	PUNCT	short	erabiliz	<NA>	<NA>	VERB	<NA>	<NA>	OUT-HEAD	end	<NA>	<NA>	<NA>	<NA>
eta__-LRB-__4__-RRB-__metal-nanopartikulen__genotoxikotasuna__-LRB-__mikronukleoen__saiakuntza__,__kometa__saiakuntza__-RRB-__eta__kartzinogenesia__-LRB-__lesio__preneoplasiko__eta__neoplasikoen__detekzioa__,__histologiaren__,__entzima-markatzaile__goiztiarren__eta__gene-adierazpenaren__soslai__aldaketen__bitartez__-RRB-__aztertzea__.	EDU	eta	-LRB-	4	CONJ	PUNCT	NUM	.	PUNCT	verylong	eta	-LRB-	4	CONJ	PUNCT	NUM	OUT-HEAD	last	numb	<NA>	<NA>	<NA>

doppler__efektua__eta__ohm-en__legea__:__aposizioa__vs__genitiboa__fisikaren__terminologian__.	EDU	Doppler	aposizioa	efektua	PROPN	NOUN	NOUN	.	PUNCT	short	aposizioa	efektua	<NA>	NOUN	NOUN	<NA>	IN-HEAD	first	<NA>	<NA>	<NA>	<NA>
hizkuntza__tekniko-zientifikoan__,__nahiko__ugariak__izaten__dira__zientzilari__baten__deitura__+__izen__arrunta__bezalako__terminoak__.	EDU	Hizkuntza	tekniko-	zientifikoan	NOUN	PUNCT	NOUN	.	PUNCT	long	+	<NA>	<NA>	SYM	<NA>	<NA>	IN-HEAD	beginning	<NA>	<NA>	<NA>	<NA>
osagai__bien__arteko__lotura__,__euskaraz__,__bi__modu__desberdinetan__gauzatzen__dugu__.	EDU	Osagai	bien	arteko	NOUN	NUM	ADP	.	PUNCT	short	gauzatzen	<NA>	<NA>	VERB	<NA>	<NA>	IN-HEAD	beginning	<NA>	<NA>	<NA>	<NA>
alde__batetik__,__hitz-elkartuen__eremukoa__den__aposizioa__deritzon__baliabidea__erabiltzen__dugu__,__doppler__efektua__adibidez__,	EDU	Alde	batetik	,	NOUN	NUM	PUNCT	,	PUNCT	long	erabiltzen	<NA>	<NA>	VERB	<NA>	<NA>	IN-HEAD	beginning	<NA>	<NA>	<NA>	<NA>
eta__bestetik__genitiboaren__bidez__lotzen__ditugu__osagaiak__,__ohm-en__legea__kasu__.	EDU	eta	bestetik	genitiboaren	CONJ	NOUN	NOUN	.	PUNCT	short	eta	osagaiak	kasu	CONJ	NOUN	NOUN	OUT-HEAD	first-middle	<NA>	<NA>	<NA>	<NA>
doppler__efektua__doppler__deitura__zuen__fisikariak__ikertu__eta__aurkituriko__efektu__fisikoa__da	EDU	Doppler	efektua	Doppler	PROPN	NOUN	PROPN	da	VERB	short	zuen	<NA>	<NA>	VERB	<NA>	<NA>	IN-HEAD	first-middle	<NA>	<NA>	<NA>	<NA>
eta__ohm-en__legea__ohm__deitura__zuen__fisikariak__ikertu__eta__aurkituriko__lege__fisikoa__dugu__,	EDU	eta	Ohm-en	legea	CONJ	PROPN	NOUN	,	PUNCT	short	eta	ikertu	<NA>	CONJ	VERB	<NA>	OUT-HEAD	first-middle	<NA>	<NA>	<NA>	<NA>
eta__egia__esan__behar__badugu__,	EDU	eta	egia	esan	CONJ	NOUN	VERB	,	PUNCT	short	eta	badugu	<NA>	CONJ	VERB	<NA>	OUT-HEAD	first-middle	<NA>	<NA>	<NA>	<NA>
gure__ustez__ez__dago__arrazoirik	EDU	gure	ustez	ez	PRON	NOUN	PART	arrazoirik	NOUN	veryshort	dago	<NA>	<NA>	VERB	<NA>	<NA>	OUT-HEAD	first-middle	<NA>	<NA>	<NA>	<NA>
doppler-en__kasuan__modu__batez__eta__ohm-en__kasuan__beste__era__batez__jokatzeko__.	EDU	Doppler-en	kasuan	modu	PROPN	NOUN	NOUN	.	PUNCT	short	batez	eta	jokatzeko	NUM	CONJ	VERB	OUT-HEAD	second-middle	<NA>	<NA>	<NA>	<NA>
aspaldian__buruan__biraka__daukagun__galdera__hauxe__da__,__beraz__;	EDU	Aspaldian	buruan	biraka	ADV	NOUN	DET	;	PUNCT	short	da	<NA>	<NA>	VERB	<NA>	<NA>	OUT-HEAD	second-middle	<NA>	<NA>	<NA>	<NA>
zergatik__kasu__batzuetan__aposizioa__eta__besteetan__genitiboa__?__,	EDU	,	zergatik	kasu	PUNCT	ADV	NOUN	?	PUNCT	short	aposizioa	<NA>	<NA>	NOUN	<NA>	<NA>	IN-HEAD	second-middle	<NA>	<NA>	<NA>	<NA>
zergatik__asimetria__hau__?	EDU	zergatik	asimetria	hau	ADV	NOUN	DET	?	PUNCT	veryshort	asimetria	<NA>	<NA>	NOUN	<NA>	<NA>	IN-HEAD	second-middle	<NA>	<NA>	<NA>	<NA>
bigarren__osagaiak__,__hots__,__izen__arruntak__badu__zerikusirik__?	EDU	Bigarren	osagaiak	,	NUM	NOUN	PUNCT	?	PUNCT	short	badu	<NA>	<NA>	VERB	<NA>	<NA>	IN-HEAD	second-middle	<NA>	<NA>	<NA>	<NA>
gaztelaniarekiko__morrontza__ote__?	EDU	Gaztelaniarekiko	morrontza	ote	PROPN	NOUN	NOUN	?	PUNCT	veryshort	ote	<NA>	<NA>	NOUN	<NA>	<NA>	IN-HEAD	end	<NA>	<NA>	<NA>	<NA>
arazo__honi__buruzko__argi-izpirik__aurkitu__nahian__,	EDU	Arazo	honi	buruzko	NOUN	DET	ADP	,	PUNCT	short	aurkitu	<NA>	<NA>	VERB	<NA>	<NA>	OUT-HEAD	end	<NA>	<NA>	<NA>	<NA>
inguruko__hizkuntzek__nola__jokatzen__duten__aztertu__dugu__,	EDU	inguruko	hizkuntzek	nola	NOUN	NOUN	ADV	,	PUNCT	short	aztertu	<NA>	<NA>	VERB	<NA>	<NA>	IN-HEAD	end	<NA>	<NA>	<NA>	<NA>
nola__edo__halako__ondoriorik__ateratzeko__asmoz__.	EDU	nola	edo	halako	ADV	CONJ	ADJ	.	PUNCT	short	nola	edo	asmoz	ADV	CONJ	NOUN	OUT-HEAD	end	<NA>	<NA>	<NA>	<NA>
azterketa-eremutzat__uzeik__argitaraturiko__fisika__hiztegia__hartu__dugu__,	EDU	Azterketa-	eremutzat	UZEIk	NOUN	NOUN	PROPN	,	PUNCT	short	hartu	<NA>	<NA>	VERB	<NA>	<NA>	IN-HEAD	end	<NA>	<NA>	<NA>	<NA>
euskara__,__gaztelania__,__frantsesa__eta__ingelesaren__arteko__azterketa__konparatiboa__burutu__nahi__izan__dugula__.	EDU	euskara	,	gaztelania	NOUN	PUNCT	NOUN	.	PUNCT	short	euskara	izan	<NA>	NOUN	VERB	<NA>	OUT-HEAD	last	<NA>	<NA>	<NA>	<NA>

ingurumen__lurtarretako__onddo__basidiomikotoen__sistematika__eta__ekologia__.	EDU	Ingurumen	lurtarretako	onddo	ADV	NOUN	NOUN	.	PUNCT	short	sistematika	<NA>	<NA>	NOUN	<NA>	<NA>	OUT-HEAD	first	<NA>	<NA>	<NA>	<NA>
onddoak__bizidun__heterotroak__dira	EDU	Onddoak	bizidun	heterotroak	NOUN	ADJ	NOUN	dira	VERB	veryshort	heterotroak	<NA>	<NA>	NOUN	<NA>	<NA>	IN-HEAD	beginning	<NA>	<NA>	<NA>	<NA>
eta__ekosistemetako__sare__konplexuetan__parte-hartzen__dute__,__bereziki__lurtarretan__.	EDU	eta	ekosistemetako	sare	CONJ	NOUN	NOUN	.	PUNCT	short	eta	parte-hartzen	lurtarretan	CONJ	VERB	ADV	OUT-HEAD	beginning	<NA>	<NA>	<NA>	<NA>
bertan__,__onddoek__betetzen__dituzten__funtzioen__garrantzia__aho__batez__onartzen__da__gaur__egun__.	EDU	Bertan	,	onddoek	ADV	PUNCT	NOUN	.	PUNCT	short	onartzen	<NA>	<NA>	VERB	<NA>	<NA>	IN-HEAD	beginning	<NA>	<NA>	<NA>	<NA>
funtzio__aipagarrienak__hauexek__dira__:	EDU	Funtzio	aipagarrienak	hauexek	NOUN	NUM	NOUN	:	PUNCT	veryshort	Funtzio	<NA>	<NA>	NOUN	<NA>	<NA>	IN-HEAD	beginning	<NA>	<NA>	<NA>	<NA>
sinbiosietako__partaidetza__,__materia__organikoaren__mineralizazioan__eta__deskonposaketan__eragile__nagusienetarikoak__,__lurraren__eraketa__eta__atxikipena__erraztu__eta__elikagai__iturria__,__besteak__beste__-LRB-__trappe__&__luoma__,__1992__-RRB-__.	EDU	sinbiosietako	Luoma	partaidetza	NOUN	PROPN	NOUN	&	PUNCT	verylong	Luoma	erraztu	<NA>	PROPN	VERB	<NA>	IN-HEAD	beginning	numb	<NA>	<NA>	date
zerbait__baloratzeko	EDU	Zerbait	<NA>	<NA>	PRON	<NA>	<NA>	baloratzeko	VERB	veryshort	baloratzeko	<NA>	<NA>	VERB	<NA>	<NA>	OUT-HEAD	beginning	<NA>	<NA>	<NA>	<NA>
lehendabizi__ezagutu__egin__behar__dela__kontuan__hartuta__,	EDU	lehendabizi	ezagutu	egin	ADV	VERB	VERB	,	PUNCT	short	hartuta	<NA>	<NA>	VERB	<NA>	<NA>	OUT-HEAD	first-middle	<NA>	<NA>	<NA>	<NA>
mikologia__taldea__bere__hastapenetatik__ari__da__onddoen__,__eta__bereziki__basidiomikotoen__,__biodibertsitatea__aztertzen__duen__lerroa__garatzen__,__euskal__autonomi__erkidegoan__zein__penintsula__mailan__.	EDU	Mikologia	taldea	bere	NOUN	NOUN	DET	.	PUNCT	long	da	<NA>	<NA>	VERB	<NA>	<NA>	OUT-HEAD	first-middle	<NA>	<NA>	<NA>	<NA>
lerro__honetako__lanak__korologikoak__eta__deskriptiboak__dira__oinarrian__,	EDU	Lerro	honetako	lanak	NOUN	DET	NOUN	,	PUNCT	short	korologikoak	<NA>	<NA>	ADJ	<NA>	<NA>	IN-HEAD	first-middle	<NA>	<NA>	<NA>	<NA>
baina__azken__urteetan__,	EDU	baina	azken	urteetan	CONJ	NUM	NOUN	,	PUNCT	veryshort	baina	urteetan	<NA>	CONJ	NOUN	<NA>	OUT-HEAD	first-middle	<NA>	<NA>	<NA>	<NA>
eta__''flora__micológica__ibérica__''__proiektua__ardatz__hartuta__,	EDU	eta	'	'Flora	CONJ	PUNCT	PROPN	,	PUNCT	short	eta	'Flora	Micológica	CONJ	PROPN	PROPN	OUT-HEAD	first-middle	<NA>	<NA>	<NA>	<NA>
cantharellaleak__edo__teleforazeo__erresupinatuak__bezalako__kortiziazeo__talde__konkretuen__azterketa__biosistematikoa__egiten__ari__gara__.	EDU	cantharellaleak	edo	teleforazeo	NOUN	CONJ	NOUN	.	PUNCT	short	gara	<NA>	<NA>	VERB	<NA>	<NA>	OUT-HEAD	first-middle	<NA>	<NA>	<NA>	<NA>
mota__honetako__lanek__,__arazo__taxonomikoei__ez__ezik__,__bestelako__galdera__zailagoei__ere__erantzutea__dute__helburu__,__hala__nola__,__espezieen__biogeografia__,__taldearen__filogenia__,__eta__abar__.	EDU	Mota	honetako	lanek	NOUN	DET	NOUN	.	PUNCT	verylong	helburu	<NA>	<NA>	NOUN	<NA>	<NA>	IN-HEAD	first-middle	<NA>	<NA>	<NA>	<NA>
ikerkuntza__lerro__honetan__kokatzen__ditugu__''interconexiones__biogeográficas__de__los__corticiáceos__-LRB-__aphyllophorales__,__basidiomycota__-RRB-__macaronésicos__-LRB-__i.n.__m.t.__telleria__rjb__,__madrid__-RRB-__proiektua__,__eta__ibai__olariaga__egiten__ari__den__''estudio__biosistemático__del__orden__cantharellales__de__la__península__ibérica__''__doktoretza-tesia__.	EDU	Ikerkuntza	M.T.	lerro	NOUN	PROPN	NOUN	.	PUNCT	verylong	proiektua	I.N.	<NA>	NOUN	NOUN	<NA>	IN-HEAD	second-middle	<NA>	<NA>	<NA>	<NA>
onddo__komunitateen__ikasketa__da__taldearen__ikerkuntza__lerroetako__beste__bat__.	EDU	Onddo	komunitateen	ikasketa	CONJ	NOUN	NOUN	.	PUNCT	short	ikasketa	<NA>	<NA>	NOUN	<NA>	<NA>	IN-HEAD	second-middle	<NA>	<NA>	<NA>	<NA>
ikasketa__mikozenologikoek__ekosistemen__biodibertsitateari__buruzko__informazio__orokorra__eskaintzen__dute__eta__baita__bere__kontserbazio__egoerari__buruzko__informazioa__ere__.	EDU	Ikasketa	mikozenologikoek	ekosistemen	NOUN	NOUN	NOUN	.	PUNCT	long	eskaintzen	<NA>	<NA>	VERB	<NA>	<NA>	IN-HEAD	second-middle	<NA>	<NA>	<NA>	<NA>
mota__honetako__lanak__oinarrizkoak__eta__ezinbestekoak__dira	EDU	Mota	honetako	lanak	NOUN	DET	NOUN	dira	VERB	short	oinarrizkoak	<NA>	<NA>	ADJ	<NA>	<NA>	IN-HEAD	second-middle	<NA>	<NA>	<NA>	<NA>
kudeaketa__eta__kontserbazio__planak__garatzeko__.	EDU	kudeaketa	eta	kontserbazio	NOUN	CONJ	NOUN	.	PUNCT	short	garatzeko	<NA>	<NA>	VERB	<NA>	<NA>	OUT-HEAD	second-middle	<NA>	<NA>	<NA>	<NA>
arlo__honetan__aipatzekoak__dira__e.__sarrionandiak__burututako__''estudio__de__las__micocenosis__de__macromicetos__de__los__encinares__del__país__vasco__''__izenburua__duen__doktoretza-tesia__,__eta__n.__rodriguez-en__''estudio__de__la__comunidad__ectomicorrã­cica__de__las__plantaciones__de__quercus__rubra__l.__su__caracterización__,__dinámica__y__aplicación__en__silvicultura__''__,__azken__kasu__hontan__ikuspuntu__aplikatuagoarekin__eta__m.k.__dunabeitiaren__kolaborazioaz__egindakoa__.	EDU	Arlo	Rodriguez-en	Su	NOUN	PROPN	PROPN	.	PUNCT	verylong	aipatzekoak	egindakoa	la	NOUN	VERB	NOUN	IN-HEAD	second-middle	<NA>	<NA>	<NA>	<NA>
lerro__berean__,	EDU	Lerro	berean	<NA>	NOUN	DET	<NA>	,	PUNCT	veryshort	Lerro	<NA>	<NA>	NOUN	<NA>	<NA>	OUT-HEAD	second-middle	<NA>	<NA>	<NA>	<NA>
eta__erabilpen__desberdina__duten__inguruetako__onddo-komunitateak__aztertzeko__helburuarekin	EDU	eta	erabilpen	desberdina	CONJ	NOUN	ADJ	helburuarekin	NOUN	short	eta	erabilpen	helburuarekin	CONJ	NOUN	NOUN	OUT-HEAD	second-middle	<NA>	<NA>	<NA>	<NA>
''análisis__de__la__biodiversidad__de__los__macromicetos__de__la__reserva__de__la__biosfera__de__urdaibai.__e__influencia__de__los__usos__del__suelo__en__la__comunidad__fúngica__''__proiektua__garatu__da__.	EDU	E	influencia	de	NOUN	NOUN	X	.	PUNCT	verylong	garatu	de	<NA>	VERB	X	<NA>	IN-HEAD	end	<NA>	<NA>	<NA>	<NA>
azkenik__,__nabarmendu__ere__lurraldeko__elkarte__mikologikoekin__elkarlanean__egiten__ari__garen__dibulgazio__eta__heziketa__lana__.	EDU	Azkenik	,	nabarmendu	ADV	PUNCT	VERB	.	PUNCT	long	lana	<NA>	<NA>	NOUN	<NA>	<NA>	OUT-HEAD	end	<NA>	<NA>	<NA>	<NA>
azken__finean__,	EDU	Azken	finean	<NA>	NUM	NOUN	<NA>	,	PUNCT	veryshort	finean	<NA>	<NA>	NOUN	<NA>	<NA>	OUT-HEAD	end	<NA>	<NA>	<NA>	<NA>
ingurumen-hitzamenetako__helburuak__lortzeko	EDU	ingurumen-hitzamenetako	helburuak	<NA>	NOUN	NOUN	<NA>	lortzeko	VERB	veryshort	lortzeko	<NA>	<NA>	VERB	<NA>	<NA>	OUT-HEAD	end	<NA>	<NA>	<NA>	<NA>
berebiziko__garrantzia__duten__ekintzak__baitira__.	EDU	berebiziko	garrantzia	duten	ADJ	NOUN	VERB	.	PUNCT	short	baitira	<NA>	<NA>	VERB	<NA>	<NA>	IN-HEAD	end	<NA>	<NA>	<NA>	<NA>
euskal__autonomi__erkidegoko__onddoen__kontserbazioa__eta__dibertsitatea__lelopean__10__panel__landu__eta__eratu__dira__,	EDU	Euskal	Autonomi	Erkidegoko	NOUN	NOUN	NOUN	,	PUNCT	short	landu	<NA>	<NA>	VERB	<NA>	<NA>	IN-HEAD	end	numb	<NA>	<NA>	<NA>
eta__horrez__gain__,__euskal__autonomi__erkidegoko__eta__cantabriako__mehatxatutako__onddoen__behin-behineko__zerrneda__gorria__ere__egin__da__.	EDU	eta	horrez	gain	CONJ	ADV	NOUN	.	PUNCT	long	eta	horrez	eta	CONJ	ADV	CONJ	OUT-HEAD	end	<NA>	<NA>	<NA>	<NA>
ildo__beretik__cesar__san__juan__soziologoarekin__elkarlanean__''análisis__socio-ambiental__de__la__utilización__de__los__recursos__micológicos__en__el__territorio__histórico__de__bizkaia__''__izenburua__duen__proiektua__burutu__da__.	EDU	Ildo	beretik	Cesar	NOUN	DET	PROPN	.	PUNCT	verylong	burutu	<NA>	<NA>	VERB	<NA>	<NA>	IN-HEAD	last	<NA>	<NA>	<NA>	<NA>

kartzinogenesi__kimikoa__.	EDU	Kartzinogenesi	kimikoa	<NA>	NOUN	ADJ	<NA>	.	PUNCT	veryshort	Kartzinogenesi	<NA>	<NA>	NOUN	<NA>	<NA>	IN-HEAD	first	<NA>	<NA>	<NA>	<NA>
kartzinogenesi__kimikoaren__inguruan__bzit__ikerketa-taldeak__duen__interesa__,__90.__hamarkadan__organismo__urtarren__peroxisomen__karakterizazioaren__eta__peroxisomen__proliferazioaren__gainean__egin__ziren__azterketetan__abiatzen__da__-LRB-__upv/ehu__,__1995-1998__;__akzio__integratu__hispano-alemaniarrak__,__1996-1997__;__mec__,__1996-1999__eta__2000-2002__;__eb__ko__bee__p__,__2001-2004__proiektuen__bidez__finantziatua__-RRB-__.	EDU	Kartzinogenesi	kimikoaren	inguruan	NOUN	ADJ	ADP	.	PUNCT	verylong	abiatzen	-RRB-	<NA>	VERB	PUNCT	<NA>	OUT-HEAD	beginning	numb	<NA>	<NA>	date
peroxisomen__proliferatzaileek__konposatu__kimikoen__talde__heterogeneoa__osatzen__dute__.	EDU	Peroxisomen	proliferatzaileek	konposatu	ADV	NOUN	NOUN	.	PUNCT	short	osatzen	<NA>	<NA>	VERB	<NA>	<NA>	IN-HEAD	beginning	<NA>	<NA>	<NA>	<NA>
hauen__artean__,	EDU	Hauen	artean	<NA>	DET	ADP	<NA>	,	PUNCT	veryshort	Hauen	<NA>	<NA>	DET	<NA>	<NA>	OUT-HEAD	beginning	<NA>	<NA>	<NA>	<NA>
karraskariak__bezalako__espezie__sentikorretan__gibeleko__tumoreak__sortzeagatik	EDU	karraskariak	bezalako	espezie	NOUN	ADP	NOUN	sortzeagatik	NOUN	short	karraskariak	tumoreak	sortzeagatik	NOUN	NOUN	NOUN	OUT-HEAD	beginning	<NA>	<NA>	<NA>	<NA>
ezagunak__diren__ingurumeneko__hainbat__kutsatzaile__daude__.	EDU	ezagunak	diren	ingurumeneko	ADJ	VERB	NOUN	.	PUNCT	short	daude	<NA>	<NA>	VERB	<NA>	<NA>	IN-HEAD	beginning	<NA>	<NA>	<NA>	<NA>
prozesu__hauek__hartzaile__nuklearren__-LRB-__peroxisomen__proliferatzaileek__aktibaturiko__hartzaileak__,__ppar__-RRB-__aktibazio__bidezko__mekanismo__ez-genotoxikoen__bidez__gertatzen__dira__.	EDU	Prozesu	hauek	hartzaile	NOUN	DET	NOUN	.	PUNCT	long	gertatzen	<NA>	<NA>	VERB	<NA>	<NA>	IN-HEAD	beginning	<NA>	<NA>	<NA>	<NA>
bestalde__,__hidrokarburo__polizikliko__aromatikoak__-LRB-__pahak__-RRB-__genotoxiko__eta__kartzinogenikoak__dira	EDU	Bestalde	,	hidrokarburo	CONJ	PUNCT	NOUN	dira	VERB	short	dira	<NA>	<NA>	VERB	<NA>	<NA>	IN-HEAD	first-middle	<NA>	<NA>	<NA>	<NA>
eta__aril__hidrokarburo-hartzailearen__bitartez__dihardute__.	EDU	eta	aril	hidrokarburo-hartzailearen	CONJ	NOUN	NOUN	.	PUNCT	short	eta	dihardute	<NA>	CONJ	VERB	<NA>	OUT-HEAD	first-middle	<NA>	<NA>	<NA>	<NA>
zelai-__zein__laborategi-ikerketek__,__pah__eta__minbiziaren__agerpenaren__artean__erlazio__zuzena__dagoela__erakutsi__dute__arrainetan__eta__zenbait__molusku__espezietan__.	EDU	Zelai-	zein	laborategi-ikerketek	PUNCT	CONJ	NOUN	.	PUNCT	long	erakutsi	<NA>	<NA>	VERB	<NA>	<NA>	IN-HEAD	first-middle	<NA>	<NA>	<NA>	<NA>
hala__ere__,__kartzinogenesi__kimikoa__eragiten__duten__mekanismoak__oso__gutxi__ikertu__dira__arrainetan__,__arrain__espezie__eredugarrietan__salbu__,	EDU	Hala	ere	,	ADV	CONJ	PUNCT	,	PUNCT	long	ikertu	<NA>	<NA>	VERB	<NA>	<NA>	IN-HEAD	first-middle	<NA>	<NA>	<NA>	<NA>
eta__ia__erabat__ezezagunak__dira__moluskuetan__.	EDU	eta	ia	erabat	CONJ	ADV	ADV	.	PUNCT	short	eta	ezezagunak	<NA>	CONJ	ADJ	<NA>	OUT-HEAD	first-middle	<NA>	<NA>	<NA>	<NA>
beraz__,__mec__-ek__diruz__lagundutako__cancer__mar__ikerketa-proiektuaren__barruan__-LRB-__2006-2009__-RRB-__,__gure__helburu__nagusia__da__arrainen__hepatokartzinomen__eta__moluskuen__leukemiaren__zein__neoplasia__gonadalaren__garapenean__gertatzen__diren__mekanismo__zelularrak__eta__molekularrak__sakonago__ezagutzea__.	EDU	Beraz	,	MEC	CONJ	PUNCT	PROPN	.	PUNCT	verylong	helburu	<NA>	<NA>	NOUN	<NA>	<NA>	IN-HEAD	first-middle	numb	<NA>	<NA>	date
helburu__hau__lortu__nahian__,__hurbilketa__multidisziplinarra__darabilgu	EDU	Helburu	hau	lortu	NOUN	DET	VERB	darabilgu	NOUN	short	lortu	hurbilketa	darabilgu	VERB	NOUN	NOUN	IN-HEAD	first-middle	<NA>	<NA>	<NA>	<NA>
kartzinogeno__kimiko__genotoxikoen__-LRB-__pah__eredugarriak__-RRB-__zein__ez-genotoxikoen__-LRB-__peroxisomen__proliferatzaile__eta__disruptore__endokrino__eredugarriak__-RRB-__ahalmen__preneoplasikoa__eta__neoplasikoa__aztertzeko__.	EDU	kartzinogeno	kimiko	genotoxikoen	NOUN	ADJ	NOUN	.	PUNCT	long	aztertzeko	<NA>	<NA>	VERB	<NA>	<NA>	OUT-HEAD	second-middle	<NA>	<NA>	<NA>	<NA>
aipatu__konposatuen__eragin__preneoplasikoak__eta__neoplasikoak__histologikoki__,__histokimikoki__,__biokimikoki__eta__gene-adierazpen__mailan__molekularki__ikertzen__ari__gara__arrain__eta__moluskuetan__.	EDU	Aipatu	konposatuen	eragin	VERB	NOUN	NOUN	.	PUNCT	long	gara	<NA>	<NA>	VERB	<NA>	<NA>	OUT-HEAD	second-middle	<NA>	<NA>	<NA>	<NA>
ahalegin__berezia__egiten__dihardugu__kartzinogenesiaren__markatzaile__goiztiarrak__diren__entzimen__markatzaile__histokimikoen__eta__geneen__adierazpen-sinadura__espezifikoen__garapenean__.	EDU	Ahalegin	berezia	egiten	NOUN	ADJ	VERB	.	PUNCT	long	garapenean	<NA>	<NA>	NOUN	<NA>	<NA>	OUT-HEAD	second-middle	<NA>	<NA>	<NA>	<NA>
honetaz__gain__,	EDU	Honetaz	gain	<NA>	DET	ADP	<NA>	,	PUNCT	veryshort	Honetaz	<NA>	<NA>	DET	<NA>	<NA>	OUT-HEAD	second-middle	<NA>	<NA>	<NA>	<NA>
ekosistema__itsastar__eta__estuarinoetan__ingurumeneko__kutsatzaileek__sortarazten__dituzten__kalteak__aztertzeko__asmoarekin__,	EDU	ekosistema	itsastar	eta	NOUN	ADJ	CONJ	,	PUNCT	short	asmoarekin	<NA>	<NA>	NOUN	<NA>	<NA>	OUT-HEAD	second-middle	<NA>	<NA>	<NA>	<NA>
dna__-mikrotxip__espezifikoak__garatzen__ari__gara__lazun__eta__muskuiluetan__.	EDU	DNA	-mikrotxip	espezifikoak	PROPN	NOUN	ADJ	.	PUNCT	short	gara	<NA>	<NA>	VERB	<NA>	<NA>	IN-HEAD	second-middle	<NA>	<NA>	<NA>	<NA>
honen__guztiaren__azken__helburua__,__maila__molekular__eta__zelularrean__gertatzen__diren__aldaketak__kalte__patologikoen__agerpenari__lotzea__da__,	EDU	Honen	guztiaren	azken	DET	DET	NUM	,	PUNCT	long	da	<NA>	<NA>	VERB	<NA>	<NA>	OUT-HEAD	second-middle	<NA>	<NA>	<NA>	<NA>
azken__hauek	EDU	azken	<NA>	<NA>	NUM	<NA>	<NA>	hauek	DET	veryshort	hauek	<NA>	<NA>	DET	<NA>	<NA>	OUT-HEAD	second-middle	<NA>	<NA>	<NA>	<NA>
os__par__komisioak__zein__ices__erakundeak__garaturiko__protokoloak__jarraituz	EDU	OS	PAR	Komisioak	PROPN	PROPN	NOUN	jarraituz	VERB	short	Komisioak	erakundeak	jarraituz	NOUN	NOUN	VERB	OUT-HEAD	end	<NA>	<NA>	<NA>	<NA>
sailkatzen__direlarik__.	EDU	sailkatzen	direlarik	<NA>	VERB	NOUN	<NA>	.	PUNCT	veryshort	direlarik	<NA>	<NA>	NOUN	<NA>	<NA>	IN-HEAD	end	<NA>	<NA>	<NA>	<NA>
proiektuaren__oinarria__da__:__1__-RRB-__ingurumen__kutsatuetan__,__adb__kaietan__,__bizi__diren__arrain__eta__molusku__populazioen__zelai-ikerketak__burutzea__edo__minbizi-tasa__altua__duten__populazioak__ikertzea__eta__2__-RRB-__arrain__eta__moluskuak__kartzinogeno__kimikoen__eraginpean__jarriko__direneko__laborategi-esperimentuak__burutzea__.	EDU	Proiektuaren	oinarria	da	NOUN	NOUN	VERB	.	PUNCT	verylong	jarriko	<NA>	<NA>	VERB	<NA>	<NA>	IN-HEAD	end	numb	<NA>	<NA>	<NA>
egin__diren__lehenengo__zelai-lanetan__,__gernikako__hondakin-uren__araztegiaren__inguruan__,__arriluzeko__kirol-kaian__eta__ondarruko__kaian__lazunak__lagindu__dira__.	EDU	Egin	diren	lehenengo	VERB	AUX	NUM	.	PUNCT	long	lagindu	<NA>	<NA>	VERB	<NA>	<NA>	IN-HEAD	end	<NA>	<NA>	<NA>	<NA>
laborategi-azterketen__barruan__,__lazunak__eta__muskuiluak__azido__perfluorooktanoikoaren__eta__prestige-ak__isuritako__fuel-olioaren__antzeko__olio__baten__pean__mantendu__dira__.	EDU	Laborategi-azterketen	barruan	,	NOUN	ADP	PUNCT	.	PUNCT	long	mantendu	<NA>	<NA>	VERB	<NA>	<NA>	IN-HEAD	end	<NA>	<NA>	<NA>	<NA>
bestalde__,__erreboiloak__eta__muskuiluak__estirenoaren__eta__2__motako__fuel-olioaren__pean__mantendu__dira__,__hurrenez__hurren__,__brest-eko__unibertsitatean__-LRB-__frantzia__-RRB-__eta__iris__entrepresan__,__stavanger__-LRB-__norvegia__-RRB-__burututako__esperimentuetan__,__eb__-k__diruz__lagundutako__pragma__proiektuaren__-LRB-__2006-2007__-RRB-__baitan__.	EDU	Bestalde	,	erreboiloak	CONJ	PUNCT	NOUN	.	PUNCT	verylong	mantendu	<NA>	<NA>	VERB	<NA>	<NA>	IN-HEAD	end	numb	<NA>	<NA>	date
une__honetan__,__laborategi__saiakera__gehiago__ditugu__martxan	EDU	Une	honetan	,	NOUN	DET	PUNCT	martxan	NOUN	short	ditugu	<NA>	<NA>	VERB	<NA>	<NA>	IN-HEAD	end	<NA>	<NA>	<NA>	<NA>
arrain__espezie__eredugarria__den__zebra__arraina__erabiliz__.	EDU	arrain	espezie	eredugarria	ADV	NOUN	ADJ	.	PUNCT	short	arrain	erabiliz	<NA>	ADV	VERB	<NA>	OUT-HEAD	last	<NA>	<NA>	<NA>	<NA>

pendrive__/__arrate__mardaras__/__susa__,__2013__aldamioa__eta__etxola__alex__gurrutxaga__/__berria,2013-12-29	EDU	Pendrive	/	Arrate	PROPN	PUNCT	PROPN	2013-12-29	NUM	long	Pendrive	Alex	/	PROPN	PROPN	PUNCT	OUT-HEAD	first	numb	<NA>	<NA>	date
arrate__mardarasek__bere__lehen__liburua__argitaratu__du__berriki__,__pendrive__,	EDU	Arrate	Mardarasek	bere	PROPN	PROPN	DET	,	PUNCT	short	argitaratu	<NA>	<NA>	VERB	<NA>	<NA>	IN-HEAD	beginning	<NA>	<NA>	<NA>	<NA>
eta__apustu__ausarta__egin__du__bertan__.	EDU	eta	apustu	ausarta	CONJ	NOUN	ADJ	.	PUNCT	short	eta	egin	<NA>	CONJ	VERB	<NA>	OUT-HEAD	beginning	<NA>	<NA>	<NA>	<NA>
ausarta__,__diot__,__bi__arrazoirengatik__.	EDU	Ausarta	,	diot	NOUN	PUNCT	VERB	.	PUNCT	short	diot	<NA>	<NA>	VERB	<NA>	<NA>	IN-HEAD	beginning	<NA>	<NA>	<NA>	<NA>
batetik__,__idazleak__goi-literaturaren__jokalekua__hautatu__duelako__--__liburuaren__erlazio__estratestualak__eta__baliatutako__errekurtso__andana__lekuko__--__.	EDU	Batetik	,	idazleak	NUM	PUNCT	NOUN	.	PUNCT	long	hautatu	<NA>	<NA>	VERB	<NA>	<NA>	IN-HEAD	beginning	<NA>	<NA>	<NA>	<NA>
bestetik__,__borgestarretik__asko__duen__jokoa__delako__liburuan__dagoena	EDU	Bestetik	,	borgestarretik	DET	PUNCT	NOUN	dagoena	VERB	short	dagoena	<NA>	<NA>	VERB	<NA>	<NA>	IN-HEAD	beginning	<NA>	<NA>	<NA>	<NA>
eta__,__egun__,__jorge__luis__borgesen__literaturaren__oihartzuna__duen__ezer__saiatzea__ausarta__delako__.	EDU	eta	,	egun	CONJ	PUNCT	ADV	.	PUNCT	short	eta	ausarta	<NA>	CONJ	VERB	<NA>	OUT-HEAD	beginning	<NA>	<NA>	<NA>	<NA>
zertan__da__joko__borgestarra__?	EDU	Zertan	da	joko	ADV	VERB	NOUN	?	PUNCT	veryshort	da	<NA>	<NA>	VERB	<NA>	<NA>	IN-HEAD	beginning	<NA>	<NA>	<NA>	<NA>
liburuaren__oinarrian__izkribu__aurkituaren__jokoa__dago__;	EDU	Liburuaren	oinarrian	izkribu	NOUN	NOUN	VERB	;	PUNCT	short	dago	<NA>	<NA>	VERB	<NA>	<NA>	IN-HEAD	beginning	<NA>	<NA>	<NA>	<NA>
lehen__atalean__narratzailea__editore__gisa__aurkezten__zaigu__.	EDU	lehen	atalean	narratzailea	NUM	NOUN	NOUN	.	PUNCT	short	aurkezten	<NA>	<NA>	VERB	<NA>	<NA>	OUT-HEAD	beginning	<NA>	<NA>	<NA>	<NA>
ez__da__gauza__berria__,__egia__,	EDU	Ez	da	gauza	PART	VERB	NOUN	,	PUNCT	short	da	<NA>	<NA>	VERB	<NA>	<NA>	OUT-HEAD	beginning	<NA>	<NA>	<NA>	<NA>
baina__kasu__honetan__pendrive__bat__da__narratzaileak__topatu__duena__,	EDU	baina	kasu	honetan	CONJ	NOUN	DET	,	PUNCT	short	baina	topatu	<NA>	CONJ	VERB	<NA>	OUT-HEAD	beginning	<NA>	<NA>	<NA>	<NA>
eta__esaten__zaigu__liburuko__testuak__pendrive__horretakoak__direla	EDU	eta	esaten	zaigu	CONJ	VERB	AUX	direla	VERB	short	eta	horretakoak	<NA>	CONJ	NOUN	<NA>	OUT-HEAD	beginning	<NA>	<NA>	<NA>	<NA>
--__epilogo__bat__ere__egiten__du__,__oso__borgestarra__hau__ere__--__.	EDU	-	-	epilogo	PUNCT	PUNCT	NOUN	.	PUNCT	short	egiten	borgestarra	<NA>	VERB	ADJ	<NA>	IN-HEAD	first-middle	<NA>	<NA>	<NA>	<NA>
joko__honek__inplikazio__nagusi__bat__du__:__ilusioaren__haustura__.	EDU	Joko	ilusioaren	honek	NOUN	NOUN	DET	:	PUNCT	short	haustura	du	<NA>	NOUN	VERB	<NA>	IN-HEAD	first-middle	<NA>	<NA>	<NA>	<NA>
alegia__,__irakurleak__etengabe__du__gogoan__aurrean__duena__ipuina__dela__,__constructum-a__,__fikzioa__.	EDU	Alegia	,	irakurleak	CONJ	PUNCT	NOUN	.	PUNCT	short	du	<NA>	<NA>	VERB	<NA>	<NA>	IN-HEAD	first-middle	<NA>	<NA>	<NA>	<NA>
horrez__gain__,__badaude__ilusioa__are__gehiago__hausten__duten__matizak__.	EDU	Horrez	gain	,	DET	NOUN	PUNCT	.	PUNCT	short	matizak	<NA>	<NA>	NOUN	<NA>	<NA>	IN-HEAD	first-middle	<NA>	<NA>	<NA>	<NA>
hala__nola__,__demagun-eko__irakurle__inplizitua__,__nola__zuen__izena__?__ipuinaren__hasierako__``__zirriborroa__''__--__azken__bertsioaren__aurre-testu__gisa__aurkezten__dena__--__,__edo__ipuin__batzuen__amaieran__dauden__oharrak__-LRB-__okelaerrea__eta__ihesi__dabilenak__-RRB-__.	EDU	Hala	ipuinaren	nola	ADV	NOUN	ADV	.	PUNCT	verylong	zuen	aurkezten	<NA>	VERB	VERB	<NA>	IN-HEAD	first-middle	<NA>	<NA>	<NA>	<NA>
hau__guztia__joko__interesgarri__eta__zaila__da__baina__,__akaso__,__ahul__xamar__gauzatua__.	EDU	Hau	guztia	joko	DET	DET	NOUN	.	PUNCT	short	joko	<NA>	<NA>	NOUN	<NA>	<NA>	IN-HEAD	first-middle	<NA>	<NA>	<NA>	<NA>
aipaturiko__``__zirriborroak__''__deus__gutxi__eskaintzen__dio__ipuinari__--__koordenada__metaliterarioaz__gain__--__,	EDU	Aipaturiko	"	zirriborroak	VERB	SYM	NOUN	,	PUNCT	long	eskaintzen	<NA>	<NA>	VERB	<NA>	<NA>	OUT-HEAD	first-middle	<NA>	<NA>	<NA>	<NA>
eta__oharrak__,__filologikoak__eta__ez__literarioak__,__ez__dira__literatura__irakurleak__maite__dituen__gauza__.	EDU	eta	oharrak	,	CONJ	NOUN	PUNCT	.	PUNCT	long	eta	oharrak	filologikoak	CONJ	NOUN	NOUN	OUT-HEAD	first-middle	<NA>	<NA>	<NA>	<NA>
ipuinetako__gai__nagusiak__maitasuna__,__maitasunerako__zailtasunak__eta__ihesa__--__fisikoa__eta__norbere__baitakoa__--__dira__.	EDU	Ipuinetako	gai	nagusiak	NOUN	NOUN	ADJ	.	PUNCT	long	maitasuna	<NA>	<NA>	NOUN	<NA>	<NA>	IN-HEAD	first-middle	<NA>	<NA>	<NA>	<NA>
kontakizunak__euskal__herriaren__historiaren__une__desberdinetan__gertatzen__dira__,	EDU	Kontakizunak	euskal	herriaren	NOUN	NOUN	NOUN	,	PUNCT	short	gertatzen	<NA>	<NA>	VERB	<NA>	<NA>	IN-HEAD	first-middle	<NA>	<NA>	<NA>	<NA>
eta__horrek__batasun__moduko__bat__sortzen__du__tonuari__dagokionez__.	EDU	eta	horrek	batasun	CONJ	DET	NOUN	.	PUNCT	short	eta	sortzen	<NA>	CONJ	VERB	<NA>	OUT-HEAD	first-middle	<NA>	<NA>	<NA>	<NA>
gainera__,__dokumentazio__lan__handia__dago__.	EDU	Gainera	,	dokumentazio	CONJ	PUNCT	NOUN	.	PUNCT	short	dago	<NA>	<NA>	VERB	<NA>	<NA>	IN-HEAD	first-middle	<NA>	<NA>	<NA>	<NA>
hala__ere__,__badago__zalantzan__jar__daitekeen__zerbait__:	EDU	Hala	ere	,	ADV	CONJ	PUNCT	:	PUNCT	short	badago	<NA>	<NA>	VERB	<NA>	<NA>	IN-HEAD	first-middle	<NA>	<NA>	<NA>	<NA>
dokumentazioak__eta__lan__historikoak__literaturaren__mesedetan__egon__behar__dute	EDU	dokumentazioak	eta	lan	NOUN	CONJ	NOUN	dute	VERB	short	dute	<NA>	<NA>	VERB	<NA>	<NA>	IN-HEAD	first-middle	<NA>	<NA>	<NA>	<NA>
eta__,__hemen__,__tarteka__literatura__ezkutatu__egiten__da__datuen__atzean__.	EDU	eta	,	hemen	CONJ	PUNCT	ADV	.	PUNCT	short	eta	hemen	ezkutatu	CONJ	ADV	VERB	OUT-HEAD	second-middle	<NA>	<NA>	<NA>	<NA>
adibidez__,__nola__zuen__izena__?__ipuinean__frantziako__tourra__donostiara__iritsi__zela__aipatzen__da__;	EDU	Adibidez	ipuinean	,	ADV	NOUN	PUNCT	;	PUNCT	short	zuen	aipatzen	<NA>	VERB	VERB	<NA>	IN-HEAD	second-middle	<NA>	<NA>	<NA>	<NA>
kontu__interesgarria__,__baina__esangura__gutxikoa__ipuinaren__baitan__.	EDU	kontu	interesgarria	,	NOUN	ADJ	PUNCT	.	PUNCT	short	kontu	baina	ipuinaren	NOUN	CONJ	NOUN	OUT-HEAD	second-middle	<NA>	<NA>	<NA>	<NA>
aldiz__,__ipuinek__dotore__egiten__dute__aurrera	EDU	Aldiz	,	ipuinek	CONJ	PUNCT	NOUN	aurrera	ADV	short	egiten	<NA>	<NA>	VERB	<NA>	<NA>	IN-HEAD	second-middle	<NA>	<NA>	<NA>	<NA>
narrazioa__biluziagoa__,__istorioan__bertan__zentratuagoa__denean__.	EDU	narrazioa	biluziagoa	,	NOUN	ADJ	PUNCT	.	PUNCT	short	biluziagoa	<NA>	<NA>	ADJ	<NA>	<NA>	OUT-HEAD	second-middle	<NA>	<NA>	<NA>	<NA>
badaude__liburua__gurutzatzen__duten__lerro__interesgarriak__.	EDU	Badaude	liburua	gurutzatzen	VERB	NOUN	VERB	.	PUNCT	short	Badaude	<NA>	<NA>	VERB	<NA>	<NA>	IN-HEAD	second-middle	<NA>	<NA>	<NA>	<NA>
gai__konstante__batzuez__gain__,__han__eta__hemen__agertzen__diren__pendrive-ena__litzateke__horietako__bat__.	EDU	Gai	konstante	batzuez	NOUN	ADJ	DET	.	PUNCT	short	pendrive-ena	<NA>	<NA>	NOUN	<NA>	<NA>	IN-HEAD	second-middle	<NA>	<NA>	<NA>	<NA>
beste__bat__sindaren__istorioa__da__,__ingelesez__short__story__cycle__deitzen__dutenaren__antzeko__zerbait__;	EDU	Beste	bat	Sindaren	DET	NUM	PROPN	;	PUNCT	short	zerbait	<NA>	<NA>	PRON	<NA>	<NA>	OUT-HEAD	second-middle	<NA>	<NA>	<NA>	<NA>
ildo__konstante__bat__markatzen__du__,	EDU	ildo	konstante	bat	NOUN	NOUN	NUM	,	PUNCT	short	markatzen	<NA>	<NA>	VERB	<NA>	<NA>	OUT-HEAD	second-middle	<NA>	<NA>	<NA>	<NA>
liburua__hasi__eta__buka__,	EDU	liburua	hasi	eta	NOUN	VERB	CONJ	,	PUNCT	veryshort	hasi	<NA>	<NA>	VERB	<NA>	<NA>	OUT-HEAD	second-middle	<NA>	<NA>	<NA>	<NA>
hainbat__ataletan__agertzen__baitira__pertsonaia__honi__loturiko__aferak__.	EDU	hainbat	ataletan	agertzen	DET	ADV	VERB	.	PUNCT	short	agertzen	<NA>	<NA>	VERB	<NA>	<NA>	IN-HEAD	second-middle	<NA>	<NA>	<NA>	<NA>
oro__har__,__pendrive-n__errekurtso__asko__ikusten__da__,__batasunaren__zainketa__eta__aniztasun__izugarria__forma__eta__tonuetan__,__lanketa__handia__gai__historikoetan__,	EDU	Oro	har	,	ADV	VERB	PUNCT	,	PUNCT	long	har	<NA>	<NA>	VERB	<NA>	<NA>	IN-HEAD	second-middle	<NA>	<NA>	<NA>	<NA>
eta__``__egilearen__intentzioa__''__usna__liteke__.	EDU	eta	"	egilearen	CONJ	SYM	NOUN	.	PUNCT	short	eta	<NA>	<NA>	CONJ	<NA>	<NA>	OUT-HEAD	second-middle	<NA>	<NA>	<NA>	<NA>
erreferentzia__testualak__ere__ez__dira__makalak__:__borgesen__eta__cortazarren__airea__,__sarrionandiaren__ginebra__paregabeari__omenaldia__,__e.a__.	EDU	Erreferentzia	Borgesen	testualak	NOUN	PROPN	ADJ	.	PUNCT	long	makalak	paregabeari	<NA>	NOUN	NOUN	<NA>	IN-HEAD	second-middle	<NA>	<NA>	<NA>	<NA>
dokumentazio__lana__,__esan__bezala__,__nabarmena__da__,	EDU	Dokumentazio	lana	,	NOUN	NOUN	PUNCT	,	PUNCT	short	nabarmena	<NA>	<NA>	ADJ	<NA>	<NA>	IN-HEAD	end	<NA>	<NA>	<NA>	<NA>
eta__baliabideen__erabileran__idazleak__duen__ahalmena__eta__egindako__lana__bereziki__azpimarratzekoak__dira__.	EDU	eta	baliabideen	erabileran	CONJ	NOUN	NOUN	.	PUNCT	short	eta	azpimarratzekoak	<NA>	CONJ	NOUN	<NA>	OUT-HEAD	end	<NA>	<NA>	<NA>	<NA>
baina__,	EDU	Baina	<NA>	<NA>	CONJ	<NA>	<NA>	,	PUNCT	veryshort	Baina	<NA>	<NA>	CONJ	<NA>	<NA>	OUT-HEAD	end	<NA>	<NA>	<NA>	<NA>
horiek__horrela__izanik__ere__,	EDU	horiek	horrela	izanik	DET	ADV	VERB	,	PUNCT	veryshort	izanik	<NA>	<NA>	VERB	<NA>	<NA>	OUT-HEAD	end	<NA>	<NA>	<NA>	<NA>
emaitza__zalantzagarria__da__.	EDU	emaitza	zalantzagarria	da	NOUN	ADJ	VERB	.	PUNCT	veryshort	emaitza	<NA>	<NA>	NOUN	<NA>	<NA>	IN-HEAD	end	<NA>	<NA>	<NA>	<NA>
izan__ere__,__literaturan__,__baliabide__orok__medio__izan__behar__du__,	EDU	Izan	ere	,	VERB	CONJ	PUNCT	,	PUNCT	short	du	<NA>	<NA>	VERB	<NA>	<NA>	IN-HEAD	end	<NA>	<NA>	<NA>	<NA>
eta__irakurleak__ikusi__behar__du__errekurtsoak__literaturaren__mesedetan__daudela	EDU	eta	irakurleak	ikusi	CONJ	NOUN	VERB	daudela	VERB	short	eta	du	<NA>	CONJ	VERB	<NA>	OUT-HEAD	end	<NA>	<NA>	<NA>	<NA>
--__baita__metaliteraturaz__ari__garenean__ere__--__.	EDU	-	-	baita	PUNCT	PUNCT	CONJ	.	PUNCT	short	-	-	garenean	PUNCT	PUNCT	VERB	OUT-HEAD	end	<NA>	<NA>	<NA>	<NA>
hemen__,__ordea__,__medioak__emaitza__estaltzen__du__maiz__:	EDU	Hemen	,	ordea	ADV	PUNCT	CONJ	:	PUNCT	short	estaltzen	<NA>	<NA>	VERB	<NA>	<NA>	IN-HEAD	end	<NA>	<NA>	<NA>	<NA>
literaturaren__mekanismoekin__egindako__jokoek__ipuinetan__dauden__istorioak__indartu__beharrean__,	EDU	literaturaren	mekanismoekin	egindako	NOUN	NOUN	VERB	,	PUNCT	short	beharrean	<NA>	<NA>	NOUN	<NA>	<NA>	OUT-HEAD	end	<NA>	<NA>	<NA>	<NA>
higatu__egiten__dituzte__.	EDU	higatu	egiten	dituzte	VERB	VERB	AUX	.	PUNCT	veryshort	higatu	<NA>	<NA>	VERB	<NA>	<NA>	IN-HEAD	end	<NA>	<NA>	<NA>	<NA>
aldamioa__oso__nabarmena__da__,	EDU	Aldamioa	oso	nabarmena	NOUN	ADV	ADJ	,	PUNCT	veryshort	nabarmena	<NA>	<NA>	ADJ	<NA>	<NA>	IN-HEAD	end	<NA>	<NA>	<NA>	<NA>
idazle__askok__beretzat__nahi__lukeen__ahalmenez__jasoa__.	EDU	idazle	askok	beretzat	NOUN	DET	ADJ	.	PUNCT	short	idazle	<NA>	<NA>	NOUN	<NA>	<NA>	OUT-HEAD	end	<NA>	<NA>	<NA>	<NA>
haatik__,__hartatik__sortzen__den__literatura__ez__da__hain__ikusgarria__.	EDU	Haatik	,	hartatik	CONJ	PUNCT	DET	.	PUNCT	short	ikusgarria	<NA>	<NA>	ADJ	<NA>	<NA>	IN-HEAD	last	<NA>	<NA>	<NA>	<NA>

