word pos prefw1 prefw2 prefw3 prefp1 prefp2 prefp3 suffw1 suffp1 len headw1 headw2 headw3 headp1 headp2 headp3 head position numb perc money date
rf__eta__mikrouhinak__.	EDU	RF	eta	mikrouhinak	PROPN	CONJ	NOUN	.	PUNCT	veryshort	<NA>	<NA>	<NA>	<NA>	<NA>	<NA>	OUT-HEAD	first	<NA>	<NA>	<NA>	<NA>
gure__ikerkuntza__taldearen__helburu__nagusia__,__komunikazioetarako__rf__eta__mikrouhin__anplifikadore__eta__transmisoreen__analisi__,__diseinu__,__fabrikazio__eta__testerako__teknologien__azterketa__eta__garapena__da__,__baita__ere__sistema__hauen__karakterizazioa__,__ereduztatzea__eta__simulazioa__seinale-konplexuen__presentzian__.	EDU	Gure	ikerkuntza	taldearen	PRON	NOUN	NOUN	.	PUNCT	verylong	analisi	<NA>	<NA>	VERB	<NA>	<NA>	IN-HEAD	beginning	<NA>	<NA>	<NA>	<NA>
telekomunikazio__sistema__baten__transmititutako__seinalearen__kalitatea__,__nagusiki__,__transmisio-kateetako__potentzia-anplifikadoreek__sortzen__duten__distortsioaren__araberakoa__da__.	EDU	Telekomunikazio	sistema	baten	NOUN	NOUN	NUM	.	PUNCT	long	araberakoa	<NA>	<NA>	NOUN	<NA>	<NA>	IN-HEAD	beginning	<NA>	<NA>	<NA>	<NA>
gainera__,__zirkuitu__hauek__sistema__osoaren__kontsumo__totalaren__parte__oso__garrantzitsu__baten__eragile__dira__.	EDU	Gainera	,	zirkuitu	CONJ	PUNCT	NOUN	.	PUNCT	short	eragile	<NA>	<NA>	ADJ	<NA>	<NA>	IN-HEAD	beginning	<NA>	<NA>	<NA>	<NA>
honegatik__,__ekipamendu__mugikor__edo__espazioratutako__ekipamenduetan__potentzia-anplifikadoreen__errendimenduaren__optimizazioa__ezinbestekoa__da	EDU	Honegatik	,	ekipamendu	DET	PUNCT	NOUN	da	VERB	short	ezinbestekoa	<NA>	<NA>	ADJ	<NA>	<NA>	IN-HEAD	beginning	<NA>	<NA>	<NA>	<NA>
bateriaren__iraupena__luzatzeko__.	EDU	bateriaren	iraupena	luzatzeko	NOUN	NOUN	VERB	.	PUNCT	veryshort	luzatzeko	<NA>	<NA>	VERB	<NA>	<NA>	OUT-HEAD	first-middle	<NA>	<NA>	<NA>	<NA>
eraginkortasun__handiko__eta__distortsio-baxuko__anplifikadoreen__beharrak__,__besteak__beste__,__anplifikadore__zein__transmisoreetarako__linealizazio__teknikak__sustatu__ditu__.	EDU	Eraginkortasun	handiko	eta	NOUN	ADJ	CONJ	.	PUNCT	long	sustatu	<NA>	<NA>	VERB	<NA>	<NA>	IN-HEAD	first-middle	<NA>	<NA>	<NA>	<NA>
gaur__egun__,__lan__hauei__dagozkien__aplikazioak__interes__estrategikokoak__dira__:__telefonia__mugikorra__,__wlan__,__vsat__sistemak__,__wireless__broadband__...	EDU	Gaur	telefonia	egun	ADV	NOUN	ADV	...	PUNCT	long	telefonia	interes	<NA>	NOUN	NOUN	<NA>	IN-HEAD	first-middle	<NA>	<NA>	<NA>	<NA>
bestalde__,__espero__ez__diren__seinaleen__edo__portaera__oszilakorren__agerpena__arazo__oso__kritikoa__da__maiztasun__altuko__potentzia-anplifikadoreen__diseinatzaileentzat__.	EDU	Bestalde	,	espero	CONJ	PUNCT	NOUN	.	PUNCT	long	arazo	<NA>	<NA>	NOUN	<NA>	<NA>	IN-HEAD	first-middle	<NA>	<NA>	<NA>	<NA>
ezinbestekoa__da__diseinu-fasean__portaera__hauen__agerpena__aurreikusi__ahal__izatea__-LRB-__ohiko__cad__tresnen__bidez__-RRB-__eta__portaera__hauek__aztertzeko__aukera__izatea__anplifikadorearen__lan-eremu__osoan__.	EDU	Ezinbestekoa	da	diseinu-fasean	NOUN	VERB	NOUN	.	PUNCT	verylong	eremu	<NA>	<NA>	NOUN	<NA>	<NA>	IN-HEAD	first-middle	<NA>	<NA>	<NA>	<NA>
era__honetan__,__iragarpen__fidagarri__bati__esker__,__portaera__hauek__ezabatzeko__estrategiak__hasierako__diseinu__faseetatik__aplika__daitezke__,	EDU	Era	honetan	,	NOUN	DET	PUNCT	,	PUNCT	long	Era	iragarpen	estrategiak	NOUN	NOUN	NOUN	OUT-HEAD	first-middle	<NA>	<NA>	<NA>	<NA>
anplifikadoreen__diseinu__eta__garapen__zikloak__nabarmenki__laburtuz__.	EDU	anplifikadoreen	diseinu	eta	NOUN	NOUN	CONJ	.	PUNCT	short	diseinu	eta	garapen	NOUN	CONJ	NOUN	IN-HEAD	second-middle	<NA>	<NA>	<NA>	<NA>
zentzu__honetan__,__gure__ikerkuntza__taldeak__mikrouhin-zirkuituen__dinamika__ez-linealaren__arloan__etengabeko__lana__egin__du__azken__urte__hauetan__zehar__.	EDU	Zentzu	honetan	,	NOUN	DET	PUNCT	.	PUNCT	long	egin	<NA>	<NA>	VERB	<NA>	<NA>	IN-HEAD	second-middle	<NA>	<NA>	<NA>	<NA>
lan__hauen__emaitza__izan__da__polo-zero__identifikazioan__oinarritutako__egonkortasun__analisirako__tekniken__garapena__.	EDU	Lan	hauen	emaitza	NOUN	DET	NOUN	.	PUNCT	short	emaitza	<NA>	<NA>	NOUN	<NA>	<NA>	IN-HEAD	second-middle	<NA>	<NA>	<NA>	<NA>
ikerkuntza__lerro__honetan__eman__diren__aurrerapausoetan__berebiziko__garrantzia__izan__du__gure__saileko__beste__jakintza__arloetako__ikertzaileekin__egindako__lankidetzak__-LRB-__zehazki__josu__jugo__eta__ibone__lizarraga__,__sistemen__ingeniaritza__eta__automatika__arlokoak__-RRB-__.	EDU	Ikerkuntza	lerro	honetan	NOUN	NOUN	DET	.	PUNCT	verylong	izan	<NA>	<NA>	VERB	<NA>	<NA>	IN-HEAD	second-middle	<NA>	<NA>	<NA>	<NA>
gainera__,__etorkizuneko__haririk__gabeko__komunikazio-sistemen__garapenean__,__potentzia-anplifikadoreek__birkonfigurazio__dinamikorako__aukera__izan__beharko__dute	EDU	Gainera	,	etorkizuneko	CONJ	PUNCT	NOUN	dute	AUX	short	beharko	<NA>	<NA>	VERB	<NA>	<NA>	IN-HEAD	second-middle	<NA>	<NA>	<NA>	<NA>
aplikazio__ezberdinetara__egokitzeko__.	EDU	aplikazio	ezberdinetara	egokitzeko	NOUN	ADJ	VERB	.	PUNCT	veryshort	egokitzeko	<NA>	<NA>	VERB	<NA>	<NA>	OUT-HEAD	second-middle	<NA>	<NA>	<NA>	<NA>
honela__izanda__,__potentzia-anplifikadorearen__multi-banda__funtzionamendua__ahalbidetzeko__egokitzapen-sare__birkonfiguragarriak__behar__izango__dira__.	EDU	Honela	izanda	,	ADV	VERB	PUNCT	.	PUNCT	short	izango	<NA>	<NA>	VERB	<NA>	<NA>	IN-HEAD	end	<NA>	<NA>	<NA>	<NA>
mems-ek__dituzten__egokitze__,__isolamendu__eta__integrazio__ezaugarriak__direla__eta__,	EDU	MEMS-ek	dituzten	egokitze	PROPN	VERB	VERB	,	PUNCT	short	egokitze	<NA>	<NA>	VERB	<NA>	<NA>	IN-HEAD	end	<NA>	<NA>	<NA>	<NA>
egokitzapen-sare__birkonfiguragarrien__inplementaziorako__rf-ko__mems-ak__erabiltzea__soluzio__berria__,__erakargarria__eta__potentzialki__oso__eraginkorra__da__.	EDU	egokitzapen-sare	birkonfiguragarrien	inplementaziorako	NOUN	ADJ	NOUN	.	PUNCT	long	eraginkorra	<NA>	<NA>	ADJ	<NA>	<NA>	OUT-HEAD	end	<NA>	<NA>	<NA>	<NA>
bukatzeko__,__komunikazio__sistemetan__zarataren__eragina__kontuan__hartu__beharreko__gai__garrantzitsua__da__.	EDU	Bukatzeko	,	komunikazio	VERB	PUNCT	NOUN	.	PUNCT	short	hartu	<NA>	<NA>	VERB	<NA>	<NA>	IN-HEAD	end	<NA>	<NA>	<NA>	<NA>
alor__honetan__,__gure__ikerkuntza__taldearen__helburu__nagusiak__bi__dira__.	EDU	Alor	honetan	,	NOUN	DET	PUNCT	.	PUNCT	short	helburu	<NA>	<NA>	NOUN	<NA>	<NA>	IN-HEAD	end	<NA>	<NA>	<NA>	<NA>
alde__batetik__,__anplifikadore__eta__nahasgailuen__zarata-figuraren__neurketen__zehaztasuna__hobetzea__,__eta__beste__alde__batetik__,__zirkuitu__eta__sistemetan__-LRB-__anplifikadore__,__osziladore__eta__nahasgailuetan__bereziki__-RRB-__seinalearen__presentzian__anplitude-zarata__eta__fase-zarata__neurtu__ahal__izateko__tekniken__garapena__.	EDU	Alde	batetik	,	NOUN	NUM	PUNCT	.	PUNCT	verylong	hobetzea	<NA>	<NA>	VERB	<NA>	<NA>	IN-HEAD	last	<NA>	<NA>	<NA>	<NA>

argiaren__erreinua__/__joseba__lozano__/__alberdania__,__2011__best-seller__bai__,__baina__...__leire__zubeldia__/__gara,2012-11-25	EDU	Argiaren	erreinua	/	NOUN	NOUN	PUNCT	2012-11-25	NUM	long	Alberdania	<NA>	<NA>	PROPN	<NA>	<NA>	IN-HEAD	first	numb	<NA>	<NA>	date
praga__.	EDU	Praga	<NA>	<NA>	PROPN	<NA>	<NA>	.	PUNCT	veryshort	Praga	<NA>	<NA>	PROPN	<NA>	<NA>	OUT-HEAD	beginning	<NA>	<NA>	<NA>	<NA>
jan__voget__poliziaren__taldeak__emakume__baten__gorpua__aurkitu__du__laku__baten__ondoan__.	EDU	Jan	Voget	poliziaren	PROPN	PROPN	NOUN	.	PUNCT	short	aurkitu	<NA>	<NA>	VERB	<NA>	<NA>	IN-HEAD	beginning	<NA>	<NA>	<NA>	<NA>
emakumeak__lepoa__moztua__du__,	EDU	Emakumeak	lepoa	moztua	NOUN	NOUN	VERB	,	PUNCT	veryshort	du	<NA>	<NA>	VERB	<NA>	<NA>	IN-HEAD	beginning	<NA>	<NA>	<NA>	<NA>
abitu__txuri__bat__darama__jantzita__,	EDU	abitu	txuri	bat	NOUN	NOUN	NUM	,	PUNCT	short	jantzita	<NA>	<NA>	VERB	<NA>	<NA>	OUT-HEAD	beginning	<NA>	<NA>	<NA>	<NA>
eta__bi__begiak__falta__zaizkio__.	EDU	eta	bi	begiak	CONJ	NUM	NOUN	.	PUNCT	short	eta	falta	<NA>	CONJ	VERB	<NA>	OUT-HEAD	beginning	<NA>	<NA>	<NA>	<NA>
handik__gutxira__bigarren__emakume__bat__agertzen__da	EDU	Handik	gutxira	bigarren	ADV	DET	NUM	da	AUX	short	agertzen	<NA>	<NA>	VERB	<NA>	<NA>	IN-HEAD	beginning	<NA>	<NA>	<NA>	<NA>
hilda__.	EDU	hilda	<NA>	<NA>	NOUN	<NA>	<NA>	.	PUNCT	veryshort	hilda	<NA>	<NA>	NOUN	<NA>	<NA>	OUT-HEAD	beginning	<NA>	<NA>	<NA>	<NA>
kasu__honetan__kiskalita__du__gorpua__,	EDU	Kasu	honetan	kiskalita	NOUN	DET	NOUN	,	PUNCT	short	du	<NA>	<NA>	VERB	<NA>	<NA>	IN-HEAD	beginning	<NA>	<NA>	<NA>	<NA>
baina__honek__ere__abitu__txuria__darama__gainean__,	EDU	baina	honek	ere	CONJ	DET	CONJ	,	PUNCT	short	baina	honek	ere	CONJ	DET	CONJ	OUT-HEAD	beginning	<NA>	<NA>	<NA>	<NA>
eta__gorputzeko__beste__atal__bat__falta__zaio__:__hortzak__.	EDU	hortzak	.	eta	NOUN	PUNCT	CONJ	:	PUNCT	short	hortzak	eta	falta	NOUN	CONJ	VERB	IN-HEAD	beginning	<NA>	<NA>	<NA>	<NA>
zalantzarik__ez__dago__.	EDU	Zalantzarik	ez	dago	NOUN	PART	VERB	.	PUNCT	veryshort	dago	<NA>	<NA>	VERB	<NA>	<NA>	IN-HEAD	beginning	<NA>	<NA>	<NA>	<NA>
serieko__hiltzaile__bat__da__bi__hilketen__egilea__.	EDU	Serieko	hiltzaile	bat	PROPN	NOUN	NUM	.	PUNCT	short	egilea	<NA>	<NA>	NOUN	<NA>	<NA>	IN-HEAD	beginning	<NA>	<NA>	<NA>	<NA>
jan__vogeten__taldea__norabide__finkorik__gabe__ikertzen__ari__den__bitartean__,	EDU	Jan	Vogeten	taldea	PROPN	PROPN	NOUN	,	PUNCT	short	bitartean	<NA>	<NA>	NOUN	<NA>	<NA>	OUT-HEAD	beginning	<NA>	<NA>	<NA>	<NA>
kriminologiari__buruzko__blog__batek__alemanian__agertutako__hirugarren__gorpu__baten__berria__zabaltzen__du__.	EDU	kriminologiari	buruzko	blog	NOUN	ADP	NOUN	.	PUNCT	short	zabaltzen	<NA>	<NA>	VERB	<NA>	<NA>	IN-HEAD	first-middle	<NA>	<NA>	<NA>	<NA>
hirugarren__emakume__honek__ere__abitu__txuria__darama__jantzita	EDU	Hirugarren	emakume	honek	NUM	NOUN	DET	jantzita	VERB	short	jantzita	<NA>	<NA>	VERB	<NA>	<NA>	IN-HEAD	first-middle	<NA>	<NA>	<NA>	<NA>
eta__bularra__falta__du__.	EDU	eta	bularra	falta	CONJ	NOUN	NOUN	.	PUNCT	veryshort	eta	du	<NA>	CONJ	VERB	<NA>	OUT-HEAD	first-middle	<NA>	<NA>	<NA>	<NA>
anna__da__poliziari__aurre__hartu__dion__blogaria__.	EDU	Anna	da	poliziari	PROPN	VERB	NOUN	.	PUNCT	short	hartu	<NA>	<NA>	VERB	<NA>	<NA>	IN-HEAD	first-middle	<NA>	<NA>	<NA>	<NA>
bere__aldetik__ikertzen__hasiko__da__.	EDU	Bere	aldetik	ikertzen	DET	NOUN	VERB	.	PUNCT	short	hasiko	<NA>	<NA>	VERB	<NA>	<NA>	IN-HEAD	first-middle	<NA>	<NA>	<NA>	<NA>
horra__hor__nobelako__protagonistetako__bi__:__jan__eta__ana__.	EDU	Horra	Jan	hor	ADV	PROPN	ADV	:	PUNCT	short	Jan	:	<NA>	PROPN	PUNCT	<NA>	OUT-HEAD	first-middle	<NA>	<NA>	<NA>	<NA>
liburuaren__erdi__paretik__aurrera__ordea__,__beste__pertsonaia__bat__agertzen__da__:__fran__.	EDU	Liburuaren	Fran	erdi	NOUN	PROPN	NOUN	:	PUNCT	short	Fran	agertzen	<NA>	PROPN	VERB	<NA>	IN-HEAD	first-middle	<NA>	<NA>	<NA>	<NA>
ikerketa__lanetara__batuko__den__hirugarren__laguna__.	EDU	Ikerketa	lanetara	batuko	NOUN	NOUN	VERB	.	PUNCT	short	laguna	<NA>	<NA>	NOUN	<NA>	<NA>	IN-HEAD	first-middle	<NA>	<NA>	<NA>	<NA>
lehenengoak__pisu__nabarmena__du__hasieran__,	EDU	Lehenengoak	pisu	nabarmena	NUM	NOUN	ADJ	,	PUNCT	short	du	<NA>	<NA>	VERB	<NA>	<NA>	IN-HEAD	first-middle	<NA>	<NA>	<NA>	<NA>
baina__istorioak__aurrera__egin__ahala__,	EDU	baina	istorioak	aurrera	CONJ	NOUN	ADV	,	PUNCT	short	baina	egin	<NA>	CONJ	VERB	<NA>	OUT-HEAD	first-middle	<NA>	<NA>	<NA>	<NA>
azken__bi__pertsonaiek__erabateko__garrantzia__hartuko__dute__.	EDU	azken	bi	pertsonaiek	NUM	NUM	NOUN	.	PUNCT	short	hartuko	<NA>	<NA>	VERB	<NA>	<NA>	OUT-HEAD	first-middle	<NA>	<NA>	<NA>	<NA>
dena__den__,__protagonista__nagusiok__ikerketaren__azaleko__testuinguruan__ezagutuko__ditugu__.	EDU	Dena	den	,	VERB	AUX	PUNCT	.	PUNCT	short	ezagutuko	<NA>	<NA>	VERB	<NA>	<NA>	IN-HEAD	first-middle	<NA>	<NA>	<NA>	<NA>
izan__ere__,__egilea__ez__da__pertsonaien__bizitzaz__hitz__egiteko__geratzen__.	EDU	Izan	ere	,	VERB	CONJ	PUNCT	.	PUNCT	short	da	<NA>	<NA>	VERB	<NA>	<NA>	IN-HEAD	first-middle	<NA>	<NA>	<NA>	<NA>
istorioaren__ildo__nagusitik__at__,__janen__droga-menpekotasunaz__eta__honen__arrazoiaz__arituko__zaigu__soilik__.	EDU	Istorioaren	ildo	nagusitik	ADJ	NOUN	ADJ	.	PUNCT	short	arituko	<NA>	<NA>	VERB	<NA>	<NA>	IN-HEAD	first-middle	<NA>	<NA>	<NA>	<NA>
badira__pertsonaia__gehiago__ere__,	EDU	Badira	pertsonaia	gehiago	VERB	NOUN	DET	,	PUNCT	veryshort	Badira	<NA>	<NA>	VERB	<NA>	<NA>	OUT-HEAD	first-middle	<NA>	<NA>	<NA>	<NA>
baina__ez__noa__horiek__aipatzera__,	EDU	baina	ez	noa	CONJ	PART	VERB	,	PUNCT	short	baina	noa	<NA>	CONJ	VERB	<NA>	OUT-HEAD	second-middle	<NA>	<NA>	<NA>	<NA>
ez__baita__komeni__irakurleari__gauza__gehiegi__aurretik__kontatzea__.	EDU	ez	baita	komeni	PART	AUX	VERB	.	PUNCT	short	komeni	<NA>	<NA>	VERB	<NA>	<NA>	OUT-HEAD	second-middle	<NA>	<NA>	<NA>	<NA>
ohiko__best-seller__baten__ezaugarriak__dituen__nobela__baten__aurrean__gaude__.	EDU	Ohiko	best-seller	baten	DET	NOUN	NUM	.	PUNCT	short	gaude	<NA>	<NA>	VERB	<NA>	<NA>	IN-HEAD	second-middle	<NA>	<NA>	<NA>	<NA>
nabari__da__joseba__lozanok__liburu__salduenen__osagaiekin__osatu__nahi__izan__duela__bere__lehenengo__eleberria__.	EDU	Nabari	da	Joseba	ADJ	VERB	PROPN	.	PUNCT	short	da	<NA>	<NA>	VERB	<NA>	<NA>	IN-HEAD	second-middle	<NA>	<NA>	<NA>	<NA>
hirugarren__orrian__agertzen__da__lehenengo__hilotza__,	EDU	Hirugarren	orrian	agertzen	NUM	NOUN	VERB	,	PUNCT	short	agertzen	<NA>	<NA>	VERB	<NA>	<NA>	IN-HEAD	second-middle	<NA>	<NA>	<NA>	<NA>
eta__68.__orrirako__irakurlea__beste__bi__hilketen__jakitun__da__.	EDU	eta	68.	orrirako	CONJ	NUM	NOUN	.	PUNCT	short	eta	jakitun	<NA>	CONJ	VERB	<NA>	OUT-HEAD	second-middle	numb	<NA>	<NA>	<NA>
kapituluak__oso__motzak__dira__,	EDU	Kapituluak	oso	motzak	NOUN	ADV	ADJ	,	PUNCT	veryshort	motzak	<NA>	<NA>	ADJ	<NA>	<NA>	IN-HEAD	second-middle	<NA>	<NA>	<NA>	<NA>
eta__horietariko__bakoitzaren__amaieran__misterioa__areagotzen__duen__gertakari__bat__jazotzen__da__,	EDU	eta	horietariko	bakoitzaren	CONJ	DET	ADJ	,	PUNCT	short	eta	jazotzen	<NA>	CONJ	VERB	<NA>	OUT-HEAD	second-middle	<NA>	<NA>	<NA>	<NA>
hurrengo__kapituluarekin__kate-begi__lana__eginez__.	EDU	hurrengo	kapituluarekin	kate-begi	ADJ	ADJ	NOUN	.	PUNCT	short	eginez	<NA>	<NA>	VERB	<NA>	<NA>	OUT-HEAD	second-middle	<NA>	<NA>	<NA>	<NA>
ekintza__ugariko__nobela__da__,	EDU	Ekintza	ugariko	nobela	NOUN	ADJ	NOUN	,	PUNCT	veryshort	nobela	<NA>	<NA>	NOUN	<NA>	<NA>	IN-HEAD	second-middle	<NA>	<NA>	<NA>	<NA>
bizia__,__azkarra__,__idazkera__zuzenez__,__zorrotzez__,__kontatua__.	EDU	bizia	,	azkarra	NOUN	PUNCT	ADJ	.	PUNCT	short	bizia	azkarra	kontatua	NOUN	ADJ	NOUN	OUT-HEAD	second-middle	<NA>	<NA>	<NA>	<NA>
ahots__narratzailea__orojakilea__da__,	EDU	Ahots	narratzailea	orojakilea	NOUN	ADJ	NOUN	,	PUNCT	veryshort	orojakilea	<NA>	<NA>	NOUN	<NA>	<NA>	IN-HEAD	second-middle	<NA>	<NA>	<NA>	<NA>
eta__fokua__aldatzen__du__pertsonaia__batetik__bestera__,__komenigarritasunaren__arabera__.	EDU	eta	fokua	aldatzen	CONJ	NOUN	VERB	.	PUNCT	short	eta	aldatzen	komenigarritasunaren	CONJ	VERB	NOUN	OUT-HEAD	second-middle	<NA>	<NA>	<NA>	<NA>
baina__...	EDU	Baina	<NA>	<NA>	CONJ	<NA>	<NA>	...	PUNCT	veryshort	...	<NA>	<NA>	PUNCT	<NA>	<NA>	OUT-HEAD	second-middle	<NA>	<NA>	<NA>	<NA>
beti__dago__``__baina__''__-ren__bat__.	EDU	Beti	dago	"	ADV	VERB	SYM	.	PUNCT	short	dago	<NA>	<NA>	VERB	<NA>	<NA>	IN-HEAD	second-middle	<NA>	<NA>	<NA>	<NA>
noan__aitortzera__ez__naizela__best-seller__zalea__,	EDU	Noan	aitortzera	ez	NOUN	VERB	PART	,	PUNCT	short	aitortzera	ez	naizela	VERB	PART	AUX	OUT-HEAD	end	<NA>	<NA>	<NA>	<NA>
eta__eleberri__honek__zaletasun__ezaren__arrazoiak__baieztatu__dizkit__:	EDU	eta	eleberri	honek	CONJ	NOUN	DET	:	PUNCT	short	eta	baieztatu	<NA>	CONJ	VERB	<NA>	IN-HEAD	end	<NA>	<NA>	<NA>	<NA>
ekintzak__ez__dio__literaturari__lekurik__uzten__,	EDU	ekintzak	ez	dio	NOUN	PART	AUX	,	PUNCT	short	uzten	<NA>	<NA>	VERB	<NA>	<NA>	IN-HEAD	end	<NA>	<NA>	<NA>	<NA>
misterioa__sortzeko__formulak__bertsuak__izaten__dira__beti__,__eta__erlijioaren__gaiarekin__lotutakoak__askotan__,__kasu__honetan__bezala__.	EDU	misterioa	sortzeko	formulak	NOUN	VERB	NOUN	.	PUNCT	long	bertsuak	eta	lotutakoak	ADJ	CONJ	NOUN	OUT-HEAD	end	<NA>	<NA>	<NA>	<NA>
bestalde__,__pertsonaiak__ez__dira__garatzen__.	EDU	Bestalde	,	pertsonaiak	CONJ	PUNCT	NOUN	.	PUNCT	short	garatzen	<NA>	<NA>	VERB	<NA>	<NA>	IN-HEAD	end	<NA>	<NA>	<NA>	<NA>
era__berean__,__irakurlea__harrapatzeko__sortutako__misterioa__era__sinesgarrian__argitzea__zailegi__suertatzen__zaio__egileari	EDU	Era	berean	,	NOUN	DET	PUNCT	egileari	NOUN	short	suertatzen	<NA>	<NA>	VERB	<NA>	<NA>	IN-HEAD	end	<NA>	<NA>	<NA>	<NA>
eta__bidezidorren__bat__hartu__behar__izaten__du__.	EDU	eta	bidezidorren	bat	CONJ	NUM	NUM	.	PUNCT	short	eta	izaten	<NA>	CONJ	VERB	<NA>	OUT-HEAD	end	<NA>	<NA>	<NA>	<NA>
eta__eleberriaren__azken__orria__,__azken__hitza__irakurtzean__,	EDU	Eta	eleberriaren	azken	CONJ	NOUN	NUM	,	PUNCT	short	Eta	orria	irakurtzean	CONJ	NOUN	VERB	OUT-HEAD	end	<NA>	<NA>	<NA>	<NA>
irakurlea__,__ni__behintzat__,__hasieran__bezala__geratzen__da__.	EDU	irakurlea	,	ni	NOUN	PUNCT	PRON	.	PUNCT	short	geratzen	<NA>	<NA>	VERB	<NA>	<NA>	IN-HEAD	end	<NA>	<NA>	<NA>	<NA>
ez__da__ezer__aldatzen__irakurlearentzat__.	EDU	Ez	da	ezer	PART	AUX	PRON	.	PUNCT	short	aldatzen	<NA>	<NA>	VERB	<NA>	<NA>	IN-HEAD	end	<NA>	<NA>	<NA>	<NA>
ez__dago__ez__gogoetarik__,__ez__sentimendurik__,__ez__inolako__eraginik__.	EDU	Ez	dago	ez	PART	VERB	PART	.	PUNCT	short	dago	<NA>	<NA>	VERB	<NA>	<NA>	IN-HEAD	end	<NA>	<NA>	<NA>	<NA>
baina__...	EDU	Baina	<NA>	<NA>	CONJ	<NA>	<NA>	...	PUNCT	veryshort	Baina	...	<NA>	CONJ	PUNCT	<NA>	OUT-HEAD	end	<NA>	<NA>	<NA>	<NA>
beti__dago__bainaren__bat__.	EDU	Beti	dago	bainaren	ADV	VERB	ADJ	.	PUNCT	veryshort	dago	<NA>	<NA>	VERB	<NA>	<NA>	IN-HEAD	end	<NA>	<NA>	<NA>	<NA>
euskarak__ere__behar__ditu__best-seller-ak__.	EDU	Euskarak	ere	behar	PROPN	CONJ	NOUN	.	PUNCT	short	ditu	<NA>	<NA>	VERB	<NA>	<NA>	IN-HEAD	end	<NA>	<NA>	<NA>	<NA>
hor__doakizue__bat__zaleak__zaretenontzat__.	EDU	Hor	doakizue	bat	ADV	VERB	NUM	.	PUNCT	short	zaretenontzat	<NA>	<NA>	ADJ	<NA>	<NA>	IN-HEAD	end	<NA>	<NA>	<NA>	<NA>
argiaren__erreinua__.	EDU	Argiaren	erreinua	<NA>	NOUN	NOUN	<NA>	.	PUNCT	veryshort	erreinua	<NA>	<NA>	NOUN	<NA>	<NA>	IN-HEAD	last	<NA>	<NA>	<NA>	<NA>

adituaren__jarrera__maileguen__normalizazioaren__aurrean__.	EDU	Adituaren	jarrera	maileguen	NOUN	NOUN	NOUN	.	PUNCT	short	normalizazioaren	<NA>	<NA>	NOUN	<NA>	<NA>	OUT-HEAD	first	<NA>	<NA>	<NA>	<NA>
termcat__terminologia__zentroak__consell__supervisor__izeneko__organo__iraunkor__bat__dauka	EDU	TERMCAT	Terminologia	Zentroak	PROPN	NOUN	NOUN	dauka	VERB	short	dauka	<NA>	<NA>	VERB	<NA>	<NA>	IN-HEAD	beginning	<NA>	<NA>	<NA>	<NA>
beste__hizkuntza__batzuetatik__,__batez__ere__ingelesetik__datozen__neologismo__terminologikoetatik__katalanera__babesteko__,	EDU	beste	hizkuntza	batzuetatik	DET	NOUN	NOUN	,	PUNCT	short	batzuetatik	batez	babesteko	NOUN	NUM	VERB	OUT-HEAD	beginning	<NA>	<NA>	<NA>	<NA>
espezialitateko__eremu__guztiak__hartzen__baitituzte__batere__beldurrik__gabe__.	EDU	espezialitateko	eremu	guztiak	NOUN	NOUN	DET	.	PUNCT	short	hartzen	<NA>	<NA>	VERB	<NA>	<NA>	OUT-HEAD	beginning	<NA>	<NA>	<NA>	<NA>
consell__supervisor-ek__bilerak__egin__aurretik__,	EDU	Consell	Supervisor-ek	bilerak	PROPN	PROPN	NOUN	,	PUNCT	short	egin	<NA>	<NA>	VERB	<NA>	<NA>	OUT-HEAD	beginning	<NA>	<NA>	<NA>	<NA>
termcateko__terminologoek__,	EDU	TERMCATeko	terminologoek	<NA>	PROPN	NOUN	<NA>	,	PUNCT	veryshort	terminologoek	<NA>	<NA>	NOUN	<NA>	<NA>	OUT-HEAD	first-middle	<NA>	<NA>	<NA>	<NA>
agiriak__zehatz-mehatz__aztertu__ondoren__,	EDU	agiriak	zehatz-mehatz	aztertu	NOUN	ADV	VERB	,	PUNCT	veryshort	aztertu	<NA>	<NA>	VERB	<NA>	<NA>	OUT-HEAD	first-middle	<NA>	<NA>	<NA>	<NA>
txosten__bat__egiten__dute__,	EDU	txosten	bat	egiten	NOUN	NUM	VERB	,	PUNCT	veryshort	egiten	<NA>	<NA>	VERB	<NA>	<NA>	IN-HEAD	first-middle	<NA>	<NA>	<NA>	<NA>
maileguen__ordezko__aukerak__proposatuz__;	EDU	maileguen	ordezko	aukerak	NOUN	ADJ	NOUN	;	PUNCT	veryshort	proposatuz	<NA>	<NA>	VERB	<NA>	<NA>	OUT-HEAD	first-middle	<NA>	<NA>	<NA>	<NA>
eta__gai__bakoitzean__aipagarrien__diren__espezialistei__eskatzen__zaie__aholkua__aurkeztutako__aukerei__buruz__.	EDU	eta	gai	bakoitzean	CONJ	NOUN	ADJ	.	PUNCT	short	eta	aukerei	<NA>	CONJ	NOUN	<NA>	OUT-HEAD	first-middle	<NA>	<NA>	<NA>	<NA>
gehienetan__ezkor__izaten__dira__teknikari__horiek	EDU	Gehienetan	ezkor	izaten	ADV	ADJ	VERB	horiek	DET	short	ezkor	teknikari	<NA>	ADJ	NOUN	<NA>	IN-HEAD	second-middle	<NA>	<NA>	<NA>	<NA>
kanpoan__erabilitako__hitzari__sendespen__osoa__ematen__ez__dion__edozein__aukera__onartzeko__,	EDU	kanpoan	erabilitako	hitzari	NOUN	VERB	NOUN	,	PUNCT	short	ematen	<NA>	<NA>	VERB	<NA>	<NA>	OUT-HEAD	second-middle	<NA>	<NA>	<NA>	<NA>
eta__arrazoi__ugari__botatzen__dituzte__horretarako__:__terminoa__nazioartekoa__dela__,__gardentasun__semantikoa__duela__,__adierabakarrekoa__dela__,__erabilera__zabala__,__etabar__.	EDU	terminoa	nazioartekoa	dela	NOUN	ADJ	VERB	:	PUNCT	long	erabilera	<NA>	<NA>	NOUN	<NA>	<NA>	IN-HEAD	second-middle	<NA>	<NA>	<NA>	<NA>
komunikazio__honekin__,	EDU	Komunikazio	honekin	<NA>	NOUN	DET	<NA>	,	PUNCT	veryshort	Komunikazio	<NA>	<NA>	NOUN	<NA>	<NA>	OUT-HEAD	second-middle	<NA>	<NA>	<NA>	<NA>
adibide__paraleloak__erabiliz__,	EDU	adibide	paraleloak	erabiliz	NOUN	ADJ	VERB	,	PUNCT	veryshort	erabiliz	<NA>	<NA>	VERB	<NA>	<NA>	OUT-HEAD	second-middle	<NA>	<NA>	<NA>	<NA>
hauxe__frogatu__nahi__da__:	EDU	hauxe	frogatu	nahi	DET	VERB	NOUN	:	PUNCT	veryshort	da	<NA>	<NA>	VERB	<NA>	<NA>	IN-HEAD	second-middle	<NA>	<NA>	<NA>	<NA>
halako__kasurik__gehien-gehienetan__,__proposamen__autoktonoa__baztertzeko__emandako__arrazoiak__ez__direla__ez__hizkuntzarenak__ez__semantikoak__,__soziologikoak__baizik__,	EDU	halako	kasurik	gehien-gehienetan	ADJ	VERB	ADV	,	PUNCT	long	semantikoak	<NA>	<NA>	ADJ	<NA>	<NA>	IN-HEAD	end	<NA>	<NA>	<NA>	<NA>
hala__onartzen__baita__batzuetan	EDU	hala	onartzen	baita	ADV	VERB	AUX	batzuetan	ADV	veryshort	onartzen	batzuetan	<NA>	VERB	ADV	<NA>	OUT-HEAD	end	<NA>	<NA>	<NA>	<NA>
inplizituki__bada__ere__.	EDU	inplizituki	bada	ere	VERB	AUX	CONJ	.	PUNCT	veryshort	inplizituki	<NA>	<NA>	VERB	<NA>	<NA>	OUT-HEAD	end	<NA>	<NA>	<NA>	<NA>
hori__horrela__izan__arren__,__kasu__askotan__consell__supervisor-ek__espezialisten__iritzia__onartu__behar__izaten__du__,	EDU	Hori	horrela	izan	DET	ADV	VERB	,	PUNCT	long	izaten	<NA>	<NA>	VERB	<NA>	<NA>	OUT-HEAD	end	<NA>	<NA>	<NA>	<NA>
hizkuntzaren__ikuspegitik__termino__berriok__zurigarriagoak__izan__daitezen__,	EDU	hizkuntzaren	ikuspegitik	termino	NOUN	NOUN	ADV	,	PUNCT	short	zurigarriagoak	<NA>	<NA>	ADJ	<NA>	<NA>	OUT-HEAD	end	<NA>	<NA>	<NA>	<NA>
aldaketa__txiki__batzuk__sartuta__.	EDU	aldaketa	txiki	batzuk	NOUN	ADJ	DET	.	PUNCT	veryshort	sartuta	<NA>	<NA>	VERB	<NA>	<NA>	OUT-HEAD	last	<NA>	<NA>	<NA>	<NA>

terminologia__normalizatzeak__gizartean__duen__eragina	EDU	Terminologia	normalizatzeak	gizartean	NOUN	VERB	NOUN	eragina	NOUN	veryshort	eragina	<NA>	<NA>	NOUN	<NA>	<NA>	OUT-HEAD	first	<NA>	<NA>	<NA>	<NA>
egungo__gizartean__bi__joera__nabarmentzen__dira__,__eta__kontrajarriak__,__itxura__batean__.	EDU	Egungo	gizartean	bi	PROPN	NOUN	NUM	.	PUNCT	short	nabarmentzen	<NA>	<NA>	VERB	<NA>	<NA>	IN-HEAD	beginning	<NA>	<NA>	<NA>	<NA>
alde__batetik__,__gero__eta__indartsuagoa__da__nazioarteko__harmonizazioa__lortu__beharra__,	EDU	Alde	batetik	,	NOUN	NUM	PUNCT	,	PUNCT	short	da	<NA>	<NA>	VERB	<NA>	<NA>	OUT-HEAD	beginning	<NA>	<NA>	<NA>	<NA>
ekonomian__,__politikan__eta__kultura__eta__gizarte__gaietan__etenik__gabe__sortzen__ari__diren__loturak__eta__elkarren__arteko__trukaketak__eraginda__;	EDU	ekonomian	,	politikan	NOUN	PUNCT	NOUN	;	PUNCT	long	ekonomian	politikan	eta	NOUN	NOUN	CONJ	OUT-HEAD	beginning	<NA>	<NA>	<NA>	<NA>
eta__bestetik__,__aniztasuna__onartu__beharra__,__eta__,__ondorioz__,__norbanakoen__izaeraren__berrespena__,	EDU	eta	bestetik	,	CONJ	NOUN	PUNCT	,	PUNCT	short	eta	beharra	eta	CONJ	NOUN	CONJ	OUT-HEAD	beginning	<NA>	<NA>	<NA>	<NA>
giza__bizitzako__arlo__guztietan__agertzen__ari__den__moduan__.	EDU	giza	bizitzako	arlo	NOUN	NOUN	NOUN	.	PUNCT	short	moduan	<NA>	<NA>	NOUN	<NA>	<NA>	OUT-HEAD	beginning	<NA>	<NA>	<NA>	<NA>
terminologiak__berak__ere__,	EDU	Terminologiak	berak	ere	NOUN	DET	CONJ	,	PUNCT	veryshort	Terminologiak	ere	<NA>	NOUN	CONJ	<NA>	OUT-HEAD	beginning	<NA>	<NA>	<NA>	<NA>
gizartearekin__lotuta__dagoen__jarduera__denez__,	EDU	gizartearekin	lotuta	dagoen	NOUN	VERB	VERB	,	PUNCT	short	denez	<NA>	<NA>	VERB	<NA>	<NA>	OUT-HEAD	first-middle	<NA>	<NA>	<NA>	<NA>
uztartu__egin__behar__ditu__joera__orokor__horiek__,__eransten__zaizkien__beste__batzuekin__batera__,__hala__nola__:__teknologien__aurrerakuntza__zorabiagarria__,__zientziak__diziplinartekotasunera__eta__hiperespezializaziora__daramatzan__bilakaera__,__eta__informazioa__elkarren__artean__berehala__trukatu__beharra__.	EDU	teknologien	aurrerakuntza	zorabiagarria	NOUN	NOUN	ADJ	:	PUNCT	verylong	ditu	beharra	<NA>	VERB	NOUN	<NA>	IN-HEAD	first-middle	<NA>	<NA>	<NA>	<NA>
alderdi__horiek__guztiek__,	EDU	Alderdi	horiek	guztiek	NOUN	DET	DET	,	PUNCT	veryshort	Alderdi	<NA>	<NA>	NOUN	<NA>	<NA>	OUT-HEAD	first-middle	<NA>	<NA>	<NA>	<NA>
espezialitateko__terminologiaren__gehikuntza__kuantitatiboa__eragiteaz__gain__,	EDU	espezialitateko	terminologiaren	gehikuntza	NOUN	NOUN	NOUN	,	PUNCT	short	eragiteaz	<NA>	<NA>	VERB	<NA>	<NA>	OUT-HEAD	first-middle	<NA>	<NA>	<NA>	<NA>
terminologia__lanen__ikuspegia__ere__zabaldu__egin__dute__;	EDU	terminologia	lanen	ikuspegia	NOUN	NOUN	NOUN	;	PUNCT	short	zabaldu	<NA>	<NA>	VERB	<NA>	<NA>	OUT-HEAD	first-middle	<NA>	<NA>	<NA>	<NA>
eta__,	EDU	eta	<NA>	<NA>	CONJ	<NA>	<NA>	,	PUNCT	veryshort	eta	<NA>	<NA>	CONJ	<NA>	<NA>	OUT-HEAD	first-middle	<NA>	<NA>	<NA>	<NA>
egia__bada__ere__ikuspegi__berri__horrek__terminologia__aberastu__egin__duela__esatea__,	EDU	egia	bada	ere	NOUN	VERB	CONJ	,	PUNCT	short	aberastu	<NA>	<NA>	VERB	<NA>	<NA>	OUT-HEAD	first-middle	<NA>	<NA>	<NA>	<NA>
zalantzan__jarri__ditu__terminologiaren__oinarrizko__zenbait__kontzeptu__:__kontzeptu-izendapen__bikotearen__adierabakartasuna__,__espezialitateko__eremuen__kontzeptua__,__eta__normalizazioak__terminologian__duen__eginbeharra__.	EDU	kontzeptu-izendapen	bikotearen	adierabakartasuna	NOUN	ADJ	NOUN	:	PUNCT	long	adierabakartasuna	jarri	<NA>	NOUN	VERB	<NA>	IN-HEAD	second-middle	<NA>	<NA>	<NA>	<NA>
nahiz__eta__gaur__egun__normalizazioko__oinarrizko__printzipioek__balio__osoa__gorde__komunikazio__espezialduaren__bermearen__bidez	EDU	Nahiz	eta	gaur	ADV	CONJ	ADV	bidez	ADP	short	normalizazioko	<NA>	<NA>	VERB	<NA>	<NA>	OUT-HEAD	second-middle	<NA>	<NA>	<NA>	<NA>
-LRB-__eta__elkarrekin__zerikusia__duten__gizarteko__sektoreen__arteko__adostasuna__da__printzipio__horietako__bat__-RRB-	EDU	-LRB-	eta	elkarrekin	PUNCT	CONJ	PRON	-RRB-	PUNCT	short	-LRB-	eta	printzipio	PUNCT	CONJ	NOUN	OUT-HEAD	second-middle	<NA>	<NA>	<NA>	<NA>
,__terminologiako__lan__praktikoan__,__batzuetan__,__ahaztuxe__uzten__da__normalizazioaren__eta__gizartearen__artean__egon__behar__den__lotura__estua__.	EDU	,	terminologiako	lan	PUNCT	NOUN	NOUN	.	PUNCT	long	uzten	<NA>	<NA>	VERB	<NA>	<NA>	IN-HEAD	second-middle	<NA>	<NA>	<NA>	<NA>
horrek__dakarren__arriskua__zera__da__:__adostasuna__lortzeko__ezinbestekoa__den__arbitrarietatea__,__maila__baterainokoa__behintzat__,	EDU	Horrek	adostasuna	dakarren	DET	NOUN	VERB	,	PUNCT	long	zera	arbitrarietatea	maila	NOUN	NOUN	NOUN	IN-HEAD	second-middle	<NA>	<NA>	<NA>	<NA>
eta__adituek__terminologiari__ematen__dioten__erabilera__erreala__orekatu__behar__izan__arren__,	EDU	eta	adituek	terminologiari	CONJ	NOUN	NOUN	,	PUNCT	short	izan	<NA>	<NA>	VERB	<NA>	<NA>	OUT-HEAD	second-middle	<NA>	<NA>	<NA>	<NA>
eten__egin__daitekeela__.	EDU	eten	egin	daitekeela	NOUN	VERB	AUX	.	PUNCT	veryshort	egin	<NA>	<NA>	VERB	<NA>	<NA>	IN-HEAD	second-middle	<NA>	<NA>	<NA>	<NA>
kasu__horretan__,__normalizazioa__ez__bakarrik__ez__litzateke__eraginkorra__izango__,	EDU	Kasu	horretan	,	NOUN	DET	PUNCT	,	PUNCT	short	eraginkorra	<NA>	<NA>	ADJ	<NA>	<NA>	IN-HEAD	end	<NA>	<NA>	<NA>	<NA>
are__gehiago__,__bete__gabe__utziko__lituzke__bere__helburuak__.	EDU	are	gehiago	,	NOUN	NOUN	PUNCT	.	PUNCT	short	utziko	<NA>	<NA>	VERB	<NA>	<NA>	OUT-HEAD	end	<NA>	<NA>	<NA>	<NA>
komunikazio__honetan__,	EDU	Komunikazio	honetan	<NA>	NOUN	DET	<NA>	,	PUNCT	veryshort	Komunikazio	<NA>	<NA>	NOUN	<NA>	<NA>	OUT-HEAD	end	<NA>	<NA>	<NA>	<NA>
katalanerako__terminologia__normalizatzeko__lanetan__izandako__eskarmentutik__hasita__,	EDU	katalanerako	terminologia	normalizatzeko	NOUN	NOUN	VERB	,	PUNCT	short	hasita	<NA>	<NA>	VERB	<NA>	<NA>	OUT-HEAD	end	<NA>	<NA>	<NA>	<NA>
batetik__,__gizarteak__terminologia__normaltzeko__duen__beharra__aurkeztuko__dugu__,	EDU	batetik	,	gizarteak	NUM	PUNCT	NOUN	,	PUNCT	short	aurkeztuko	<NA>	<NA>	VERB	<NA>	<NA>	OUT-HEAD	end	<NA>	<NA>	<NA>	<NA>
hurrengo__,__horretarako__dauden__zenbait__zailtasun__aipatuko__ditugu__,	EDU	hurrengo	,	horretarako	ADJ	PUNCT	DET	,	PUNCT	short	aipatuko	<NA>	<NA>	VERB	<NA>	<NA>	OUT-HEAD	end	<NA>	<NA>	<NA>	<NA>
eta__,__amaitu__orduko__,__ideia__batzuk__plazaratuko__ditugu	EDU	eta	,	amaitu	CONJ	PUNCT	VERB	ditugu	AUX	short	eta	amaitu	plazaratuko	CONJ	VERB	VERB	IN-HEAD	end	<NA>	<NA>	<NA>	<NA>
hori__guztia__egungo__gizartean__bideratu__ahal__izateko__.	EDU	hori	guztia	egungo	DET	DET	ADJ	.	PUNCT	short	hori	izateko	<NA>	DET	VERB	<NA>	OUT-HEAD	last	<NA>	<NA>	<NA>	<NA>

nanopartikulen__toxikotasuna__.	EDU	Nanopartikulen	toxikotasuna	<NA>	PROPN	NOUN	<NA>	.	PUNCT	veryshort	toxikotasuna	<NA>	<NA>	NOUN	<NA>	<NA>	IN-HEAD	first	<NA>	<NA>	<NA>	<NA>
nano__tamainako__partikulen__ezaugarri__fisikokimikoak__tamaina__arrunteko__substantzia__baliokideen__ezaugarrien__desberdinak__dira__,	EDU	Nano	tamainako	partikulen	PROPN	NOUN	NOUN	,	PUNCT	short	ezaugarrien	<NA>	<NA>	NOUN	<NA>	<NA>	IN-HEAD	beginning	<NA>	<NA>	<NA>	<NA>
eta__sarritan__ezin__dira__aurreikusi__ere__.	EDU	eta	sarritan	ezin	CONJ	ADV	NOUN	.	PUNCT	short	eta	dira	<NA>	CONJ	VERB	<NA>	OUT-HEAD	beginning	<NA>	<NA>	<NA>	<NA>
nanomaterialak__gero__eta__gehiago__erabiltzearekin__batera__,	EDU	Nanomaterialak	gero	eta	NOUN	ADV	CONJ	,	PUNCT	short	Nanomaterialak	<NA>	<NA>	NOUN	<NA>	<NA>	OUT-HEAD	beginning	<NA>	<NA>	<NA>	<NA>
ingurumen__eta__osasunaren__gainean__eurek__eduki__ditzaketen__arriskuei__buruzko__ikerketak__bultzatu__beharra__dago__.	EDU	ingurumen	eta	osasunaren	ADV	CONJ	NOUN	.	PUNCT	short	ikerketak	dago	<NA>	NOUN	VERB	<NA>	IN-HEAD	beginning	<NA>	<NA>	<NA>	<NA>
injinerututako__nanomaterialen__erabiltze__eta__eskukatzeari__dagokien__kezka__nagusia__,__beraien__toxizitatearen__oinarria__,__seguru__asko__,__screening__toxizitate-test__estandarrek__gaur__egun__barne__hartzen__ez__dituzten__ezaugarri__fisikokimikoak__izatea__dugu__.	EDU	Injinerututako	nanomaterialen	erabiltze	VERB	ADJ	VERB	.	PUNCT	verylong	izatea	<NA>	<NA>	VERB	<NA>	<NA>	OUT-HEAD	first-middle	<NA>	<NA>	<NA>	<NA>
horrez__gain__,__partikula__horien__erabilpen__komertzialak__kezka__handia__sortu__du__,	EDU	Horrez	gain	,	DET	NOUN	PUNCT	,	PUNCT	short	sortu	<NA>	<NA>	VERB	<NA>	<NA>	IN-HEAD	first-middle	<NA>	<NA>	<NA>	<NA>
zuzenean__euren__sakabanaketa__zabala__ekar__baitezake__,__bai__-LRB-__1__-RRB-__industri__isurketen__zein__etxeko__hondakinen__erreken__bitartez__,__eta__baita__ere__-LRB-__2__-RRB-__norberaren__zaintzan__zein__fuel-katalizatzaileen__moduko__erabilpen__orokorreko__bestelako__produktuen__bitartez__.	EDU	zuzenean	euren	sakabanaketa	ADV	PRON	NOUN	.	PUNCT	verylong	zuzenean	bai	-RRB-	ADV	PART	PUNCT	OUT-HEAD	first-middle	numb	<NA>	<NA>	<NA>
horrelako__sakabanaketa__zabalak__ingurumen__zein__giza-osasunaren__gainean__izan__ditzakeen__ondorioak__ez__dira__oraindik__ezagutzen__.	EDU	Horrelako	sakabanaketa	zabalak	ADJ	NOUN	ADJ	.	PUNCT	short	ezagutzen	<NA>	<NA>	VERB	<NA>	<NA>	IN-HEAD	first-middle	<NA>	<NA>	<NA>	<NA>
testuinguru__honetan__,__bzit__taldeak__,__e.__valsami-jones__-LRB-__natural__history__museum__,__london__-RRB-__dr.-ak__zuzentzen__duen__eb__-ko__7.__fp-ko__nanoreto__x__-LRB-__2008-2012__-RRB-__ikerketa-proiektuan__lanean__dihardu__.	EDU	Testuinguru	-ak	honetan	NOUN	NOUN	DET	.	PUNCT	verylong	zuzentzen	Dr.	<NA>	VERB	PROPN	<NA>	IN-HEAD	first-middle	numb	<NA>	<NA>	date
nano__reto__x-en__helburu__gidaria__da__osasunaren__eta__ingurumenaren__gainean__injinerututako__metal-nanopartikulek__dituzten__efektuei__dagozkien__zalantza__zientifikoak__argitzeko__ahalegintze__globala__izango__dena__ezagumendu__berriez__hornitzea__,__zein__industriak__eta__gobernuek__nanomaterial__horien__arrisku-ebaluaketari__ekiten__hasteko__informazio__berriaren__corpusa__eta__tresna__berri__bat__eskaintzea__.	EDU	NANO	RETO	X-en	PROPN	PROPN	PROPN	.	PUNCT	verylong	hornitzea	<NA>	<NA>	VERB	<NA>	<NA>	IN-HEAD	first-middle	<NA>	<NA>	<NA>	<NA>
nanoreto__x-ek__honako__bost__gako-galdera__hauei__erantzun__nahi__die__:	EDU	NANORETO	X-ek	honako	PROPN	PROPN	ADJ	:	PUNCT	short	die	<NA>	<NA>	VERB	<NA>	<NA>	IN-HEAD	second-middle	<NA>	<NA>	<NA>	<NA>
-LRB-__1__-RRB-__ingurumenak__nola__aldaraz__litzake__bertan__askatutako__nanopartikulen__ezaugarri__fisikokimikoak__eta__bioerreakzionagarritasuna__?	EDU	-LRB-	1	-RRB-	PUNCT	NUM	PUNCT	?	PUNCT	short	aldaraz	<NA>	<NA>	VERB	<NA>	<NA>	IN-HEAD	second-middle	numb	<NA>	<NA>	<NA>
-LRB-__2__-RRB-__nola__eragin__lezake__horrek__ugaztunen__zelulekin__eta__organismo__urtarrekin__zein__beraien__zelulekin__interakzionatzeko__eta__euren__baitan__sartzeko__partikula__horiek__duten__gaitasuna__-LRB-__bioeskuragarritasuna__-RRB-__;	EDU	-LRB-	2	-RRB-	PUNCT	NUM	PUNCT	;	PUNCT	verylong	-LRB-	2	eragin	PUNCT	NUM	VERB	IN-HEAD	second-middle	numb	<NA>	<NA>	<NA>
eta__bioeskuragarritasun__horrek__toxikotasuna__sorraraziko__ote__luke__?	EDU	eta	bioeskuragarritasun	horrek	CONJ	NOUN	DET	?	PUNCT	short	eta	luke	<NA>	CONJ	VERB	<NA>	OUT-HEAD	second-middle	<NA>	<NA>	<NA>	<NA>
-LRB-__3__-RRB-__ba__al__dago__ezaugarri__fisikokimikoei__dagokien__erreaktibotasun__eta/edo__toxikotasun__zelularraren__patroi__zehatzen__bat__-LRB-__adb.__aktibitate__hierarkia__bat__-RRB-__?	EDU	-LRB-	aktibitate	3	PUNCT	NOUN	NUM	.	PUNCT	long	hierarkia	-RRB-	dago	NOUN	PUNCT	VERB	IN-HEAD	second-middle	numb	<NA>	<NA>	<NA>
-LRB-__4__-RRB-__aurreko__hiru__jiteak__ikertzean	EDU	-LRB-	4	-RRB-	PUNCT	NUM	PUNCT	ikertzean	VERB	short	4	ikertzean	<NA>	NUM	VERB	<NA>	OUT-HEAD	second-middle	numb	<NA>	<NA>	<NA>
atzemandako__baldintzen__zein__konbinaketak__sorraraziko__luke__arriskua__giza-osasunean__eta__ingurumenean__?	EDU	atzemandako	baldintzen	zein	VERB	NOUN	CONJ	?	PUNCT	short	luke	<NA>	<NA>	VERB	<NA>	<NA>	IN-HEAD	end	<NA>	<NA>	<NA>	<NA>
-LRB-__5__-RRB-__nola__inkorporatu__liteke__informazio__guzti__hori__arrisku-ebaluaketarako__eredu__batean__?	EDU	-LRB-	5	-RRB-	PUNCT	NUM	PUNCT	?	PUNCT	short	-LRB-	5	inkorporatu	PUNCT	NUM	VERB	IN-HEAD	end	numb	<NA>	<NA>	<NA>
gure__taldeak__nanoreto__xen__dituen__betebehar__nagusiak__hauexek__dira__:__-LRB-__1__-RRB-__muskuilu__eta__zebra__arrainek__nanopartikulak__in__vivo__nola__hartzen__dituzten__ikertzea__eta__autometalografia__,	EDU	Gure	-LRB-	taldeak	PRON	PUNCT	NOUN	,	PUNCT	verylong	hauexek	hartzen	<NA>	NOUN	VERB	<NA>	IN-HEAD	end	numb	<NA>	<NA>	<NA>
x-izpien__mikroanalisia__zein__mikroskopia__elektronikoa__erabiliz	EDU	X-izpien	mikroanalisia	zein	NOUN	ADJ	DET	erabiliz	VERB	short	erabiliz	<NA>	<NA>	VERB	<NA>	<NA>	OUT-HEAD	end	<NA>	<NA>	<NA>	<NA>
nanopartikulak__barneratzeko__mekanismoak__eta__bidezidorrak__ezagutzea__,__-LRB-__2__-RRB-__zelula__mailako__kalteak__muskuilu__eta__zebra__arrainetan__-LRB-__lisosomen__mintzen__egonkortasuna__,__liseri-guruinaren/gibelaren__,__gonadaren__zein__zakatzen__histopatologia__,__metalotioneinen__indukzioa__,__geneen__adierazpen__mailak__,__estres__oxidatiboa__-RRB-__eta__organismo__mailako__kalteak__muskuiluetan__-LRB-__hilkortasuna__-RRB-__zehaztea__,__-LRB-__3__-RRB-__nanopartikulen__barneratzea__zein__erreakzionagarritasuna__in__vitro__ikertzea__eta__toxikotasun-mekanismo__posibleak__aurkizea__,	EDU	nanopartikulak	barneratzeko	mekanismoak	NOUN	VERB	NOUN	,	PUNCT	verylong	mekanismoak	eta	ezagutzea	NOUN	CONJ	VERB	OUT-HEAD	end	numb	<NA>	<NA>	<NA>
muskuiluen__hemozitoen__eta__zakatz-zelulen__kultibo__primarioak__erabiliz__,	EDU	muskuiluen	hemozitoen	eta	NOUN	NOUN	CONJ	,	PUNCT	short	erabiliz	<NA>	<NA>	VERB	<NA>	<NA>	OUT-HEAD	end	<NA>	<NA>	<NA>	<NA>
eta__-LRB-__4__-RRB-__metal-nanopartikulen__genotoxikotasuna__-LRB-__mikronukleoen__saiakuntza__,__kometa__saiakuntza__-RRB-__eta__kartzinogenesia__-LRB-__lesio__preneoplasiko__eta__neoplasikoen__detekzioa__,__histologiaren__,__entzima-markatzaile__goiztiarren__eta__gene-adierazpenaren__soslai__aldaketen__bitartez__-RRB-__aztertzea__.	EDU	eta	-LRB-	4	CONJ	PUNCT	NUM	.	PUNCT	verylong	eta	-LRB-	4	CONJ	PUNCT	NUM	OUT-HEAD	last	numb	<NA>	<NA>	<NA>

