word pos prefw1 prefw2 prefw3 prefp1 prefp2 prefp3 suffw1 suffp1 len headw1 headw2 headw3 headp1 headp2 headp3 head position numb perc money date
ekosistemen__osasunaren__ebaluazioa__.	EDU	Ekosistemen	osasunaren	ebaluazioa	NOUN	NOUN	NOUN	.	PUNCT	veryshort	ebaluazioa	<NA>	<NA>	NOUN	<NA>	<NA>	IN-HEAD	first	<NA>	<NA>	<NA>	<NA>
``__ingurumen__osasuna__''__paradigma__80.__hamarkadaren__amaieratik__landu__da__.	EDU	"	hamarkadaren	Ingurumen	SYM	NOUN	PROPN	80.	NUM	short	landu	paradigma	<NA>	VERB	NOUN	<NA>	IN-HEAD	beginning	numb	<NA>	<NA>	<NA>
berriki__,__ingurumen__toxikologian__gertatutako__funtsezko__aurrerakuntzek__paradigma__hori__deszifratzeko__berebiziko__garrantzia__duten__ekarpenak__ekarri__dituzte__,	EDU	Berriki	,	ingurumen	ADV	PUNCT	NOUN	,	PUNCT	long	ekarri	<NA>	<NA>	VERB	<NA>	<NA>	IN-HEAD	beginning	<NA>	<NA>	<NA>	<NA>
eta__2005.__urtean__ingurumen__osasunaren__sareak__-LRB-__alemania-kanada__-RRB-__ikerketa-esparru__honen__lehentasunak__ezarri__zituen__,__besteak__beste__:__-LRB-__a__-RRB-__tresna__bioanalitikoen__-LRB-__biomarkatzaileak__,__biosaiakuntzak__,__biosentsoreak__-RRB-__garapena__,__balidazioa__eta__aplikazioa__;__-LRB-__b__-RRB-__kutsatzaile__kimiko__berrien__arriskuaren__ebaluazioa__;__-LRB-__d__-RRB-__tresna__analitiko__berritzaileen__-LRB-__genomika__,__proteomika__-RRB-__balidazioa__;__-LRB-__e__-RRB-__toxikologia__-LRB-__giza-osasuna__-RRB-__eta__ekotoxikologiaren__-LRB-__ingurumen__osasuna__-RRB-__arteko__bateratze__kontzeptual__eta__metodologikoa__;__eta__-LRB-__f__-RRB-__zientifikoki__lortutako__datuen__eta__politika__arautzaileen__arteko__harmonizazioa__.	EDU	-LRB-	a	-RRB-	PUNCT	NOUN	PUNCT	.	PUNCT	verylong	-LRB-	a	-RRB-	PUNCT	NOUN	PUNCT	OUT-HEAD	beginning	numb	<NA>	<NA>	<NA>
bzit__taldea__,	EDU	BZIT	taldea	<NA>	VERB	NOUN	<NA>	,	PUNCT	veryshort	BZIT	<NA>	<NA>	VERB	<NA>	<NA>	OUT-HEAD	beginning	<NA>	<NA>	<NA>	<NA>
ingurumen__osasunaren__paradigma__horren__aurreratzean	EDU	Ingurumen	Osasunaren	paradigma	PROPN	PROPN	NOUN	aurreratzean	NOUN	veryshort	aurreratzean	<NA>	<NA>	NOUN	<NA>	<NA>	OUT-HEAD	beginning	<NA>	<NA>	<NA>	<NA>
partehartzaile__aktiboa__da__nazioarte__mailan__.	EDU	partehartzaile	aktiboa	da	NOUN	ADJ	VERB	.	PUNCT	short	da	<NA>	<NA>	VERB	<NA>	<NA>	IN-HEAD	beginning	<NA>	<NA>	<NA>	<NA>
80.__hamarkadaren__hasieratik__,__gure__taldeak__kutsatzaileen__efektu__biologikoak__ikertu__ditu__lehorreko__zein__uretako__ekosistemetan__,	EDU	80.	hamarkadaren	hasieratik	NUM	NOUN	NOUN	,	PUNCT	long	ikertu	<NA>	<NA>	VERB	<NA>	<NA>	IN-HEAD	beginning	numb	<NA>	<NA>	<NA>
osasun__terminoetan__norbera__beren__ekosistemaren__ordezkariak__diren__itu-espezie__zentineletan__hurbilketa__kontzeptual__zein__metodologiko__beretsuak__-LRB-__biomarkatzaileak+biosaiakuntzak+kimika__bioanalitikoa__-RRB-__aplikatuz__.	EDU	osasun	terminoetan	norbera	NOUN	NOUN	ADJ	.	PUNCT	long	aplikatuz	<NA>	<NA>	VERB	<NA>	<NA>	OUT-HEAD	first-middle	<NA>	<NA>	<NA>	<NA>
itsas-ekosistemen__osasunaren__ebaluazioa__:	EDU	Itsas-ekosistemen	osasunaren	ebaluazioa	ADV	NOUN	NOUN	:	PUNCT	veryshort	ebaluazioa	:	<NA>	NOUN	PUNCT	<NA>	OUT-HEAD	first-middle	<NA>	<NA>	<NA>	<NA>
abra__-LRB-__1991-93__-RRB-__eta__urdaibaiko__-LRB-__1991-94__-RRB-__itsasadarretan__jarraipen-programa__aurrendariei__ekin__zitzaien__.	EDU	Abra	-LRB-	1991-93	ADV	PUNCT	NUM	.	PUNCT	short	ekin	<NA>	<NA>	VERB	<NA>	<NA>	IN-HEAD	first-middle	numb	<NA>	<NA>	<NA>
1998__geroztik__,__ingurumen__osasunaren__ebaluazioa	EDU	1998	geroztik	,	NUM	ADP	PUNCT	ebaluazioa	NOUN	short	1998	ingurumen	ebaluazioa	NUM	ADV	NOUN	OUT-HEAD	first-middle	numb	<NA>	<NA>	date
-LRB-__muskuiluak__eta__arrainak__espezie__zentinela__gisa__erabiliz__-RRB-	EDU	-LRB-	muskuiluak	eta	PUNCT	NOUN	CONJ	-RRB-	PUNCT	short	-LRB-	erabiliz	-RRB-	PUNCT	VERB	PUNCT	OUT-HEAD	first-middle	<NA>	<NA>	<NA>	<NA>
ipar__itsasoan__eta__mediterraneoan__-LRB-__xeno__fish__,__1998-1999__;__bec__pelag__,__2002__;__beep__,__2001-04__;__wcm__,__2004__-RRB-__nazioarteko__proiektu/kontratuen__barruan__burutu__da__.	EDU	Ipar	Itsasoan	eta	NOUN	NOUN	CONJ	.	PUNCT	verylong	Itsasoan	eta	Mediterraneoan	NOUN	CONJ	PROPN	IN-HEAD	first-middle	numb	<NA>	<NA>	date
2000.__urteaz__geroztik__,__abra__itsasadarraren__inguruan__kokatuta__dagoen__birfindegi__baten__hondakin-isurketaren__inpaktu__biologikoa__ikertzen__ari__da__-LRB-__petronor__kontratua__-RRB-__.	EDU	2000.	urteaz	geroztik	NUM	VERB	ADV	.	PUNCT	long	da	<NA>	<NA>	VERB	<NA>	<NA>	IN-HEAD	first-middle	numb	<NA>	<NA>	<NA>
prestige__ontziaren__fuel-olio__isurketaren__ondoren__,__portugaletik__euskal__herrirainoko__22__tokitan__-LRB-__2003-06__-RRB-__zein__laborategi-esperimentuetan__,__eragindako__inpaktu__biologikoa__ebaluatu__zen	EDU	Prestige	ontziaren	fuel-olio	NOUN	NOUN	NOUN	zen	AUX	long	ebaluatu	<NA>	<NA>	VERB	<NA>	<NA>	IN-HEAD	first-middle	numb	<NA>	<NA>	<NA>
muskuilu__eta__arrainak__-LRB-__bokarta__,__legatza__eta__korrokoia__-RRB-__zentinela/esperimentazio-eredu__gisa__erabiliz__-LRB-__impres__;__preste__pse__-RRB-__.	EDU	muskuilu	eta	arrainak	NOUN	CONJ	NOUN	.	PUNCT	long	muskuilu	-LRB-	bokarta	NOUN	PUNCT	NOUN	OUT-HEAD	first-middle	<NA>	<NA>	<NA>	<NA>
ikerketa__hori__,__laborategi-esperimentu__-LRB-__prag__ma__;__2006-07__-RRB-__zein__martxan__dauden__zelai-ikerketekin__-LRB-__prest__imes__;__2008__-RRB-__osatzen__ari__da__.	EDU	Ikerketa	hori	,	NOUN	DET	PUNCT	.	PUNCT	long	da	<NA>	<NA>	VERB	<NA>	<NA>	IN-HEAD	second-middle	numb	<NA>	<NA>	date
are__gehiago__,__jarraipen-kanpainek__aurrera__darraite__euskal__kostaldean__-LRB-__impres__ii__;__2006-08__-RRB-__,	EDU	Are	gehiago	,	NOUN	DET	PUNCT	,	PUNCT	short	darraite	<NA>	<NA>	VERB	<NA>	<NA>	OUT-HEAD	second-middle	numb	<NA>	<NA>	<NA>
etorkizunean__ustekabeko__isurketen__aurrean__erreferentzia-balioak__izan__daitezkeenak__ezartzeko__asmoz	EDU	etorkizunean	ustekabeko	isurketen	NOUN	NOUN	NOUN	asmoz	NOUN	short	izan	asmoz	<NA>	VERB	NOUN	<NA>	OUT-HEAD	second-middle	<NA>	<NA>	<NA>	<NA>
baliagarriak__diren__balio__basalak__erdiesteko__,	EDU	baliagarriak	diren	balio	ADJ	VERB	NOUN	,	PUNCT	short	erdiesteko	<NA>	<NA>	VERB	<NA>	<NA>	OUT-HEAD	second-middle	<NA>	<NA>	<NA>	<NA>
kutsadura__kronikoaren__efektua__ebaluatzeko	EDU	kutsadura	kronikoaren	efektua	NOUN	ADJ	NOUN	ebaluatzeko	VERB	veryshort	ebaluatzeko	<NA>	<NA>	VERB	<NA>	<NA>	OUT-HEAD	second-middle	<NA>	<NA>	<NA>	<NA>
eta__ingurumenaren__gaineko__erabakiak__hartu__behar__dituztenentzat__-LRB-__water__framework__directive__,__european__marine__strategy__-RRB-__erabilgarriak__izan__daitezkeen__jarraipenerako__teknologia__berriak__ezartzeko__,__hain__zuzen__ere__.	EDU	eta	ingurumenaren	gaineko	CONJ	NOUN	ADP	.	PUNCT	verylong	eta	hartu	-LRB-	CONJ	VERB	PUNCT	IN-HEAD	second-middle	<NA>	<NA>	<NA>	<NA>
lurzoru-ekosistemen__osasunaren__ebaluazioa__:	EDU	Lurzoru-ekosistemen	osasunaren	ebaluazioa	NOUN	NOUN	NOUN	:	PUNCT	veryshort	ebaluazioa	<NA>	<NA>	NOUN	<NA>	<NA>	IN-HEAD	second-middle	<NA>	<NA>	<NA>	<NA>
80.__hamarkadaren__hasieran__,__lurzoruko__organismoen__-LRB-__bareak__-RRB-__gaineko__kutsatzaileek__duten__efektua__aztertu__zituzten__laborategi-ikerketek__,__gure__ikerketa-jardueraren__hastapena__markatu__zuten__.	EDU	80.	hamarkadaren	hasieran	NUM	NOUN	NOUN	.	PUNCT	long	markatu	<NA>	<NA>	VERB	<NA>	<NA>	IN-HEAD	second-middle	numb	<NA>	<NA>	<NA>
ondoren__,__hastapen__horien__zelai-ikerlanik__garrantzitsuenak__1994.urtean__gauzatu__ziren__,	EDU	Ondoren	,	hastapen	ADV	PUNCT	NOUN	,	PUNCT	short	gauzatu	<NA>	<NA>	VERB	<NA>	<NA>	IN-HEAD	second-middle	numb	<NA>	<NA>	<NA>
galeseko__mehatze-aldeak__eta__azoreetako__sumendi-aldeak__gune__esperimental__gisa__erabiliz__-LRB-__pra__xis__xxi__,__1996-99__-RRB-__.	EDU	Galeseko	mehatze-aldeak	eta	PROPN	NOUN	CONJ	.	PUNCT	long	erabiliz	-LRB-	PRA	VERB	PUNCT	PROPN	OUT-HEAD	end	numb	<NA>	<NA>	<NA>
ondorioz__,__berr__ilur	EDU	Ondorioz	,	BERR	NOUN	PUNCT	PROPN	ILUR	PROPN	veryshort	Ondorioz	BERR	ILUR	NOUN	PROPN	PROPN	OUT-HEAD	end	<NA>	<NA>	<NA>	<NA>
-LRB-__2003-jarraitzen__du__-RRB-	EDU	-LRB-	2003-jarraitzen	du	PUNCT	VERB	AUX	-RRB-	PUNCT	veryshort	-LRB-	2003-jarraitzen	<NA>	PUNCT	VERB	<NA>	OUT-HEAD	end	numb	<NA>	<NA>	<NA>
proiektu__estrategikoa__eta__pacar__i__-LRB-__2006-2009__-RRB-__gisako__proiektuen__testuinguruan__zelai-ikerketa__aktiboagoei__ekin__zitzaien__;	EDU	proiektu	estrategikoa	eta	NOUN	ADJ	CONJ	;	PUNCT	long	proiektu	-RRB-	ekin	NOUN	PUNCT	VERB	IN-HEAD	end	numb	<NA>	<NA>	date
bareak__eta__lur-zizareak__zentinela/esperimentazio-eredu__gisa__erabiliz__.	EDU	bareak	eta	lur-zizareak	NOUN	CONJ	NOUN	.	PUNCT	short	erabiliz	<NA>	<NA>	VERB	<NA>	<NA>	OUT-HEAD	end	<NA>	<NA>	<NA>	<NA>
gure__ikerketa-ahalegin__nagusiak__,__batetik__,__zientifikoki__lortutako__datuen__eta__politika__arautzaileen__-LRB-__lurzoruen__babeserako__legea__-RRB-__arteko__harmonizatzea__eta__,__bestetik__,__kutsadura__kronikoak__lurzoru-__ekosistemen__osasunaren__eta__bere__ebaluazioaren__gaineko__ondorioak__ulertzea__ditu__helburu__.	EDU	Gure	ikerketa-ahalegin	nagusiak	PRON	NOUN	ADJ	.	PUNCT	verylong	helburu	<NA>	<NA>	NOUN	<NA>	<NA>	IN-HEAD	end	<NA>	<NA>	<NA>	<NA>
ekosistemen__osasuna__eta__krisi__klimatikoa__.	EDU	Ekosistemen	osasuna	eta	NOUN	NOUN	CONJ	.	PUNCT	short	osasuna	<NA>	<NA>	NOUN	<NA>	<NA>	IN-HEAD	end	<NA>	<NA>	<NA>	<NA>
krisi__klimatikoak__eragiten__dituen__arriskuen__gainean__sorrarazitako__kontzientziazioa__dela__eta__,	EDU	Krisi	klimatikoak	eragiten	NOUN	ADJ	VERB	,	PUNCT	short	dela	<NA>	<NA>	VERB	<NA>	<NA>	OUT-HEAD	end	<NA>	<NA>	<NA>	<NA>
ekosistemen__osasunaren__,__kutsadura__kimikoaren__,__eta__baldintza__klimatikoen__eraldaketa__antropikoek__sorrarazitako__mehatxuen__-LRB-__lokalak__zein__globalak__-RRB-__arteko__elkarrekintzak__ikertzen__ari__gara__gaur__egun__-LRB-__k-egokitzen__,__2007-09__-RRB-__.	EDU	ekosistemen	osasunaren	,	NOUN	NOUN	PUNCT	.	PUNCT	verylong	gara	<NA>	<NA>	VERB	<NA>	<NA>	OUT-HEAD	last	numb	<NA>	<NA>	<NA>

pendrive__/__arrate__mardaras__/__susa__,__2013__negatiboa__ideia__ona__,__baina__...__saioa__ruiz__gonzalez__/__argia__,__2014-09-07	EDU	Pendrive	Saioa	/	PROPN	NOUN	PUNCT	...	PUNCT	long	Pendrive	Saioa	<NA>	PROPN	NOUN	<NA>	OUT-HEAD	first	numb	<NA>	<NA>	date
pendrive__izeneko__narrazio__sorta__edo__ariketa__literarioarekin__estreinatu__da__arrate__mardaras__-LRB-__abadiño__1960__-RRB-__.	EDU	Pendrive	izeneko	narrazio	PROPN	NOUN	NOUN	.	PUNCT	long	Pendrive	estreinatu	<NA>	PROPN	VERB	<NA>	IN-HEAD	beginning	numb	<NA>	<NA>	date
demagun__editore__batek__uesebe__bat__aurkitzen__duela__bulegoko__mahai__gainean__,	EDU	Demagun	editore	batek	NOUN	ADJ	NUM	,	PUNCT	short	aurkitzen	<NA>	<NA>	VERB	<NA>	<NA>	IN-HEAD	beginning	<NA>	<NA>	<NA>	<NA>
eta__ez__daki__nondik__ezta__nola__heldu__den__ere__.	EDU	eta	ez	daki	CONJ	PART	VERB	.	PUNCT	short	eta	daki	<NA>	CONJ	VERB	<NA>	OUT-HEAD	beginning	<NA>	<NA>	<NA>	<NA>
jabe__hipotetikoak__eduki__zitzakeen__proiektu__desberdinen__piezak__aprobetxatuz__,	EDU	Jabe	hipotetikoak	eduki	PROPN	NOUN	VERB	,	PUNCT	short	eduki	<NA>	<NA>	VERB	<NA>	<NA>	OUT-HEAD	beginning	<NA>	<NA>	<NA>	<NA>
editore__narratzaileak__bere__edizio__pertsonala__osatuko__du__barnean__dagoen__materialarekin__.	EDU	editore	narratzaileak	bere	NOUN	ADJ	DET	.	PUNCT	short	osatuko	<NA>	<NA>	VERB	<NA>	<NA>	IN-HEAD	beginning	<NA>	<NA>	<NA>	<NA>
emaitza__:	EDU	Emaitza	<NA>	<NA>	NOUN	<NA>	<NA>	:	PUNCT	veryshort	Emaitza	<NA>	<NA>	NOUN	<NA>	<NA>	IN-HEAD	beginning	<NA>	<NA>	<NA>	<NA>
pendrive__galdu__bati__buruzko__hipotesiak__,	EDU	pendrive	galdu	bati	NOUN	VERB	NUM	,	PUNCT	short	hipotesiak	<NA>	<NA>	NOUN	<NA>	<NA>	OUT-HEAD	beginning	<NA>	<NA>	<NA>	<NA>
sinda__izeneko__emakume__bati__buruzko__pasarteak__eta__ohar__linguistikoez__,__nahiz__eta__ez__beti__,__lagunduta	EDU	Sinda	izeneko	emakume	PROPN	NOUN	NOUN	lagunduta	VERB	long	pasarteak	ohar	nahiz	VERB	VERB	CONJ	IN-HEAD	beginning	<NA>	<NA>	<NA>	<NA>
datozen__zenbait__narrazio__solteen__kopiatu/itsatsi__eran__egindako__muntaia__da__irakurleari__eskaintzen__zaiona__.	EDU	datozen	zenbait	narrazio	VERB	DET	NOUN	.	PUNCT	short	eskaintzen	<NA>	<NA>	VERB	<NA>	<NA>	OUT-HEAD	beginning	<NA>	<NA>	<NA>	<NA>
edo__inpresio__hori__izan__dut__nik__behintzat__.	EDU	Edo	inpresio	hori	CONJ	NOUN	DET	.	PUNCT	short	izan	<NA>	<NA>	VERB	<NA>	<NA>	IN-HEAD	first-middle	<NA>	<NA>	<NA>	<NA>
egia__aitortzearren	EDU	Egia	<NA>	<NA>	NOUN	<NA>	<NA>	aitortzearren	VERB	veryshort	aitortzearren	<NA>	<NA>	VERB	<NA>	<NA>	OUT-HEAD	first-middle	<NA>	<NA>	<NA>	<NA>
liburu__honek__deseroso__sentiarazi__nau__hainbat__momentutan__.	EDU	liburu	honek	deseroso	NOUN	DET	NOUN	.	PUNCT	short	sentiarazi	<NA>	<NA>	VERB	<NA>	<NA>	IN-HEAD	first-middle	<NA>	<NA>	<NA>	<NA>
irakurtzen__ari__nintzela__zalantzan__aritu__bainaiz__ez__ote__zen__izango__nire__gaitasun__ahulagatik__,	EDU	Irakurtzen	ari	nintzela	VERB	AUX	VERB	,	PUNCT	short	izango	<NA>	<NA>	VERB	<NA>	<NA>	IN-HEAD	first-middle	<NA>	<NA>	<NA>	<NA>
barne__egituraren__kohesio__falta__zela__eta__,	EDU	barne	egituraren	kohesio	NOUN	ADJ	NOUN	,	PUNCT	short	zela	<NA>	<NA>	VERB	<NA>	<NA>	OUT-HEAD	first-middle	<NA>	<NA>	<NA>	<NA>
edo__liburuak__berak__duen__konplexutasunagatik__,__pasarte__ugari__behin__baino__gehiagotan__irakurri__behar__izan__ditudala__,	EDU	edo	liburuak	berak	CONJ	NOUN	DET	,	PUNCT	long	edo	izan	<NA>	CONJ	VERB	<NA>	OUT-HEAD	first-middle	<NA>	<NA>	<NA>	<NA>
bidean__zerbait__ahaztu__dudanaren__sentsazioa__neukalako__.	EDU	bidean	zerbait	ahaztu	NOUN	PRON	VERB	.	PUNCT	short	neukalako	<NA>	<NA>	ADJ	<NA>	<NA>	OUT-HEAD	first-middle	<NA>	<NA>	<NA>	<NA>
atalen__arteko__batasuna__aurkitzen__saiatu__naiz__etengabe__,	EDU	Atalen	arteko	batasuna	NOUN	ADP	NOUN	,	PUNCT	short	saiatu	<NA>	<NA>	VERB	<NA>	<NA>	IN-HEAD	first-middle	<NA>	<NA>	<NA>	<NA>
batak__besteari__egiten__dion__mesedea__aurkitu__nahi__izan__dut__,	EDU	batak	besteari	egiten	NUM	DET	VERB	,	PUNCT	short	izan	<NA>	<NA>	VERB	<NA>	<NA>	OUT-HEAD	first-middle	<NA>	<NA>	<NA>	<NA>
collageak__zentzua__har__dezan__,	EDU	collageak	zentzua	har	NOUN	NOUN	VERB	,	PUNCT	veryshort	har	<NA>	<NA>	VERB	<NA>	<NA>	OUT-HEAD	first-middle	<NA>	<NA>	<NA>	<NA>
baina__,__nire__zoritxarrerako__,__arrakastarik__ez__.	EDU	baina	,	nire	CONJ	PUNCT	PRON	.	PUNCT	short	baina	arrakastarik	<NA>	CONJ	NOUN	<NA>	OUT-HEAD	first-middle	<NA>	<NA>	<NA>	<NA>
azkenik__,	EDU	Azkenik	<NA>	<NA>	ADV	<NA>	<NA>	,	PUNCT	veryshort	Azkenik	<NA>	<NA>	ADV	<NA>	<NA>	OUT-HEAD	second-middle	<NA>	<NA>	<NA>	<NA>
existitzen__ez__den__zerbaiten__bila__nenbilela__ondorioztaturik	EDU	existitzen	ez	den	VERB	PART	AUX	ondorioztaturik	NOUN	short	nenbilela	ondorioztaturik	<NA>	VERB	NOUN	<NA>	IN-HEAD	second-middle	<NA>	<NA>	<NA>	<NA>
izenburuari__erreparatu__diot__:__pendrive__.	EDU	Pendrive	.	izenburuari	PROPN	PUNCT	NOUN	:	PUNCT	short	Pendrive	erreparatu	<NA>	PROPN	VERB	<NA>	IN-HEAD	second-middle	<NA>	<NA>	<NA>	<NA>
ez__al__da__hura__kohesiorik__gabeko__fitxategiak__,__piezak__,__gorde__eta__mantentzeko__instrumentu__bat__?	EDU	Ez	al	da	PART	NOUN	VERB	?	PUNCT	long	al	<NA>	<NA>	NOUN	<NA>	<NA>	IN-HEAD	second-middle	<NA>	<NA>	<NA>	<NA>
ez__al__du__horrek__ere__liburuarekin__zerikusirik__?	EDU	Ez	al	du	PART	NOUN	VERB	?	PUNCT	short	du	<NA>	<NA>	VERB	<NA>	<NA>	IN-HEAD	second-middle	<NA>	<NA>	<NA>	<NA>
ez__al__dira__biak__hitzen__memoriarako__gordailuak__?	EDU	Ez	al	dira	PART	ADJ	VERB	?	PUNCT	short	al	<NA>	<NA>	ADJ	<NA>	<NA>	IN-HEAD	second-middle	<NA>	<NA>	<NA>	<NA>
zentzu__horretan__originala__iruditu__zait__literatura__kontsideratzeko__proposamen__berritzaile__hau__,	EDU	Zentzu	horretan	originala	NOUN	DET	ADJ	,	PUNCT	short	iruditu	<NA>	<NA>	VERB	<NA>	<NA>	IN-HEAD	second-middle	<NA>	<NA>	<NA>	<NA>
baina__tratatzeko__modua__iruditzen__zait__liburuaren__puntu__ahuletako__bat__.	EDU	baina	tratatzeko	modua	CONJ	VERB	NOUN	.	PUNCT	short	baina	iruditzen	<NA>	CONJ	VERB	<NA>	OUT-HEAD	second-middle	<NA>	<NA>	<NA>	<NA>
halako__instrumentu__baten__edukia__nola__edo__hala__papereratu__izana__da__,__ene__ustez__,__ideia__jeniala__birrindu__duena__.	EDU	Halako	instrumentu	baten	ADJ	NOUN	NUM	.	PUNCT	long	da	<NA>	<NA>	VERB	<NA>	<NA>	OUT-HEAD	second-middle	<NA>	<NA>	<NA>	<NA>
are__gehiago__,__nik__esango__nuke__,__publikoaren__interesetatik__at__dagoela__.	EDU	Are	gehiago	,	NOUN	DET	PUNCT	.	PUNCT	short	esango	<NA>	<NA>	VERB	<NA>	<NA>	IN-HEAD	second-middle	<NA>	<NA>	<NA>	<NA>
gustuak__eta__irakurle__mailak__alde__batera__utzita__,	EDU	Gustuak	eta	irakurle	NOUN	CONJ	NOUN	,	PUNCT	short	alde	<NA>	<NA>	NOUN	<NA>	<NA>	OUT-HEAD	second-middle	<NA>	<NA>	<NA>	<NA>
gizakiari__istorioak__entzun__zein__irakurtzea__gustatzen__zaio__.	EDU	gizakiari	istorioak	entzun	NOUN	NOUN	VERB	.	PUNCT	short	gustatzen	<NA>	<NA>	VERB	<NA>	<NA>	IN-HEAD	end	<NA>	<NA>	<NA>	<NA>
eta__paperezko__pendrive__honetan__sei__narrazio__aurkitzen__ditugu__beste__testuekin__erlaziorik__ez__daukatenak__.	EDU	Eta	paperezko	pendrive	CONJ	ADJ	NOUN	.	PUNCT	short	aurkitzen	<NA>	<NA>	VERB	<NA>	<NA>	IN-HEAD	end	<NA>	<NA>	<NA>	<NA>
historiako__garai__eta__testuinguru__oso__desberdinetan__gertatutako__maitasun__istorioak__dira__,	EDU	Historiako	garai	eta	PROPN	NOUN	CONJ	,	PUNCT	short	istorioak	<NA>	<NA>	NOUN	<NA>	<NA>	IN-HEAD	end	<NA>	<NA>	<NA>	<NA>
non__,	EDU	non	<NA>	<NA>	ADV	<NA>	<NA>	,	PUNCT	veryshort	non	<NA>	<NA>	ADV	<NA>	<NA>	OUT-HEAD	end	<NA>	<NA>	<NA>	<NA>
tronpatzen__ez__banaiz__,	EDU	tronpatzen	ez	banaiz	VERB	PART	NOUN	,	PUNCT	veryshort	tronpatzen	<NA>	<NA>	VERB	<NA>	<NA>	OUT-HEAD	end	<NA>	<NA>	<NA>	<NA>
gehienek__duten__gerra__eszenatoki__.	EDU	gehienek	duten	gerra	DET	VERB	NOUN	.	PUNCT	veryshort	duten	<NA>	<NA>	VERB	<NA>	<NA>	OUT-HEAD	end	<NA>	<NA>	<NA>	<NA>
narrazio__horietara__mugatu__izan__balitz	EDU	Narrazio	horietara	mugatu	NOUN	VERB	VERB	balitz	AUX	veryshort	mugatu	<NA>	<NA>	VERB	<NA>	<NA>	OUT-HEAD	end	<NA>	<NA>	<NA>	<NA>
baliteke__bestelako__emaitza__eduki__izana__,	EDU	baliteke	bestelako	emaitza	VERB	ADJ	NOUN	,	PUNCT	short	eduki	<NA>	<NA>	VERB	<NA>	<NA>	IN-HEAD	end	<NA>	<NA>	<NA>	<NA>
baina__kasu__hipotetikoan__mintzo__gara__.	EDU	baina	kasu	hipotetikoan	CONJ	NOUN	ADJ	.	PUNCT	short	baina	mintzo	<NA>	CONJ	NOUN	<NA>	OUT-HEAD	end	<NA>	<NA>	<NA>	<NA>
orainaldian__esatearren__,	EDU	Orainaldian	esatearren	<NA>	NOUN	ADJ	<NA>	,	PUNCT	veryshort	Orainaldian	esatearren	<NA>	NOUN	ADJ	<NA>	OUT-HEAD	end	<NA>	<NA>	<NA>	<NA>
lehen__ariketa__literarioa__da__arrate__mardarasen__pendrive__.	EDU	lehen	ariketa	literarioa	NUM	NOUN	ADJ	.	PUNCT	short	da	<NA>	<NA>	VERB	<NA>	<NA>	OUT-HEAD	last	<NA>	<NA>	<NA>	<NA>

fe-al__oinarritzat__duten__intermetalikoak__.	EDU	Fe-Al	oinarritzat	duten	ADJ	NOUN	VERB	.	PUNCT	veryshort	intermetalikoak	<NA>	<NA>	NOUN	<NA>	<NA>	OUT-HEAD	first	<NA>	<NA>	<NA>	<NA>
azken__urte__hauetan__industria__desberdinek__apostu__sendo__bat__egin__dute__feal__aleazioen__garapenerako__,__bereziki__aplikazio__estrukturaletarako__.	EDU	Azken	urte	hauetan	NUM	NOUN	DET	.	PUNCT	long	egin	<NA>	<NA>	VERB	<NA>	<NA>	IN-HEAD	beginning	<NA>	<NA>	<NA>	<NA>
izan__ere__,__audi__enpresak__1994ean__neckarslum__herrian__aluminioaren__zentrua__eraiki__zuen__-LRB-__duela__bost__bat__urte__aluminioa__eta__eraikuntza__arina__diseinurako__zentrua__izenez__berbaitaiatua__-RRB-__,	EDU	Izan	ere	,	VERB	CONJ	PUNCT	,	PUNCT	verylong	eraiki	<NA>	<NA>	VERB	<NA>	<NA>	IN-HEAD	beginning	numb	<NA>	<NA>	<NA>
bertan__konpaniaren__ikonoa__den__a8__autoa__sortuz__.	EDU	bertan	konpaniaren	ikonoa	ADV	NOUN	NOUN	.	PUNCT	short	sortuz	<NA>	<NA>	VERB	<NA>	<NA>	OUT-HEAD	beginning	numb	<NA>	<NA>	<NA>
aleazio__hauen__ezaugarri__handienetako__bat__da__,__egituraren__edozein__desberdintasuna__edo__aldaketa__aleazioen__portamolde__magnetikoan__zuzenean__islatzen__dela__.	EDU	Aleazio	hauen	ezaugarri	NOUN	DET	NOUN	.	PUNCT	long	islatzen	<NA>	<NA>	VERB	<NA>	<NA>	IN-HEAD	beginning	<NA>	<NA>	<NA>	<NA>
horrela__,__nahikoa__da__mailu__batekin__,__adibidez__,__apurtxo__bat__mailukatzea	EDU	Horrela	,	nahikoa	ADV	PUNCT	ADV	mailukatzea	VERB	short	mailukatzea	<NA>	<NA>	VERB	<NA>	<NA>	IN-HEAD	beginning	<NA>	<NA>	<NA>	<NA>
seinale__ferromagnetikoaren__handipen__bortitza__gertatzeko__.	EDU	seinale	ferromagnetikoaren	handipen	NOUN	ADJ	NOUN	.	PUNCT	short	gertatzeko	<NA>	<NA>	VERB	<NA>	<NA>	OUT-HEAD	beginning	<NA>	<NA>	<NA>	<NA>
gainera__,__kontzentrazioaren__aldaketa__oso__txikiek__ezaugarri__magnetikoaren__aldaketa__handiak__eragiten__dituzte__.	EDU	Gainera	,	kontzentrazioaren	CONJ	PUNCT	NOUN	.	PUNCT	short	eragiten	<NA>	<NA>	VERB	<NA>	<NA>	IN-HEAD	first-middle	<NA>	<NA>	<NA>	<NA>
bereziki__aipatzekoa__da__fe70al30__aleazio__ordenatuaren__inguruko__aleazioen__portamolde__magnetikoa__:	EDU	Bereziki	aipatzekoa	da	ADV	VERB	VERB	:	PUNCT	short	aipatzekoa	<NA>	<NA>	VERB	<NA>	<NA>	IN-HEAD	first-middle	numb	<NA>	<NA>	<NA>
tenperatura__jaistean	EDU	tenperatura	<NA>	<NA>	NOUN	<NA>	<NA>	jaistean	NOUN	veryshort	jaistean	<NA>	<NA>	NOUN	<NA>	<NA>	OUT-HEAD	first-middle	<NA>	<NA>	<NA>	<NA>
asetasun__magnetizazioa	EDU	asetasun	<NA>	<NA>	NOUN	<NA>	<NA>	magnetizazioa	ADJ	veryshort	asetasun	<NA>	<NA>	NOUN	<NA>	<NA>	OUT-HEAD	first-middle	<NA>	<NA>	<NA>	<NA>
-LRB-__handitu__beharrean__,	EDU	-LRB-	handitu	beharrean	PUNCT	VERB	NOUN	,	PUNCT	veryshort	-LRB-	handitu	<NA>	PUNCT	VERB	<NA>	OUT-HEAD	first-middle	<NA>	<NA>	<NA>	<NA>
ferromagnetiko__arruntetan__gertatzen__den__bezala__-RRB-	EDU	ferromagnetiko	arruntetan	gertatzen	ADJ	ADV	VERB	-RRB-	PUNCT	short	gertatzen	-RRB-	<NA>	VERB	PUNCT	<NA>	OUT-HEAD	first-middle	<NA>	<NA>	<NA>	<NA>
txikiagotu__egiten__da__.	EDU	txikiagotu	egiten	da	VERB	VERB	AUX	.	PUNCT	veryshort	txikiagotu	<NA>	<NA>	VERB	<NA>	<NA>	IN-HEAD	first-middle	<NA>	<NA>	<NA>	<NA>
portamolde__hori__,	EDU	Portamolde	hori	<NA>	NOUN	DET	<NA>	,	PUNCT	veryshort	Portamolde	<NA>	<NA>	NOUN	<NA>	<NA>	OUT-HEAD	first-middle	<NA>	<NA>	<NA>	<NA>
duela__hainbat__urte__lehen__aldiz__behatu__arren__,	EDU	duela	hainbat	urte	VERB	DET	NOUN	,	PUNCT	short	duela	<NA>	<NA>	VERB	<NA>	<NA>	OUT-HEAD	second-middle	<NA>	<NA>	<NA>	<NA>
oraindik__ez__da__erabat__ulertzen__.	EDU	oraindik	ez	da	ADV	PART	AUX	.	PUNCT	short	ulertzen	<NA>	<NA>	VERB	<NA>	<NA>	IN-HEAD	second-middle	<NA>	<NA>	<NA>	<NA>
ez__da__beraz__harritzekoa__,__feâ€“aberats__diren__feal__aleazioak__â€œfrogaâ€“eremuâ€__oso__aproposatzat__kalifikatuak__izatea	EDU	Ez	da	beraz	PART	VERB	CONJ	izatea	VERB	long	harritzekoa	â€œfrogaâ€	“	VERB	NOUN	PUNCT	IN-HEAD	second-middle	<NA>	<NA>	<NA>	<NA>
magnetismoaren__oinarrizko__teoriak__eta__hipotesiak__frogatzeko__.	EDU	magnetismoaren	oinarrizko	teoriak	NOUN	ADJ	NOUN	.	PUNCT	short	teoriak	<NA>	<NA>	NOUN	<NA>	<NA>	OUT-HEAD	second-middle	<NA>	<NA>	<NA>	<NA>
talde__honek__feal__sistemaren__fase__ordenatuetan__zein__aleazio__horien__desordenamenduaren__ikerketan__lan__eskerga__egin__du	EDU	Talde	honek	FeAl	NOUN	DET	NOUN	du	AUX	short	egin	<NA>	<NA>	VERB	<NA>	<NA>	IN-HEAD	second-middle	<NA>	<NA>	<NA>	<NA>
eta__horretan__dihardu__.	EDU	eta	horretan	dihardu	CONJ	DET	VERB	.	PUNCT	veryshort	eta	dihardu	<NA>	CONJ	VERB	<NA>	OUT-HEAD	second-middle	<NA>	<NA>	<NA>	<NA>
ikerketa__horiek__burutzeko__esperimentuak__zein__kalkulu__elektroniko__autobateragarriak__erabiltzen__dira__.	EDU	Ikerketa	horiek	burutzeko	NOUN	DET	VERB	.	PUNCT	short	erabiltzen	<NA>	<NA>	VERB	<NA>	<NA>	IN-HEAD	second-middle	<NA>	<NA>	<NA>	<NA>
esperimentuen__alorrean__fakultateko__laborategietan__ditugun__:__mossbauer__espektroskopia__,__mota__desberdinetako__neurketa__magnetikoak__,__kalorimetria__,__xâ€“izpiak__etabar__erabiltzen__ditugu__;	EDU	Esperimentuen	Mossbauer	alorrean	NOUN	PROPN	NOUN	;	PUNCT	long	ditugun	erabiltzen	<NA>	VERB	VERB	<NA>	IN-HEAD	second-middle	<NA>	<NA>	<NA>	<NA>
halaber__,__nazioarteko__neutroi__zein__sinkrotoi__laborategi__erraldoietako__erabiltzaileak__gara__.	EDU	halaber	,	nazioarteko	CONJ	PUNCT	ADJ	.	PUNCT	short	halaber	neutroi	<NA>	CONJ	NOUN	<NA>	OUT-HEAD	end	<NA>	<NA>	<NA>	<NA>
arlo__teorikoan__kalkulu__elektroniko__autobateragarriak__lmto__eta__vas__p__kodeen__bidez__,__bereziki__.	EDU	Arlo	teorikoan	kalkulu	NOUN	ADJ	NOUN	.	PUNCT	short	kalkulu	<NA>	<NA>	NOUN	<NA>	<NA>	IN-HEAD	end	<NA>	<NA>	<NA>	<NA>
ikerketa__horren__helburu__nagusia__jokamolde__magnetiko__arraro__horien__ulertzea__da__,	EDU	Ikerketa	horren	helburu	NOUN	DET	NOUN	,	PUNCT	short	ulertzea	<NA>	<NA>	VERB	<NA>	<NA>	IN-HEAD	end	<NA>	<NA>	<NA>	<NA>
neurriko__aluminiuroak__diseina__ahal__izateko__.	EDU	neurriko	aluminiuroak	diseina	NOUN	NOUN	DET	.	PUNCT	short	izateko	<NA>	<NA>	VERB	<NA>	<NA>	OUT-HEAD	end	<NA>	<NA>	<NA>	<NA>
material__horien__propietateak__-LRB-__bereziki__mekanikoak__-RRB-__asko__hobetu__daitezkeenentz__hirugarren__elementu__bat__gehituz__,	EDU	Material	horien	propietateak	NOUN	DET	NOUN	,	PUNCT	short	hobetu	<NA>	<NA>	VERB	<NA>	<NA>	OUT-HEAD	end	<NA>	<NA>	<NA>	<NA>
hirugarren__elementu__horren__eragina__ere__sistematikoki__ikertzen__dugu__.	EDU	hirugarren	elementu	horren	NUM	NOUN	DET	.	PUNCT	short	ikertzen	<NA>	<NA>	VERB	<NA>	<NA>	IN-HEAD	end	<NA>	<NA>	<NA>	<NA>
azken__urte__hauetan__gai__honekin__loturiko__2__doktorego__tesi__irakurri__dira__:	EDU	Azken	urte	hauetan	NUM	NOUN	DET	:	PUNCT	short	irakurri	<NA>	<NA>	VERB	<NA>	<NA>	IN-HEAD	end	numb	<NA>	<NA>	<NA>
â€”__estibaliz__apinan__iz__fde__z__de__larr__inoa__â€œtheoretical__and__experimental__study__of__the__relationship__between__structural__and__magnetic__properties__in__feâ€“al__alloysâ€œ__julio__de__2003__.	EDU	â€	”	Estibaliz	NOUN	PUNCT	PROPN	.	PUNCT	verylong	Al	<NA>	<NA>	PROPN	<NA>	<NA>	IN-HEAD	end	numb	<NA>	<NA>	date
â€”__damian__mart__in__rodr__igue__z__â€œestudio__sobre__la__influencia__del__orden__intermetalico__en__las__propiedades__magneticas__de__las__aleaciones__feâ€“al__ricas__en__feâ€__febrero__de__2007__.	EDU	â€	”	Damian	NOUN	PUNCT	PROPN	.	PUNCT	verylong	magneticas	<NA>	<NA>	NOUN	<NA>	<NA>	IN-HEAD	last	numb	<NA>	<NA>	date

haur-oinaren__neurri__antropometrikoen__garapena__:__geruzetan__oinarrituriko__azterketa__deskribatzailea__.	EDU	Haur-oinaren	Geruzetan	neurri	ADJ	ADV	NOUN	.	PUNCT	short	azterketa	garapena	:	NOUN	NOUN	PUNCT	IN-HEAD	first	<NA>	<NA>	<NA>	<NA>
azterlan__honek__haur__oinaren__eta__oinzolako__gangaren__hazkundea__baloratzen__du__4__eta__6__urte__arteko__haurren__artean__.	EDU	Azterlan	honek	haur	NOUN	DET	NOUN	.	PUNCT	long	baloratzen	<NA>	<NA>	VERB	<NA>	<NA>	IN-HEAD	first-middle	numb	<NA>	<NA>	<NA>
adin__horretan__hasten__da__aldaketa__hormonalek__agintzen__duten__garapena__.	EDU	Adin	horretan	hasten	NOUN	DET	VERB	.	PUNCT	short	hasten	<NA>	<NA>	VERB	<NA>	<NA>	IN-HEAD	first-middle	<NA>	<NA>	<NA>	<NA>
era__berean__,__beste__alderdi__batzuk__baloratzen__dira__,__hala__nola__,__maleolo__peronealaren__garrantzia__biomekaniko__mihise__tibioperoneoastragalinoan__,__aldea__sexuen__eta__adinen__artean__,__eta__adin__horretan__haur__bakoitzaren__jaiotzako__hiru__parametro__biologikoek__izan__duten__eragina__-LRB-__haurdunaldi__asteak__,__amaren__adina__erditzean__eta__haur__bakoitzaren__pisua__jaiotzan__-RRB-__.	EDU	Era	berean	,	NOUN	DET	PUNCT	.	PUNCT	verylong	erditzean	<NA>	<NA>	VERB	<NA>	<NA>	IN-HEAD	second-middle	<NA>	<NA>	<NA>	<NA>
estatistikoki__esanguratzua__den__ausaz__hartutako__314__haurrez__osatutako__biztanleria__hartzu__zen__,__guztiak__1993an__txagorritxu__ospitalean__-LRB-__araba__-RRB-__jaioak__.	EDU	Estatistikoki	esanguratzua	den	ADV	VERB	AUX	.	PUNCT	long	hartzu	<NA>	<NA>	DET	<NA>	<NA>	IN-HEAD	second-middle	numb	<NA>	<NA>	<NA>
lortutako__emaitzek__baieztatzen__dute__adin__horretan__oinzolako__gangaren__garapena__hasten__dela__,__oin__ezkerra__eskuina__baino__handiagoa__dela__eta__gizonezkoenak__emakumezkoenak__baino__handiagoak__direla__.	EDU	Lortutako	emaitzek	baieztatzen	VERB	NOUN	VERB	.	PUNCT	long	baieztatzen	<NA>	<NA>	VERB	<NA>	<NA>	OUT-HEAD	end	<NA>	<NA>	<NA>	<NA>
begibistakoa__da__ere__pisu__faktoreak__eragina__duela__oinaren__neurri__antropometrikoetan__eta__asoziazio__estatistikoaren__indarra__galdu__egiten__dela__adinaren__arabera__.	EDU	Begibistakoa	da	ere	ADJ	VERB	CONJ	.	PUNCT	long	Begibistakoa	<NA>	<NA>	ADJ	<NA>	<NA>	IN-HEAD	end	<NA>	<NA>	<NA>	<NA>
azterlan__honek__analizatutako__korrelazio__estatistikoetan__lortutako__emaitzak__jakitera__ematen__ditu__.	EDU	Azterlan	honek	analizatutako	NOUN	DET	VERB	.	PUNCT	short	ematen	<NA>	<NA>	VERB	<NA>	<NA>	IN-HEAD	last	<NA>	<NA>	<NA>	<NA>

