word pos prefw1 prefw2 prefw3 prefp1 prefp2 prefp3 suffw1 suffp1 len headw1 headw2 headw3 headp1 headp2 headp3 head position numb perc money date
terminologiaren__eta__itzulpengintzaren__arteko__erlazioari__buruzko__gogoetak__itzulpeneta__interpretazio-ikasketetan__:__kasu__praktiko__bat__.	EDU	Terminologiaren	kasu	eta	NOUN	NOUN	CONJ	:	PUNCT	short	kasu	itzulpeneta	<NA>	NOUN	VERB	<NA>	IN-HEAD	first	<NA>	<NA>	<NA>	<NA>
komunikazio__honetan__alfonso__x__el__sabio__unibertsitateko__itzulpengintza__eta__interpretaritzako__lizentziaturako__ikasle__eta__irakasle__batzuek__1996-1997__ikasturtean__egindako__esperientzia__bat__azalduko__dizuegu__.	EDU	Komunikazio	honetan	Alfonso	NOUN	DET	PROPN	.	PUNCT	long	azalduko	<NA>	<NA>	VERB	<NA>	<NA>	IN-HEAD	beginning	numb	<NA>	<NA>	date
ikasle__eta__irakasle__horiek__guztiak__hirugarren__ikasturteko__ikasgai__jakin__batzuetakoak__ziren__.	EDU	Ikasle	eta	irakasle	NOUN	CONJ	NOUN	.	PUNCT	short	batzuetakoak	<NA>	<NA>	VERB	<NA>	<NA>	IN-HEAD	beginning	<NA>	<NA>	<NA>	<NA>
esperientzia__horretan__zehar__,__dokumentazioa__,__terminologia__,__fraseologia__,__itzulpengintza__eta__abarren__gainean__ikasitakoak__praktikan__jartzeko__aukera__izan__zuten__batzuek__eta__besteek__.	EDU	Esperientzia	horretan	zehar	NOUN	DET	ADP	.	PUNCT	long	izan	<NA>	<NA>	VERB	<NA>	<NA>	IN-HEAD	beginning	<NA>	<NA>	<NA>	<NA>
bi__ikuspuntu__erabili__ditugu	EDU	Bi	ikuspuntu	erabili	NUM	NOUN	VERB	ditugu	AUX	veryshort	erabili	<NA>	<NA>	VERB	<NA>	<NA>	IN-HEAD	beginning	<NA>	<NA>	<NA>	<NA>
esperientzia__hori__azaltzeko__:	EDU	esperientzia	hori	azaltzeko	NOUN	DET	VERB	:	PUNCT	veryshort	azaltzeko	:	<NA>	VERB	PUNCT	<NA>	OUT-HEAD	first-middle	<NA>	<NA>	<NA>	<NA>
alde__batetik__,__ikuspuntu__besterik__gabe__akademikoa__,	EDU	alde	batetik	,	NOUN	NUM	PUNCT	,	PUNCT	short	ikuspuntu	<NA>	<NA>	VERB	<NA>	<NA>	OUT-HEAD	first-middle	<NA>	<NA>	<NA>	<NA>
esperientzia__itzulpengintza__berezituko__eta__terminologiako__ikasgaien__barruko__jardueren__artean__egin__genuen-eta__;	EDU	esperientzia	Itzulpengintza	Berezituko	NOUN	NOUN	VERB	;	PUNCT	short	Berezituko	<NA>	<NA>	VERB	<NA>	<NA>	IN-HEAD	first-middle	<NA>	<NA>	<NA>	<NA>
beste__alde__batetik__,__berriz__,__ikuspuntu__profesionala__,	EDU	beste	alde	batetik	DET	NOUN	NUM	,	PUNCT	short	alde	berriz	ikuspuntu	NOUN	CONJ	NOUN	OUT-HEAD	first-middle	<NA>	<NA>	<NA>	<NA>
esperientzia__itzulpengintzaren__merkatutik__etorritako__benetako__eskari__batek__eragin__baitzuen__.	EDU	esperientzia	itzulpengintzaren	merkatutik	NOUN	ADJ	NOUN	.	PUNCT	short	eragin	<NA>	<NA>	VERB	<NA>	<NA>	OUT-HEAD	first-middle	<NA>	<NA>	<NA>	<NA>
helburuak__ere__bi__jomuga__zituen__:__alde__batetik__,__lanbidearen__errealitaterako__hurbilpen__delako__hori__-kasurik__onenean__ere__gelan__egindako__simulazio-saio__batzuk__baino__urrunago__ez__doana-__muturreraino__eramatea__,	EDU	Helburuak	alde	ere	NOUN	NOUN	CONJ	,	PUNCT	verylong	jomuga	eramatea	<NA>	VERB	VERB	<NA>	IN-HEAD	second-middle	<NA>	<NA>	<NA>	<NA>
nonahi__eta__noiznahi__aipatzen__baitzaigu__bai__itzulpengintza__eta__interpretaritzari__buruzko__nazioarteko__foroetan__,__bai__halako__diziplinen__inguruko__ikasgaietako__ikasketa-planetan__eta__curriculumetan__ere__;	EDU	nonahi	eta	noiznahi	ADV	CONJ	ADV	;	PUNCT	long	foroetan	curriculumetan	<NA>	NOUN	ADV	<NA>	OUT-HEAD	second-middle	<NA>	<NA>	<NA>	<NA>
eta__beste__alde__batetik__,__gaur__egun__batetik__bestera__hain__usu__darabilgun__diziplinartekotasuna__gauzatzea	EDU	eta	beste	alde	CONJ	DET	NOUN	gauzatzea	VERB	short	eta	alde	gauzatzea	CONJ	NOUN	VERB	OUT-HEAD	second-middle	<NA>	<NA>	<NA>	<NA>
behingoz__zalantzari__tokirik__utzi__gabe__.	EDU	behingoz	zalantzari	tokirik	ADV	NOUN	NOUN	.	PUNCT	short	utzi	<NA>	<NA>	VERB	<NA>	<NA>	IN-HEAD	second-middle	<NA>	<NA>	<NA>	<NA>
izan__ere__,__itzulpengintza__eta__interpretaritzako__ikasketetan__ez__dugu__diziplinartekotasun__hori__baztertu	EDU	Izan	ere	,	VERB	CONJ	PUNCT	baztertu	VERB	short	dugu	<NA>	<NA>	VERB	<NA>	<NA>	IN-HEAD	second-middle	<NA>	<NA>	<NA>	<NA>
baina__,__barneratu__ere__ez__dugu__erabat__egin__-LRB-__behin__betiko__indartzeko__arrazoi__garbia__,__beharbada__-RRB-__.	EDU	baina	,	barneratu	CONJ	PUNCT	VERB	.	PUNCT	long	baina	egin	-RRB-	CONJ	VERB	PUNCT	OUT-HEAD	end	<NA>	<NA>	<NA>	<NA>
azken__hori__dela__eta__,__gure__asmoa__okerreko__uste__bat__betiko__zuzentzea__da__,	EDU	Azken	hori	dela	NUM	DET	VERB	,	PUNCT	short	zuzentzea	da	<NA>	VERB	VERB	<NA>	IN-HEAD	end	<NA>	<NA>	<NA>	<NA>
ikasleen__artean__oso__zabalduta__dagoenez__,	EDU	ikasleen	artean	oso	NOUN	ADP	ADV	,	PUNCT	short	zabalduta	<NA>	<NA>	VERB	<NA>	<NA>	OUT-HEAD	end	<NA>	<NA>	<NA>	<NA>
karreran__zehar__ikasi__,__barneratu__eta__gainditu__behar__dituzten__ikasgaiak__bloke__isolatuak__baitira__,__bihar-etziko__lanbidearekin__zerikusirik__ez__dutenak__.	EDU	karreran	zehar	ikasi	NOUN	ADP	VERB	.	PUNCT	long	ikasi	<NA>	<NA>	VERB	<NA>	<NA>	OUT-HEAD	end	<NA>	<NA>	<NA>	<NA>
azken__batean__,__halako__gogoeta__teoriko__eta__praktiko__bat__egin__nahi__izan__dugu__dokumentazioaren__,__terminologiaren__,__fraseologiaren__eta__itzulpengintzaren__artean__behintzat	EDU	Azken	batean	,	NUM	NUM	PUNCT	behintzat	CONJ	long	izan	<NA>	<NA>	VERB	<NA>	<NA>	IN-HEAD	end	<NA>	<NA>	<NA>	<NA>
-bestetik__ez__bada__ere__nabari__den__erabateko__loturaren__inguruan__eta__horrelako__esperientziek__-gure__uste__apalean-__espainian__gaur__egun__eskura__ditugun__itzulpengintza-ikasketetan__eragiten__dituzten__ondorioen__gainean__,__ondorio__akademiko__zein__irakaskuntza-mailakoen__gainean__.	EDU	-	bestetik	ez	PUNCT	NOUN	PART	.	PUNCT	verylong	-	eta	esperientziek	PUNCT	CONJ	NOUN	OUT-HEAD	last	<NA>	<NA>	<NA>	<NA>

sacamantecas__nuen__aita__/__aitor__arana__/__txalaparta__,__2012__sacamantecas__nuen__aita__lurdes__imaz__/__aizu__!__,2013-02__.	EDU	Sacamantecas	,	nuen	NOUN	PUNCT	VERB	!	PUNCT	long	nuen	<NA>	<NA>	VERB	<NA>	<NA>	IN-HEAD	first	numb	<NA>	<NA>	date
xix.__mendean__gasteiz__inguruak__izutu__zituen__juan__dã­az__de__garaio__sacamantecas__pertsonaia__hartu__du__aitor__aranak__-LRB-__legazpi__,__1963__-RRB-__bere__azken__eleberrian__.	EDU	XIX.	mendean	Gasteiz	NUM	ADV	PROPN	.	PUNCT	long	XIX.	izutu	<NA>	NUM	VERB	<NA>	IN-HEAD	beginning	numb	<NA>	<NA>	date
sei__emakume__bortxatu__eta__erail__zituen__arabarrak__1870__eta__1879__bitartean__,	EDU	Sei	emakume	bortxatu	NUM	NOUN	VERB	,	PUNCT	short	bortxatu	<NA>	<NA>	VERB	<NA>	<NA>	IN-HEAD	beginning	numb	<NA>	<NA>	date
eta__garrotez__hil__zuten__1881ean__.	EDU	eta	garrotez	hil	CONJ	NOUN	VERB	.	PUNCT	short	eta	hil	<NA>	CONJ	VERB	<NA>	OUT-HEAD	beginning	numb	<NA>	<NA>	<NA>
munstroa__gizatiartzeko__asmoz__edo__,__adela__alabaren__ikuspuntua__aukeratu__du__idazleak	EDU	Munstroa	gizatiartzeko	asmoz	NOUN	VERB	NOUN	idazleak	NOUN	short	aukeratu	<NA>	<NA>	VERB	<NA>	<NA>	IN-HEAD	beginning	<NA>	<NA>	<NA>	<NA>
sacamantecasen__istorioa__berreraikitzeko__.	EDU	Sacamantecasen	istorioa	berreraikitzeko	PROPN	NOUN	VERB	.	PUNCT	veryshort	berreraikitzeko	<NA>	<NA>	VERB	<NA>	<NA>	OUT-HEAD	beginning	<NA>	<NA>	<NA>	<NA>
santa__klara__komentuan__moja__,__aitari__buruzko__egunkari__txatalak__errekuperatuko__ditu__,	EDU	Santa	Klara	komentuan	NOUN	PROPN	NOUN	,	PUNCT	short	errekuperatuko	<NA>	<NA>	VERB	<NA>	<NA>	IN-HEAD	first-middle	<NA>	<NA>	<NA>	<NA>
eta__haietatik__abiatuta__dã­az__de__garaioren__istorioa__kontatu__nahiko__du__,	EDU	eta	haietatik	abiatuta	CONJ	DET	VERB	,	PUNCT	short	eta	nahiko	<NA>	CONJ	VERB	<NA>	OUT-HEAD	first-middle	<NA>	<NA>	<NA>	<NA>
bere__galbahetik__pasatuta__.	EDU	bere	galbahetik	pasatuta	DET	NOUN	VERB	.	PUNCT	veryshort	pasatuta	<NA>	<NA>	VERB	<NA>	<NA>	OUT-HEAD	first-middle	<NA>	<NA>	<NA>	<NA>
lanetik__etxerakoan__,__gasteiz__inguruko__errepideetan__harrapatzen__zituen__emakumeak__bortxatzen__eta__erailtzen__saiatzen__zen__dã­az__de__garaio__,	EDU	Lanetik	etxerakoan	,	NOUN	NOUN	PUNCT	,	PUNCT	long	bortxatzen	<NA>	<NA>	VERB	<NA>	<NA>	IN-HEAD	first-middle	<NA>	<NA>	<NA>	<NA>
baita__lortu__ere__sei__aldiz__.	EDU	baita	lortu	ere	CONJ	VERB	CONJ	.	PUNCT	short	lortu	<NA>	<NA>	VERB	<NA>	<NA>	OUT-HEAD	first-middle	<NA>	<NA>	<NA>	<NA>
zahartuz__zihoala__,	EDU	Zahartuz	zihoala	<NA>	VERB	VERB	<NA>	,	PUNCT	veryshort	zihoala	<NA>	<NA>	VERB	<NA>	<NA>	OUT-HEAD	first-middle	<NA>	<NA>	<NA>	<NA>
gero__eta__zailagoa__egiten__zitzaion__basatikeriak__egitea__,	EDU	gero	eta	zailagoa	ADV	CONJ	ADJ	,	PUNCT	short	egiten	<NA>	<NA>	VERB	<NA>	<NA>	IN-HEAD	first-middle	<NA>	<NA>	<NA>	<NA>
eta__horri__esker__harrapatu__zuten__.	EDU	eta	horri	esker	CONJ	DET	ADP	.	PUNCT	short	eta	harrapatu	<NA>	CONJ	VERB	<NA>	OUT-HEAD	second-middle	<NA>	<NA>	<NA>	<NA>
pasarte__horiek__eta__alabaren__kontaketak__biltzen__ditu__nobelak__16__kapitulutan__zehar__.	EDU	Pasarte	horiek	eta	NOUN	DET	CONJ	.	PUNCT	short	biltzen	<NA>	<NA>	VERB	<NA>	<NA>	IN-HEAD	second-middle	numb	<NA>	<NA>	<NA>
euskal__herriko__hiltzailerik__famatuenaren__ibilerak__ezagutzeko__aukera__ematen__digu__aranak__,__baita__garai__haietako__ohiturak__ere__:	EDU	Euskal	Herriko	hiltzailerik	PROPN	NOUN	NOUN	:	PUNCT	long	ematen	<NA>	<NA>	VERB	<NA>	<NA>	IN-HEAD	second-middle	<NA>	<NA>	<NA>	<NA>
debekatuta__zegoen__makila-jokoa__,__``__bideetako__mari__''__izena__zuten__prostituten__bizimodua__,__eta__abar__.	EDU	debekatuta	zegoen	makila-jokoa	VERB	VERB	NOUN	.	PUNCT	long	<NA>	<NA>	<NA>	<NA>	<NA>	<NA>	IN-HEAD	second-middle	<NA>	<NA>	<NA>	<NA>
lan__historiko__interesgarria__egin__du__idazleak	EDU	Lan	historiko	interesgarria	NOUN	ADJ	ADJ	idazleak	NOUN	short	egin	<NA>	<NA>	VERB	<NA>	<NA>	IN-HEAD	second-middle	<NA>	<NA>	<NA>	<NA>
pertsonaia__horri__buruzko__dokumentazio__bildu	EDU	pertsonaia	horri	buruzko	NOUN	DET	ADP	bildu	VERB	veryshort	bildu	<NA>	<NA>	VERB	<NA>	<NA>	OUT-HEAD	second-middle	<NA>	<NA>	<NA>	<NA>
eta__irakurleen__esku__ipintzeko__.	EDU	eta	irakurleen	esku	CONJ	NOUN	NOUN	.	PUNCT	veryshort	eta	ipintzeko	<NA>	CONJ	VERB	<NA>	OUT-HEAD	second-middle	<NA>	<NA>	<NA>	<NA>
hala__ere__,__nahiko__planoa__da__nobela__,	EDU	Hala	ere	,	ADV	CONJ	PUNCT	,	PUNCT	short	planoa	<NA>	<NA>	ADJ	<NA>	<NA>	IN-HEAD	end	<NA>	<NA>	<NA>	<NA>
erritmoa__falta__zaio	EDU	erritmoa	falta	<NA>	NOUN	VERB	<NA>	zaio	AUX	veryshort	falta	<NA>	<NA>	VERB	<NA>	<NA>	OUT-HEAD	end	<NA>	<NA>	<NA>	<NA>
eta__bortxaketen__kontaketak__aspergarriak__ere__bihurtzen__dira__,	EDU	eta	bortxaketen	kontaketak	CONJ	NOUN	NOUN	,	PUNCT	short	eta	bihurtzen	<NA>	CONJ	VERB	<NA>	OUT-HEAD	end	<NA>	<NA>	<NA>	<NA>
ankerkeria__horien__narrazioak__inoiz__horrela__deskribatu__badaitezke__,__behintzat__.	EDU	ankerkeria	horien	narrazioak	NOUN	DET	NOUN	.	PUNCT	short	deskribatu	behintzat	<NA>	VERB	CONJ	<NA>	OUT-HEAD	end	<NA>	<NA>	<NA>	<NA>
bestalde__,__alabaren__ikuspuntua__ez__da__batere__argi__geratzen__,	EDU	Bestalde	,	alabaren	CONJ	PUNCT	NOUN	,	PUNCT	short	geratzen	<NA>	<NA>	VERB	<NA>	<NA>	IN-HEAD	end	<NA>	<NA>	<NA>	<NA>
eta__ez__dio__askorik__eransten__kontaketari__;	EDU	eta	ez	dio	CONJ	PART	AUX	;	PUNCT	short	eta	eransten	<NA>	CONJ	VERB	<NA>	OUT-HEAD	end	<NA>	<NA>	<NA>	<NA>
sobera__dagoela__esan__daiteke__.	EDU	sobera	dagoela	esan	NOUN	VERB	VERB	.	PUNCT	veryshort	esan	<NA>	<NA>	VERB	<NA>	<NA>	OUT-HEAD	last	<NA>	<NA>	<NA>	<NA>

gerra__txikia__/__lander__garro__/__susa__,__2014__zenbaitzuen__gerra__txikia__txema__arinas__/quejicakexontzia.blogspot.fr,2014-12-01	EDU	Gerra	blogspot.fr	txikia	NOUN	ADV	ADJ	/quejicakexontzia.	NUM	long	gerra	/quejicakexontzia.	<NA>	NOUN	NUM	<NA>	OUT-HEAD	first	numb	<NA>	<NA>	date
azkenean__bukatu__dut__lander__garroren__gerra__txikia__.	EDU	Azkenean	bukatu	dut	NOUN	VERB	AUX	.	PUNCT	short	bukatu	<NA>	<NA>	VERB	<NA>	<NA>	IN-HEAD	beginning	<NA>	<NA>	<NA>	<NA>
gogoratu__zait__,__ezinbestez__,__duela__gutxi__ikusitako__infancia__clandestina__fim__argentinarra	EDU	Gogoratu	zait	,	VERB	AUX	PUNCT	argentinarra	ADJ	short	Gogoratu	fim	<NA>	VERB	NOUN	<NA>	IN-HEAD	beginning	<NA>	<NA>	<NA>	<NA>
non__haur__batek__euren__gurasoen__ezkutuko__militantzia__montoneroaren__gorabeherak__jorratzen__dituen__.	EDU	non	haur	batek	ADV	NOUN	NUM	.	PUNCT	short	jorratzen	<NA>	<NA>	VERB	<NA>	<NA>	OUT-HEAD	beginning	<NA>	<NA>	<NA>	<NA>
lander__garrok__antzerako__ikuspustua__hautatu__du	EDU	Lander	Garrok	antzerako	PROPN	PROPN	NOUN	du	AUX	short	hautatu	<NA>	<NA>	VERB	<NA>	<NA>	IN-HEAD	first-middle	<NA>	<NA>	<NA>	<NA>
bere__pertsonaien__``__gerra__''__txikiaren__nondik__norakoen__berri__ematera__aldera__,__hau__da__,__euskal__errefuxiatu__batzuen__gorabeherak__mugaz__bi__aldeetan__azken__hamarkadetan__zehar__.	EDU	bere	pertsonaien	"	DET	DET	SYM	.	PUNCT	verylong	nondik	berri	da	ADV	NOUN	VERB	OUT-HEAD	first-middle	<NA>	<NA>	<NA>	<NA>
bada__alde__horretatik__lubaki__baten__aldetik__egindako__errelatoa__,__noski__,	EDU	Bada	alde	horretatik	CONJ	NOUN	DET	,	PUNCT	short	errelatoa	noski	<NA>	NOUN	ADV	<NA>	OUT-HEAD	first-middle	<NA>	<NA>	<NA>	<NA>
hortaz__ezin__dugu__gure__burua__inondik__inora__ere__engainatu__.	EDU	hortaz	ezin	dugu	DET	NOUN	VERB	.	PUNCT	short	dugu	<NA>	<NA>	VERB	<NA>	<NA>	IN-HEAD	first-middle	<NA>	<NA>	<NA>	<NA>
hau__aldez__aurretik__aintzakotzat__hartuta	EDU	Hau	aldez	aurretik	DET	ADP	NOUN	hartuta	VERB	veryshort	hartuta	<NA>	<NA>	VERB	<NA>	<NA>	OUT-HEAD	second-middle	<NA>	<NA>	<NA>	<NA>
lubaki__horretakoekin__bat__egiten__duen__inor__derrigorrezko__enpatia__ariketa__bat__egin__beharrean__dago	EDU	lubaki	horretakoekin	bat	NOUN	NOUN	NUM	dago	VERB	short	dago	<NA>	<NA>	VERB	<NA>	<NA>	OUT-HEAD	second-middle	<NA>	<NA>	<NA>	<NA>
garroren__testuak__dituen__bertute__literario__nabarmenak__,__bikainak__,__goxatzeko__asmotan__,	EDU	Garroren	testuak	dituen	PROPN	NOUN	VERB	,	PUNCT	short	nabarmenak	bikainak	asmotan	ADJ	ADJ	NOUN	IN-HEAD	second-middle	<NA>	<NA>	<NA>	<NA>
ikaragarri__ondo__idatzita__baitago__eleberria__,	EDU	ikaragarri	ondo	idatzita	ADJ	ADV	VERB	,	PUNCT	short	baitago	eleberria	<NA>	VERB	NOUN	<NA>	OUT-HEAD	second-middle	<NA>	<NA>	<NA>	<NA>
hainbat__pasartetan__hunkigarria__ere__iristeraino__.	EDU	hainbat	pasartetan	hunkigarria	DET	ADV	ADJ	.	PUNCT	short	hunkigarria	<NA>	<NA>	ADJ	<NA>	<NA>	OUT-HEAD	second-middle	<NA>	<NA>	<NA>	<NA>
hala__ere__,__eta__lubakiak__lubaki__edo__enpatiak__enpatia__,__badago__nobelan__benetan__txunditu__egin__nauen__zerbait__,__eta__orain__arte__gainerako__``__lubaki__''__nobeletan__ozta-ozta__topatu__egin__dudana__,	EDU	Hala	ere	,	ADV	CONJ	PUNCT	,	PUNCT	verylong	badago	<NA>	<NA>	VERB	<NA>	<NA>	OUT-HEAD	end	<NA>	<NA>	<NA>	<NA>
hori__da__idazleak__berak__nola__edo__hala__bere__pertsonaien__lubakitik__kanpokoekiko__egindako__ustezko__edo__balizko__enpatia__ariketa__bat__edo__auskalo__zer__.	EDU	hori	da	idazleak	DET	VERB	NOUN	.	PUNCT	long	ustezko	<NA>	<NA>	ADJ	<NA>	<NA>	OUT-HEAD	end	<NA>	<NA>	<NA>	<NA>
esan__nahi__dut__badagoela__lubaki__horretatik__kanpo__dagoen__pertsonaia__baten__arrazoiak__eta__kontuan__hartzeko__enpatia__moduko__saio__bat__,	EDU	Esan	nahi	dut	VERB	NOUN	VERB	,	PUNCT	long	dut	<NA>	<NA>	VERB	<NA>	<NA>	IN-HEAD	end	<NA>	<NA>	<NA>	<NA>
baldin__bada__ere__nobelako__protagonistetako__batekin__,__haur__narratzailearen__aitarekin__,__ika-mikan__nork__bere__kontrako__argudioei__gogor__eutsiz__.	EDU	baldin	bada	ere	CONJ	VERB	CONJ	.	PUNCT	long	eutsiz	<NA>	<NA>	VERB	<NA>	<NA>	OUT-HEAD	end	<NA>	<NA>	<NA>	<NA>
osabaren__ezusteko__bisitarekin__lotutako__atalaz__ari__naiz__,__nire__ustetan__euskal__``__lubaki__''__literaturaren__norabide__berri__bat__gogora__edo__irizpidera__ekartzen__duena__:__lubakitik__kanpokoen__ikus/pentsamodeak__nolabait__kontuan__hartzekoa__.	EDU	Osabaren	lubakitik	ezusteko	ADJ	NOUN	NOUN	:	PUNCT	verylong	hartzekoa	naiz	<NA>	VERB	VERB	<NA>	IN-HEAD	last	<NA>	<NA>	<NA>	<NA>

tektonika__,__sedimentazio__eta__fluido-ihesak__euskokantauriar__arroko__ipar__ertzeko__erdi__kretazeoan__.	EDU	Tektonika	,	sedimentazio	ADV	PUNCT	NOUN	.	PUNCT	short	sedimentazio	<NA>	<NA>	NOUN	<NA>	<NA>	IN-HEAD	first	<NA>	<NA>	<NA>	<NA>
euskokantauriar__arroaren__kretazeo__ertaineko__-LRB-__orain__dela__125-100__milioi__urte__-RRB-__bilakaera__bizkaiko__golkoaren__irekitze-prozesuaren__ondorioa__da__.	EDU	Euskokantauriar	Arroaren	Kretazeo	PROPN	NOUN	PROPN	.	PUNCT	long	ondorioa	<NA>	<NA>	NOUN	<NA>	<NA>	IN-HEAD	beginning	numb	<NA>	<NA>	<NA>
garai__hartan__metaturiko__sedimentuek__erregistratu__zituzten__arroan__izandako__prozesuak__eta__kontrol__nagusiak__,__besteen__artean__tektonika__,__sedimentazioa__eta__fluidoen__ihesak__.	EDU	Garai	hartan	metaturiko	NOUN	DET	VERB	.	PUNCT	long	erregistratu	<NA>	<NA>	VERB	<NA>	<NA>	IN-HEAD	beginning	<NA>	<NA>	<NA>	<NA>
arroaren__iparreko__ertzean__hiru__prozesu__hauen__arteko__erlazioa__oso__nabaria__da__,	EDU	Arroaren	iparreko	ertzean	NOUN	NOUN	VERB	,	PUNCT	short	nabaria	<NA>	<NA>	ADJ	<NA>	<NA>	IN-HEAD	beginning	<NA>	<NA>	<NA>	<NA>
eta__erlazio__honen__azterketa__da__,__hain__zuzen__ere__,__ikerketa-lerro__honen__xede__nagusia__.	EDU	eta	erlazio	honen	CONJ	NOUN	DET	.	PUNCT	short	eta	azterketa	xede	CONJ	NOUN	NOUN	OUT-HEAD	beginning	<NA>	<NA>	<NA>	<NA>
erregistro__estratigrafikoaren__-LRB-__arroken__-RRB-__azterketaren__bitartez__interpretatu__dira__prozesu__bakoitzaren__ezaugarriak__eta__aldakortasuna__-LRB-__espazioan__eta__denboran__-RRB-__eta__horien__arteko__harremana__.	EDU	Erregistro	estratigrafikoaren	-LRB-	NOUN	ADJ	PUNCT	.	PUNCT	long	interpretatu	<NA>	<NA>	VERB	<NA>	<NA>	IN-HEAD	beginning	<NA>	<NA>	<NA>	<NA>
orain__arte__eginiko__azterketen__arabera__,__tektonika__da__sedimentazioa__eta__fluido-ihesak__kontrolatzen__dituen__prozesu__nagusia__.	EDU	Orain	arte	eginiko	ADV	ADP	VERB	.	PUNCT	long	prozesu	<NA>	<NA>	NOUN	<NA>	<NA>	IN-HEAD	first-middle	<NA>	<NA>	<NA>	<NA>
ikerketa-lerro__honetan__aurrera__eramaten__diren__arloz-arloko__azterketa__eta__erabilitako__metologia__nagusiak__ondoren__zehazten__dira__.	EDU	Ikerketa-lerro	honetan	aurrera	NOUN	DET	ADP	.	PUNCT	short	zehazten	<NA>	<NA>	VERB	<NA>	<NA>	IN-HEAD	first-middle	<NA>	<NA>	<NA>	<NA>
egitura__tektoniko__sinsedimentario__ugari__ageri__dira__ikerketa-eremuan__,__failak__zein__tolesak__.	EDU	Egitura	tektoniko	sinsedimentario	NOUN	NOUN	NOUN	.	PUNCT	short	dira	<NA>	<NA>	VERB	<NA>	<NA>	OUT-HEAD	first-middle	<NA>	<NA>	<NA>	<NA>
hauek__ezaugarritzeko__erabili__diren__metodologia__nagusiak__ondorengoak__dira__:__kartografia__,__analisi__estrukturala__,__eta__metakin__sintektonikoen__datazioa__eta__fazie-analisia__.	EDU	Hauek	ezaugarritzeko	erabili	DET	VERB	VERB	.	PUNCT	long	ondorengoak	<NA>	<NA>	NOUN	<NA>	<NA>	IN-HEAD	first-middle	<NA>	<NA>	<NA>	<NA>
metodo__hauen__bitartez__jakin__ahal__izan__da__,__besteak__beste__,__egitura__bakoitzaren__adina__,	EDU	Metodo	hauen	bitartez	NOUN	DET	ADP	,	PUNCT	short	izan	adina	<NA>	VERB	ADV	<NA>	IN-HEAD	first-middle	<NA>	<NA>	<NA>	<NA>
jarduera__nolakoa__izan__zen__,	EDU	jarduera	nolakoa	izan	NOUN	ADJ	VERB	,	PUNCT	veryshort	jarduera	izan	<NA>	NOUN	VERB	<NA>	OUT-HEAD	first-middle	<NA>	<NA>	<NA>	<NA>
esfortzu__tektoniko__nagusien__norabideak__,__eta__eragin__zuen__deformazioaren__ratioak__.	EDU	esfortzu	tektoniko	nagusien	NOUN	NOUN	ADJ	.	PUNCT	short	norabideak	eta	eragin	NOUN	CONJ	VERB	OUT-HEAD	first-middle	<NA>	<NA>	<NA>	<NA>
erdi__kretazeoko__erregistro__estratigrafikoa__osatzen__duten__arroken__azterketaren__bitartez__,__ipar__ertzeko__unez-unezko__paleogeografia__ezagutzea__dugu__helburu__,__hots__,__garai__hartako__ingurune__sedimentarioen__ezaugarriak__eta__beren__banaketa__espaziala__zehaztea__.	EDU	Erdi	Kretazeoko	erregistro	ADV	NOUN	NOUN	.	PUNCT	verylong	helburu	<NA>	<NA>	NOUN	<NA>	<NA>	IN-HEAD	second-middle	<NA>	<NA>	<NA>	<NA>
xede__hau__lortzearren__erabili__ditugun__metodo__eta__teknika__nagusiak__ondokoak__dira__:__zutabe__estratigrafikoen__altxaketa__eta__korrelazioa__,__fazie-analisia__,__paleokorronteen__neurketa__,__karbonatozko__mikrofazieen__analisia__,__unitate__estratigrafikoen__bereizketa__eta__dataketa__-LRB-__fosilak__-RRB-__,__eta__arkitektura__deposizionalaren__zehaztea__.	EDU	Xede	zutabe	hau	NOUN	NOUN	DET	.	PUNCT	verylong	ondokoak	zehaztea	<NA>	NOUN	VERB	<NA>	IN-HEAD	second-middle	<NA>	<NA>	<NA>	<NA>
itsaspeko__sedimentuen__baitatik__fluidoek__ihes__egin__zuten__kretazeo__ertaineko__zenbait__alditan__,	EDU	Itsaspeko	sedimentuen	baitatik	NOUN	VERB	NOUN	,	PUNCT	short	egin	<NA>	<NA>	VERB	<NA>	<NA>	IN-HEAD	second-middle	<NA>	<NA>	<NA>	<NA>
garaiko__itsas__hondo__anoxikoan__iturriak__sortu__zirelarik__.	EDU	garaiko	itsas	hondo	NOUN	NOUN	NOUN	.	PUNCT	short	sortu	<NA>	<NA>	VERB	<NA>	<NA>	OUT-HEAD	second-middle	<NA>	<NA>	<NA>	<NA>
iturriei__zerien__fluidoak	EDU	Iturriei	zerien	<NA>	NOUN	NOUN	<NA>	fluidoak	NOUN	veryshort	fluidoak	<NA>	<NA>	NOUN	<NA>	<NA>	OUT-HEAD	second-middle	<NA>	<NA>	<NA>	<NA>
hidrokarburotan__-LRB-__metano__eta__petrolio__-RRB-__aberatsak__zirenez	EDU	hidrokarburotan	-LRB-	metano	NOUN	PUNCT	NOUN	zirenez	VERB	short	hidrokarburotan	-RRB-	aberatsak	NOUN	PUNCT	ADJ	OUT-HEAD	second-middle	<NA>	<NA>	<NA>	<NA>
mikroorganismo__kimiosintetikoek__hidrokarburoen__oxidazio__anaerobikoa__eragin__zuten__sulfatoaren__erredukzioaren__bitartez__,	EDU	mikroorganismo	kimiosintetikoek	hidrokarburoen	NOUN	NOUN	NOUN	,	PUNCT	short	eragin	<NA>	<NA>	VERB	<NA>	<NA>	IN-HEAD	second-middle	<NA>	<NA>	<NA>	<NA>
eta__honen__ondorioz__karbonato__autigenikoak__hauspeatu__ziren__bertan__.	EDU	eta	honen	ondorioz	CONJ	DET	NOUN	.	PUNCT	short	eta	hauspeatu	<NA>	CONJ	VERB	<NA>	OUT-HEAD	end	<NA>	<NA>	<NA>	<NA>
karbonato__hauei__lotuta	EDU	Karbonato	hauei	<NA>	NOUN	DET	<NA>	lotuta	VERB	veryshort	lotuta	<NA>	<NA>	VERB	<NA>	<NA>	OUT-HEAD	end	<NA>	<NA>	<NA>	<NA>
fauna__kimiosinbiotikoen__fosilak__-LRB-__bibalbioak__batez__ere__-RRB-__agertu__dira__.	EDU	fauna	kimiosinbiotikoen	fosilak	NOUN	ADJ	NOUN	.	PUNCT	short	fauna	agertu	<NA>	NOUN	VERB	<NA>	IN-HEAD	end	<NA>	<NA>	<NA>	<NA>
karbonato__autigenikoen__azterketa__multidisziplinarraren__bitartez__interpretatu__ahal__izan__da__ihes__egindako__fluidoen__eta__fluxuen__ezaugarriak__zeintzuk__ziren__,__hala__nola__fluidoen__tenperatura__,__hidrokarburo-aberastasuna__,__hidrokarburo__motak__-LRB-__metano__edo__petrolio__-RRB-__,__hidrokarburoen__jatorria__eta__fluxuen__intentsitatea__.	EDU	Karbonato	autigenikoen	azterketa	NOUN	ADJ	NOUN	.	PUNCT	verylong	tenperatura	<NA>	<NA>	NOUN	<NA>	<NA>	IN-HEAD	end	<NA>	<NA>	<NA>	<NA>
aipatu	EDU	<NA>	<NA>	<NA>	<NA>	<NA>	<NA>	Aipatu	VERB	veryshort	Aipatu	<NA>	<NA>	VERB	<NA>	<NA>	OUT-HEAD	end	<NA>	<NA>	<NA>	<NA>
fluxu__eta__fluidoen__ezaugarriak__zehazteko	EDU	fluxu	eta	fluidoen	NOUN	CONJ	NOUN	zehazteko	VERB	veryshort	zehazteko	<NA>	<NA>	VERB	<NA>	<NA>	OUT-HEAD	end	<NA>	<NA>	<NA>	<NA>
zenbait__analisi__mota__egin__ditugu__karbonato__autigenikoetan__,__esate__baterako__analisi__paleontologikoak__,__petrologikoak__,__geokimiko__inorganikoak__-LRB-__karbono__eta__oxigeno__isotopo__egonkorrak__-RRB-__eta__geokimiko__organikoak__-LRB-__karbono__isotopo__egonkorrak__-RRB-__.	EDU	zenbait	analisi	mota	DET	NOUN	NOUN	.	PUNCT	verylong	egin	<NA>	<NA>	VERB	<NA>	<NA>	IN-HEAD	last	<NA>	<NA>	<NA>	<NA>

