word pos prefw1 prefw2 prefw3 prefp1 prefp2 prefp3 suffw1 suffp1 len headw1 headw2 headw3 headp1 headp2 headp3 head position numb perc money date
bronkiektasia__eta__bgbk__duten__pazienteetan__pseudomonas__aeruginosaren__kolonizazio-infekzioa__.	EDU	Bronkiektasia	eta	BGBK	PROPN	CONJ	PROPN	.	PUNCT	short	kolonizazio-infekzioa	<NA>	<NA>	NOUN	<NA>	<NA>	OUT-HEAD	first	<NA>	<NA>	<NA>	<NA>
bronkiektasiak__-LRB-__fibrosi__kistikoa__-RRB-__edo__biriketako__gaixotasun__butxatzaile__kronikoak__-LRB-__bgbk__-RRB-__–pseudomonas__aeruginosa__bidezko__kolonizazio__edo__infekzioarekin–__dituzten__pazienteen__ezaugarri__epidemiologiko__,__kliniko__,__mikrobiologiko__eta__ebolutibo__jakin__batzuk__ezagutzea__.	EDU	Bronkiektasiak	-LRB-	fibrosi	PROPN	PUNCT	NOUN	.	PUNCT	verylong	dituzten	<NA>	<NA>	VERB	<NA>	<NA>	IN-HEAD	beginning	<NA>	<NA>	<NA>	<NA>
arnas__hartzeko__arazoak__dituzten__39__paziente__kroniko__aztertu__dira__;	EDU	Arnas	hartzeko	arazoak	NOUN	VERB	NOUN	;	PUNCT	short	aztertu	<NA>	<NA>	VERB	<NA>	<NA>	IN-HEAD	beginning	numb	<NA>	<NA>	<NA>
1998an__iritsi__ziren__gure__zentrora	EDU	1998an	iritsi	ziren	NUM	VERB	AUX	zentrora	NOUN	veryshort	iritsi	<NA>	<NA>	VERB	<NA>	<NA>	OUT-HEAD	beginning	numb	<NA>	<NA>	<NA>
eta__p.__aeruginosa__isolatu__zen__haien__kerruan__.	EDU	aeruginosa	isolatu	zen	NOUN	VERB	AUX	.	PUNCT	short	isolatu	eta	P	VERB	CONJ	PROPN	IN-HEAD	beginning	<NA>	<NA>	<NA>	<NA>
besteak__beste__,__parametro__klinikoak__,__epidemiologikoak__eta__mikrobiologikoak__analizatu__ziren__.	EDU	Besteak	beste	,	DET	DET	PUNCT	.	PUNCT	short	analizatu	<NA>	<NA>	VERB	<NA>	<NA>	IN-HEAD	beginning	<NA>	<NA>	<NA>	<NA>
era__berean__,__sentikortasun__antimikrobianoa__eta__tipo__genetikoak__ere__zehaztu__ziren__.	EDU	Era	berean	,	NOUN	DET	PUNCT	.	PUNCT	short	zehaztu	<NA>	<NA>	VERB	<NA>	<NA>	IN-HEAD	beginning	<NA>	<NA>	<NA>	<NA>
23__pazienteren__segimendu__kliniko__eta__mikrobiologikoa__egin__zen__urtebetez__-LRB-__azterketa__genetikoa__barne__-RRB-__.	EDU	23	pazienteren	segimendu	NUM	NOUN	NOUN	.	PUNCT	short	egin	<NA>	<NA>	VERB	<NA>	<NA>	IN-HEAD	beginning	numb	<NA>	<NA>	<NA>
24__pazientek__bronkiektasiak__zituzten__-LRB-__1998an__ingresatuko__%__12k__-RRB-__;__15__pazientek__,__bgbk__.	EDU	24	pazientek	bronkiektasiak	NUM	NOUN	VERB	.	PUNCT	long	bronkiektasiak	<NA>	<NA>	VERB	<NA>	<NA>	IN-HEAD	beginning	numb	<NA>	<NA>	<NA>
paziente__guztiek__butxadura-maila__handiak__zituzten__arnasbideetan__-LRB-__fev1__&__lt__;__%__45__-RRB-__.	EDU	Paziente	guztiek	butxadura-maila	NOUN	DET	NOUN	.	PUNCT	short	zituzten	<NA>	<NA>	VERB	<NA>	<NA>	IN-HEAD	first-middle	numb	<NA>	<NA>	<NA>
22__pazientek__-LRB-__%__56__-RRB-__arnas__gutxiegitasun__kroniko__zuten__.	EDU	22	pazientek	-LRB-	NUM	NOUN	PUNCT	.	PUNCT	short	kroniko	<NA>	<NA>	VERB	<NA>	<NA>	IN-HEAD	first-middle	numb	<NA>	<NA>	<NA>
aztertutako__42__anduietatik	EDU	Aztertutako	42	<NA>	VERB	NUM	<NA>	anduietatik	NOUN	veryshort	anduietatik	<NA>	<NA>	NOUN	<NA>	<NA>	OUT-HEAD	first-middle	numb	<NA>	<NA>	<NA>
-LRB-__3__pazientek__2na__andui__zituzten__-RRB-__,	EDU	-LRB-	3	pazientek	PUNCT	NUM	NOUN	,	PUNCT	short	-LRB-	andui	<NA>	PUNCT	VERB	<NA>	IN-HEAD	first-middle	numb	<NA>	<NA>	<NA>
14__mukizkoak__ziren__eta__28__ez-mukizkoak__.	EDU	14	mukizkoak	ziren	NUM	NOUN	VERB	.	PUNCT	short	ziren	eta	ez-mukizkoak	VERB	CONJ	NOUN	OUT-HEAD	first-middle	numb	<NA>	<NA>	<NA>
antibiogramak__erresistentzi__maila__apala__erakusten__du__amikazina__-LRB-__%__0__-RRB-__,__tikarzilina__-LRB-__%__5__-RRB-__,__imipenem__-LRB-__%__13,3__-RRB-__eta__gantamizinarekiko__-LRB-__%__14,2__-RRB-__.	EDU	Antibiogramak	erresistentzi	maila	PROPN	NOUN	NOUN	.	PUNCT	verylong	erakusten	<NA>	<NA>	VERB	<NA>	<NA>	IN-HEAD	first-middle	numb	<NA>	<NA>	<NA>
eboluzioan__zehar__,__pazienteen__%__74ek__antimikrobiano__bat__edo__gehiagorekiko__erresistentziak__garatu__dituzte__.	EDU	Eboluzioan	zehar	,	NOUN	ADP	PUNCT	.	PUNCT	short	garatu	<NA>	<NA>	VERB	<NA>	<NA>	IN-HEAD	first-middle	numb	<NA>	<NA>	<NA>
eboluzio__klinikoari__dagokionez__,__heriotza-tasa__%__38koa__izan__da__urtebetean__.	EDU	Eboluzio	klinikoari	dagokionez	NOUN	NOUN	VERB	.	PUNCT	short	izan	<NA>	<NA>	VERB	<NA>	<NA>	IN-HEAD	first-middle	numb	<NA>	<NA>	<NA>
kasuen__%__20an__bakarrik__lortu__da__p.__aeruginosa__behin__betiko__ezabatzea__;	EDU	Kasuen	aeruginosa	%	ADJ	NOUN	PUNCT	P.	PROPN	short	ezabatzea	lortu	<NA>	VERB	VERB	<NA>	IN-HEAD	first-middle	numb	<NA>	<NA>	<NA>
%__66ean__mikroorganismoak__iraun__egin__du	EDU	%	66ean	mikroorganismoak	PUNCT	NUM	NOUN	du	AUX	short	iraun	<NA>	<NA>	VERB	<NA>	<NA>	IN-HEAD	second-middle	numb	<NA>	<NA>	<NA>
eta__%__13,3an__berragertu__egin__da	EDU	eta	%	13,3an	CONJ	PUNCT	NUM	da	AUX	short	eta	%	berragertu	CONJ	PUNCT	VERB	OUT-HEAD	second-middle	numb	<NA>	<NA>	<NA>
itxuraz__ezabatua__izan__ondoren__.	EDU	itxuraz	ezabatua	izan	ADV	VERB	VERB	.	PUNCT	veryshort	ezabatua	<NA>	<NA>	VERB	<NA>	<NA>	OUT-HEAD	second-middle	<NA>	<NA>	<NA>	<NA>
azterketa__genetikoak__erakusten__duenez__,	EDU	Azterketa	genetikoak	erakusten	NOUN	ADJ	VERB	,	PUNCT	veryshort	erakusten	<NA>	<NA>	VERB	<NA>	<NA>	OUT-HEAD	second-middle	<NA>	<NA>	<NA>	<NA>
pazienteen__%__82k__klon__bakar__bat__dute__;	EDU	pazienteen	%	82k	NOUN	PUNCT	PROPN	;	PUNCT	short	dute	<NA>	<NA>	VERB	<NA>	<NA>	IN-HEAD	second-middle	numb	<NA>	<NA>	<NA>
klon__hori__da__,__oro__har__,__irauteko__joera__duena__,__aldagai__subzionalekin__kasuren__batean__edo__beste__.	EDU	klon	hori	da	ADV	DET	VERB	.	PUNCT	long	klon	da	<NA>	ADV	VERB	<NA>	OUT-HEAD	second-middle	<NA>	<NA>	<NA>	<NA>
genetikoki__aztertutako__41__pazienteetatik__,__29k__-LRB-__%__70__-RRB-__klon__propioa__dute__-LRB-__esklusiboa__-RRB-	EDU	Genetikoki	aztertutako	41	ADV	VERB	NUM	-RRB-	PUNCT	long	dute	<NA>	<NA>	VERB	<NA>	<NA>	IN-HEAD	second-middle	numb	<NA>	<NA>	<NA>
eta__12k__-LRB-__%__29__-RRB-__paziente__batekin__edo__birekin__gehienez__elkarbanatzen__dute__berea__.	EDU	eta	12k	-LRB-	CONJ	PROPN	PUNCT	.	PUNCT	short	eta	12k	-LRB-	CONJ	PROPN	PUNCT	OUT-HEAD	second-middle	numb	<NA>	<NA>	<NA>
kerruan__identifikatutako__p.__aeruginosa__eta__ondesteko__frotisekoa__berberak__dira	EDU	Kerruan	aeruginosa	identifikatutako	NOUN	NOUN	VERB	dira	VERB	short	P.	berberak	dira	PROPN	DET	VERB	IN-HEAD	second-middle	<NA>	<NA>	<NA>	<NA>
mikroorganismo__hori__bi__laginetan__identifikatu__zen__kasuen__-LRB-__10__kasu__-RRB-__%__90ean__.	EDU	mikroorganismo	hori	bi	NOUN	DET	NUM	.	PUNCT	short	identifikatu	<NA>	<NA>	VERB	<NA>	<NA>	IN-HEAD	end	numb	<NA>	<NA>	<NA>
p.__aeruginosa__bidezko__kolonizazio-infekzioak__bronkio-gaixotasun__kronikoak__dituzten__pazienteei__eragiten__die	EDU	P	aeruginosa	.	PROPN	NOUN	PUNCT	die	AUX	short	P	eragiten	<NA>	PROPN	VERB	<NA>	IN-HEAD	end	<NA>	<NA>	<NA>	<NA>
eta__haien__eboluzioa__korapilatzen__du__;	EDU	eta	haien	eboluzioa	CONJ	DET	NOUN	;	PUNCT	short	eta	korapilatzen	<NA>	CONJ	VERB	<NA>	OUT-HEAD	end	<NA>	<NA>	<NA>	<NA>
horrek__heriotza-tasa__handitu	EDU	horrek	heriotza-tasa	<NA>	DET	NOUN	<NA>	handitu	VERB	veryshort	handitu	<NA>	<NA>	VERB	<NA>	<NA>	OUT-HEAD	end	<NA>	<NA>	<NA>	<NA>
eta__ospitaleko__ingresu__berrien__kopurua__areagotzen__du__.	EDU	eta	ospitaleko	ingresu	CONJ	NOUN	NOUN	.	PUNCT	short	eta	areagotzen	<NA>	CONJ	VERB	<NA>	OUT-HEAD	end	<NA>	<NA>	<NA>	<NA>
pseudomonak__tratamendu__antibiotikoa__izan__duten__pazienteetan__irauteko__gaitasuna__du__.	EDU	Pseudomonak	tratamendu	antibiotikoa	PROPN	NOUN	ADJ	.	PUNCT	short	du	<NA>	<NA>	VERB	<NA>	<NA>	IN-HEAD	end	<NA>	<NA>	<NA>	<NA>
azterketa__genetikoen__arabera__,__pseudomona__bera__da__irauteko__joera__duena__;	EDU	Azterketa	genetikoen	arabera	NOUN	ADJ	ADP	;	PUNCT	short	duena	<NA>	<NA>	VERB	<NA>	<NA>	IN-HEAD	end	<NA>	<NA>	<NA>	<NA>
beraz__,__sentikortasun__antimikrobianoaren__etengabeko__aldaketa__ebolutiboak__ez__daude__,__oro__har__,__geruza__berrien__mende__.	EDU	beraz	,	sentikortasun	CONJ	PUNCT	NOUN	.	PUNCT	long	beraz	daude	mende	CONJ	VERB	NOUN	OUT-HEAD	end	<NA>	<NA>	<NA>	<NA>
paziente__gehienek__ez__dituzte__klon__berdinak__elkarbanatzen__;	EDU	Paziente	gehienek	ez	NOUN	DET	PART	;	PUNCT	short	elkarbanatzen	<NA>	<NA>	VERB	<NA>	<NA>	OUT-HEAD	end	<NA>	<NA>	<NA>	<NA>
ondorioz__,__ez__dirudi__infekzio-iturri__komun__bat__dagoenik__,__salbuespenak__salbuespen__.	EDU	ondorioz	,	ez	NOUN	PUNCT	PART	.	PUNCT	short	ondorioz	dirudi	<NA>	NOUN	VERB	<NA>	IN-HEAD	last	<NA>	<NA>	<NA>	<NA>

argiaren__erreinua__/__joseba__lozano__/__alberdania__,__2011__best-seller__bai__,__baina__...__leire__zubeldia__/__gara,2012-11-25	EDU	Argiaren	erreinua	/	NOUN	NOUN	PUNCT	2012-11-25	NUM	long	Alberdania	<NA>	<NA>	PROPN	<NA>	<NA>	IN-HEAD	first	numb	<NA>	<NA>	date
praga__.	EDU	Praga	<NA>	<NA>	PROPN	<NA>	<NA>	.	PUNCT	veryshort	Praga	<NA>	<NA>	PROPN	<NA>	<NA>	OUT-HEAD	beginning	<NA>	<NA>	<NA>	<NA>
jan__voget__poliziaren__taldeak__emakume__baten__gorpua__aurkitu__du__laku__baten__ondoan__.	EDU	Jan	Voget	poliziaren	PROPN	PROPN	NOUN	.	PUNCT	short	aurkitu	<NA>	<NA>	VERB	<NA>	<NA>	IN-HEAD	beginning	<NA>	<NA>	<NA>	<NA>
emakumeak__lepoa__moztua__du__,	EDU	Emakumeak	lepoa	moztua	NOUN	NOUN	VERB	,	PUNCT	veryshort	du	<NA>	<NA>	VERB	<NA>	<NA>	IN-HEAD	beginning	<NA>	<NA>	<NA>	<NA>
abitu__txuri__bat__darama__jantzita__,	EDU	abitu	txuri	bat	NOUN	NOUN	NUM	,	PUNCT	short	jantzita	<NA>	<NA>	VERB	<NA>	<NA>	OUT-HEAD	beginning	<NA>	<NA>	<NA>	<NA>
eta__bi__begiak__falta__zaizkio__.	EDU	eta	bi	begiak	CONJ	NUM	NOUN	.	PUNCT	short	eta	falta	<NA>	CONJ	VERB	<NA>	OUT-HEAD	beginning	<NA>	<NA>	<NA>	<NA>
handik__gutxira__bigarren__emakume__bat__agertzen__da	EDU	Handik	gutxira	bigarren	ADV	DET	NUM	da	AUX	short	agertzen	<NA>	<NA>	VERB	<NA>	<NA>	IN-HEAD	beginning	<NA>	<NA>	<NA>	<NA>
hilda__.	EDU	hilda	<NA>	<NA>	NOUN	<NA>	<NA>	.	PUNCT	veryshort	hilda	<NA>	<NA>	NOUN	<NA>	<NA>	OUT-HEAD	beginning	<NA>	<NA>	<NA>	<NA>
kasu__honetan__kiskalita__du__gorpua__,	EDU	Kasu	honetan	kiskalita	NOUN	DET	NOUN	,	PUNCT	short	du	<NA>	<NA>	VERB	<NA>	<NA>	IN-HEAD	beginning	<NA>	<NA>	<NA>	<NA>
baina__honek__ere__abitu__txuria__darama__gainean__,	EDU	baina	honek	ere	CONJ	DET	CONJ	,	PUNCT	short	baina	honek	ere	CONJ	DET	CONJ	OUT-HEAD	beginning	<NA>	<NA>	<NA>	<NA>
eta__gorputzeko__beste__atal__bat__falta__zaio__:__hortzak__.	EDU	hortzak	.	eta	NOUN	PUNCT	CONJ	:	PUNCT	short	hortzak	eta	falta	NOUN	CONJ	VERB	IN-HEAD	beginning	<NA>	<NA>	<NA>	<NA>
zalantzarik__ez__dago__.	EDU	Zalantzarik	ez	dago	NOUN	PART	VERB	.	PUNCT	veryshort	dago	<NA>	<NA>	VERB	<NA>	<NA>	IN-HEAD	beginning	<NA>	<NA>	<NA>	<NA>
serieko__hiltzaile__bat__da__bi__hilketen__egilea__.	EDU	Serieko	hiltzaile	bat	PROPN	NOUN	NUM	.	PUNCT	short	egilea	<NA>	<NA>	NOUN	<NA>	<NA>	IN-HEAD	beginning	<NA>	<NA>	<NA>	<NA>
jan__vogeten__taldea__norabide__finkorik__gabe__ikertzen__ari__den__bitartean__,	EDU	Jan	Vogeten	taldea	PROPN	PROPN	NOUN	,	PUNCT	short	bitartean	<NA>	<NA>	NOUN	<NA>	<NA>	OUT-HEAD	beginning	<NA>	<NA>	<NA>	<NA>
kriminologiari__buruzko__blog__batek__alemanian__agertutako__hirugarren__gorpu__baten__berria__zabaltzen__du__.	EDU	kriminologiari	buruzko	blog	NOUN	ADP	NOUN	.	PUNCT	short	zabaltzen	<NA>	<NA>	VERB	<NA>	<NA>	IN-HEAD	first-middle	<NA>	<NA>	<NA>	<NA>
hirugarren__emakume__honek__ere__abitu__txuria__darama__jantzita	EDU	Hirugarren	emakume	honek	NUM	NOUN	DET	jantzita	VERB	short	jantzita	<NA>	<NA>	VERB	<NA>	<NA>	IN-HEAD	first-middle	<NA>	<NA>	<NA>	<NA>
eta__bularra__falta__du__.	EDU	eta	bularra	falta	CONJ	NOUN	NOUN	.	PUNCT	veryshort	eta	du	<NA>	CONJ	VERB	<NA>	OUT-HEAD	first-middle	<NA>	<NA>	<NA>	<NA>
anna__da__poliziari__aurre__hartu__dion__blogaria__.	EDU	Anna	da	poliziari	PROPN	VERB	NOUN	.	PUNCT	short	hartu	<NA>	<NA>	VERB	<NA>	<NA>	IN-HEAD	first-middle	<NA>	<NA>	<NA>	<NA>
bere__aldetik__ikertzen__hasiko__da__.	EDU	Bere	aldetik	ikertzen	DET	NOUN	VERB	.	PUNCT	short	hasiko	<NA>	<NA>	VERB	<NA>	<NA>	IN-HEAD	first-middle	<NA>	<NA>	<NA>	<NA>
horra__hor__nobelako__protagonistetako__bi__:__jan__eta__ana__.	EDU	Horra	Jan	hor	ADV	PROPN	ADV	:	PUNCT	short	Jan	:	<NA>	PROPN	PUNCT	<NA>	OUT-HEAD	first-middle	<NA>	<NA>	<NA>	<NA>
liburuaren__erdi__paretik__aurrera__ordea__,__beste__pertsonaia__bat__agertzen__da__:__fran__.	EDU	Liburuaren	Fran	erdi	NOUN	PROPN	NOUN	:	PUNCT	short	Fran	agertzen	<NA>	PROPN	VERB	<NA>	IN-HEAD	first-middle	<NA>	<NA>	<NA>	<NA>
ikerketa__lanetara__batuko__den__hirugarren__laguna__.	EDU	Ikerketa	lanetara	batuko	NOUN	NOUN	VERB	.	PUNCT	short	laguna	<NA>	<NA>	NOUN	<NA>	<NA>	IN-HEAD	first-middle	<NA>	<NA>	<NA>	<NA>
lehenengoak__pisu__nabarmena__du__hasieran__,	EDU	Lehenengoak	pisu	nabarmena	NUM	NOUN	ADJ	,	PUNCT	short	du	<NA>	<NA>	VERB	<NA>	<NA>	IN-HEAD	first-middle	<NA>	<NA>	<NA>	<NA>
baina__istorioak__aurrera__egin__ahala__,	EDU	baina	istorioak	aurrera	CONJ	NOUN	ADV	,	PUNCT	short	baina	egin	<NA>	CONJ	VERB	<NA>	OUT-HEAD	first-middle	<NA>	<NA>	<NA>	<NA>
azken__bi__pertsonaiek__erabateko__garrantzia__hartuko__dute__.	EDU	azken	bi	pertsonaiek	NUM	NUM	NOUN	.	PUNCT	short	hartuko	<NA>	<NA>	VERB	<NA>	<NA>	OUT-HEAD	first-middle	<NA>	<NA>	<NA>	<NA>
dena__den__,__protagonista__nagusiok__ikerketaren__azaleko__testuinguruan__ezagutuko__ditugu__.	EDU	Dena	den	,	VERB	AUX	PUNCT	.	PUNCT	short	ezagutuko	<NA>	<NA>	VERB	<NA>	<NA>	IN-HEAD	first-middle	<NA>	<NA>	<NA>	<NA>
izan__ere__,__egilea__ez__da__pertsonaien__bizitzaz__hitz__egiteko__geratzen__.	EDU	Izan	ere	,	VERB	CONJ	PUNCT	.	PUNCT	short	da	<NA>	<NA>	VERB	<NA>	<NA>	IN-HEAD	first-middle	<NA>	<NA>	<NA>	<NA>
istorioaren__ildo__nagusitik__at__,__janen__droga-menpekotasunaz__eta__honen__arrazoiaz__arituko__zaigu__soilik__.	EDU	Istorioaren	ildo	nagusitik	ADJ	NOUN	ADJ	.	PUNCT	short	arituko	<NA>	<NA>	VERB	<NA>	<NA>	IN-HEAD	first-middle	<NA>	<NA>	<NA>	<NA>
badira__pertsonaia__gehiago__ere__,	EDU	Badira	pertsonaia	gehiago	VERB	NOUN	DET	,	PUNCT	veryshort	Badira	<NA>	<NA>	VERB	<NA>	<NA>	OUT-HEAD	first-middle	<NA>	<NA>	<NA>	<NA>
baina__ez__noa__horiek__aipatzera__,	EDU	baina	ez	noa	CONJ	PART	VERB	,	PUNCT	short	baina	noa	<NA>	CONJ	VERB	<NA>	OUT-HEAD	second-middle	<NA>	<NA>	<NA>	<NA>
ez__baita__komeni__irakurleari__gauza__gehiegi__aurretik__kontatzea__.	EDU	ez	baita	komeni	PART	AUX	VERB	.	PUNCT	short	komeni	<NA>	<NA>	VERB	<NA>	<NA>	OUT-HEAD	second-middle	<NA>	<NA>	<NA>	<NA>
ohiko__best-seller__baten__ezaugarriak__dituen__nobela__baten__aurrean__gaude__.	EDU	Ohiko	best-seller	baten	DET	NOUN	NUM	.	PUNCT	short	gaude	<NA>	<NA>	VERB	<NA>	<NA>	IN-HEAD	second-middle	<NA>	<NA>	<NA>	<NA>
nabari__da__joseba__lozanok__liburu__salduenen__osagaiekin__osatu__nahi__izan__duela__bere__lehenengo__eleberria__.	EDU	Nabari	da	Joseba	ADJ	VERB	PROPN	.	PUNCT	short	da	<NA>	<NA>	VERB	<NA>	<NA>	IN-HEAD	second-middle	<NA>	<NA>	<NA>	<NA>
hirugarren__orrian__agertzen__da__lehenengo__hilotza__,	EDU	Hirugarren	orrian	agertzen	NUM	NOUN	VERB	,	PUNCT	short	agertzen	<NA>	<NA>	VERB	<NA>	<NA>	IN-HEAD	second-middle	<NA>	<NA>	<NA>	<NA>
eta__68.__orrirako__irakurlea__beste__bi__hilketen__jakitun__da__.	EDU	eta	68.	orrirako	CONJ	NUM	NOUN	.	PUNCT	short	eta	jakitun	<NA>	CONJ	VERB	<NA>	OUT-HEAD	second-middle	numb	<NA>	<NA>	<NA>
kapituluak__oso__motzak__dira__,	EDU	Kapituluak	oso	motzak	NOUN	ADV	ADJ	,	PUNCT	veryshort	motzak	<NA>	<NA>	ADJ	<NA>	<NA>	IN-HEAD	second-middle	<NA>	<NA>	<NA>	<NA>
eta__horietariko__bakoitzaren__amaieran__misterioa__areagotzen__duen__gertakari__bat__jazotzen__da__,	EDU	eta	horietariko	bakoitzaren	CONJ	DET	ADJ	,	PUNCT	short	eta	jazotzen	<NA>	CONJ	VERB	<NA>	OUT-HEAD	second-middle	<NA>	<NA>	<NA>	<NA>
hurrengo__kapituluarekin__kate-begi__lana__eginez__.	EDU	hurrengo	kapituluarekin	kate-begi	ADJ	ADJ	NOUN	.	PUNCT	short	eginez	<NA>	<NA>	VERB	<NA>	<NA>	OUT-HEAD	second-middle	<NA>	<NA>	<NA>	<NA>
ekintza__ugariko__nobela__da__,	EDU	Ekintza	ugariko	nobela	NOUN	ADJ	NOUN	,	PUNCT	veryshort	nobela	<NA>	<NA>	NOUN	<NA>	<NA>	IN-HEAD	second-middle	<NA>	<NA>	<NA>	<NA>
bizia__,__azkarra__,__idazkera__zuzenez__,__zorrotzez__,__kontatua__.	EDU	bizia	,	azkarra	NOUN	PUNCT	ADJ	.	PUNCT	short	bizia	azkarra	kontatua	NOUN	ADJ	NOUN	OUT-HEAD	second-middle	<NA>	<NA>	<NA>	<NA>
ahots__narratzailea__orojakilea__da__,	EDU	Ahots	narratzailea	orojakilea	NOUN	ADJ	NOUN	,	PUNCT	veryshort	orojakilea	<NA>	<NA>	NOUN	<NA>	<NA>	IN-HEAD	second-middle	<NA>	<NA>	<NA>	<NA>
eta__fokua__aldatzen__du__pertsonaia__batetik__bestera__,__komenigarritasunaren__arabera__.	EDU	eta	fokua	aldatzen	CONJ	NOUN	VERB	.	PUNCT	short	eta	aldatzen	komenigarritasunaren	CONJ	VERB	NOUN	OUT-HEAD	second-middle	<NA>	<NA>	<NA>	<NA>
baina__...	EDU	Baina	<NA>	<NA>	CONJ	<NA>	<NA>	...	PUNCT	veryshort	...	<NA>	<NA>	PUNCT	<NA>	<NA>	OUT-HEAD	second-middle	<NA>	<NA>	<NA>	<NA>
beti__dago__``__baina__''__-ren__bat__.	EDU	Beti	dago	"	ADV	VERB	SYM	.	PUNCT	short	dago	<NA>	<NA>	VERB	<NA>	<NA>	IN-HEAD	second-middle	<NA>	<NA>	<NA>	<NA>
noan__aitortzera__ez__naizela__best-seller__zalea__,	EDU	Noan	aitortzera	ez	NOUN	VERB	PART	,	PUNCT	short	aitortzera	ez	naizela	VERB	PART	AUX	OUT-HEAD	end	<NA>	<NA>	<NA>	<NA>
eta__eleberri__honek__zaletasun__ezaren__arrazoiak__baieztatu__dizkit__:	EDU	eta	eleberri	honek	CONJ	NOUN	DET	:	PUNCT	short	eta	baieztatu	<NA>	CONJ	VERB	<NA>	IN-HEAD	end	<NA>	<NA>	<NA>	<NA>
ekintzak__ez__dio__literaturari__lekurik__uzten__,	EDU	ekintzak	ez	dio	NOUN	PART	AUX	,	PUNCT	short	uzten	<NA>	<NA>	VERB	<NA>	<NA>	IN-HEAD	end	<NA>	<NA>	<NA>	<NA>
misterioa__sortzeko__formulak__bertsuak__izaten__dira__beti__,__eta__erlijioaren__gaiarekin__lotutakoak__askotan__,__kasu__honetan__bezala__.	EDU	misterioa	sortzeko	formulak	NOUN	VERB	NOUN	.	PUNCT	long	bertsuak	eta	lotutakoak	ADJ	CONJ	NOUN	OUT-HEAD	end	<NA>	<NA>	<NA>	<NA>
bestalde__,__pertsonaiak__ez__dira__garatzen__.	EDU	Bestalde	,	pertsonaiak	CONJ	PUNCT	NOUN	.	PUNCT	short	garatzen	<NA>	<NA>	VERB	<NA>	<NA>	IN-HEAD	end	<NA>	<NA>	<NA>	<NA>
era__berean__,__irakurlea__harrapatzeko__sortutako__misterioa__era__sinesgarrian__argitzea__zailegi__suertatzen__zaio__egileari	EDU	Era	berean	,	NOUN	DET	PUNCT	egileari	NOUN	short	suertatzen	<NA>	<NA>	VERB	<NA>	<NA>	IN-HEAD	end	<NA>	<NA>	<NA>	<NA>
eta__bidezidorren__bat__hartu__behar__izaten__du__.	EDU	eta	bidezidorren	bat	CONJ	NUM	NUM	.	PUNCT	short	eta	izaten	<NA>	CONJ	VERB	<NA>	OUT-HEAD	end	<NA>	<NA>	<NA>	<NA>
eta__eleberriaren__azken__orria__,__azken__hitza__irakurtzean__,	EDU	Eta	eleberriaren	azken	CONJ	NOUN	NUM	,	PUNCT	short	Eta	orria	irakurtzean	CONJ	NOUN	VERB	OUT-HEAD	end	<NA>	<NA>	<NA>	<NA>
irakurlea__,__ni__behintzat__,__hasieran__bezala__geratzen__da__.	EDU	irakurlea	,	ni	NOUN	PUNCT	PRON	.	PUNCT	short	geratzen	<NA>	<NA>	VERB	<NA>	<NA>	IN-HEAD	end	<NA>	<NA>	<NA>	<NA>
ez__da__ezer__aldatzen__irakurlearentzat__.	EDU	Ez	da	ezer	PART	AUX	PRON	.	PUNCT	short	aldatzen	<NA>	<NA>	VERB	<NA>	<NA>	IN-HEAD	end	<NA>	<NA>	<NA>	<NA>
ez__dago__ez__gogoetarik__,__ez__sentimendurik__,__ez__inolako__eraginik__.	EDU	Ez	dago	ez	PART	VERB	PART	.	PUNCT	short	dago	<NA>	<NA>	VERB	<NA>	<NA>	IN-HEAD	end	<NA>	<NA>	<NA>	<NA>
baina__...	EDU	Baina	<NA>	<NA>	CONJ	<NA>	<NA>	...	PUNCT	veryshort	Baina	...	<NA>	CONJ	PUNCT	<NA>	OUT-HEAD	end	<NA>	<NA>	<NA>	<NA>
beti__dago__bainaren__bat__.	EDU	Beti	dago	bainaren	ADV	VERB	ADJ	.	PUNCT	veryshort	dago	<NA>	<NA>	VERB	<NA>	<NA>	IN-HEAD	end	<NA>	<NA>	<NA>	<NA>
euskarak__ere__behar__ditu__best-seller-ak__.	EDU	Euskarak	ere	behar	PROPN	CONJ	NOUN	.	PUNCT	short	ditu	<NA>	<NA>	VERB	<NA>	<NA>	IN-HEAD	end	<NA>	<NA>	<NA>	<NA>
hor__doakizue__bat__zaleak__zaretenontzat__.	EDU	Hor	doakizue	bat	ADV	VERB	NUM	.	PUNCT	short	zaretenontzat	<NA>	<NA>	ADJ	<NA>	<NA>	IN-HEAD	end	<NA>	<NA>	<NA>	<NA>
argiaren__erreinua__.	EDU	Argiaren	erreinua	<NA>	NOUN	NOUN	<NA>	.	PUNCT	veryshort	erreinua	<NA>	<NA>	NOUN	<NA>	<NA>	IN-HEAD	last	<NA>	<NA>	<NA>	<NA>

argumentu-harremana__/__eremu-harremana__:__izenondo__erreferentzialen__euskal__ordainen__bila__.	EDU	Argumentu-harremana	izenondo	/	NOUN	NOUN	PUNCT	.	PUNCT	short	Argumentu-harremana	ordainen	<NA>	NOUN	NOUN	<NA>	IN-HEAD	first	<NA>	<NA>	<NA>	<NA>
ezaguna__da__izenondo__erreferentzialek__sekulako__arazoak__sortzen__dizkietela__edozein__testu__euskaratu__behar__duten__itzultzaileei__.	EDU	Ezaguna	da	izenondo	NOUN	VERB	NOUN	.	PUNCT	short	izenondo	<NA>	<NA>	NOUN	<NA>	<NA>	IN-HEAD	beginning	<NA>	<NA>	<NA>	<NA>
askotan__jarri__da__agerian__hainbat__bide__erabili__behar__direla	EDU	Askotan	jarri	da	ADV	VERB	AUX	direla	VERB	short	jarri	direla	<NA>	VERB	VERB	<NA>	IN-HEAD	beginning	<NA>	<NA>	<NA>	<NA>
inguruko__hizkuntzen__izenondo__erreferentzialen__euskal__ordainak__lortzeko__-LRB-__ensunza__,__1989__;__loinaz__,__1995__-RRB-	EDU	inguruko	hizkuntzen	izenondo	NOUN	NOUN	NOUN	-RRB-	PUNCT	long	lortzeko	-LRB-	Ensunza	VERB	PUNCT	NOUN	OUT-HEAD	beginning	numb	<NA>	<NA>	date
baina__edonola__,__idazle/itzultzailearen__zuhurtasunaren__,__intuizio__onaren__edota__estetika-zentzuaren__azpian__uzten__da__neurri__handian__kasu__bakoitzean__erabili__behar__den__baliabidearen__aukeraketa__.	EDU	baina	edonola	,	CONJ	ADV	PUNCT	.	PUNCT	long	baina	edonola	zuhurtasunaren	CONJ	ADV	NOUN	OUT-HEAD	beginning	<NA>	<NA>	<NA>	<NA>
izenondo__erreferentzialak__izenetatik__eratorritakoak__izaten__dira__beti	EDU	Izenondo	erreferentzialak	izenetatik	NOUN	ADJ	NOUN	beti	ADV	short	izaten	<NA>	<NA>	VERB	<NA>	<NA>	OUT-HEAD	beginning	<NA>	<NA>	<NA>	<NA>
baina__askotan__,__jatorria__eta__izaera__erreferentziala__nahasi	EDU	baina	askotan	,	CONJ	ADV	PUNCT	nahasi	VERB	short	baina	askotan	<NA>	CONJ	ADV	<NA>	OUT-HEAD	beginning	<NA>	<NA>	<NA>	<NA>
eta__zaku__berean__sartzen__dira__erabat__predikatiboak__diren__izenondoak__,__zalantzarik__gabe__erreferentzial__hutsak__diren__izenondoekin__.	EDU	eta	zaku	berean	CONJ	NOUN	DET	.	PUNCT	long	eta	sartzen	izenondoekin	CONJ	VERB	NOUN	OUT-HEAD	beginning	<NA>	<NA>	<NA>	<NA>
ingeleserako__levi-k__-LRB-__1978__-RRB-__garbi__utzi__du__izenetik__eratorriak__diren__baina__ezaugarri__semantiko__eta__sintaktiko__desberdinak__dituzten__bi__izenondo-mota__bereizteko__beharra__:__'nominal__nonpredicating__adjectives__'__eta__'denominal__adjectives__'__;	EDU	Ingeleserako	'nominal	Levi-k	NOUN	NOUN	PROPN	:	PUNCT	verylong	utzi	<NA>	<NA>	VERB	<NA>	<NA>	IN-HEAD	beginning	numb	<NA>	<NA>	date
azkenekoak__-y__,__-fill__eta__-ous__bezalako__atzizkien__bidez__eratorritakoak__dira	EDU	azkenekoak	-y	,	NOUN	PROPN	PUNCT	dira	VERB	short	azkenekoak	eratorritakoak	<NA>	NOUN	VERB	<NA>	IN-HEAD	beginning	<NA>	<NA>	<NA>	<NA>
eta__haien__gramatika-kategoria__ezezik__,__haien__predikatuizaera__ere__jasoko__lukete__atzizkitik__.	EDU	eta	haien	gramatika-kategoria	CONJ	DET	NOUN	.	PUNCT	short	eta	jasoko	<NA>	CONJ	VERB	<NA>	OUT-HEAD	beginning	<NA>	<NA>	<NA>	<NA>
'nominal__nonpredicating__adjectives__'__sailean__sartuko__liratekeenak__berriz__,	EDU	'Nominal	nonpredicating	adjectives	PROPN	PROPN	NOUN	,	PUNCT	short	sartuko	liratekeenak	berriz	VERB	NUM	CONJ	IN-HEAD	beginning	<NA>	<NA>	<NA>	<NA>
kategoriaz__izenondoak__izanik__ere__,	EDU	kategoriaz	izenondoak	izanik	NOUN	NOUN	VERB	,	PUNCT	veryshort	izanik	<NA>	<NA>	VERB	<NA>	<NA>	OUT-HEAD	beginning	<NA>	<NA>	<NA>	<NA>
izenen__antzeko__jokaera__sintaktikoa__izango__lukete__:__linguistic__difficulties__/__language__difficulties__.	EDU	linguistic	difficulties	/	NOUN	NOUN	PUNCT	:	PUNCT	short	difficulties	<NA>	<NA>	NOUN	<NA>	<NA>	OUT-HEAD	beginning	<NA>	<NA>	<NA>	<NA>
gaztelaniaren__kasuan__bosque-k__-LRB-__1989__-RRB-__defenditu__duen__bezala__,	EDU	Gaztelaniaren	kasuan	Bosque-k	PROPN	NOUN	PROPN	,	PUNCT	short	defenditu	<NA>	<NA>	VERB	<NA>	<NA>	OUT-HEAD	first-middle	numb	<NA>	<NA>	date
badira__izenondo__erreferentzialak__nekez__ematen__dituzten__atzizki__izenondo-sortzaileak__-LRB-__-esco__,__-oso__,__-ino__-RRB-__eta__izenondo__erreferentzialak__eman__ohi__dituztenak__-LRB-__-al__,__-ar__,__-ario__,__-ico__-RRB-__.	EDU	badira	izenondo	erreferentzialak	VERB	NOUN	ADJ	.	PUNCT	verylong	-ario	<NA>	<NA>	NOUN	<NA>	<NA>	IN-HEAD	first-middle	<NA>	<NA>	<NA>	<NA>
frantsesez__ere__atzizki__desberdinak__erabili__ohi__dira	EDU	Frantsesez	ere	atzizki	PROPN	CONJ	NOUN	dira	VERB	short	dira	<NA>	<NA>	VERB	<NA>	<NA>	OUT-HEAD	first-middle	<NA>	<NA>	<NA>	<NA>
izenondo__erreferentzialak__eta__predikatiboak__sortzeko	EDU	izenondo	erreferentzialak	eta	NOUN	ADJ	CONJ	sortzeko	VERB	veryshort	sortzeko	<NA>	<NA>	VERB	<NA>	<NA>	OUT-HEAD	first-middle	<NA>	<NA>	<NA>	<NA>
eta__ondorioz__,__familial-familier__eta__infantil-infantin__bezalako__bikoteak__dituzte__.	EDU	eta	ondorioz	,	CONJ	NOUN	PUNCT	.	PUNCT	short	eta	dituzte	<NA>	CONJ	VERB	<NA>	OUT-HEAD	first-middle	<NA>	<NA>	<NA>	<NA>
edonola__,__benetan__erreferentzialak__diren__izenondoen__artean__ere__,__modifikatzen__duten__izenarekin__duten__harremanagatik__-LRB-__bosque__,__1989__;__1992__;__bosque__eta__picallo__,__1994__-RRB-__,__bi__mota__bereiz__daitezke__:	EDU	Edonola	,	benetan	ADV	PUNCT	ADV	:	PUNCT	verylong	bereiz	<NA>	<NA>	VERB	<NA>	<NA>	IN-HEAD	first-middle	numb	<NA>	<NA>	date
alde__batetik	EDU	alde	<NA>	<NA>	NOUN	<NA>	<NA>	batetik	NUM	veryshort	alde	<NA>	<NA>	NOUN	<NA>	<NA>	OUT-HEAD	first-middle	<NA>	<NA>	<NA>	<NA>
modifikatzen__duten__izena__ekintza-__edo__ondorio-izena__denean__,	EDU	modifikatzen	duten	izena	VERB	AUX	NOUN	,	PUNCT	short	ekintza-	<NA>	<NA>	PUNCT	<NA>	<NA>	OUT-HEAD	first-middle	<NA>	<NA>	<NA>	<NA>
askotan__gertatzen__da__izenondo__erreferentziala__izen__horren__argumentua__izatea__.	EDU	askotan	gertatzen	da	ADV	VERB	AUX	.	PUNCT	short	gertatzen	<NA>	<NA>	VERB	<NA>	<NA>	IN-HEAD	first-middle	<NA>	<NA>	<NA>	<NA>
adibidez__,__decisión__presidencial__ezinbestean__izango__da__presidenteak__erabakitakoa__eta__extracción__dental__hortz__edo__hagin__baten__ateratzearen__ekintza__.	EDU	Adibidez	,	decisión	ADV	PUNCT	NOUN	.	PUNCT	long	izango	<NA>	<NA>	VERB	<NA>	<NA>	IN-HEAD	first-middle	<NA>	<NA>	<NA>	<NA>
bistan__da__azken__kasuan__dental__izenondoa__extraer__aditzaren__osagarri__zuzenaren__parekoa__dela__eta__euskaraz__izen__elkartu__sintetikoak__hautagai__bikainak__direla__hauetarako__-LRB-__hortz-ateratzea__-RRB-__.	EDU	Bistan	da	azken	NOUN	VERB	NUM	.	PUNCT	long	da	<NA>	<NA>	VERB	<NA>	<NA>	IN-HEAD	first-middle	<NA>	<NA>	<NA>	<NA>
decisión__presidencial__ostera__,__nekez__egingo__dugu__presidente-erabaki	EDU	Decisión	presidencial	ostera	NOUN	ADJ	CONJ	presidente-erabaki	NOUN	short	egingo	presidente-erabaki	<NA>	VERB	NOUN	<NA>	OUT-HEAD	first-middle	<NA>	<NA>	<NA>	<NA>
eta__presidentearen__erabaki__aukeratuko__dugu__ia__zalantzarik__gabe__.	EDU	eta	presidentearen	erabaki	CONJ	NOUN	VERB	.	PUNCT	short	eta	presidentearen	aukeratuko	CONJ	NOUN	VERB	IN-HEAD	first-middle	<NA>	<NA>	<NA>	<NA>
zein__da__desberdintasun__honen__arrazoia__,__izen__elkartuaren__mugatzailearen__'subjektutasuna__'__ala__elementu__horren__'mugatutasuna__'__?	EDU	Zein	da	desberdintasun	DET	VERB	NOUN	?	PUNCT	long	arrazoia	<NA>	<NA>	NOUN	<NA>	<NA>	IN-HEAD	first-middle	<NA>	<NA>	<NA>	<NA>
bestetik__,	EDU	Bestetik	<NA>	<NA>	DET	<NA>	<NA>	,	PUNCT	veryshort	Bestetik	<NA>	<NA>	DET	<NA>	<NA>	OUT-HEAD	first-middle	<NA>	<NA>	<NA>	<NA>
izenondo__erreferentzialek__modifikatzen__dutena__-LRB-__argurmentu-egiturarik__gabeko__objektu-__-RRB-__izena__denean__,	EDU	izenondo	erreferentzialek	modifikatzen	NOUN	ADJ	VERB	,	PUNCT	short	modifikatzen	<NA>	<NA>	VERB	<NA>	<NA>	IN-HEAD	second-middle	<NA>	<NA>	<NA>	<NA>
izenaren__eta__izenondoaren__arteko__harremana__ezin__aurresan__daiteke__;	EDU	izenaren	eta	izenondoaren	NOUN	CONJ	NOUN	;	PUNCT	short	aurresan	<NA>	<NA>	VERB	<NA>	<NA>	OUT-HEAD	second-middle	<NA>	<NA>	<NA>	<NA>
hiztegigileek__-ri__dagokion__perifrasiaren__bidez__definitzen__duten__esparru-harremana__edo__jabego-harremana__dugu__orduan__.	EDU	hiztegigileek	-ri	dagokion	NOUN	NOUN	VERB	.	PUNCT	short	dugu	<NA>	<NA>	VERB	<NA>	<NA>	OUT-HEAD	second-middle	<NA>	<NA>	<NA>	<NA>
adibidez__,__hilo__dental__hortzak__garbitzeko__erabiltzen__den__haria__da	EDU	Adibidez	,	hilo	ADV	PUNCT	ADV	da	VERB	short	haria	<NA>	<NA>	NOUN	<NA>	<NA>	IN-HEAD	second-middle	<NA>	<NA>	<NA>	<NA>
eta__euskaraz__,__hortzetako__haria__nahiago__genuke__seguruenik__hortz-haria__baino__.	EDU	eta	euskaraz	,	CONJ	NOUN	PUNCT	.	PUNCT	short	eta	genuke	<NA>	CONJ	VERB	<NA>	OUT-HEAD	second-middle	<NA>	<NA>	<NA>	<NA>
azkenik__,__fonetikaren__esparruan__erabiltzen__den__consonante__dental__multzorako__kontsonante__horzkaria__erabiltzen__da__eta__ez__hortz-kontsonante__.	EDU	Azkenik	,	fonetikaren	ADV	PUNCT	NOUN	.	PUNCT	long	erabiltzen	<NA>	<NA>	VERB	<NA>	<NA>	IN-HEAD	second-middle	<NA>	<NA>	<NA>	<NA>
laburbilduz__,__unibertsala__da__izenen__eta__haien__modifikatzaileen__artean__egon__daitezkeen__harremanen__sailkapena__:__predikatu-izaera__duten__modifikatzaileak__alde__batetik__eta__izaera__erreferentziala__duten__modifikatzaileak__bestetik__.	EDU	Laburbilduz	predikatu-	,	VERB	PUNCT	PUNCT	:	PUNCT	verylong	sailkapena	<NA>	<NA>	NOUN	<NA>	<NA>	IN-HEAD	second-middle	<NA>	<NA>	<NA>	<NA>
gainera__,__azken__multzo__honen__barruan__izenaren__argumentuak__diren__modifikatzaileak__eta__izenarekin__jabego-__edo__eremu-harremana__dutenak__daude__.	EDU	Gainera	,	azken	CONJ	PUNCT	NUM	.	PUNCT	long	jabego-	<NA>	<NA>	PUNCT	<NA>	<NA>	OUT-HEAD	second-middle	<NA>	<NA>	<NA>	<NA>
harreman__horiek__gramatika-kategoria__desberdinen__bidez__adieraz__daitezke__hizkuntza__batean__eta__beste__batean__:__izenondoen__bidez__,__preposizio-__edo__posposizio-sintagmen__bidez__,__izen__elkartuen__bidez__e.a__.	EDU	Harreman	izenondoen	horiek	NOUN	NOUN	DET	.	PUNCT	verylong	izenondoen	preposizio-	adieraz	NOUN	PUNCT	VERB	IN-HEAD	second-middle	<NA>	<NA>	<NA>	<NA>
esate__baterako__,__ingeleseko__marginal__adjektiboak__erabilera__erreferentziala__eta__predikatiboa__ditu__hurrenez__hurren__marginal__note__eta__marginal__case__multzoetan__;	EDU	Esate	baterako	,	NOUN	NUM	PUNCT	;	PUNCT	long	Esate	erabilera	eta	NOUN	NOUN	CONJ	IN-HEAD	second-middle	<NA>	<NA>	<NA>	<NA>
gaztelaniaz__berriz__,__erabilera__erreferentziala__eta__predikatiboa__bereizten__dituzte__,	EDU	gaztelaniaz	berriz	,	NOUN	CONJ	PUNCT	,	PUNCT	short	bereizten	<NA>	<NA>	VERB	<NA>	<NA>	OUT-HEAD	second-middle	<NA>	<NA>	<NA>	<NA>
nota__al__margen__eta__caso__marginal__eginez__.	EDU	nota	al	margen	NOUN	ADJ	NOUN	.	PUNCT	short	eginez	<NA>	<NA>	VERB	<NA>	<NA>	OUT-HEAD	second-middle	<NA>	<NA>	<NA>	<NA>
euskararako__,__'elhuyar__hiztegian__'__albo-ohar__edo__marjinako__ohar__aurki__daiteke__erabilera__erreferentzialerako__baina__bazterreko__kasu__bezalako__adibideak__erabilera__predikatiborako__.	EDU	Euskararako	,	'Elhuyar	NOUN	PUNCT	PROPN	.	PUNCT	long	aurki	<NA>	<NA>	VERB	<NA>	<NA>	IN-HEAD	second-middle	<NA>	<NA>	<NA>	<NA>
edonola__,__zenbait__hizkuntzatan__,__deskribaturiko__hiru__esparruak__estaltzen__dituzten__izenondoak__daude__;	EDU	Edonola	,	zenbait	ADV	PUNCT	DET	;	PUNCT	short	daude	<NA>	<NA>	VERB	<NA>	<NA>	IN-HEAD	second-middle	<NA>	<NA>	<NA>	<NA>
levi-ren__adibideak__gogoraraziko__ditugu__horretarako__:__musical__voice__,__musical__criticism__,__musical__comedy__.	EDU	musical	voice	,	NOUN	NOUN	PUNCT	:	PUNCT	short	voice	horretarako	:	NOUN	DET	PUNCT	IN-HEAD	second-middle	<NA>	<NA>	<NA>	<NA>
lan__honetan__,__harreman__unibertsal__horietako__bakoitza__euskaraz__zein__baliabideren__bidez__adieraz__daitekeen__eta__baliabide__bakoitzaren__mugak__-LRB-__gaur__egun__behintzat__-RRB-__non__egon__daitezkeen__finkatzen__saiatuko__gara__:	EDU	Lan	honetan	,	NOUN	DET	PUNCT	:	PUNCT	verylong	saiatuko	<NA>	<NA>	VERB	<NA>	<NA>	IN-HEAD	end	<NA>	<NA>	<NA>	<NA>
euskal__atzizki__izenondo-sortzaileen__bidez__,__zein__motatako__izenondoak__sor__daitezke__?	EDU	Euskal	atzizki	izenondo-sortzaileen	NOUN	NOUN	NOUN	?	PUNCT	short	sor	<NA>	<NA>	VERB	<NA>	<NA>	IN-HEAD	end	<NA>	<NA>	<NA>	<NA>
zenbait__izenondo__erreferentzial__izen__elkartuen__bidez__euskara__badaitezke__ere__,	EDU	Zenbait	izenondo	erreferentzial	DET	NOUN	NOUN	,	PUNCT	short	euskara	<NA>	<NA>	NOUN	<NA>	<NA>	OUT-HEAD	end	<NA>	<NA>	<NA>	<NA>
garbi__dago__bide__honek__ez__dituela__izenondo__erreferentzial__guztien__ordainak__eskaintzen__.	EDU	garbi	dago	bide	ADV	VERB	NOUN	.	PUNCT	short	dago	<NA>	<NA>	VERB	<NA>	<NA>	IN-HEAD	end	<NA>	<NA>	<NA>	<NA>
non__dago__muga__?	EDU	Non	dago	muga	ADV	VERB	NOUN	?	PUNCT	veryshort	dago	<NA>	<NA>	VERB	<NA>	<NA>	IN-HEAD	end	<NA>	<NA>	<NA>	<NA>
predikatu-/ez-predikatu__izaeran__,__argumentu-/eremu-__/jabego-harremanean__edo__beste__nonbait__al__datza__gakoa__?	EDU	Predikatu-	/ez-predikatu	izaeran	NOUN	VERB	NOUN	?	PUNCT	short	gakoa	<NA>	<NA>	NOUN	<NA>	<NA>	IN-HEAD	end	<NA>	<NA>	<NA>	<NA>
izenondoaren__jatorrian__dagoen__izenaren__mugatu/mugagabe__,__bizidun/bizigabe__,__zenbakarri/zenbakaitza__bezalako__tasunek__ba__al__dute__nolabaiteko__eraginik__?	EDU	Izenondoaren	jatorrian	dagoen	ADJ	NOUN	VERB	?	PUNCT	long	dute	<NA>	<NA>	VERB	<NA>	<NA>	IN-HEAD	end	<NA>	<NA>	<NA>	<NA>
modifikatua__den__izena__ekintza-__,__ondorio-__edo__objektu-izena__izateak__ba__al__du__eraginik__ezintasun__horretan__?	EDU	Modifikatua	den	izena	VERB	VERB	NOUN	?	PUNCT	long	al	<NA>	<NA>	VERB	<NA>	<NA>	IN-HEAD	end	<NA>	<NA>	<NA>	<NA>
zein__dira	EDU	Zein	<NA>	<NA>	DET	<NA>	<NA>	dira	VERB	veryshort	Zein	<NA>	<NA>	DET	<NA>	<NA>	IN-HEAD	end	<NA>	<NA>	<NA>	<NA>
erdal__izenondo__erreferentzial__bat__ezinbestean__mailegatu__behar__izatera	EDU	erdal	izenondo	erreferentzial	NOUN	NOUN	ADJ	izatera	VERB	short	izatera	<NA>	<NA>	VERB	<NA>	<NA>	OUT-HEAD	end	<NA>	<NA>	<NA>	<NA>
eraman__gaitzaketen__baldintzak__?	EDU	eraman	gaitzaketen	baldintzak	VERB	PROPN	NOUN	?	PUNCT	veryshort	eraman	<NA>	<NA>	VERB	<NA>	<NA>	OUT-HEAD	end	<NA>	<NA>	<NA>	<NA>
noiz__erabili__ohi__ditugu__euskal__izenlagunak	EDU	Noiz	erabili	ohi	ADV	VERB	X	izenlagunak	NOUN	short	ditugu	<NA>	<NA>	VERB	<NA>	<NA>	IN-HEAD	end	<NA>	<NA>	<NA>	<NA>
erdal__izenondoak__ordezkatzeko__?	EDU	erdal	izenondoak	ordezkatzeko	NOUN	NOUN	VERB	?	PUNCT	veryshort	ordezkatzeko	<NA>	<NA>	VERB	<NA>	<NA>	OUT-HEAD	end	<NA>	<NA>	<NA>	<NA>
lanaren__helburua__laburki__esanda__,	EDU	Lanaren	helburua	laburki	NOUN	NOUN	ADV	,	PUNCT	veryshort	esanda	<NA>	<NA>	VERB	<NA>	<NA>	IN-HEAD	end	<NA>	<NA>	<NA>	<NA>
inguruko__hizkuntzen__izenondo__erreferentzialak__euskaratzeko__beharrean__gaudenean	EDU	inguruko	hizkuntzen	izenondo	NOUN	NOUN	NOUN	gaudenean	NOUN	short	gaudenean	<NA>	<NA>	NOUN	<NA>	<NA>	OUT-HEAD	end	<NA>	<NA>	<NA>	<NA>
modu__automatiko__samarrean__egiten__lagunduko__ligukeen__sistematizazioa__lortzea__da__.	EDU	modu	automatiko	samarrean	NOUN	ADJ	ADV	.	PUNCT	short	lortzea	<NA>	<NA>	VERB	<NA>	<NA>	OUT-HEAD	last	<NA>	<NA>	<NA>	<NA>

hutsegiteen__garaia__/__mohamed__xukri__-LRB-__arantzazu__royo__-RRB-__/__igela__,__2014__epopeia__latza__alex__gurrutxaga__/__berria,2015-01-11	EDU	Hutsegiteen	garaia	/	NOUN	NOUN	PUNCT	,2015-01-11	NUM	long	Epopeia	Alex	/	NOUN	PROPN	PUNCT	OUT-HEAD	first	numb	<NA>	<NA>	date
hutsegiteen__garaia__mohamed__xukriren__trilogia__autobiografikoaren__bigarren__liburua__da__,__ogi__hutsa-ren__ondorengoa__.	EDU	Hutsegiteen	garaia	Mohamed	NOUN	NOUN	PROPN	.	PUNCT	short	liburua	<NA>	<NA>	NOUN	<NA>	<NA>	IN-HEAD	beginning	<NA>	<NA>	<NA>	<NA>
hartan__haurtzaroa__zuen__hizpide__idazleak__;	EDU	Hartan	haurtzaroa	zuen	DET	NOUN	VERB	;	PUNCT	short	zuen	<NA>	<NA>	VERB	<NA>	<NA>	OUT-HEAD	beginning	<NA>	<NA>	<NA>	<NA>
hemen__20__urte__inguru__dituenetik	EDU	hemen	20	urte	ADV	NUM	NOUN	dituenetik	NOUN	veryshort	hemen	dituenetik	<NA>	ADV	NOUN	<NA>	OUT-HEAD	beginning	numb	<NA>	<NA>	<NA>
aurrerakoak__kontatzen__ditu	EDU	aurrerakoak	kontatzen	<NA>	ADJ	VERB	<NA>	ditu	AUX	veryshort	aurrerakoak	kontatzen	<NA>	ADJ	VERB	<NA>	OUT-HEAD	beginning	<NA>	<NA>	<NA>	<NA>
eta__,__ogi__hutsa__bezala__,__liburu__gogorra__bezain__ederra__da__.	EDU	eta	,	Ogi	CONJ	PUNCT	NOUN	.	PUNCT	short	eta	Ogi	bezala	CONJ	NOUN	ADV	IN-HEAD	beginning	<NA>	<NA>	<NA>	<NA>
larachen__abiatzen__da__nobela__,	EDU	Larachen	abiatzen	da	NUM	VERB	AUX	,	PUNCT	veryshort	abiatzen	<NA>	<NA>	VERB	<NA>	<NA>	OUT-HEAD	beginning	<NA>	<NA>	<NA>	<NA>
1956an__,__xukri__ikasle__hasten__denean__,	EDU	1956an	,	Xukri	NUM	PUNCT	PROPN	,	PUNCT	short	1956an	hasten	<NA>	NUM	VERB	<NA>	IN-HEAD	beginning	numb	<NA>	<NA>	<NA>
eta__hortik__aurrera__hainbat__dira__espazioak__:__tetuan__,__ceuta__eta__,__batez__ere__,__tanger__:	EDU	Tetuan	,	Ceuta	NOUN	PUNCT	PROPN	:	PUNCT	long	Tetuan	<NA>	<NA>	NOUN	<NA>	<NA>	IN-HEAD	beginning	<NA>	<NA>	<NA>	<NA>
xukriren__hitzetan__,__``__hiri__madarikatu__nirea__;__ihes__eginda__ere__,__ezin__bizi__bata__bestea__gabe__''__.	EDU	Xukriren	hitzetan	,	PROPN	NOUN	PUNCT	.	PUNCT	long	madarikatu	<NA>	<NA>	VERB	<NA>	<NA>	IN-HEAD	beginning	<NA>	<NA>	<NA>	<NA>
izan__ere__,__xukriren__biografia__oso__lotua__dago__txikitatik__kaleko__bizitzari__.	EDU	Izan	ere	,	VERB	CONJ	PUNCT	.	PUNCT	short	<NA>	<NA>	<NA>	<NA>	<NA>	<NA>	OUT-HEAD	beginning	<NA>	<NA>	<NA>	<NA>
miseria__pairatu__zuen__,__gosea__,__zikinkeria__,__biolentzia__,__prostituzioa__eta__alkohola__,	EDU	Miseria	pairatu	zuen	NOUN	VERB	AUX	,	PUNCT	short	pairatu	<NA>	<NA>	VERB	<NA>	<NA>	IN-HEAD	beginning	<NA>	<NA>	<NA>	<NA>
eta__osagai__horiek__daude__haren__literaturan__borborka__:	EDU	eta	osagai	horiek	CONJ	NOUN	DET	:	PUNCT	short	eta	daude	:	CONJ	VERB	PUNCT	OUT-HEAD	beginning	<NA>	<NA>	<NA>	<NA>
``__mozkorren__,__haxix-zaleen__eta__gautxorien__bideari__jarraitzen__nion__.	EDU	"	Mozkorren	,	SYM	PROPN	PUNCT	.	PUNCT	short	jarraitzen	<NA>	<NA>	VERB	<NA>	<NA>	IN-HEAD	beginning	<NA>	<NA>	<NA>	<NA>
beti__aurkitzen__nuen__lekua__haien__artean__.	EDU	Beti	aurkitzen	nuen	ADV	VERB	AUX	.	PUNCT	short	aurkitzen	<NA>	<NA>	VERB	<NA>	<NA>	IN-HEAD	beginning	<NA>	<NA>	<NA>	<NA>
izan__ere__,__oroitzapen__berberak__genituen__,__hizkuntza__bera__;__geure__mundua__gau__eta__egun__,__geure__madarikazio__ederrean__''__.	EDU	Izan	ere	,	VERB	CONJ	PUNCT	.	PUNCT	long	genituen	<NA>	<NA>	VERB	<NA>	<NA>	IN-HEAD	first-middle	<NA>	<NA>	<NA>	<NA>
eroetxean__ere__egin__zituen__lau__hilabete__inguru__,	EDU	Eroetxean	ere	egin	NOUN	CONJ	VERB	,	PUNCT	short	egin	<NA>	<NA>	VERB	<NA>	<NA>	IN-HEAD	first-middle	<NA>	<NA>	<NA>	<NA>
eta__egonaldi__horri__eskaintzen__dio__ahaztuak__kapitulua__.	EDU	eta	egonaldi	horri	CONJ	NOUN	DET	.	PUNCT	short	eta	eskaintzen	<NA>	CONJ	VERB	<NA>	OUT-HEAD	first-middle	<NA>	<NA>	<NA>	<NA>
hutsegiteen__garaia-n__agertzen__dira__bere__bizitzako__aurreneko__erreferentzia__literarioak__:__safi__ed-din__al-hili__,__al-manfaluti__,__victor__hugo__,__eta__beste__asko__.	EDU	Hutsegiteen	Safi	garaia-n	NOUN	PROPN	NOUN	.	PUNCT	long	Safi	agertzen	<NA>	PROPN	VERB	<NA>	IN-HEAD	first-middle	<NA>	<NA>	<NA>	<NA>
horrela__,__idazlearen__esnatzea__ikusten__dugu__apurka	EDU	Horrela	,	idazlearen	ADV	PUNCT	NOUN	apurka	NOUN	short	ikusten	<NA>	<NA>	VERB	<NA>	<NA>	IN-HEAD	first-middle	<NA>	<NA>	<NA>	<NA>
--__60koetan__hasi__zen__argitaratzen__,	EDU	-	-	60koetan	PUNCT	PUNCT	ADV	,	PUNCT	short	-	-	hasi	PUNCT	PUNCT	VERB	OUT-HEAD	first-middle	numb	<NA>	<NA>	<NA>
baina__urte__luzez__zentsuratua__izan__zen__arabieraz__--__.	EDU	baina	urte	luzez	CONJ	NOUN	ADJ	.	PUNCT	short	baina	izan	-	CONJ	VERB	PUNCT	OUT-HEAD	first-middle	<NA>	<NA>	<NA>	<NA>
irakurketek__erakutsi__zioten__,__xukrik	EDU	Irakurketek	erakutsi	zioten	PROPN	VERB	AUX	Xukrik	PROPN	veryshort	erakutsi	<NA>	<NA>	VERB	<NA>	<NA>	OUT-HEAD	first-middle	<NA>	<NA>	<NA>	<NA>
berak__miel__a.__elustondori__elkarrizketa__batean__esan__zionez__,	EDU	Elustondori	elkarrizketa	batean	PROPN	NOUN	NUM	A.	NOUN	short	esan	A.	<NA>	VERB	NOUN	<NA>	IN-HEAD	first-middle	<NA>	<NA>	<NA>	<NA>
``__herri__baten__historia__poetak__idazten__duela__-LSB-__...__-RSB-	EDU	-RSB-	"	herri	PUNCT	SYM	NOUN	...	PUNCT	short	-RSB-	idazten	-LSB-	PUNCT	VERB	PUNCT	OUT-HEAD	first-middle	<NA>	<NA>	<NA>	<NA>
historia__ofiziala__ordaindurik__dago__''__.	EDU	Historia	ofiziala	ordaindurik	NOUN	ADJ	VERB	.	PUNCT	short	dago	<NA>	<NA>	VERB	<NA>	<NA>	IN-HEAD	first-middle	<NA>	<NA>	<NA>	<NA>
xukri__,__kontrara__,__bere__bizi-baldintzek__nabarmen__markatutako__idazlea__da__;	EDU	Xukri	,	kontrara	PROPN	PUNCT	ADV	;	PUNCT	short	idazlea	<NA>	<NA>	NOUN	<NA>	<NA>	IN-HEAD	first-middle	<NA>	<NA>	<NA>	<NA>
honela__idazten__du__hutsegiteen__garaia-n__:	EDU	honela	idazten	du	ADV	VERB	AUX	:	PUNCT	short	idazten	:	<NA>	VERB	PUNCT	<NA>	OUT-HEAD	first-middle	<NA>	<NA>	<NA>	<NA>
``__bera__ez__zen__aberatsen__zabor__artean__ibili	EDU	"	Bera	ez	SYM	DET	PART	ibili	VERB	short	ibili	<NA>	<NA>	VERB	<NA>	<NA>	IN-HEAD	first-middle	<NA>	<NA>	<NA>	<NA>
jateko__,	EDU	jateko	<NA>	<NA>	VERB	<NA>	<NA>	,	PUNCT	veryshort	jateko	<NA>	<NA>	VERB	<NA>	<NA>	OUT-HEAD	first-middle	<NA>	<NA>	<NA>	<NA>
ez__zen__zorriz__beterik__ibili__,	EDU	ez	zen	zorriz	PART	AUX	VERB	,	PUNCT	short	ez	zen	beterik	PART	AUX	VERB	OUT-HEAD	second-middle	<NA>	<NA>	<NA>	<NA>
ez__zituen__izan__orpo__zartatuak__odoletan__.	EDU	ez	zituen	izan	PART	AUX	VERB	.	PUNCT	short	ez	zituen	izan	PART	AUX	VERB	OUT-HEAD	second-middle	<NA>	<NA>	<NA>	<NA>
nik__ez__nekien__nola__idatzi__txorien__esneari__buruz__,__ez__aingeru-edertasunaren__laztan__samurraz__-LRB-__...__-RRB-__.	EDU	Nik	-RRB-	ez	PRON	PUNCT	PART	...	PUNCT	long	-RRB-	samurraz	<NA>	PUNCT	VERB	<NA>	IN-HEAD	second-middle	<NA>	<NA>	<NA>	<NA>
ez__nekien__nola__idatzi__buruan__kristalezko__pintzel__bat__izanik__.	EDU	Ez	nekien	nola	PART	VERB	ADV	.	PUNCT	short	nekien	<NA>	<NA>	VERB	<NA>	<NA>	IN-HEAD	second-middle	<NA>	<NA>	<NA>	<NA>
pintzela__protesta__da__,__ez__apaingarri__bat__''__.	EDU	Pintzela	protesta	da	NOUN	NOUN	VERB	.	PUNCT	short	apaingarri	<NA>	<NA>	ADJ	<NA>	<NA>	IN-HEAD	second-middle	<NA>	<NA>	<NA>	<NA>
pertsonaia__asko__agertzen__dira__nobelan__,	EDU	Pertsonaia	asko	agertzen	NOUN	DET	VERB	,	PUNCT	short	agertzen	<NA>	<NA>	VERB	<NA>	<NA>	IN-HEAD	second-middle	<NA>	<NA>	<NA>	<NA>
eta__gehienak__istoriotik__sartu__eta__atera__egiten__dira__.	EDU	eta	gehienak	istoriotik	CONJ	DET	NOUN	.	PUNCT	short	eta	sartu	eta	CONJ	VERB	CONJ	OUT-HEAD	second-middle	<NA>	<NA>	<NA>	<NA>
zenbait__kapitulu__pertsonaien__erretratu__modukoak__dira__,	EDU	Zenbait	kapitulu	pertsonaien	DET	NOUN	PRON	,	PUNCT	short	modukoak	dira	<NA>	NOUN	VERB	<NA>	OUT-HEAD	second-middle	<NA>	<NA>	<NA>	<NA>
eta__horien__bidez__hainbat__gai__jorratzen__ditu__idazleak__;	EDU	eta	horien	bidez	CONJ	DET	ADP	;	PUNCT	short	eta	jorratzen	<NA>	CONJ	VERB	<NA>	OUT-HEAD	second-middle	<NA>	<NA>	<NA>	<NA>
lechevalier__edo__patricia__atal__ederrak__aipa__daitezke__,__edo__rosario__atala__,__zeinetan__frankismoa__den__gai__nagusietako__bat__.	EDU	Lechevalier	edo	Patricia	PROPN	CONJ	PROPN	.	PUNCT	long	aipa	edo	frankismoa	VERB	CONJ	NOUN	IN-HEAD	second-middle	<NA>	<NA>	<NA>	<NA>
autobiografia__izaki__,	EDU	Autobiografia	izaki	<NA>	NOUN	VERB	<NA>	,	PUNCT	veryshort	izaki	<NA>	<NA>	VERB	<NA>	<NA>	OUT-HEAD	second-middle	<NA>	<NA>	<NA>	<NA>
oroitzapenei__segika	EDU	oroitzapenei	<NA>	<NA>	NOUN	<NA>	<NA>	segika	NOUN	veryshort	oroitzapenei	segika	<NA>	NOUN	NOUN	<NA>	OUT-HEAD	second-middle	<NA>	<NA>	<NA>	<NA>
aurrera__eta__atzera__ibiltzen__da__narratzailea__,__batera__eta__bestera__,	EDU	aurrera	eta	atzera	ADP	CONJ	ADV	,	PUNCT	short	aurrera	eta	atzera	ADP	CONJ	ADV	OUT-HEAD	second-middle	<NA>	<NA>	<NA>	<NA>
eta__zehazgabetasun__hori__ongi__ezkontzen__da__tramarekin__,	EDU	eta	zehazgabetasun	hori	CONJ	NOUN	DET	,	PUNCT	short	eta	ezkontzen	<NA>	CONJ	VERB	<NA>	OUT-HEAD	second-middle	<NA>	<NA>	<NA>	<NA>
honek__berea__baitu__giro__nahasia__.	EDU	honek	berea	baitu	DET	NOUN	VERB	.	PUNCT	short	<NA>	<NA>	<NA>	<NA>	<NA>	<NA>	OUT-HEAD	second-middle	<NA>	<NA>	<NA>	<NA>
beharbada__,__liburuaren__erditik__atzera__elipsi__batzuk__handiegiak__gerta__daitezke__,	EDU	Beharbada	,	liburuaren	ADV	PUNCT	NOUN	,	PUNCT	short	gerta	<NA>	<NA>	VERB	<NA>	<NA>	IN-HEAD	second-middle	<NA>	<NA>	<NA>	<NA>
konkrezio__falta	EDU	konkrezio	<NA>	<NA>	NOUN	<NA>	<NA>	falta	NOUN	veryshort	falta	<NA>	<NA>	NOUN	<NA>	<NA>	OUT-HEAD	end	<NA>	<NA>	<NA>	<NA>
mugara__eramana	EDU	mugara	<NA>	<NA>	NOUN	<NA>	<NA>	eramana	VERB	veryshort	mugara	eramana	<NA>	NOUN	VERB	<NA>	OUT-HEAD	end	<NA>	<NA>	<NA>	<NA>
baitago__.	EDU	baitago	<NA>	<NA>	VERB	<NA>	<NA>	.	PUNCT	veryshort	baitago	<NA>	<NA>	VERB	<NA>	<NA>	OUT-HEAD	end	<NA>	<NA>	<NA>	<NA>
abiadura__biziko__testua__da__,__elipsi__askorekin__,	EDU	Abiadura	biziko	testua	NOUN	ADJ	NOUN	,	PUNCT	short	da	<NA>	<NA>	VERB	<NA>	<NA>	OUT-HEAD	end	<NA>	<NA>	<NA>	<NA>
eta__estilo__zuzen__eta__gordina__dauka__,__zakarra__,__ia__baloraziorik__gabea__.	EDU	eta	estilo	zuzen	CONJ	NOUN	ADJ	.	PUNCT	short	eta	dauka	zakarra	CONJ	VERB	ADJ	IN-HEAD	end	<NA>	<NA>	<NA>	<NA>
esanguratsua__da__joseba__sarrionandiak__ogi__hutsa-ri__buruz__idatzi__zuena__:	EDU	Esanguratsua	da	Joseba	ADJ	VERB	PROPN	:	PUNCT	short	Esanguratsua	<NA>	<NA>	ADJ	<NA>	<NA>	IN-HEAD	end	<NA>	<NA>	<NA>	<NA>
``__arabiar__tradizioaren__kontrako__mendekutzat__har__daiteke__,	EDU	"	Arabiar	tradizioaren	SYM	ADJ	NOUN	,	PUNCT	short	har	<NA>	<NA>	VERB	<NA>	<NA>	IN-HEAD	end	<NA>	<NA>	<NA>	<NA>
mohamed__xukrik__arabiera__koraniko__literarioaren__dotoretasun__guzia__kraskatu__baitzuen__,	EDU	Mohamed	Xukrik	arabiera	PROPN	PROPN	NOUN	,	PUNCT	short	kraskatu	<NA>	<NA>	VERB	<NA>	<NA>	OUT-HEAD	end	<NA>	<NA>	<NA>	<NA>
gairik__larrienak__modurik__gordinenean__kontatuz__''__.	EDU	gairik	larrienak	modurik	NOUN	ADJ	NOUN	.	PUNCT	short	kontatuz	<NA>	<NA>	VERB	<NA>	<NA>	OUT-HEAD	end	<NA>	<NA>	<NA>	<NA>
gordina__da__,__baiki__,__bere__estiloa__,	EDU	Gordina	da	,	ADJ	VERB	PUNCT	,	PUNCT	short	Gordina	<NA>	<NA>	ADJ	<NA>	<NA>	OUT-HEAD	end	<NA>	<NA>	<NA>	<NA>
eta__halaz__ere__badago__han-hemenka__lirismo__mikatz__moduko__bat__,__dotorezia__handikoa__.	EDU	eta	halaz	ere	CONJ	ADV	CONJ	.	PUNCT	short	eta	badago	handikoa	CONJ	VERB	NOUN	OUT-HEAD	end	<NA>	<NA>	<NA>	<NA>
mundu__bat__erretratatzen__du__xukrik__,	EDU	Mundu	bat	erretratatzen	NOUN	NUM	VERB	,	PUNCT	short	erretratatzen	<NA>	<NA>	VERB	<NA>	<NA>	IN-HEAD	end	<NA>	<NA>	<NA>	<NA>
eta__fikzio__indartsu__bat__eraikitzen__.	EDU	eta	fikzio	indartsu	CONJ	NOUN	ADJ	.	PUNCT	short	eta	eraikitzen	<NA>	CONJ	VERB	<NA>	OUT-HEAD	end	<NA>	<NA>	<NA>	<NA>
sarrionandiak__ogi__hutsa-z__idatzi__zuen__:	EDU	Sarrionandiak	Ogi	hutsa-z	PROPN	PROPN	ADV	:	PUNCT	short	idatzi	<NA>	<NA>	VERB	<NA>	<NA>	IN-HEAD	end	<NA>	<NA>	<NA>	<NA>
``__arrifi__deserrotuaren__epopeia__latza__da__,__gaur__eguneko__miseriaren__etnografia__moduko__bat__''__.	EDU	"	Arrifi	deserrotuaren	SYM	NOUN	ADJ	.	PUNCT	long	<NA>	<NA>	<NA>	<NA>	<NA>	<NA>	IN-HEAD	end	<NA>	<NA>	<NA>	<NA>
halatsu__hutsegiteen__garaia__ere__.	EDU	Halatsu	Hutsegiteen	garaia	ADJ	NOUN	NOUN	.	PUNCT	veryshort	garaia	<NA>	<NA>	NOUN	<NA>	<NA>	IN-HEAD	last	<NA>	<NA>	<NA>	<NA>

alter__ero__/__bertol__arrieta__/__susa__,__2012__oso__positiboa__ispiluan__den__``__beste__ni__''__-a__saioa__ruiz__gonzalez__/__argia__,__2013-01-27__.	EDU	Alter	ero	/	PROPN	PROPN	PUNCT	.	PUNCT	verylong	<NA>	<NA>	<NA>	<NA>	<NA>	<NA>	IN-HEAD	first	numb	<NA>	<NA>	date
izugarri__gustura__irakurri__dut__bertol__arrietaren__alter__ero__narrazio__liburua__.	EDU	Izugarri	gustura	irakurri	ADV	ADV	VERB	.	PUNCT	short	irakurri	<NA>	<NA>	VERB	<NA>	<NA>	IN-HEAD	beginning	<NA>	<NA>	<NA>	<NA>
arin__irakurtzen__diren__zortzi__ipuin__laburretan__pertsonaia__maskulino__bana__topatzen__dugu__betiko__errealitatean__txertatuak__.	EDU	Arin	irakurtzen	diren	ADV	VERB	AUX	.	PUNCT	short	topatzen	<NA>	<NA>	VERB	<NA>	<NA>	IN-HEAD	beginning	<NA>	<NA>	<NA>	<NA>
hala__eta__guztiz__ere__,__bada__errutina__horretan__pertsonaiek__erakusten__duten__egiteko__modu__berezi__bat__,	EDU	Hala	eta	guztiz	ADV	CONJ	ADV	,	PUNCT	long	Hala	modu	<NA>	ADV	NOUN	<NA>	OUT-HEAD	beginning	<NA>	<NA>	<NA>	<NA>
errealitate__arruntenetan__aurkitzen__dena__baina__besteengan__ikusten__ez__dugun__arte__,	EDU	errealitate	arruntenetan	aurkitzen	NOUN	ADV	VERB	,	PUNCT	short	aurkitzen	<NA>	<NA>	VERB	<NA>	<NA>	IN-HEAD	beginning	<NA>	<NA>	<NA>	<NA>
harrapatzeko__zail__xamar__suerta__datekeena__.	EDU	harrapatzeko	zail	xamar	VERB	ADJ	ADV	.	PUNCT	short	suerta	<NA>	<NA>	NOUN	<NA>	<NA>	OUT-HEAD	beginning	<NA>	<NA>	<NA>	<NA>
ispiluaren__metodoa__inkontzienteaz__kontziente__izateko	EDU	Ispiluaren	metodoa	inkontzienteaz	ADJ	NOUN	VERB	izateko	VERB	veryshort	izateko	<NA>	<NA>	VERB	<NA>	<NA>	OUT-HEAD	beginning	<NA>	<NA>	<NA>	<NA>
metodo__ezin__hobea__iruditzen__zait__.	EDU	metodo	ezin	hobea	CONJ	NOUN	ADJ	.	PUNCT	short	iruditzen	<NA>	<NA>	VERB	<NA>	<NA>	IN-HEAD	beginning	<NA>	<NA>	<NA>	<NA>
hari__narratibo__landugabeegiak__eta__idazkera__sinpleegia__izan__arren__,	EDU	Hari	narratibo	landugabeegiak	NOUN	ADJ	NOUN	,	PUNCT	short	<NA>	<NA>	<NA>	<NA>	<NA>	<NA>	OUT-HEAD	beginning	<NA>	<NA>	<NA>	<NA>
ene__ustez__,__guztiongan__bizi__den__alter__ero__inkontziente__hura__biziki__ondo__islatzen__jakitetik__abiatzen__da__arrietaren__gaitasuna__.	EDU	ene	ustez	,	PRON	NOUN	PUNCT	.	PUNCT	long	abiatzen	<NA>	<NA>	VERB	<NA>	<NA>	IN-HEAD	first-middle	<NA>	<NA>	<NA>	<NA>
horrek__pentsatzera__eraman__nau__arrieta__bera__ez__ote__den__sekula__psikoanalisian__aritu__.	EDU	Horrek	pentsatzera	eraman	DET	VERB	VERB	.	PUNCT	short	eraman	<NA>	<NA>	VERB	<NA>	<NA>	IN-HEAD	first-middle	<NA>	<NA>	<NA>	<NA>
ez__erotasunagatik__,	EDU	Ez	erotasunagatik	<NA>	PART	NOUN	<NA>	,	PUNCT	veryshort	Ez	erotasunagatik	<NA>	PART	NOUN	<NA>	OUT-HEAD	first-middle	<NA>	<NA>	<NA>	<NA>
terapia__psikoanalitikoaren__defendatzaile__sutsua__nauzue__,	EDU	terapia	psikoanalitikoaren	defendatzaile	NOUN	ADJ	NOUN	,	PUNCT	short	nauzue	<NA>	<NA>	AUX	<NA>	<NA>	OUT-HEAD	first-middle	<NA>	<NA>	<NA>	<NA>
baizik__eta__errealitatea__perzibitzeko__modu__eta__perspektiba__berezi__batetik__idazten__jakin__izan__duelako__.	EDU	baizik	eta	errealitatea	CONJ	CONJ	NOUN	.	PUNCT	short	baizik	perzibitzeko	jakin	CONJ	VERB	VERB	IN-HEAD	first-middle	<NA>	<NA>	<NA>	<NA>
narrazio__gehienetan__ageri__diren__pertsonaiak__neurotiko__obsesibotzat__har__daitezke__:	EDU	Narrazio	gehienetan	ageri	NOUN	ADV	ADJ	:	PUNCT	short	har	<NA>	<NA>	VERB	<NA>	<NA>	IN-HEAD	first-middle	<NA>	<NA>	<NA>	<NA>
ipuin__perfektua__idatzi__nahi__duen__narrazio__horretako__pertsonaia__,__un__tal__ekain__izena__duen__ipuin__bereko__pertsonaia__,__bere__burua__cortazarren__oinordekotzat__daukana__,__edota__laurak__eta__hodei__ipuineko__pertsonaia__,__erlojuetan__orratz__handiak__etengabe__irentsi__baitu__txikia__!	EDU	Ipuin	perfektua	idatzi	NOUN	ADJ	VERB	!	PUNCT	verylong	irentsi	<NA>	<NA>	VERB	<NA>	<NA>	IN-HEAD	first-middle	<NA>	<NA>	<NA>	<NA>
arrietak__,__baina__,__ez__ditu__horrela__tratatzen__.	EDU	Arrietak	,	baina	PROPN	PUNCT	CONJ	.	PUNCT	short	tratatzen	<NA>	<NA>	VERB	<NA>	<NA>	IN-HEAD	first-middle	<NA>	<NA>	<NA>	<NA>
egiten__dutena__deskribatzera__mugatzen__da	EDU	Egiten	dutena	deskribatzera	VERB	AUX	VERB	da	AUX	veryshort	mugatzen	<NA>	<NA>	VERB	<NA>	<NA>	IN-HEAD	first-middle	<NA>	<NA>	<NA>	<NA>
oso__arruntak__diren__egoeratan__txertatuz__,	EDU	oso	arruntak	diren	ADV	ADJ	VERB	,	PUNCT	short	txertatuz	<NA>	<NA>	VERB	<NA>	<NA>	OUT-HEAD	first-middle	<NA>	<NA>	<NA>	<NA>
halakoxea__baita__egunerokotasuna__,__eta__bizitza__,__azken__finean__.	EDU	halakoxea	baita	egunerokotasuna	NOUN	VERB	NOUN	.	PUNCT	short	egunerokotasuna	eta	bizitza	NOUN	CONJ	NOUN	OUT-HEAD	second-middle	<NA>	<NA>	<NA>	<NA>
baina__hain__da__arrunta__,	EDU	Baina	hain	da	CONJ	ADV	VERB	,	PUNCT	veryshort	arrunta	<NA>	<NA>	ADJ	<NA>	<NA>	IN-HEAD	second-middle	<NA>	<NA>	<NA>	<NA>
askotan__begirada__lanbrotu__egiten__zaigula__,	EDU	askotan	begirada	lanbrotu	DET	NOUN	VERB	,	PUNCT	short	lanbrotu	<NA>	<NA>	VERB	<NA>	<NA>	OUT-HEAD	second-middle	<NA>	<NA>	<NA>	<NA>
eta__gure__beldurrez__,__obsesio__eta__frustrazioez__ohitura__egiten__dugu__,	EDU	eta	gure	beldurrez	CONJ	PRON	ADV	,	PUNCT	short	eta	egiten	<NA>	CONJ	VERB	<NA>	OUT-HEAD	second-middle	<NA>	<NA>	<NA>	<NA>
stand-by__egoeran__-LRB-__ipuin__baten__izenburuaren__antzera__-RRB-__geratzeraino__.	EDU	stand-by	egoeran	-LRB-	NOUN	NOUN	PUNCT	.	PUNCT	short	egoeran	-LRB-	izenburuaren	NOUN	PUNCT	NOUN	OUT-HEAD	second-middle	<NA>	<NA>	<NA>	<NA>
denbora__betibera__,__bizitzaz__aldatu__nahia__eta__ezin	EDU	Denbora	betibera	,	NOUN	DET	PUNCT	ezin	NOUN	short	aldatu	<NA>	<NA>	VERB	<NA>	<NA>	OUT-HEAD	second-middle	<NA>	<NA>	<NA>	<NA>
-LRB-__ausartu__ez__?__-RRB-	EDU	-RRB-	-LRB-	ausartu	PUNCT	PUNCT	VERB	?	PUNCT	veryshort	-RRB-	-LRB-	ausartu	PUNCT	PUNCT	VERB	IN-HEAD	second-middle	<NA>	<NA>	<NA>	<NA>
,__iraganeko__frustrazioen__arantzak__erauzi__nahia	EDU	,	iraganeko	frustrazioen	PUNCT	NOUN	NOUN	nahia	NOUN	short	erauzi	nahia	<NA>	VERB	NOUN	<NA>	OUT-HEAD	second-middle	<NA>	<NA>	<NA>	<NA>
-LRB-__zenbat__dira__ikasketa__unibertsitarioak__,__gurasoen__influentziak__bultzaturik__egin__dituztenak__?__-RRB-	EDU	-RRB-	-LRB-	zenbat	PUNCT	PUNCT	DET	?	PUNCT	short	-LRB-	egin	<NA>	PUNCT	VERB	<NA>	IN-HEAD	second-middle	<NA>	<NA>	<NA>	<NA>
,__egonkortasunari__bye__esateari__panikoa__,__zenbait__profesiotan__dauden__obsesio__perfekzionisten__azaleratzea__-LRB-__idazlearen__inspirazioa__versus__teknika__-RRB-__;	EDU	,	egonkortasunari	Bye	PUNCT	NOUN	PROPN	;	PUNCT	long	azaleratzea	<NA>	<NA>	VERB	<NA>	<NA>	IN-HEAD	second-middle	<NA>	<NA>	<NA>	<NA>
nor__ez__da__luzez__ezerezari__begira__geratu__,	EDU	nor	ez	da	PRON	PART	VERB	,	PUNCT	short	geratu	<NA>	<NA>	VERB	<NA>	<NA>	OUT-HEAD	end	<NA>	<NA>	<NA>	<NA>
inspirazioa__noiz__iritsiko__den__zain__?	EDU	inspirazioa	noiz	iritsiko	NOUN	ADV	VERB	?	PUNCT	short	iritsiko	<NA>	<NA>	VERB	<NA>	<NA>	OUT-HEAD	end	<NA>	<NA>	<NA>	<NA>
edo__,__idazteari__ekin__aurretik__milaka__liburu__irentsi__behar__dugulako__obsesioa__nork__ez__du__inoiz__ukan__?	EDU	Edo	,	idazteari	CONJ	PUNCT	VERB	?	PUNCT	long	ukan	<NA>	<NA>	VERB	<NA>	<NA>	IN-HEAD	end	<NA>	<NA>	<NA>	<NA>
ipuin__perfektuko__pertsonaiak__panikoa__dio__idazlearen__profesioari__.	EDU	Ipuin	perfektuko	pertsonaiak	NOUN	ADJ	NOUN	.	PUNCT	short	dio	<NA>	<NA>	VERB	<NA>	<NA>	IN-HEAD	end	<NA>	<NA>	<NA>	<NA>
bertol__arrietak__narrazio__liburu__interesagarria__eskaintzen__jakin__izan__digu__.	EDU	Bertol	Arrietak	narrazio	PROPN	PROPN	NOUN	.	PUNCT	short	jakin	<NA>	<NA>	VERB	<NA>	<NA>	IN-HEAD	end	<NA>	<NA>	<NA>	<NA>
gure__izaeraz	EDU	Gure	<NA>	<NA>	PRON	<NA>	<NA>	izaeraz	VERB	veryshort	izaeraz	<NA>	<NA>	VERB	<NA>	<NA>	OUT-HEAD	end	<NA>	<NA>	<NA>	<NA>
-LRB-__izanaz__?__-RRB-	EDU	-RRB-	-LRB-	izanaz	PUNCT	PUNCT	VERB	?	PUNCT	veryshort	-LRB-	izanaz	<NA>	PUNCT	VERB	<NA>	IN-HEAD	end	<NA>	<NA>	<NA>	<NA>
hausnartzeko__manual__gisa__eta__,	EDU	hausnartzeko	manual	gisa	VERB	NOUN	ADP	,	PUNCT	veryshort	manual	<NA>	<NA>	NOUN	<NA>	<NA>	OUT-HEAD	end	<NA>	<NA>	<NA>	<NA>
espresioa__onartzen__badidazue__,	EDU	espresioa	onartzen	badidazue	NOUN	VERB	AUX	,	PUNCT	veryshort	espresioa	onartzen	<NA>	NOUN	VERB	<NA>	OUT-HEAD	end	<NA>	<NA>	<NA>	<NA>
etxetik__ibiltzeko__dosi__psikoanalitiko__ttipi__moduan__hauteman__dut__nik__.	EDU	etxetik	ibiltzeko	dosi	NOUN	VERB	NOUN	.	PUNCT	short	hauteman	<NA>	<NA>	VERB	<NA>	<NA>	IN-HEAD	end	<NA>	<NA>	<NA>	<NA>
guztiz__gomendagarria__.	EDU	Guztiz	gomendagarria	<NA>	ADV	ADJ	<NA>	.	PUNCT	veryshort	gomendagarria	<NA>	<NA>	ADJ	<NA>	<NA>	IN-HEAD	last	<NA>	<NA>	<NA>	<NA>

uraren__aroak__/__joan__aldamizetxebarria__/__beta__,__2013__negatiboa__esperientzia__eta__izarrak__igor__estankona__/__argia__,__2013-03-31	EDU	Uraren	aroak	/	ADJ	NOUN	PUNCT	2013-03-31	NUM	long	aroak	Joan	/	NOUN	PROPN	PUNCT	OUT-HEAD	first	numb	<NA>	<NA>	date
denbora__igarotzen__ez__denean__-LRB-__2002__-RRB-__eta__bihotzaren__lautadak__-LRB-__2004__-RRB-__poemarioen__ostean__,__ediciones__betarekin__hirugarrena__du__tarragonan__jaiotako__gernikarrak__uraren__aroak__.	EDU	Denbora	igarotzen	ez	NOUN	VERB	PART	.	PUNCT	verylong	du	<NA>	<NA>	VERB	<NA>	<NA>	IN-HEAD	beginning	numb	<NA>	<NA>	date
beretzat__ez__ezik__ingurukoentzat__eta__entzun__gura__duten__guztientzat__idazten__duten__asko__legez	EDU	Beretzat	ez	ezik	ADJ	PART	CONJ	legez	NOUN	short	Beretzat	ez	ezik	ADJ	PART	CONJ	OUT-HEAD	beginning	<NA>	<NA>	<NA>	<NA>
autoediziora__emana__,	EDU	autoediziora	emana	<NA>	NOUN	VERB	<NA>	,	PUNCT	veryshort	autoediziora	emana	<NA>	NOUN	VERB	<NA>	OUT-HEAD	beginning	<NA>	<NA>	<NA>	<NA>
handinahi__barik__diosku__,__eskertzetan__,__zergatik__ekin__dion__berriro__poesiaren__bide__malkartsu__,__ederrari__:	EDU	handinahi	barik	diosku	NOUN	ADP	ADP	:	PUNCT	long	handinahi	eskertzetan	ekin	NOUN	ADV	VERB	IN-HEAD	beginning	<NA>	<NA>	<NA>	<NA>
``__seguruenik__liburu__hau__sortzen__hartu__dudan__plazerrik__handiena__lerro__hauek__idaztea__da__,	EDU	"	Seguruenik	liburu	SYM	ADV	NOUN	,	PUNCT	short	idaztea	da	<NA>	VERB	VERB	<NA>	IN-HEAD	beginning	<NA>	<NA>	<NA>	<NA>
azken__urte__gorri__hauetan__beraien__laguntza__,__babesa__eta__arretak__eskaini__dizkidatenei__eskerrak__publikoki__emateko__''__.	EDU	azken	urte	gorri	NUM	NOUN	ADJ	.	PUNCT	long	laguntza	babesa	eta	NOUN	NOUN	CONJ	OUT-HEAD	beginning	<NA>	<NA>	<NA>	<NA>
liburua__berpizte__batekin__hasten__da__,__edo__lozorroarekin__:	EDU	Liburua	berpizte	batekin	NOUN	NOUN	NUM	:	PUNCT	short	hasten	<NA>	<NA>	VERB	<NA>	<NA>	IN-HEAD	beginning	<NA>	<NA>	<NA>	<NA>
``__atzean__utzi__dut__orion__ikusten__ez__deneko__aroa__''__.	EDU	"	Atzean	utzi	SYM	NOUN	VERB	.	PUNCT	short	utzi	<NA>	<NA>	VERB	<NA>	<NA>	IN-HEAD	first-middle	<NA>	<NA>	<NA>	<NA>
beraz__,__neguko__nebulosa__ikusten__ez__deneko__aroa__utzi__badu__atzean__,	EDU	Beraz	,	neguko	CONJ	PUNCT	NOUN	,	PUNCT	short	ikusten	<NA>	<NA>	VERB	<NA>	<NA>	IN-HEAD	first-middle	<NA>	<NA>	<NA>	<NA>
aldamizetxebarriari__negua__hasi__zaio__.	EDU	Aldamizetxebarriari	negua	hasi	PROPN	NOUN	VERB	.	PUNCT	veryshort	hasi	<NA>	<NA>	VERB	<NA>	<NA>	OUT-HEAD	first-middle	<NA>	<NA>	<NA>	<NA>
edo__uda__australa__.	EDU	Edo	uda	australa	CONJ	NOUN	ADJ	.	PUNCT	veryshort	Edo	<NA>	<NA>	CONJ	<NA>	<NA>	OUT-HEAD	first-middle	<NA>	<NA>	<NA>	<NA>
izan__ere__,__bidaia__liburu__bat__da__uraren__aroak__hau__,__itzuleran__kontatutako__istorioa__,__nostalgia__bihurtutako__zirkulu__baten__ixtea__.	EDU	Izan	ere	,	VERB	CONJ	PUNCT	.	PUNCT	long	ixtea	<NA>	<NA>	VERB	<NA>	<NA>	IN-HEAD	first-middle	<NA>	<NA>	<NA>	<NA>
denborarik__eza__,__bidaiari__baten__ikuspegi__zabala__,__eta__naturarekin__eta__sentimenduekin__nahasten__den__batasunaren__filosofia__bat__ageri__da__hemen__,__eite__sano__klasikokoa__:	EDU	Denborarik	eza	,	NOUN	NOUN	PUNCT	:	PUNCT	long	da	:	<NA>	VERB	PUNCT	<NA>	OUT-HEAD	first-middle	<NA>	<NA>	<NA>	<NA>
``__atzaparkada__izoztuek__/__aurpegia__zurbildu__digute__/__-LRB-__...__-RRB-__/	EDU	"	Atzaparkada	izoztuek	SYM	NOUN	VERB	/	PUNCT	short	izoztuek	/	zurbildu	VERB	PUNCT	VERB	OUT-HEAD	first-middle	<NA>	<NA>	<NA>	<NA>
badator__.	EDU	Badator	<NA>	<NA>	VERB	<NA>	<NA>	.	PUNCT	veryshort	Badator	<NA>	<NA>	VERB	<NA>	<NA>	IN-HEAD	first-middle	<NA>	<NA>	<NA>	<NA>
/__txorien__logurarekin__batera__.	EDU	/	Txorien	logurarekin	PUNCT	NOUN	ADJ	.	PUNCT	veryshort	batera	<NA>	<NA>	NUM	<NA>	<NA>	OUT-HEAD	second-middle	<NA>	<NA>	<NA>	<NA>
/__doluz__jantziko__dira__kaleak__.	EDU	/	Doluz	jantziko	PUNCT	NOUN	VERB	.	PUNCT	short	jantziko	<NA>	<NA>	VERB	<NA>	<NA>	IN-HEAD	second-middle	<NA>	<NA>	<NA>	<NA>
/__dolua__izango__da__gure__bihotzetan__''__.	EDU	/	Dolua	izango	PUNCT	NOUN	VERB	.	PUNCT	short	<NA>	<NA>	<NA>	<NA>	<NA>	<NA>	OUT-HEAD	second-middle	<NA>	<NA>	<NA>	<NA>
hustasunean__oinarritzen__den__ikuspegi__zabal__horrekin__idatzia__da__uraren__aroak	EDU	Hustasunean	oinarritzen	den	NOUN	VERB	AUX	aroak	NOUN	short	idatzia	<NA>	<NA>	NOUN	<NA>	<NA>	OUT-HEAD	second-middle	<NA>	<NA>	<NA>	<NA>
eta__,__zentzu__horretan__,__egia__da__aldamizetxebarriaren__arnasa__luzeko__poemak__-LRB-__atzo__iluntzean__,__bidea__egiten__,__bat-batean__-RRB-__badutela__sakontasun__bat__atsegina__eta__pausatua__.	EDU	eta	,	zentzu	CONJ	PUNCT	NOUN	.	PUNCT	verylong	eta	zentzu	badutela	CONJ	NOUN	VERB	IN-HEAD	second-middle	<NA>	<NA>	<NA>	<NA>
ezkorra__ere__bai__,__baikorra__beste__.	EDU	Ezkorra	ere	bai	NOUN	CONJ	PART	.	PUNCT	short	baikorra	<NA>	<NA>	ADJ	<NA>	<NA>	IN-HEAD	second-middle	<NA>	<NA>	<NA>	<NA>
kontrajarrita	EDU	<NA>	<NA>	<NA>	<NA>	<NA>	<NA>	Kontrajarrita	NOUN	veryshort	Kontrajarrita	<NA>	<NA>	NOUN	<NA>	<NA>	OUT-HEAD	second-middle	<NA>	<NA>	<NA>	<NA>
ageri__dira__,__finean__,__disimulatzen__ezinezkoa__den__bitalismoa__eta__pentsamendu__landua__,__narratibarantz__egiten__diona__,	EDU	ageri	dira	,	ADJ	VERB	PUNCT	,	PUNCT	long	ageri	egiten	<NA>	ADJ	VERB	<NA>	IN-HEAD	second-middle	<NA>	<NA>	<NA>	<NA>
poesiaren__arrastotik__ateraraziz__.	EDU	poesiaren	arrastotik	ateraraziz	NOUN	NOUN	VERB	.	PUNCT	veryshort	ateraraziz	<NA>	<NA>	VERB	<NA>	<NA>	OUT-HEAD	end	<NA>	<NA>	<NA>	<NA>
sentimenduz__idazten__duela__bistan__da__.	EDU	Sentimenduz	idazten	duela	NOUN	VERB	AUX	.	PUNCT	short	da	<NA>	<NA>	VERB	<NA>	<NA>	IN-HEAD	end	<NA>	<NA>	<NA>	<NA>
idazle__ondratua__iruditu__zait__:	EDU	Idazle	ondratua	iruditu	NOUN	VERB	VERB	:	PUNCT	veryshort	iruditu	<NA>	<NA>	VERB	<NA>	<NA>	IN-HEAD	end	<NA>	<NA>	<NA>	<NA>
``__bat-batean__desagertzen__den__min__setatiaren__antzera__/__horrela__abandonatuko__nau__bakardadeak__/__zuk__baino__beranduago__,__zuk__baino__arinago__''__.	EDU	"	Bat-batean	desagertzen	SYM	ADV	VERB	.	PUNCT	long	abandonatuko	<NA>	<NA>	VERB	<NA>	<NA>	IN-HEAD	end	<NA>	<NA>	<NA>	<NA>
dena__dela__,__azken__lerro__horretan__legez__,__galdu__egiten__da__pasarte__askotan__dominatu__ezinik__hizkuntza__,	EDU	Dena	dela	,	VERB	AUX	PUNCT	,	PUNCT	long	galdu	<NA>	<NA>	VERB	<NA>	<NA>	IN-HEAD	end	<NA>	<NA>	<NA>	<NA>
eta__lehen__aipatu__dugun__poesiaren__bideetatik__aparte__arroztua__.	EDU	eta	lehen	aipatu	CONJ	ADV	VERB	.	PUNCT	short	eta	arroztua	<NA>	CONJ	NOUN	<NA>	OUT-HEAD	end	<NA>	<NA>	<NA>	<NA>
onartu__behar__dut__deseroso__sentitu__naizela__maiz__,__artifiziozkoak__begitandu__zaizkidala__joko__asko__.	EDU	Onartu	behar	dut	VERB	NOUN	VERB	.	PUNCT	short	dut	<NA>	<NA>	VERB	<NA>	<NA>	IN-HEAD	end	<NA>	<NA>	<NA>	<NA>
uste__dut__idazleak__barruan__gordetzen__duen__pultsua__ez__dela__guztiz__azaleratzen__,__maitasun__idealizatuaren__abusu__bat__dagoela__,	EDU	Uste	dut	idazleak	NOUN	VERB	NOUN	,	PUNCT	long	dagoela	<NA>	<NA>	VERB	<NA>	<NA>	OUT-HEAD	end	<NA>	<NA>	<NA>	<NA>
eta__poema__laburren__esanahirik__,__adierazpenik__eza__,__pisuegia__egin__zait__.	EDU	eta	poema	laburren	CONJ	NOUN	ADJ	.	PUNCT	short	eta	esanahirik	eza	CONJ	NOUN	NOUN	OUT-HEAD	last	<NA>	<NA>	<NA>	<NA>

lanbide-heziketarako__baliabide__terminologikoak__ematea__gutxi__erabiltzen__eta__irakasten__diren__hizkuntzetan__:__vocall__proiektua__.	EDU	Lanbide-Heziketarako	VOCALL	baliabide	NOUN	PROPN	NOUN	:	PUNCT	short	proiektua	erabiltzen	<NA>	NOUN	VERB	<NA>	IN-HEAD	first	<NA>	<NA>	<NA>	<NA>
vocall__proiektua__europako__batzordeak__sortu__du__leonardo__programaren__babesean__.	EDU	VOCALL	proiektua	Europako	PROPN	NOUN	PROPN	.	PUNCT	short	sortu	<NA>	<NA>	VERB	<NA>	<NA>	IN-HEAD	beginning	<NA>	<NA>	<NA>	<NA>
proiektuaren__helburua__lanbide-heziketako__ikasleentzako__hizkuntza__ikasteko__baliabide__batzuk__sortzea__da__,__informatika__,__bulego-lan__eta__elektronikaren__esparruetan	EDU	Proiektuaren	helburua	lanbide-heziketako	NOUN	NOUN	NOUN	esparruetan	NOUN	long	sortzea	da	informatika	VERB	VERB	ADV	OUT-HEAD	first-middle	<NA>	<NA>	<NA>	<NA>
eta__,__batez__ere__,__gutxi__erabiltzen__eta__irakasten__diren__hizkuntzetara__zuzenduta__,__kasu__honetan__,__irlandera__,__portugesa__eta__grekoa__.	EDU	eta	,	batez	CONJ	PUNCT	NUM	.	PUNCT	long	eta	batez	erabiltzen	CONJ	NUM	VERB	OUT-HEAD	first-middle	<NA>	<NA>	<NA>	<NA>
gutxi__erabili__eta__irakasten__diren__hizkuntzen__kasuan__,__lexiko-banku__eta__terminologi__bankuen__moduko__idatzizko__baliabideak__ez__dira__behar__bezala__garatu__ikasleentzako__laguntzatresna__izan__daitezkeen__aldetik__.	EDU	Gutxi	erabili	eta	PROPN	VERB	CONJ	.	PUNCT	verylong	erabili	<NA>	<NA>	VERB	<NA>	<NA>	IN-HEAD	first-middle	<NA>	<NA>	<NA>	<NA>
eta__hori__gogoan__hartuta__,__eta__multimedia__bidezko__call__izeneko__halako__egitura__baten__barruan__,__esparru__horietako__bitako__termino__teknikoekin__glosario__eleanitzak__egin__ditugu__,__partaideen__hizkuntzetan__.	EDU	Eta	hori	gogoan	CONJ	DET	NOUN	.	PUNCT	verylong	hartuta	<NA>	<NA>	VERB	<NA>	<NA>	IN-HEAD	second-middle	<NA>	<NA>	<NA>	<NA>
tresna__hori__,__gaur__egun__oraindik__prototipoa__dena__,__proiektuko__hizkuntza__guztietarako__berbera__izango__da__,	EDU	Tresna	hori	,	NOUN	DET	PUNCT	,	PUNCT	long	izango	<NA>	<NA>	VERB	<NA>	<NA>	IN-HEAD	second-middle	<NA>	<NA>	<NA>	<NA>
eta__hizkuntza__nork__bere__kontura__ikasteko__tresna__gisa__merkaturatuko__dugu__,__bai__atzerriko__hizkuntza__-LRB-__2h__-RRB-__ikasi__behar__dutenentzat__,__bai__lehen__hizkuntza__-LRB-__1h__-RRB-__ikasteko__arazoak__dituztenentzat__ere__,__lanbide-heziketan__eta__aipatutako__esparruetan__,__beti__ere__.	EDU	eta	hizkuntza	nork	CONJ	NOUN	PRON	.	PUNCT	verylong	eta	merkaturatuko	dutenentzat	CONJ	VERB	NOUN	OUT-HEAD	second-middle	numb	<NA>	<NA>	<NA>
artikulu__honetan__,__terminologia__eleanitza__sortzeko__metodologia__bat__proposatuko__dugu__,	EDU	Artikulu	honetan	,	NOUN	DET	PUNCT	,	PUNCT	short	proposatuko	<NA>	<NA>	VERB	<NA>	<NA>	IN-HEAD	end	<NA>	<NA>	<NA>	<NA>
orain__arte__izan__ditugun__esperientzietan__oinarrituta__;	EDU	orain	arte	izan	ADV	ADP	VERB	;	PUNCT	short	oinarrituta	<NA>	<NA>	VERB	<NA>	<NA>	OUT-HEAD	end	<NA>	<NA>	<NA>	<NA>
baina__tresnaren__beste__alderdi__batzuk__ere__azalduko__ditugu__.	EDU	baina	tresnaren	beste	CONJ	NOUN	DET	.	PUNCT	short	baina	azalduko	<NA>	CONJ	VERB	<NA>	OUT-HEAD	last	<NA>	<NA>	<NA>	<NA>

haur-oinaren__neurri__antropometrikoen__garapena__:__geruzetan__oinarrituriko__azterketa__deskribatzailea__.	EDU	Haur-oinaren	Geruzetan	neurri	ADJ	ADV	NOUN	.	PUNCT	short	azterketa	garapena	:	NOUN	NOUN	PUNCT	IN-HEAD	first	<NA>	<NA>	<NA>	<NA>
azterlan__honek__haur__oinaren__eta__oinzolako__gangaren__hazkundea__baloratzen__du__4__eta__6__urte__arteko__haurren__artean__.	EDU	Azterlan	honek	haur	NOUN	DET	NOUN	.	PUNCT	long	baloratzen	<NA>	<NA>	VERB	<NA>	<NA>	IN-HEAD	first-middle	numb	<NA>	<NA>	<NA>
adin__horretan__hasten__da__aldaketa__hormonalek__agintzen__duten__garapena__.	EDU	Adin	horretan	hasten	NOUN	DET	VERB	.	PUNCT	short	hasten	<NA>	<NA>	VERB	<NA>	<NA>	IN-HEAD	first-middle	<NA>	<NA>	<NA>	<NA>
era__berean__,__beste__alderdi__batzuk__baloratzen__dira__,__hala__nola__,__maleolo__peronealaren__garrantzia__biomekaniko__mihise__tibioperoneoastragalinoan__,__aldea__sexuen__eta__adinen__artean__,__eta__adin__horretan__haur__bakoitzaren__jaiotzako__hiru__parametro__biologikoek__izan__duten__eragina__-LRB-__haurdunaldi__asteak__,__amaren__adina__erditzean__eta__haur__bakoitzaren__pisua__jaiotzan__-RRB-__.	EDU	Era	berean	,	NOUN	DET	PUNCT	.	PUNCT	verylong	erditzean	<NA>	<NA>	VERB	<NA>	<NA>	IN-HEAD	second-middle	<NA>	<NA>	<NA>	<NA>
estatistikoki__esanguratzua__den__ausaz__hartutako__314__haurrez__osatutako__biztanleria__hartzu__zen__,__guztiak__1993an__txagorritxu__ospitalean__-LRB-__araba__-RRB-__jaioak__.	EDU	Estatistikoki	esanguratzua	den	ADV	VERB	AUX	.	PUNCT	long	hartzu	<NA>	<NA>	DET	<NA>	<NA>	IN-HEAD	second-middle	numb	<NA>	<NA>	<NA>
lortutako__emaitzek__baieztatzen__dute__adin__horretan__oinzolako__gangaren__garapena__hasten__dela__,__oin__ezkerra__eskuina__baino__handiagoa__dela__eta__gizonezkoenak__emakumezkoenak__baino__handiagoak__direla__.	EDU	Lortutako	emaitzek	baieztatzen	VERB	NOUN	VERB	.	PUNCT	long	baieztatzen	<NA>	<NA>	VERB	<NA>	<NA>	OUT-HEAD	end	<NA>	<NA>	<NA>	<NA>
begibistakoa__da__ere__pisu__faktoreak__eragina__duela__oinaren__neurri__antropometrikoetan__eta__asoziazio__estatistikoaren__indarra__galdu__egiten__dela__adinaren__arabera__.	EDU	Begibistakoa	da	ere	ADJ	VERB	CONJ	.	PUNCT	long	Begibistakoa	<NA>	<NA>	ADJ	<NA>	<NA>	IN-HEAD	end	<NA>	<NA>	<NA>	<NA>
azterlan__honek__analizatutako__korrelazio__estatistikoetan__lortutako__emaitzak__jakitera__ematen__ditu__.	EDU	Azterlan	honek	analizatutako	NOUN	DET	VERB	.	PUNCT	short	ematen	<NA>	<NA>	VERB	<NA>	<NA>	IN-HEAD	last	<NA>	<NA>	<NA>	<NA>

