word pos prefw1 prefw2 prefw3 prefp1 prefp2 prefp3 suffw1 suffp1 len headw1 headw2 headw3 headp1 headp2 headp3 head position numb perc money date
zangotraba__/__juan__kruz__igerabide__/__erein,2014__zangotraba__k.__altuna__/__aizu__!__,2014-09__.	EDU	Zangotraba	Altuna	,	PROPN	NOUN	PUNCT	K.	PROPN	long	Zangotraba	Altuna	<NA>	PROPN	NOUN	<NA>	IN-HEAD	first	numb	<NA>	<NA>	date
igerabidek__genero__beltzeko__nobela__kaleratu__du__,	EDU	Igerabidek	genero	beltzeko	PROPN	ADV	VERB	,	PUNCT	short	kaleratu	<NA>	<NA>	VERB	<NA>	<NA>	IN-HEAD	beginning	<NA>	<NA>	<NA>	<NA>
izenburua__zuzen__jarrita__,	EDU	izenburua	zuzen	jarrita	NOUN	ADJ	VERB	,	PUNCT	veryshort	jarrita	<NA>	<NA>	VERB	<NA>	<NA>	OUT-HEAD	beginning	<NA>	<NA>	<NA>	<NA>
protagonistak__lagunari__egindako__putakeria__ez__baita__erraz__ahazten__eleberriaren__garapenean__.	EDU	protagonistak	lagunari	egindako	NOUN	NOUN	VERB	.	PUNCT	short	ahazten	<NA>	<NA>	VERB	<NA>	<NA>	OUT-HEAD	beginning	<NA>	<NA>	<NA>	<NA>
bestalde__,__irakurle__askorentzat__ezagunak__izango__diren__kokalekuak__eta__garaia__hautatu__ditu__idazleak__:__irun__eta__inguruak__,__franco__hil__ondorengo__urteetan__.	EDU	Bestalde	Irun	,	CONJ	ADV	PUNCT	:	PUNCT	long	hil	hautatu	<NA>	VERB	VERB	<NA>	IN-HEAD	first-middle	<NA>	<NA>	<NA>	<NA>
testuinguru__horretan__,__pertsonaiak__sindikalismoan__,__euskalgintzan__,__feminismoan__,__drogaren__munduan__,__etaren__inguruan__...__mugitzen__dira__.	EDU	Testuinguru	horretan	,	NOUN	DET	PUNCT	.	PUNCT	long	mugitzen	<NA>	<NA>	VERB	<NA>	<NA>	IN-HEAD	first-middle	<NA>	<NA>	<NA>	<NA>
eta__protagonista__bakar__batean__biltzen__dira__bi__pertsonaia__nagusiak__.	EDU	Eta	protagonista	bakar	CONJ	NOUN	ADJ	.	PUNCT	short	biltzen	<NA>	<NA>	VERB	<NA>	<NA>	IN-HEAD	first-middle	<NA>	<NA>	<NA>	<NA>
alde__batetik__,__joxe__,__aduanetako__langile__inuzente__samarra__.	EDU	Alde	batetik	,	NOUN	NUM	PUNCT	.	PUNCT	short	Alde	<NA>	<NA>	NOUN	<NA>	<NA>	IN-HEAD	first-middle	<NA>	<NA>	<NA>	<NA>
bestetik__,__juan__fernandez__detektibea__,__zinikoa__eta__traidorea__.	EDU	Bestetik	,	Juan	DET	PUNCT	PROPN	.	PUNCT	short	detektibea	<NA>	<NA>	ADJ	<NA>	<NA>	IN-HEAD	first-middle	<NA>	<NA>	<NA>	<NA>
joxek__emaztea__eta__lagunak__dauzka__,	EDU	Joxek	emaztea	eta	PROPN	VERB	CONJ	,	PUNCT	short	emaztea	<NA>	<NA>	VERB	<NA>	<NA>	OUT-HEAD	second-middle	<NA>	<NA>	<NA>	<NA>
gaizki__tratatzen__baditu__ere	EDU	gaizki	tratatzen	baditu	ADV	VERB	AUX	ere	CONJ	veryshort	tratatzen	<NA>	<NA>	VERB	<NA>	<NA>	IN-HEAD	second-middle	<NA>	<NA>	<NA>	<NA>
-LRB-__erabat__engainatuta__dauzka__-RRB-__.	EDU	-LRB-	erabat	engainatuta	PUNCT	ADV	VERB	.	PUNCT	short	-LRB-	dauzka	-RRB-	PUNCT	VERB	PUNCT	OUT-HEAD	second-middle	<NA>	<NA>	<NA>	<NA>
fernandezek__,__berriz__,__poliziaren__``__adiskidetasuna__''__,__amorante__beldurgarria__eta__ongi__ordaintzen__duten__bezeroak__.	EDU	Fernandezek	,	berriz	PROPN	PUNCT	CONJ	.	PUNCT	long	ordaintzen	<NA>	<NA>	VERB	<NA>	<NA>	IN-HEAD	second-middle	<NA>	<NA>	<NA>	<NA>
gizakion__ezaugarri__on__eta__txarren__ispilu__,__biak__dira__pertsonaia__patetikoak__eta__,__hainbat__unetan__,__komikoak__.	EDU	Gizakion	ezaugarri	on	NOUN	NOUN	ADJ	.	PUNCT	long	pertsonaia	<NA>	<NA>	NOUN	<NA>	<NA>	OUT-HEAD	second-middle	<NA>	<NA>	<NA>	<NA>
gustura__irakurtzen__da__nobela__,__protagonistaren__joko__bikoitza__nola__bukatuko__ote__den__,__nahiz__eta__amaiera__horren__zantzuak__aurretik__eskaintzen__dizkigun__idazleak__:	EDU	Gustura	irakurtzen	da	ADV	VERB	AUX	:	PUNCT	long	irakurtzen	<NA>	<NA>	VERB	<NA>	<NA>	IN-HEAD	end	<NA>	<NA>	<NA>	<NA>
tarteka__,__kontakizunaren__hariak__``__bidaia__''__laburrak__egiten__ditu__etorkizunera__,__burdin-hesia__duen__balkoi__batera__,__hain__zuzen__.	EDU	tarteka	,	kontakizunaren	ADV	PUNCT	NOUN	.	PUNCT	long	egiten	<NA>	<NA>	VERB	<NA>	<NA>	IN-HEAD	end	<NA>	<NA>	<NA>	<NA>
idazkerak__ere__laguntzen__du__aurrera__plazerez__egiten__,	EDU	Idazkerak	ere	laguntzen	NOUN	CONJ	VERB	,	PUNCT	short	laguntzen	<NA>	<NA>	VERB	<NA>	<NA>	IN-HEAD	end	<NA>	<NA>	<NA>	<NA>
igerabideren__estiloa__aberatsa__baita__,	EDU	Igerabideren	estiloa	aberatsa	PROPN	NOUN	ADJ	,	PUNCT	veryshort	aberatsa	<NA>	<NA>	ADJ	<NA>	<NA>	OUT-HEAD	end	<NA>	<NA>	<NA>	<NA>
egoerari__eta__pertsonaiei__ederki__egokitua__,	EDU	egoerari	eta	pertsonaiei	NOUN	CONJ	NOUN	,	PUNCT	short	egokitua	<NA>	<NA>	VERB	<NA>	<NA>	OUT-HEAD	end	<NA>	<NA>	<NA>	<NA>
baina__erraza__aldi__berean__.	EDU	baina	erraza	aldi	CONJ	ADJ	NOUN	.	PUNCT	veryshort	baina	erraza	<NA>	CONJ	ADJ	<NA>	OUT-HEAD	last	<NA>	<NA>	<NA>	<NA>

andraizea__/__irati__goikoetxea__/__erein,2014__andraizea__usoa__alberdi__fernandez__/__aizu__!__,2015-01__.	EDU	Andraizea	,2015-01	/	NOUN	NUM	PUNCT	!	PUNCT	long	Aizu	<NA>	<NA>	AUX	<NA>	<NA>	OUT-HEAD	first	numb	<NA>	<NA>	date
``__usteak__,__erdiak__ustel__''__egiak__kolpatu__ninduen__liburu__hau__irakurri__ostean__;	EDU	"	Usteak	,	SYM	VERB	PUNCT	;	PUNCT	short	Usteak	<NA>	<NA>	VERB	<NA>	<NA>	OUT-HEAD	beginning	<NA>	<NA>	<NA>	<NA>
bestela__esanda__,__neu__ere__aurreiritzien__mende__bizi__naizela__onartu__behar__osteko__amorruak__.	EDU	bestela	esanda	,	CONJ	VERB	PUNCT	.	PUNCT	short	esanda	onartu	<NA>	VERB	VERB	<NA>	OUT-HEAD	beginning	<NA>	<NA>	<NA>	<NA>
egilea__irati__goikoetxea__matematikan__lizentziatua__izaki__,	EDU	Egilea	Irati	Goikoetxea	NOUN	PROPN	PROPN	,	PUNCT	short	izaki	<NA>	<NA>	VERB	<NA>	<NA>	IN-HEAD	beginning	<NA>	<NA>	<NA>	<NA>
istorio__karratu__eta__erabat__logikoak__espero__nituen__;__inola__ere__txunditzea__,__barre__egitea__edota__barruraino__hunkitzea__.	EDU	istorio	karratu	eta	NOUN	ADJ	CONJ	.	PUNCT	long	nituen	txunditzea	egitea	AUX	VERB	VERB	OUT-HEAD	first-middle	<NA>	<NA>	<NA>	<NA>
are__gutxiago__,__nire__burua__islatuta__ikustea__,__tarteka__baino__sarriago__.	EDU	Are	gutxiago	,	NOUN	DET	PUNCT	.	PUNCT	short	baino	<NA>	<NA>	X	<NA>	<NA>	OUT-HEAD	first-middle	<NA>	<NA>	<NA>	<NA>
bada__,__bete-betean__egin__nuen__kale__.	EDU	Bada	,	bete-betean	CONJ	PUNCT	ADV	.	PUNCT	short	egin	<NA>	<NA>	VERB	<NA>	<NA>	IN-HEAD	first-middle	<NA>	<NA>	<NA>	<NA>
izan__ere__,	EDU	Izan	ere	<NA>	VERB	CONJ	<NA>	,	PUNCT	veryshort	Izan	<NA>	<NA>	VERB	<NA>	<NA>	OUT-HEAD	first-middle	<NA>	<NA>	<NA>	<NA>
izenburuko__andraizea__hitz-jokoak__erakarrita	EDU	izenburuko	Andraizea	hitz-jokoak	NOUN	ADJ	NOUN	erakarrita	VERB	veryshort	erakarrita	<NA>	<NA>	VERB	<NA>	<NA>	OUT-HEAD	first-middle	<NA>	<NA>	<NA>	<NA>
hautatu__nuen__liburuak__ez__du__ezer__karratu__eta__logikotik__,__batik__bat__bigarrenetik__,__eta__asko__,__ordea__,__surrealismo__eta__sentimendu__aniztasunetik__.	EDU	hautatu	nuen	liburuak	VERB	AUX	NOUN	.	PUNCT	long	karratu	<NA>	<NA>	VERB	<NA>	<NA>	IN-HEAD	second-middle	<NA>	<NA>	<NA>	<NA>
enpatiaren__samurtasunez__gainezka__daude__istorioak__,	EDU	Enpatiaren	samurtasunez	gainezka	NOUN	NOUN	ADV	,	PUNCT	short	daude	<NA>	<NA>	VERB	<NA>	<NA>	IN-HEAD	second-middle	<NA>	<NA>	<NA>	<NA>
eta__idazleak__ezin__hobeto__asmaturiko__absurdu-ukitu__zoragarriak__biltzen__ditu__,	EDU	eta	idazleak	ezin	CONJ	NOUN	NOUN	,	PUNCT	short	eta	biltzen	<NA>	CONJ	VERB	<NA>	OUT-HEAD	second-middle	<NA>	<NA>	<NA>	<NA>
gozokiak__lez__banaka-banaka__dasta__ditzagun__,	EDU	gozokiak	lez	banaka-	NOUN	NOUN	PUNCT	,	PUNCT	short	gozokiak	lez	banaka-	NOUN	NOUN	PUNCT	OUT-HEAD	second-middle	<NA>	<NA>	<NA>	<NA>
bakoitzaren__zapore__bereziaz__gozatuz__.	EDU	bakoitzaren	zapore	bereziaz	ADJ	NOUN	NOUN	.	PUNCT	veryshort	gozatuz	<NA>	<NA>	VERB	<NA>	<NA>	OUT-HEAD	second-middle	<NA>	<NA>	<NA>	<NA>
hamalau__ipuintxok__osatzen__dute__liburua__,	EDU	Hamalau	ipuintxok	osatzen	NUM	NOUN	VERB	,	PUNCT	short	osatzen	<NA>	<NA>	VERB	<NA>	<NA>	IN-HEAD	end	<NA>	<NA>	<NA>	<NA>
eta__denek__hitz__egiten__dute__emakumeez__,__hainbat__emakumez__eta__inguruko__gauza__eta__pertsonekin__dituzten__harremanez__.	EDU	eta	denek	hitz	CONJ	DET	DET	.	PUNCT	long	eta	egiten	emakumez	CONJ	VERB	NOUN	OUT-HEAD	end	<NA>	<NA>	<NA>	<NA>
gustura__entzungo__nioke__idazleari__zelan__lortu__duen__hainbeste__nortasun__,__hain__bereziak__,__hain__desberdinak__,__halako__istoriotxoetan__konprimitzea__eta__hain__garbi__islatzea__.	EDU	Gustura	entzungo	nioke	ADV	VERB	PROPN	.	PUNCT	long	entzungo	<NA>	<NA>	VERB	<NA>	<NA>	IN-HEAD	end	<NA>	<NA>	<NA>	<NA>
hizkuntza__natural__bezain__soila__baliatuz__,	EDU	Hizkuntza	natural	bezain	NOUN	ADJ	ADV	,	PUNCT	short	baliatuz	<NA>	<NA>	VERB	<NA>	<NA>	OUT-HEAD	end	<NA>	<NA>	<NA>	<NA>
inolako__itzulinguru__eta__katramilarik__gabe__,__nortasun__oro__osatzen__duten__haize__bitxien__hautaketa__bat__eskaini__digu__matematikariak__,__unetxo__gozagarriak__opari__.	EDU	inolako	itzulinguru	eta	ADJ	NOUN	CONJ	.	PUNCT	long	itzulinguru	eskaini	<NA>	NOUN	VERB	<NA>	IN-HEAD	last	<NA>	<NA>	<NA>	<NA>

60__ordu__zoologikoan__/__gorka__etxeberria__/__egilea__editore__,__2013__neutrala__-LRB-__iritzi__on__eta__txarra__-RRB-__kalimotxoa__nahikoa__ez__denean__hasier__rekondo__/__berria__,__2014-01-19__.	EDU	60	ordu	Zoologikoan	NUM	NOUN	ADJ	.	PUNCT	verylong	Berria	<NA>	<NA>	PROPN	<NA>	<NA>	IN-HEAD	first	numb	<NA>	<NA>	date
``__maite__zaitut__,__kalimotxo__''__.	EDU	"	Maite	zaitut	SYM	PROPN	VERB	.	PUNCT	short	zaitut	<NA>	<NA>	VERB	<NA>	<NA>	IN-HEAD	beginning	<NA>	<NA>	<NA>	<NA>
gorka__etxeberriaren__-LRB-__pasaia__,__1985__-RRB-__lerro__horri__erreparatuz__gero__,	EDU	Gorka	Etxeberriaren	-LRB-	PROPN	PROPN	PUNCT	,	PUNCT	short	erreparatuz	<NA>	<NA>	VERB	<NA>	<NA>	OUT-HEAD	beginning	numb	<NA>	<NA>	date
poesia__punkaren__eta__naifaren__arteko__liburu__txundigarri__baten__aurrean__gaudela__irudika__liteke__.	EDU	poesia	punkaren	eta	NOUN	ADJ	CONJ	.	PUNCT	short	liteke	<NA>	<NA>	VERB	<NA>	<NA>	IN-HEAD	beginning	<NA>	<NA>	<NA>	<NA>
aurrerago__,__berriro__aipatuko__du__kalimotxoa__,	EDU	Aurrerago	,	berriro	ADV	PUNCT	ADV	,	PUNCT	short	aipatuko	<NA>	<NA>	VERB	<NA>	<NA>	IN-HEAD	beginning	<NA>	<NA>	<NA>	<NA>
askaturiko__aingura__existentzial__gisara__aipatu__ere__:	EDU	askaturiko	aingura	existentzial	VERB	NOUN	ADJ	:	PUNCT	short	aipatu	:	<NA>	VERB	PUNCT	<NA>	OUT-HEAD	beginning	<NA>	<NA>	<NA>	<NA>
``__...__kalimotxotik__haratago__luzatu__dugu__begirada__''__.	EDU	"	...	kalimotxotik	SYM	PUNCT	NOUN	.	PUNCT	short	luzatu	<NA>	<NA>	VERB	<NA>	<NA>	IN-HEAD	beginning	<NA>	<NA>	<NA>	<NA>
tamalez__,__asmo__onez__zizelkatutako__hibrido__hutsal__baten__aurrean__gaudela__esan__genezake__.	EDU	Tamalez	,	asmo	ADV	PUNCT	NOUN	.	PUNCT	short	esan	<NA>	<NA>	VERB	<NA>	<NA>	IN-HEAD	beginning	<NA>	<NA>	<NA>	<NA>
izan__ere__,__heterodoxia__sustraietan__tatuatuta__duen__60__ordu__zoologikoan__-LRB-__auto-edizioa__,__2013__-RRB-__honek__asteburu__zoro__baten__kronika__poetikoa__izan__nahi__badu__ere__,	EDU	Izan	ere	,	VERB	CONJ	PUNCT	,	PUNCT	verylong	badu	<NA>	<NA>	VERB	<NA>	<NA>	OUT-HEAD	beginning	numb	<NA>	<NA>	date
xede__onak__ez__dira__nahikoak__izaten	EDU	xede	onak	ez	NOUN	ADJ	PART	izaten	VERB	short	nahikoak	<NA>	<NA>	ADJ	<NA>	<NA>	IN-HEAD	beginning	<NA>	<NA>	<NA>	<NA>
literatura__ona__sortu__ahal__izateko__.	EDU	literatura	ona	sortu	NOUN	ADJ	VERB	.	PUNCT	short	izateko	<NA>	<NA>	VERB	<NA>	<NA>	OUT-HEAD	beginning	<NA>	<NA>	<NA>	<NA>
eta__liburuak__zerbait__baldin__badu__,	EDU	Eta	liburuak	zerbait	CONJ	NOUN	PRON	,	PUNCT	short	badu	<NA>	<NA>	VERB	<NA>	<NA>	IN-HEAD	beginning	<NA>	<NA>	<NA>	<NA>
asmo__onen__eta__lagunen__arteko__konfiantzan__eraikitako__sinbiosia__da__.	EDU	asmo	onen	eta	NOUN	DET	CONJ	.	PUNCT	short	sinbiosia	<NA>	<NA>	NOUN	<NA>	<NA>	OUT-HEAD	beginning	<NA>	<NA>	<NA>	<NA>
hegaldi__poetikoa__tantaka__besterik__ez__da__ageri__.	EDU	Hegaldi	poetikoa	tantaka	NOUN	ADJ	NOUN	.	PUNCT	short	ageri	<NA>	<NA>	ADJ	<NA>	<NA>	IN-HEAD	beginning	<NA>	<NA>	<NA>	<NA>
poesia__punkaren__ardatza__ez__dela__hegaldi__poetikoa__esango__didate__akaso__,	EDU	Poesia	punkaren	ardatza	NOUN	ADJ	NOUN	,	PUNCT	short	esango	<NA>	<NA>	VERB	<NA>	<NA>	IN-HEAD	first-middle	<NA>	<NA>	<NA>	<NA>
baina__hegaldi__poetikorik__gabe__eta__prosodia__landu__gaberik__ez__dagoela__poesiarik__erantzungo__nik__.	EDU	baina	hegaldi	poetikorik	CONJ	NOUN	ADJ	.	PUNCT	short	baina	dagoela	<NA>	CONJ	VERB	<NA>	OUT-HEAD	first-middle	<NA>	<NA>	<NA>	<NA>
egileak__ez__duela__poesia__jasoa__egin__nahi__izan__gaztigatuko__didate__beste__zenbaitzuek__.	EDU	Egileak	ez	duela	NOUN	PART	VERB	.	PUNCT	short	duela	<NA>	<NA>	VERB	<NA>	<NA>	IN-HEAD	first-middle	<NA>	<NA>	<NA>	<NA>
euskal__herrian__gertatzen__den__irakurle__/__idazle__batez__besteko__desorekatua__aipa__dezaket__nik__.	EDU	Euskal	Herrian	gertatzen	NOUN	NOUN	VERB	.	PUNCT	short	aipa	<NA>	<NA>	VERB	<NA>	<NA>	IN-HEAD	first-middle	<NA>	<NA>	<NA>	<NA>
fredi__paia__bertsolariak__ondu__du__liburuaren__hitzaurrea__.	EDU	Fredi	Paia	bertsolariak	PROPN	PROPN	NOUN	.	PUNCT	short	ondu	<NA>	<NA>	VERB	<NA>	<NA>	IN-HEAD	first-middle	<NA>	<NA>	<NA>	<NA>
horrela__dio__:	EDU	Horrela	dio	<NA>	ADV	VERB	<NA>	:	PUNCT	veryshort	dio	<NA>	<NA>	VERB	<NA>	<NA>	IN-HEAD	first-middle	<NA>	<NA>	<NA>	<NA>
``__arabiarrek__esaten__duten__legetxe__,__edertasuna__soilik__baitago	EDU	"	Arabiarrek	esaten	SYM	NOUN	VERB	baitago	VERB	short	legetxe	baitago	<NA>	NOUN	VERB	<NA>	OUT-HEAD	first-middle	<NA>	<NA>	<NA>	<NA>
hura__ikusi__dezaketen__begietan__''__.	EDU	hura	ikusi	dezaketen	DET	VERB	AUX	.	PUNCT	short	ikusi	<NA>	<NA>	VERB	<NA>	<NA>	IN-HEAD	first-middle	<NA>	<NA>	<NA>	<NA>
zin__dagit__,	EDU	Zin	dagit	<NA>	NOUN	VERB	<NA>	,	PUNCT	veryshort	dagit	<NA>	<NA>	VERB	<NA>	<NA>	OUT-HEAD	first-middle	<NA>	<NA>	<NA>	<NA>
saiatu__naizen__arren__,	EDU	saiatu	naizen	arren	VERB	AUX	CONJ	,	PUNCT	veryshort	saiatu	<NA>	<NA>	VERB	<NA>	<NA>	OUT-HEAD	first-middle	<NA>	<NA>	<NA>	<NA>
ez__dudala__edertasunik__aurkitu__liburu__labur__honetan__,	EDU	ez	dudala	edertasunik	PART	AUX	NOUN	,	PUNCT	short	aurkitu	<NA>	<NA>	VERB	<NA>	<NA>	OUT-HEAD	first-middle	<NA>	<NA>	<NA>	<NA>
baina__nire__begien__kontua__ere__izan__daiteke__,	EDU	baina	nire	begien	CONJ	PRON	NOUN	,	PUNCT	short	baina	kontua	ere	CONJ	NOUN	CONJ	OUT-HEAD	first-middle	<NA>	<NA>	<NA>	<NA>
berriki__,__distantzia__laburrerako__betaurrekoak__jarri__behar__izan__baititut__letren__atzetik__bizi__izan__garenon__dekadentziaren__seinale__.	EDU	berriki	,	distantzia	ADV	PUNCT	NOUN	.	PUNCT	long	berriki	izan	<NA>	ADV	VERB	<NA>	IN-HEAD	first-middle	<NA>	<NA>	<NA>	<NA>
hala__ere__,__joseph__brodskyk__esaten__zuen__gisara__,__edertasunak__tinko__dirau	EDU	Hala	ere	,	ADV	CONJ	PUNCT	dirau	DET	short	esaten	edertasunak	tinko	VERB	NOUN	NOUN	IN-HEAD	first-middle	<NA>	<NA>	<NA>	<NA>
gu__aldatzen__garen__bitartean__.	EDU	gu	aldatzen	garen	PRON	VERB	AUX	.	PUNCT	veryshort	aldatzen	<NA>	<NA>	VERB	<NA>	<NA>	OUT-HEAD	second-middle	<NA>	<NA>	<NA>	<NA>
liburuak__asteburu__zoro__baten__berri__ematen__du__.	EDU	Liburuak	asteburu	zoro	NOUN	NOUN	ADJ	.	PUNCT	short	ematen	<NA>	<NA>	VERB	<NA>	<NA>	IN-HEAD	second-middle	<NA>	<NA>	<NA>	<NA>
egile-protagonistak__lehen__pertsonan__ibilitako__egunerokoaren__berri__eman__nahi__digu__,	EDU	Egile-protagonistak	lehen	pertsonan	NUM	NUM	NOUN	,	PUNCT	short	digu	<NA>	<NA>	VERB	<NA>	<NA>	IN-HEAD	second-middle	<NA>	<NA>	<NA>	<NA>
modu__oso__pertsonalean__eman__ere__,	EDU	modu	oso	pertsonalean	NOUN	ADV	NOUN	,	PUNCT	short	eman	<NA>	<NA>	VERB	<NA>	<NA>	OUT-HEAD	second-middle	<NA>	<NA>	<NA>	<NA>
ostiral__arrunt__bateko__iluntzeko__19:00etan__abiatuta__.	EDU	ostiral	arrunt	bateko	NOUN	ADJ	NUM	.	PUNCT	short	abiatuta	<NA>	<NA>	VERB	<NA>	<NA>	OUT-HEAD	second-middle	numb	<NA>	<NA>	<NA>
euskal__herriko__edozein__gaztek__bizi__ditzakeen__esperientziak__era__zatikatuan__,	EDU	Euskal	Herriko	edozein	PROPN	NOUN	DET	,	PUNCT	short	gaztek	esperientziak	era	NOUN	NOUN	NOUN	OUT-HEAD	second-middle	<NA>	<NA>	<NA>	<NA>
epatatzeko__xede__trinkoarekin__,	EDU	epatatzeko	xede	trinkoarekin	VERB	NOUN	ADJ	,	PUNCT	veryshort	xede	<NA>	<NA>	NOUN	<NA>	<NA>	OUT-HEAD	second-middle	<NA>	<NA>	<NA>	<NA>
ematen__zaizkigu__.	EDU	ematen	zaizkigu	<NA>	VERB	AUX	<NA>	.	PUNCT	veryshort	ematen	<NA>	<NA>	VERB	<NA>	<NA>	IN-HEAD	second-middle	<NA>	<NA>	<NA>	<NA>
eta__hori__du__ahulezia__nagusia__liburuak__:__ez__duela__txunditzen__,	EDU	Eta	ez	hori	CONJ	PART	DET	:	PUNCT	short	du	txunditzen	<NA>	VERB	VERB	<NA>	IN-HEAD	second-middle	<NA>	<NA>	<NA>	<NA>
txunditzeko__ahalegin__apurtzaileak__etengabeak__diren__arren__.	EDU	txunditzeko	ahalegin	apurtzaileak	VERB	NOUN	NOUN	.	PUNCT	short	etengabeak	<NA>	<NA>	ADJ	<NA>	<NA>	OUT-HEAD	second-middle	<NA>	<NA>	<NA>	<NA>
asteburu__horretan__zehar__,__alkohola__,__sexua__-LRB-__ordaindutakoa__eta__bestelakoa__-RRB-__,__presoen__egoera__,__ametsak__,__futbola__,__sukaldaritza__,__lana__,__kartzela__existentziala__...__jorratuko__ditu__egileak__.	EDU	Asteburu	horretan	zehar	NOUN	DET	ADP	.	PUNCT	verylong	jorratuko	<NA>	<NA>	VERB	<NA>	<NA>	IN-HEAD	second-middle	<NA>	<NA>	<NA>	<NA>
hain__erabiliak__izanagatik	EDU	Hain	erabiliak	<NA>	ADV	VERB	<NA>	izanagatik	NOUN	veryshort	izanagatik	<NA>	<NA>	NOUN	<NA>	<NA>	OUT-HEAD	second-middle	<NA>	<NA>	<NA>	<NA>
ez__lirateke__oztopo__izan__beharko	EDU	ez	lirateke	oztopo	PART	VERB	NOUN	beharko	VERB	veryshort	lirateke	<NA>	<NA>	VERB	<NA>	<NA>	IN-HEAD	second-middle	<NA>	<NA>	<NA>	<NA>
tentuzko__zerbait__idazteko__.	EDU	tentuzko	zerbait	idazteko	NOUN	PRON	VERB	.	PUNCT	veryshort	idazteko	<NA>	<NA>	VERB	<NA>	<NA>	OUT-HEAD	second-middle	<NA>	<NA>	<NA>	<NA>
baina__ez__da__horrelakorik__gertatzen__.	EDU	Baina	ez	da	CONJ	PART	AUX	.	PUNCT	short	gertatzen	<NA>	<NA>	VERB	<NA>	<NA>	IN-HEAD	second-middle	<NA>	<NA>	<NA>	<NA>
``__alde__onak__eta__txarrak__ditu__/__oraingo__momentuak__,	EDU	"	Alde	onak	SYM	NOUN	ADJ	,	PUNCT	short	ditu	<NA>	<NA>	VERB	<NA>	<NA>	IN-HEAD	end	<NA>	<NA>	<NA>	<NA>
/__ez__dakit__nire__buruak__/__asteburua__bukatzea__nahi__duen__.	EDU	/	ez	dakit	PUNCT	PART	VERB	.	PUNCT	short	/	dakit	/	PUNCT	VERB	PUNCT	OUT-HEAD	end	<NA>	<NA>	<NA>	<NA>
/__ez__dakit__''__.	EDU	/	Ez	dakit	PUNCT	PART	VERB	.	PUNCT	short	dakit	<NA>	<NA>	VERB	<NA>	<NA>	IN-HEAD	end	<NA>	<NA>	<NA>	<NA>
izanak__sortzen__dituen__zalantzak__lar__xaloki__adierazten__direla__esango__nuke__.	EDU	Izanak	sortzen	dituen	NOUN	VERB	AUX	.	PUNCT	short	esango	<NA>	<NA>	VERB	<NA>	<NA>	IN-HEAD	end	<NA>	<NA>	<NA>	<NA>
aurreko__iruzkin__batean__aitatzen__nuen__irudi__trinkoz__eraikitzen__den__emozioa__dela__poesia__,__pentsamenduaren__eta__irudiaren__artean__eraikitako__erresuma__zakarra__,__talenturik__ezean__.	EDU	Aurreko	iruzkin	batean	NOUN	NOUN	NUM	.	PUNCT	long	aitatzen	<NA>	<NA>	VERB	<NA>	<NA>	IN-HEAD	end	<NA>	<NA>	<NA>	<NA>
apika__,__gizakiok__egunero__bizi__dugun__zoologikoaren__eta__kaiolaren__arteko__metafora__izan__daiteke__,__bere__gardentasunean__,__liburuak__duen__gauzarik__landuena__,__errealitatearen__eta__erresistentziaren__arteko__dikotomia__hori__.	EDU	Apika	,	gizakiok	ADV	PUNCT	NOUN	.	PUNCT	verylong	dikotomia	<NA>	<NA>	NOUN	<NA>	<NA>	OUT-HEAD	end	<NA>	<NA>	<NA>	<NA>
hibridotasun__horren__baitan__,__aste__buru__zoro__horren__epilogo__gisara__,__zenbait__lagunen__lankidetza__izan__zuen__egileak__,__asteburua__luzatu__ezinik__edo__.	EDU	Hibridotasun	horren	baitan	NOUN	DET	ADP	.	PUNCT	long	epilogo	<NA>	<NA>	VERB	<NA>	<NA>	IN-HEAD	end	<NA>	<NA>	<NA>	<NA>
horrela__bada__,__gaien__arteko__anabasa__alaian__eñaut__gantxegi__,__mikel__astarloza__txirrindularia__,__ion__olano__carlos__eta__ibon__apezetxea__goñiren__idatziekin__amaitzen__da__liburua__.	EDU	Horrela	bada	,	ADV	VERB	PUNCT	.	PUNCT	verylong	amaitzen	<NA>	<NA>	VERB	<NA>	<NA>	IN-HEAD	end	<NA>	<NA>	<NA>	<NA>
asteburua__,__desfasea__,__laguntasuna__eta__futbola__dituzte__hizpide__.	EDU	Asteburua	,	desfasea	NOUN	PUNCT	NOUN	.	PUNCT	short	dituzte	<NA>	<NA>	VERB	<NA>	<NA>	IN-HEAD	end	<NA>	<NA>	<NA>	<NA>
originaltasunak__ez__du__leku__askorik__hartzen__izkribuotan__,	EDU	Originaltasunak	ez	du	NOUN	PART	VERB	,	PUNCT	short	du	<NA>	<NA>	VERB	<NA>	<NA>	IN-HEAD	end	<NA>	<NA>	<NA>	<NA>
halere__,	EDU	halere	<NA>	<NA>	CONJ	<NA>	<NA>	,	PUNCT	veryshort	halere	<NA>	<NA>	CONJ	<NA>	<NA>	OUT-HEAD	end	<NA>	<NA>	<NA>	<NA>
liburu__guztian__gertatu__gisara__,	EDU	liburu	guztian	gertatu	NOUN	DET	VERB	,	PUNCT	veryshort	gertatu	<NA>	<NA>	VERB	<NA>	<NA>	OUT-HEAD	end	<NA>	<NA>	<NA>	<NA>
asmo__onez__beterik__daude__.	EDU	asmo	onez	beterik	NOUN	ADJ	VERB	.	PUNCT	veryshort	daude	<NA>	<NA>	VERB	<NA>	<NA>	OUT-HEAD	end	<NA>	<NA>	<NA>	<NA>
baina__,__esan__bezala__,__literatura__ona__egiteko	EDU	Baina	,	esan	CONJ	PUNCT	VERB	egiteko	VERB	short	Baina	esan	egiteko	CONJ	VERB	VERB	OUT-HEAD	end	<NA>	<NA>	<NA>	<NA>
kalimotxoz__blaitutako__asmo__onak__ez__dira__nahiko__.	EDU	kalimotxoz	blaitutako	asmo	NOUN	VERB	NOUN	.	PUNCT	short	nahiko	<NA>	<NA>	ADV	<NA>	<NA>	IN-HEAD	last	<NA>	<NA>	<NA>	<NA>

belauneko__protesiaren__infekzioa__.	EDU	Belauneko	protesiaren	infekzioa	NOUN	NOUN	NOUN	.	PUNCT	veryshort	infekzioa	<NA>	<NA>	NOUN	<NA>	<NA>	IN-HEAD	first	<NA>	<NA>	<NA>	<NA>
belauneko__protesiaren__infekzioa__arazo__larria__da__pazientearentzat__eta__zirujauentzat__.	EDU	Belauneko	protesiaren	infekzioa	NOUN	NOUN	NOUN	.	PUNCT	short	arazo	<NA>	<NA>	NOUN	<NA>	<NA>	IN-HEAD	beginning	<NA>	<NA>	<NA>	<NA>
prebentzio__metodoen__eta__artroplastiako__teknika__modernoen__laguntzaz__horrelako__kasuak__murriztu__diren__arren__,	EDU	Prebentzio	metodoen	eta	NOUN	NOUN	CONJ	,	PUNCT	short	murriztu	<NA>	<NA>	VERB	<NA>	<NA>	OUT-HEAD	first-middle	<NA>	<NA>	<NA>	<NA>
infekzio__hori__sendatzea__erronka__bat__da__oraindik__ere__.	EDU	infekzio	hori	sendatzea	NOUN	DET	VERB	.	PUNCT	short	erronka	<NA>	<NA>	NOUN	<NA>	<NA>	IN-HEAD	first-middle	<NA>	<NA>	<NA>	<NA>
1996.__eta__2004.__urteen__bitartean__gure__ospitalean__izandako__23__infekzio__protesiko__aztertu__ditugu__.	EDU	1996.	eta	2004.	NUM	CONJ	NUM	.	PUNCT	short	aztertu	<NA>	<NA>	VERB	<NA>	<NA>	IN-HEAD	second-middle	numb	<NA>	<NA>	<NA>
horien__artean__,__6__kasu__baztertu__ditugu__hainbat__arrazoirengatik__.	EDU	Horien	artean	,	DET	ADP	PUNCT	.	PUNCT	short	baztertu	<NA>	<NA>	VERB	<NA>	<NA>	IN-HEAD	second-middle	numb	<NA>	<NA>	<NA>
gure__ospitalean__ptrko__infekzio__kroniko__guztiak__bi__alditan__eginiko__ordezko__protesien__bidez__tratatu__ziren__-LRB-__lcck__protesiekin__:__legacy__constrained__condylar__knee__zementu__antibiotikoarekin__-RRB-__.	EDU	Gure	Legacy	ospitalean	PRON	PROPN	NOUN	:	PUNCT	verylong	zementu	-RRB-	tratatu	NOUN	PUNCT	VERB	IN-HEAD	end	<NA>	<NA>	<NA>	<NA>
bigarren__aldiaren__ondoren__,__batez__beste__,__23__hilabeteko__jarraipena__egin__zitzaien__pazientei__,__3__hilabeteko__eta__5__urteko__tarteekin__.	EDU	Bigarren	aldiaren	ondoren	NUM	NOUN	ADP	.	PUNCT	long	egin	<NA>	<NA>	VERB	<NA>	<NA>	IN-HEAD	end	numb	<NA>	<NA>	<NA>
erabilitako__metodologia__-LRB-__infekzioa__diagnostikatzeko__eta__sendatzeko__erabilitakoa__-RRB-__eta__lortutako__emaitzak__aztertu__ditugu__.	EDU	Erabilitako	metodologia	-LRB-	VERB	NOUN	PUNCT	.	PUNCT	short	aztertu	<NA>	<NA>	VERB	<NA>	<NA>	IN-HEAD	last	<NA>	<NA>	<NA>	<NA>

