word pos prefw1 prefw2 prefw3 prefp1 prefp2 prefp3 suffw1 suffp1 len headw1 headw2 headw3 headp1 headp2 headp3 head position numb perc money date
galdakaoko__ospitaleko__larrialdi__zerbitzuak__erabiltzen__dituzten__erabiltzaileen__soslaia__.	EDU	Galdakaoko	Ospitaleko	larrialdi	PROPN	NOUN	NOUN	.	PUNCT	short	erabiltzen	<NA>	<NA>	VERB	<NA>	<NA>	IN-HEAD	first	<NA>	<NA>	<NA>	<NA>
larrialdi__zerbitzuetako__asistentzia__medikuen__kopurua__gehituz__doa__etengabe__,	EDU	Larrialdi	zerbitzuetako	asistentzia	PROPN	NOUN	NOUN	,	PUNCT	short	doa	<NA>	<NA>	VERB	<NA>	<NA>	IN-HEAD	beginning	<NA>	<NA>	<NA>	<NA>
estatu__españolean__igoera__hau__urteko__%__4an__kokatzen__da__.	EDU	estatu	españolean	igoera	NOUN	NOUN	NOUN	.	PUNCT	short	kokatzen	<NA>	<NA>	VERB	<NA>	<NA>	OUT-HEAD	first-middle	numb	<NA>	<NA>	<NA>
erabiltzaileen__%__80ak__bere__kabuz__erabakitzen__dute__larrialdi__zerbitzu__batetara__jotzea	EDU	Erabiltzaileen	%	80ak	NOUN	PUNCT	NUM	jotzea	VERB	short	erabakitzen	<NA>	<NA>	VERB	<NA>	<NA>	IN-HEAD	first-middle	numb	<NA>	<NA>	<NA>
eta__kontsulta__hauen__%__70a__larritasun__gutxikotzat__jotzen__dituzte__zerbitzu__hauetako__medikuek__.	EDU	eta	kontsulta	hauen	CONJ	NOUN	DET	.	PUNCT	short	eta	jotzen	<NA>	CONJ	VERB	<NA>	OUT-HEAD	second-middle	numb	<NA>	<NA>	<NA>
zerbitzu__hauen__perfila__azaltzen__duten__ikerketa__epidemiologikoak__egitea__baliagarria__izan__daiteke__osasun__planifikazioaren__aldetik__,	EDU	Zerbitzu	hauen	perfila	NOUN	DET	NOUN	,	PUNCT	short	baliagarria	<NA>	<NA>	ADJ	<NA>	<NA>	IN-HEAD	second-middle	<NA>	<NA>	<NA>	<NA>
hau__dela__eta__,__galdakaoko__ospitaleko__larrialdi__zerbitzuaren__erabiltzaileen__perfil__deskriptibo__bat__egitea__aproposa__iruditu__zaigu__.	EDU	hau	dela	eta	DET	VERB	CONJ	.	PUNCT	long	dela	iruditu	<NA>	VERB	VERB	<NA>	OUT-HEAD	second-middle	<NA>	<NA>	<NA>	<NA>
emaitzak__:	EDU	Emaitzak	<NA>	<NA>	NOUN	<NA>	<NA>	:	PUNCT	veryshort	Emaitzak	<NA>	<NA>	NOUN	<NA>	<NA>	IN-HEAD	end	<NA>	<NA>	<NA>	<NA>
erabiltzaileen__perfil__orokorra__ondokoa__dela__esan__daiteke__:__gizonezkoa__-LRB-__%__51,4__-RRB-__,__heldua__-LRB-__43,2__urteko__media__-RRB-__eta__patologia__traumatologikoagatik__kontsultatzen__duena__-LRB-__%__50,5__-RRB-__.	EDU	Erabiltzaileen	gizonezkoa	perfil	NOUN	NOUN	NOUN	.	PUNCT	verylong	gizonezkoa	esan	<NA>	NOUN	VERB	<NA>	IN-HEAD	end	numb	<NA>	<NA>	<NA>
galdakao__inguruko__herrietatik__datorrelarik__gehiengoa__.	EDU	Galdakao	inguruko	herrietatik	PROPN	ADP	NOUN	.	PUNCT	short	gehiengoa	<NA>	<NA>	NOUN	<NA>	<NA>	IN-HEAD	last	<NA>	<NA>	<NA>	<NA>

alter__ero__/__bertol__arrieta__/__susa__,__2012__errealitatea__bihurritzen__alex__gurrutxaga__/__berria,2012-11-11	EDU	Alter	ero	/	PROPN	PROPN	PUNCT	2012-11-11	NUM	long	bihurritzen	2012-11-11	<NA>	VERB	NUM	<NA>	OUT-HEAD	first	numb	<NA>	<NA>	date
aho__gustu__gazi-gozoa__utzi__dit__bertol__arrietaren__bigarren__ipuin__liburuak__.	EDU	Aho	gustu	gazi-gozoa	NOUN	ADJ	ADJ	.	PUNCT	short	utzi	<NA>	<NA>	VERB	<NA>	<NA>	IN-HEAD	beginning	<NA>	<NA>	<NA>	<NA>
gozoa__,__istorio__interesgarriak__biltzen__dituelako__.	EDU	Gozoa	,	istorio	NOUN	PUNCT	NOUN	.	PUNCT	short	biltzen	<NA>	<NA>	VERB	<NA>	<NA>	IN-HEAD	beginning	<NA>	<NA>	<NA>	<NA>
gazia__,__kontaerek__ez__nautelako__guztiz__ase__.	EDU	Gazia	,	kontaerek	PROPN	PUNCT	NOUN	.	PUNCT	short	nautelako	<NA>	<NA>	ADJ	<NA>	<NA>	IN-HEAD	beginning	<NA>	<NA>	<NA>	<NA>
zortzi__ipuin__daude__arrietaren__liburuan__,__giza__harremanak__jorratzen__dituzten__sei__eta__literatura__ardatz__duten__bi__.	EDU	Zortzi	ipuin	daude	NUM	NOUN	VERB	.	PUNCT	long	daude	<NA>	<NA>	VERB	<NA>	<NA>	IN-HEAD	beginning	<NA>	<NA>	<NA>	<NA>
eguneroko__bizimoduari__begira__sortutako__ipuinak__dira__,__baina__ez__horregatik__ohiko__gauzak__kontatzen__dituztenak__.	EDU	Eguneroko	bizimoduari	begira	NOUN	NOUN	ADP	.	PUNCT	short	ipuinak	<NA>	<NA>	NOUN	<NA>	<NA>	IN-HEAD	beginning	<NA>	<NA>	<NA>	<NA>
izan__ere__,__arrunta__denari__buelta__bat__ematen__ahalegintzen__da__bertol__arrieta__,	EDU	Izan	ere	,	VERB	CONJ	PUNCT	,	PUNCT	short	ahalegintzen	<NA>	<NA>	VERB	<NA>	<NA>	IN-HEAD	beginning	<NA>	<NA>	<NA>	<NA>
gure__ohiko__ego__zuzenari__alter__ero__bat__bilatzen__.	EDU	gure	ohiko	ego	PRON	ADJ	NOUN	.	PUNCT	short	bilatzen	<NA>	<NA>	VERB	<NA>	<NA>	OUT-HEAD	beginning	<NA>	<NA>	<NA>	<NA>
sortu__dituen__pertsonaia__nagusiak__antiheroiak__dira__;	EDU	Sortu	dituen	pertsonaia	VERB	AUX	NOUN	;	PUNCT	short	antiheroiak	<NA>	<NA>	NOUN	<NA>	<NA>	IN-HEAD	beginning	<NA>	<NA>	<NA>	<NA>
jende__arrunta__da__berez__,	EDU	jende	arrunta	da	NOUN	ADJ	VERB	,	PUNCT	veryshort	da	<NA>	<NA>	VERB	<NA>	<NA>	OUT-HEAD	beginning	<NA>	<NA>	<NA>	<NA>
eta__bat-batean__gertaeraren__batek__euren__mundua__iraultzen__du__.	EDU	eta	bat-batean	gertaeraren	CONJ	ADV	NOUN	.	PUNCT	short	eta	iraultzen	<NA>	CONJ	VERB	<NA>	OUT-HEAD	beginning	<NA>	<NA>	<NA>	<NA>
idazleak__berak__esan__bezala__,__''__gertaera__xumeak__''__dira__,	EDU	Idazleak	berak	esan	NOUN	DET	VERB	,	PUNCT	short	gertaera	<NA>	<NA>	NOUN	<NA>	<NA>	IN-HEAD	beginning	<NA>	<NA>	<NA>	<NA>
baina__hala__ere__,__arazoak__euren__onetik__ateratzen__ditu__pertsonaiak__.	EDU	baina	hala	ere	CONJ	ADV	CONJ	.	PUNCT	short	baina	ateratzen	<NA>	CONJ	VERB	<NA>	OUT-HEAD	beginning	<NA>	<NA>	<NA>	<NA>
horiek	EDU	<NA>	<NA>	<NA>	<NA>	<NA>	<NA>	Horiek	DET	veryshort	Horiek	<NA>	<NA>	DET	<NA>	<NA>	OUT-HEAD	beginning	<NA>	<NA>	<NA>	<NA>
galduta	EDU	<NA>	<NA>	<NA>	<NA>	<NA>	<NA>	galduta	VERB	veryshort	galduta	<NA>	<NA>	VERB	<NA>	<NA>	OUT-HEAD	first-middle	<NA>	<NA>	<NA>	<NA>
aurkitzen__diren__une__horretan__hasten__dira__kontuak__ezohiko__izaten__.	EDU	aurkitzen	diren	une	VERB	AUX	NOUN	.	PUNCT	short	hasten	<NA>	<NA>	VERB	<NA>	<NA>	IN-HEAD	first-middle	<NA>	<NA>	<NA>	<NA>
arrietak__modu__finean__erabiltzen__duen__absurdoa__nagusitzen__da__maiz__,__modu__indartsuenean__ipuin__metaliterarioetan__;	EDU	Arrietak	modu	finean	PROPN	NOUN	NOUN	;	PUNCT	short	nagusitzen	<NA>	<NA>	VERB	<NA>	<NA>	IN-HEAD	first-middle	<NA>	<NA>	<NA>	<NA>
nahiko__modu__lortuan__un__tal__ekain__ipuinean__,__non__narratzaile__batek__cortazarren__semea__dela__sinetsarazi__nahi__digun__,	EDU	nahiko	modu	lortuan	ADV	NOUN	NOUN	,	PUNCT	long	digun	<NA>	<NA>	AUX	<NA>	<NA>	OUT-HEAD	first-middle	<NA>	<NA>	<NA>	<NA>
eta__ez__hain__ongi__ipuin__perfektua-n__,__idazle__batek__horixe__bera__idazteko__ahalegina__egiten__duenean__.	EDU	eta	ez	hain	CONJ	PART	ADV	.	PUNCT	long	eta	Ipuin	egiten	CONJ	NOUN	VERB	OUT-HEAD	first-middle	<NA>	<NA>	<NA>	<NA>
alde__horretatik__,__umorerik__ere__ez__da__falta__,	EDU	Alde	horretatik	,	NOUN	DET	PUNCT	,	PUNCT	short	da	<NA>	<NA>	VERB	<NA>	<NA>	IN-HEAD	first-middle	<NA>	<NA>	<NA>	<NA>
eta__hori__ere__modu__finean__lantzen__du__bertol__arrietak__.	EDU	eta	hori	ere	CONJ	DET	CONJ	.	PUNCT	short	eta	lantzen	<NA>	CONJ	VERB	<NA>	OUT-HEAD	first-middle	<NA>	<NA>	<NA>	<NA>
txispa__dezenteko__momentutxoak__daude__,__esaterako__,__bye__ipuinean__.	EDU	Txispa	dezenteko	momentutxoak	NOUN	ADJ	NOUN	.	PUNCT	short	daude	<NA>	<NA>	VERB	<NA>	<NA>	IN-HEAD	first-middle	<NA>	<NA>	<NA>	<NA>
bestalde__,__pertsonaien__karakterizazioa__sendoa__dela__esango__nuke__,	EDU	Bestalde	,	pertsonaien	CONJ	PUNCT	NOUN	,	PUNCT	short	esango	<NA>	<NA>	VERB	<NA>	<NA>	IN-HEAD	first-middle	<NA>	<NA>	<NA>	<NA>
alegia__,__ongi__jabetzen__garela__pertsonaia__nagusiak__nolakoak__diren__.	EDU	alegia	,	ongi	CONJ	PUNCT	ADV	.	PUNCT	short	alegia	jabetzen	<NA>	CONJ	VERB	<NA>	OUT-HEAD	first-middle	<NA>	<NA>	<NA>	<NA>
gustatu__zait__,__gainera__,	EDU	Gustatu	zait	,	VERB	AUX	PUNCT	,	PUNCT	veryshort	Gustatu	gainera	<NA>	VERB	CONJ	<NA>	IN-HEAD	first-middle	<NA>	<NA>	<NA>	<NA>
nola__jabetzen__garen__.	EDU	nola	jabetzen	garen	ADV	VERB	AUX	.	PUNCT	veryshort	jabetzen	<NA>	<NA>	VERB	<NA>	<NA>	OUT-HEAD	first-middle	<NA>	<NA>	<NA>	<NA>
arrieta__ez__da__pertsonaien__barne__mundua__kontatzen__hasten__;	EDU	Arrieta	ez	da	PROPN	PART	AUX	;	PUNCT	short	hasten	<NA>	<NA>	VERB	<NA>	<NA>	OUT-HEAD	first-middle	<NA>	<NA>	<NA>	<NA>
askotan__,__pertsonaia__nagusiak__eurak__dira__narratzaileak__,	EDU	askotan	,	pertsonaia	ADV	PUNCT	NOUN	,	PUNCT	short	askotan	eurak	<NA>	ADV	NOUN	<NA>	OUT-HEAD	first-middle	<NA>	<NA>	<NA>	<NA>
eta__euren__hitz__egiteko__eta__jokatzeko__moduaren__bidez__ezagutzen__ditugu	EDU	eta	euren	hitz	CONJ	PRON	NOUN	ditugu	AUX	short	eta	egiteko	<NA>	CONJ	VERB	<NA>	OUT-HEAD	second-middle	<NA>	<NA>	<NA>	<NA>
-LRB-__kontatu__baino__gehiago__,__erakutsi__egiten__zaigu__nolakoak__diren__-RRB-__.	EDU	-LRB-	kontatu	baino	PUNCT	VERB	X	.	PUNCT	short	-LRB-	baino	erakutsi	PUNCT	X	VERB	IN-HEAD	second-middle	<NA>	<NA>	<NA>	<NA>
aipatu__beharrekoa__da__in__medias__res__ordena__,	EDU	Aipatu	beharrekoa	da	VERB	NOUN	VERB	,	PUNCT	short	da	<NA>	<NA>	VERB	<NA>	<NA>	OUT-HEAD	second-middle	<NA>	<NA>	<NA>	<NA>
hainbat__ipuinetan__oinarrizko__egituran__baitago__.	EDU	hainbat	ipuinetan	oinarrizko	DET	ADV	ADJ	.	PUNCT	short	baitago	<NA>	<NA>	VERB	<NA>	<NA>	OUT-HEAD	second-middle	<NA>	<NA>	<NA>	<NA>
pertsonaia__aurkezten__zaigu__lehenbizi__;	EDU	Pertsonaia	aurkezten	zaigu	NOUN	VERB	AUX	;	PUNCT	veryshort	lehenbizi	<NA>	<NA>	ADV	<NA>	<NA>	OUT-HEAD	second-middle	<NA>	<NA>	<NA>	<NA>
gero__,__une__batean__,__pertsonaia__nagusia__pentsaketan__hasten__da	EDU	gero	,	une	ADV	PUNCT	NOUN	da	AUX	short	hasten	<NA>	<NA>	VERB	<NA>	<NA>	IN-HEAD	second-middle	<NA>	<NA>	<NA>	<NA>
-LRB-__ile__apaindegian__eserita__,__igerian__,__eta__abar__-RRB-__,	EDU	-LRB-	ile	apaindegian	PUNCT	NOUN	NOUN	,	PUNCT	short	-LRB-	eserita	igerian	PUNCT	VERB	ADV	OUT-HEAD	second-middle	<NA>	<NA>	<NA>	<NA>
eta__horrela__,__bi__garaiek__bateratsu__egiten__dute__aurrera__.	EDU	eta	horrela	,	CONJ	ADV	PUNCT	.	PUNCT	short	eta	egiten	<NA>	CONJ	VERB	<NA>	OUT-HEAD	second-middle	<NA>	<NA>	<NA>	<NA>
hori__egiten__du__egileak__,__esaterako__,__ordezko__atezainaren__balada-n__,	EDU	Hori	egiten	du	DET	VERB	AUX	,	PUNCT	short	egiten	<NA>	<NA>	VERB	<NA>	<NA>	IN-HEAD	second-middle	<NA>	<NA>	<NA>	<NA>
nire__ustez__liburuko__ipuin__onenetakoan__.	EDU	nire	ustez	liburuko	PRON	NOUN	NOUN	.	PUNCT	short	ipuin	<NA>	<NA>	NOUN	<NA>	<NA>	OUT-HEAD	second-middle	<NA>	<NA>	<NA>	<NA>
bertan__,__orrialde__gutxian__hiru__lagun__errusiarren__bizimodua__modu__eraginkorrean__kontatzen__da__.	EDU	Bertan	,	orrialde	ADV	PUNCT	NOUN	.	PUNCT	short	kontatzen	<NA>	<NA>	VERB	<NA>	<NA>	IN-HEAD	second-middle	<NA>	<NA>	<NA>	<NA>
gazi__puntua__kontamolde__zenbaitek__utzi__dit__.	EDU	Gazi	puntua	kontamolde	VERB	NOUN	NOUN	.	PUNCT	short	utzi	<NA>	<NA>	VERB	<NA>	<NA>	IN-HEAD	second-middle	<NA>	<NA>	<NA>	<NA>
batzuetan__,__ipuinen__mezu__nagusia__lausoa__iruditu__zait__,	EDU	Batzuetan	,	ipuinen	DET	PUNCT	NOUN	,	PUNCT	short	iruditu	<NA>	<NA>	VERB	<NA>	<NA>	IN-HEAD	second-middle	<NA>	<NA>	<NA>	<NA>
eta__horrek__erabilitako__teknikaren__eta__gaiaren__artean__disonantzia__dagoela__pentsatzera__narama	EDU	eta	horrek	erabilitako	CONJ	DET	VERB	narama	NOUN	short	eta	pentsatzera	<NA>	CONJ	VERB	<NA>	OUT-HEAD	second-middle	<NA>	<NA>	<NA>	<NA>
-LRB-__esaterako__,__ez__da__zinemazaleentzako__herrialdea__ipuin__ez__oso__sinesgarrian__mezu__nagusi__sendorik__ez__dut__harrapatu__-RRB-__.	EDU	-LRB-	esaterako	,	PUNCT	ADV	PUNCT	.	PUNCT	long	-LRB-	esaterako	harrapatu	PUNCT	ADV	VERB	OUT-HEAD	end	<NA>	<NA>	<NA>	<NA>
antzeko__zerbait__gertatzen__dela__esango__nuke__laurak__eta__hodei__ipuinean__ere__;	EDU	Antzeko	zerbait	gertatzen	ADJ	PRON	VERB	;	PUNCT	short	esango	hodei	ipuinean	VERB	NOUN	NOUN	IN-HEAD	end	<NA>	<NA>	<NA>	<NA>
teknikak__mezuaren__alde__ala__kontra__egiten__duen__zalantzak__ditut__.	EDU	teknikak	mezuaren	alde	NOUN	NOUN	NOUN	.	PUNCT	short	ditut	<NA>	<NA>	VERB	<NA>	<NA>	OUT-HEAD	end	<NA>	<NA>	<NA>	<NA>
izan__ere__,__teknika__berezi__zenbait__lantzen__ere__ahalegindu__da__arrieta__-LRB-__aipatutakoaren__amaieran__,__kasurako__-RRB-	EDU	Izan	ere	,	VERB	CONJ	PUNCT	-RRB-	PUNCT	long	ahalegindu	<NA>	<NA>	VERB	<NA>	<NA>	IN-HEAD	end	<NA>	<NA>	<NA>	<NA>
eta__emaitzek__ez__naute__erabat__konbentzitu__.	EDU	eta	emaitzek	ez	CONJ	NOUN	PART	.	PUNCT	short	eta	konbentzitu	<NA>	CONJ	VERB	<NA>	OUT-HEAD	end	<NA>	<NA>	<NA>	<NA>
baliatu__duen__errekurtso__bat__pertsona__narratiboen__aldaketa__da__-LRB-__ordezko__atezainaren__balada-n__,__adibidez__-RRB-__,	EDU	Baliatu	duen	errekurtso	VERB	AUX	NOUN	,	PUNCT	long	aldaketa	<NA>	<NA>	NOUN	<NA>	<NA>	IN-HEAD	end	<NA>	<NA>	<NA>	<NA>
baina__uste__dut__ez__dagoela__argi__zertarako__,	EDU	baina	uste	dut	CONJ	NOUN	VERB	,	PUNCT	short	baina	dut	<NA>	CONJ	VERB	<NA>	OUT-HEAD	end	<NA>	<NA>	<NA>	<NA>
eta__horrek__ipuinaren__aurka__egiten__duelakoan__nago__.	EDU	eta	horrek	ipuinaren	CONJ	DET	NOUN	.	PUNCT	short	eta	nago	<NA>	CONJ	VERB	<NA>	OUT-HEAD	end	<NA>	<NA>	<NA>	<NA>
era__berean__,__azken__ipuin__zinez__onaren__amaiera__irekiak__ez__duela__funtzionatzen__esango__nuke	EDU	Era	berean	,	NOUN	DET	PUNCT	nuke	AUX	short	esango	<NA>	<NA>	VERB	<NA>	<NA>	OUT-HEAD	end	<NA>	<NA>	<NA>	<NA>
-LRB-__bigarren__mailako__pertsonaia__,__emaztea__,__ez__baitu__irakurleak__nahikoa__ezagutzen	EDU	-LRB-	bigarren	mailako	PUNCT	NUM	NOUN	ezagutzen	VERB	short	-LRB-	pertsonaia	emaztea	PUNCT	NOUN	VERB	OUT-HEAD	end	<NA>	<NA>	<NA>	<NA>
aurreikuspenik__egiteko__-RRB-__.	EDU	aurreikuspenik	egiteko	-RRB-	NOUN	VERB	PUNCT	.	PUNCT	veryshort	egiteko	-RRB-	<NA>	VERB	PUNCT	<NA>	OUT-HEAD	end	<NA>	<NA>	<NA>	<NA>
topiko__zenbait__eta__esapide__ez__oso__egoki__batzuk__ere__badaude	EDU	Topiko	zenbait	eta	PROPN	DET	CONJ	badaude	VERB	short	badaude	<NA>	<NA>	VERB	<NA>	<NA>	OUT-HEAD	end	<NA>	<NA>	<NA>	<NA>
-LRB-__adibidez__,__``__poz__apur__bat__ekarri__dio__,__keinu__arraro__batean__bilakatu__dena__''__bezalako__egiturak__,__``__napolitarrik__grinatsuena__bezain__odol__berokoa__''__edota__``__airean__hartzen__zituen__''__-RRB-__.	EDU	-LRB-	adibidez	,	PUNCT	ADV	PUNCT	.	PUNCT	verylong	-LRB-	adibidez	ekarri	PUNCT	ADV	VERB	IN-HEAD	end	<NA>	<NA>	<NA>	<NA>
esan__bezala__,__sentsazio__nahasia__utzi__dit__liburuak__;__bai__baina__ez__,__ez__baina__bai__.	EDU	Esan	bezala	,	VERB	ADV	PUNCT	.	PUNCT	long	utzi	<NA>	<NA>	VERB	<NA>	<NA>	IN-HEAD	end	<NA>	<NA>	<NA>	<NA>
azpimarratuko__nituzke__giza__harremanekin__egoki__erabilitako__umoreaz__eta__absurdoaz__gain__,__pertsonaia__nagusi__ongi__definituak__eta__errealitatea__bihurritzeko__modua__.	EDU	Azpimarratuko	nituzke	giza	VERB	AUX	NOUN	.	PUNCT	long	Azpimarratuko	<NA>	<NA>	VERB	<NA>	<NA>	IN-HEAD	last	<NA>	<NA>	<NA>	<NA>

burezur__kanpoko__lesio__karotideoen__tratatze__kirurgikoa__:__10__urteko__esperientzia__.	EDU	Burezur	10	kanpoko	NOUN	NUM	ADJ	:	PUNCT	short	esperientzia	tratatze	<NA>	NOUN	NOUN	<NA>	IN-HEAD	first	numb	<NA>	<NA>	<NA>
burezur__kanpoko__lesio__karotideoen__tratatze__kirurgikoan__gure__taldeak__10__urtetan__zehar__bifurkazio__karotideoaren__endarterektomia__bitartez__izandako__esperientzia__aurkezten__dugu__.	EDU	Burezur	kanpoko	lesio	NOUN	ADJ	NOUN	.	PUNCT	long	aurkezten	<NA>	<NA>	VERB	<NA>	<NA>	IN-HEAD	second-middle	numb	<NA>	<NA>	<NA>
bereziki__azpimarratu__nahi__ditugu__hura__burutzeko__kontrol__peroperatorioa__shunt__endoluminalik__gabe__eta__emaitza__goiztiarrak__.	EDU	Bereziki	azpimarratu	nahi	ADV	VERB	NOUN	.	PUNCT	short	ditugu	<NA>	<NA>	VERB	<NA>	<NA>	IN-HEAD	last	<NA>	<NA>	<NA>	<NA>

nanopartikulen__toxikotasuna__.	EDU	Nanopartikulen	toxikotasuna	<NA>	PROPN	NOUN	<NA>	.	PUNCT	veryshort	toxikotasuna	<NA>	<NA>	NOUN	<NA>	<NA>	IN-HEAD	first	<NA>	<NA>	<NA>	<NA>
nano__tamainako__partikulen__ezaugarri__fisikokimikoak__tamaina__arrunteko__substantzia__baliokideen__ezaugarrien__desberdinak__dira__,	EDU	Nano	tamainako	partikulen	PROPN	NOUN	NOUN	,	PUNCT	short	ezaugarrien	<NA>	<NA>	NOUN	<NA>	<NA>	IN-HEAD	beginning	<NA>	<NA>	<NA>	<NA>
eta__sarritan__ezin__dira__aurreikusi__ere__.	EDU	eta	sarritan	ezin	CONJ	ADV	NOUN	.	PUNCT	short	eta	dira	<NA>	CONJ	VERB	<NA>	OUT-HEAD	beginning	<NA>	<NA>	<NA>	<NA>
nanomaterialak__gero__eta__gehiago__erabiltzearekin__batera__,	EDU	Nanomaterialak	gero	eta	NOUN	ADV	CONJ	,	PUNCT	short	Nanomaterialak	<NA>	<NA>	NOUN	<NA>	<NA>	OUT-HEAD	beginning	<NA>	<NA>	<NA>	<NA>
ingurumen__eta__osasunaren__gainean__eurek__eduki__ditzaketen__arriskuei__buruzko__ikerketak__bultzatu__beharra__dago__.	EDU	ingurumen	eta	osasunaren	ADV	CONJ	NOUN	.	PUNCT	short	ikerketak	dago	<NA>	NOUN	VERB	<NA>	IN-HEAD	beginning	<NA>	<NA>	<NA>	<NA>
injinerututako__nanomaterialen__erabiltze__eta__eskukatzeari__dagokien__kezka__nagusia__,__beraien__toxizitatearen__oinarria__,__seguru__asko__,__screening__toxizitate-test__estandarrek__gaur__egun__barne__hartzen__ez__dituzten__ezaugarri__fisikokimikoak__izatea__dugu__.	EDU	Injinerututako	nanomaterialen	erabiltze	VERB	ADJ	VERB	.	PUNCT	verylong	izatea	<NA>	<NA>	VERB	<NA>	<NA>	OUT-HEAD	first-middle	<NA>	<NA>	<NA>	<NA>
horrez__gain__,__partikula__horien__erabilpen__komertzialak__kezka__handia__sortu__du__,	EDU	Horrez	gain	,	DET	NOUN	PUNCT	,	PUNCT	short	sortu	<NA>	<NA>	VERB	<NA>	<NA>	IN-HEAD	first-middle	<NA>	<NA>	<NA>	<NA>
zuzenean__euren__sakabanaketa__zabala__ekar__baitezake__,__bai__-LRB-__1__-RRB-__industri__isurketen__zein__etxeko__hondakinen__erreken__bitartez__,__eta__baita__ere__-LRB-__2__-RRB-__norberaren__zaintzan__zein__fuel-katalizatzaileen__moduko__erabilpen__orokorreko__bestelako__produktuen__bitartez__.	EDU	zuzenean	euren	sakabanaketa	ADV	PRON	NOUN	.	PUNCT	verylong	zuzenean	bai	-RRB-	ADV	PART	PUNCT	OUT-HEAD	first-middle	numb	<NA>	<NA>	<NA>
horrelako__sakabanaketa__zabalak__ingurumen__zein__giza-osasunaren__gainean__izan__ditzakeen__ondorioak__ez__dira__oraindik__ezagutzen__.	EDU	Horrelako	sakabanaketa	zabalak	ADJ	NOUN	ADJ	.	PUNCT	short	ezagutzen	<NA>	<NA>	VERB	<NA>	<NA>	IN-HEAD	first-middle	<NA>	<NA>	<NA>	<NA>
testuinguru__honetan__,__bzit__taldeak__,__e.__valsami-jones__-LRB-__natural__history__museum__,__london__-RRB-__dr.-ak__zuzentzen__duen__eb__-ko__7.__fp-ko__nanoreto__x__-LRB-__2008-2012__-RRB-__ikerketa-proiektuan__lanean__dihardu__.	EDU	Testuinguru	-ak	honetan	NOUN	NOUN	DET	.	PUNCT	verylong	zuzentzen	Dr.	<NA>	VERB	PROPN	<NA>	IN-HEAD	first-middle	numb	<NA>	<NA>	date
nano__reto__x-en__helburu__gidaria__da__osasunaren__eta__ingurumenaren__gainean__injinerututako__metal-nanopartikulek__dituzten__efektuei__dagozkien__zalantza__zientifikoak__argitzeko__ahalegintze__globala__izango__dena__ezagumendu__berriez__hornitzea__,__zein__industriak__eta__gobernuek__nanomaterial__horien__arrisku-ebaluaketari__ekiten__hasteko__informazio__berriaren__corpusa__eta__tresna__berri__bat__eskaintzea__.	EDU	NANO	RETO	X-en	PROPN	PROPN	PROPN	.	PUNCT	verylong	hornitzea	<NA>	<NA>	VERB	<NA>	<NA>	IN-HEAD	first-middle	<NA>	<NA>	<NA>	<NA>
nanoreto__x-ek__honako__bost__gako-galdera__hauei__erantzun__nahi__die__:	EDU	NANORETO	X-ek	honako	PROPN	PROPN	ADJ	:	PUNCT	short	die	<NA>	<NA>	VERB	<NA>	<NA>	IN-HEAD	second-middle	<NA>	<NA>	<NA>	<NA>
-LRB-__1__-RRB-__ingurumenak__nola__aldaraz__litzake__bertan__askatutako__nanopartikulen__ezaugarri__fisikokimikoak__eta__bioerreakzionagarritasuna__?	EDU	-LRB-	1	-RRB-	PUNCT	NUM	PUNCT	?	PUNCT	short	aldaraz	<NA>	<NA>	VERB	<NA>	<NA>	IN-HEAD	second-middle	numb	<NA>	<NA>	<NA>
-LRB-__2__-RRB-__nola__eragin__lezake__horrek__ugaztunen__zelulekin__eta__organismo__urtarrekin__zein__beraien__zelulekin__interakzionatzeko__eta__euren__baitan__sartzeko__partikula__horiek__duten__gaitasuna__-LRB-__bioeskuragarritasuna__-RRB-__;	EDU	-LRB-	2	-RRB-	PUNCT	NUM	PUNCT	;	PUNCT	verylong	-LRB-	2	eragin	PUNCT	NUM	VERB	IN-HEAD	second-middle	numb	<NA>	<NA>	<NA>
eta__bioeskuragarritasun__horrek__toxikotasuna__sorraraziko__ote__luke__?	EDU	eta	bioeskuragarritasun	horrek	CONJ	NOUN	DET	?	PUNCT	short	eta	luke	<NA>	CONJ	VERB	<NA>	OUT-HEAD	second-middle	<NA>	<NA>	<NA>	<NA>
-LRB-__3__-RRB-__ba__al__dago__ezaugarri__fisikokimikoei__dagokien__erreaktibotasun__eta/edo__toxikotasun__zelularraren__patroi__zehatzen__bat__-LRB-__adb.__aktibitate__hierarkia__bat__-RRB-__?	EDU	-LRB-	aktibitate	3	PUNCT	NOUN	NUM	.	PUNCT	long	hierarkia	-RRB-	dago	NOUN	PUNCT	VERB	IN-HEAD	second-middle	numb	<NA>	<NA>	<NA>
-LRB-__4__-RRB-__aurreko__hiru__jiteak__ikertzean	EDU	-LRB-	4	-RRB-	PUNCT	NUM	PUNCT	ikertzean	VERB	short	4	ikertzean	<NA>	NUM	VERB	<NA>	OUT-HEAD	second-middle	numb	<NA>	<NA>	<NA>
atzemandako__baldintzen__zein__konbinaketak__sorraraziko__luke__arriskua__giza-osasunean__eta__ingurumenean__?	EDU	atzemandako	baldintzen	zein	VERB	NOUN	CONJ	?	PUNCT	short	luke	<NA>	<NA>	VERB	<NA>	<NA>	IN-HEAD	end	<NA>	<NA>	<NA>	<NA>
-LRB-__5__-RRB-__nola__inkorporatu__liteke__informazio__guzti__hori__arrisku-ebaluaketarako__eredu__batean__?	EDU	-LRB-	5	-RRB-	PUNCT	NUM	PUNCT	?	PUNCT	short	-LRB-	5	inkorporatu	PUNCT	NUM	VERB	IN-HEAD	end	numb	<NA>	<NA>	<NA>
gure__taldeak__nanoreto__xen__dituen__betebehar__nagusiak__hauexek__dira__:__-LRB-__1__-RRB-__muskuilu__eta__zebra__arrainek__nanopartikulak__in__vivo__nola__hartzen__dituzten__ikertzea__eta__autometalografia__,	EDU	Gure	-LRB-	taldeak	PRON	PUNCT	NOUN	,	PUNCT	verylong	hauexek	hartzen	<NA>	NOUN	VERB	<NA>	IN-HEAD	end	numb	<NA>	<NA>	<NA>
x-izpien__mikroanalisia__zein__mikroskopia__elektronikoa__erabiliz	EDU	X-izpien	mikroanalisia	zein	NOUN	ADJ	DET	erabiliz	VERB	short	erabiliz	<NA>	<NA>	VERB	<NA>	<NA>	OUT-HEAD	end	<NA>	<NA>	<NA>	<NA>
nanopartikulak__barneratzeko__mekanismoak__eta__bidezidorrak__ezagutzea__,__-LRB-__2__-RRB-__zelula__mailako__kalteak__muskuilu__eta__zebra__arrainetan__-LRB-__lisosomen__mintzen__egonkortasuna__,__liseri-guruinaren/gibelaren__,__gonadaren__zein__zakatzen__histopatologia__,__metalotioneinen__indukzioa__,__geneen__adierazpen__mailak__,__estres__oxidatiboa__-RRB-__eta__organismo__mailako__kalteak__muskuiluetan__-LRB-__hilkortasuna__-RRB-__zehaztea__,__-LRB-__3__-RRB-__nanopartikulen__barneratzea__zein__erreakzionagarritasuna__in__vitro__ikertzea__eta__toxikotasun-mekanismo__posibleak__aurkizea__,	EDU	nanopartikulak	barneratzeko	mekanismoak	NOUN	VERB	NOUN	,	PUNCT	verylong	mekanismoak	eta	ezagutzea	NOUN	CONJ	VERB	OUT-HEAD	end	numb	<NA>	<NA>	<NA>
muskuiluen__hemozitoen__eta__zakatz-zelulen__kultibo__primarioak__erabiliz__,	EDU	muskuiluen	hemozitoen	eta	NOUN	NOUN	CONJ	,	PUNCT	short	erabiliz	<NA>	<NA>	VERB	<NA>	<NA>	OUT-HEAD	end	<NA>	<NA>	<NA>	<NA>
eta__-LRB-__4__-RRB-__metal-nanopartikulen__genotoxikotasuna__-LRB-__mikronukleoen__saiakuntza__,__kometa__saiakuntza__-RRB-__eta__kartzinogenesia__-LRB-__lesio__preneoplasiko__eta__neoplasikoen__detekzioa__,__histologiaren__,__entzima-markatzaile__goiztiarren__eta__gene-adierazpenaren__soslai__aldaketen__bitartez__-RRB-__aztertzea__.	EDU	eta	-LRB-	4	CONJ	PUNCT	NUM	.	PUNCT	verylong	eta	-LRB-	4	CONJ	PUNCT	NUM	OUT-HEAD	last	numb	<NA>	<NA>	<NA>

energiarako__materialak__:__litio-ioi__bateriak__.	EDU	Energiarako	Litio-ioi	materialak	NOUN	NUM	ADJ	.	PUNCT	short	Energiarako	<NA>	<NA>	NOUN	<NA>	<NA>	IN-HEAD	first	<NA>	<NA>	<NA>	<NA>
litio-ioi__bateriak__ezinbestekoak__dira__gure__eguneroko__bizitzan__.	EDU	Litio-Ioi	bateriak	ezinbestekoak	NUM	NOUN	ADJ	.	PUNCT	short	ezinbestekoak	<NA>	<NA>	ADJ	<NA>	<NA>	IN-HEAD	beginning	<NA>	<NA>	<NA>	<NA>
ez__al__duzu__telefono__mugikorrik__,__mp3rik__ala__ordenagailu__eramangarririk__zeure__poltsan__?	EDU	Ez	al	duzu	PART	NOUN	VERB	?	PUNCT	short	duzu	<NA>	<NA>	VERB	<NA>	<NA>	IN-HEAD	beginning	numb	<NA>	<NA>	<NA>
bateria__hauen__arazorik__handienetarikoak__pisua__eta__bolumena__dira__.	EDU	Bateria	hauen	arazorik	NOUN	DET	NOUN	.	PUNCT	short	pisua	<NA>	<NA>	NOUN	<NA>	<NA>	IN-HEAD	beginning	<NA>	<NA>	<NA>	<NA>
gainera__,__bere__osagaiak__prozesatu__behar__dira__bere__toxikotasunarengatik__.	EDU	Gainera	,	bere	CONJ	PUNCT	DET	.	PUNCT	short	dira	<NA>	<NA>	VERB	<NA>	<NA>	IN-HEAD	beginning	<NA>	<NA>	<NA>	<NA>
ikerketa-ildo__hau__,__solido__egoeraren__kimika__aztertzen__duen__taldean__sortu__da__.	EDU	Ikerketa-ildo	hau	,	NOUN	DET	PUNCT	.	PUNCT	short	sortu	<NA>	<NA>	VERB	<NA>	<NA>	IN-HEAD	beginning	<NA>	<NA>	<NA>	<NA>
bere__helburua__lifepo4__materialaren__optimizazioa__da__,	EDU	Bere	helburua	LiFePO4	DET	NOUN	NUM	,	PUNCT	short	optimizazioa	<NA>	<NA>	NOUN	<NA>	<NA>	IN-HEAD	beginning	numb	<NA>	<NA>	<NA>
litio-ioi__bateria__komertzialetan__konposatu__hau__katodo__moduan__erabiltzeko__.	EDU	litio-ioi	bateria	komertzialetan	NOUN	ADJ	NOUN	.	PUNCT	short	erabiltzeko	<NA>	<NA>	VERB	<NA>	<NA>	OUT-HEAD	beginning	<NA>	<NA>	<NA>	<NA>
gaur__egun__erabiltzen__den__katodoarekin__,	EDU	Gaur	egun	erabiltzen	ADV	ADV	VERB	,	PUNCT	short	erabiltzen	<NA>	<NA>	VERB	<NA>	<NA>	OUT-HEAD	first-middle	<NA>	<NA>	<NA>	<NA>
licoo2-rekin__konparatuta__-LRB-__licoo2__-RRB-__,	EDU	LiCoO2-rekin	konparatuta	-LRB-	PROPN	VERB	PUNCT	,	PUNCT	short	konparatuta	-RRB-	<NA>	VERB	PUNCT	<NA>	OUT-HEAD	first-middle	numb	<NA>	<NA>	<NA>
aukeratu__den__konposatua__ez__da__kutsagarria__,	EDU	aukeratu	den	konposatua	VERB	AUX	NOUN	,	PUNCT	short	kutsagarria	<NA>	<NA>	ADJ	<NA>	<NA>	OUT-HEAD	first-middle	<NA>	<NA>	<NA>	<NA>
energi__densitate__handia__dauka__,	EDU	energi	densitate	handia	NOUN	NOUN	ADJ	,	PUNCT	veryshort	dauka	<NA>	<NA>	VERB	<NA>	<NA>	IN-HEAD	first-middle	<NA>	<NA>	<NA>	<NA>
seguruagoa__da__,	EDU	seguruagoa	da	<NA>	ADJ	VERB	<NA>	,	PUNCT	veryshort	seguruagoa	<NA>	<NA>	ADJ	<NA>	<NA>	OUT-HEAD	first-middle	<NA>	<NA>	<NA>	<NA>
eta__pisu__baxuagoa__eta__prezio__hobea__ditu__.	EDU	eta	pisu	baxuagoa	CONJ	NOUN	ADJ	.	PUNCT	short	eta	ditu	<NA>	CONJ	VERB	<NA>	OUT-HEAD	first-middle	<NA>	<NA>	<NA>	<NA>
ikertzen__ari__den__materialaren__muga__batzuk__gainditu__behar__dira	EDU	Ikertzen	ari	den	VERB	AUX	VERB	dira	VERB	short	dira	<NA>	<NA>	VERB	<NA>	<NA>	IN-HEAD	first-middle	<NA>	<NA>	<NA>	<NA>
bere__ezarpen__komerziala__lortzeko__,	EDU	bere	ezarpen	komerziala	DET	NOUN	ADJ	,	PUNCT	veryshort	lortzeko	<NA>	<NA>	VERB	<NA>	<NA>	OUT-HEAD	first-middle	<NA>	<NA>	<NA>	<NA>
batez__ere__,__bere__eroankortasun__intrinsekoa__apala__areagotu__behar__da__.	EDU	batez	ere	,	NUM	CONJ	PUNCT	.	PUNCT	short	batez	da	<NA>	NUM	VERB	<NA>	OUT-HEAD	second-middle	<NA>	<NA>	<NA>	<NA>
helburu__hau__lortzeko__sintesi__metodo__batzuk__saiatu__dira	EDU	Helburu	hau	lortzeko	NOUN	DET	VERB	dira	AUX	short	saiatu	<NA>	<NA>	VERB	<NA>	<NA>	IN-HEAD	second-middle	<NA>	<NA>	<NA>	<NA>
lifepo4/c__konpositeak__sortzeko__:	EDU	LiFePO4/C	konpositeak	sortzeko	PROPN	NOUN	VERB	:	PUNCT	veryshort	sortzeko	:	<NA>	VERB	PUNCT	<NA>	OUT-HEAD	second-middle	numb	<NA>	<NA>	<NA>
zeramikoa__,__sol-gela__,__geruza__meheak__laser__ablazioaren__bidez__,__etabar__.	EDU	zeramikoa	,	sol-gela	DET	PUNCT	ADV	.	PUNCT	short	etabar	<NA>	<NA>	NOUN	<NA>	<NA>	IN-HEAD	second-middle	<NA>	<NA>	<NA>	<NA>
konposite__hauek__prestatzeko__,	EDU	Konposite	hauek	prestatzeko	NOUN	DET	VERB	,	PUNCT	veryshort	prestatzeko	<NA>	<NA>	VERB	<NA>	<NA>	OUT-HEAD	second-middle	<NA>	<NA>	<NA>	<NA>
emaitza__bikainak__lortu__dituen__sintesi__metodo__berri__bat__egokitu__da__,__liofilizazioa__.	EDU	emaitza	bikainak	lortu	NOUN	ADJ	VERB	.	PUNCT	short	egokitu	<NA>	<NA>	VERB	<NA>	<NA>	IN-HEAD	second-middle	<NA>	<NA>	<NA>	<NA>
sintesian__sortutako__ikatzak__eroankortasuna__indartzen__du__,	EDU	Sintesian	sortutako	ikatzak	NOUN	VERB	NOUN	,	PUNCT	short	indartzen	<NA>	<NA>	VERB	<NA>	<NA>	IN-HEAD	second-middle	<NA>	<NA>	<NA>	<NA>
eta__partikulen__tamaina__kontrolatzen__du__ere__,	EDU	eta	partikulen	tamaina	CONJ	NOUN	NOUN	,	PUNCT	short	eta	kontrolatzen	<NA>	CONJ	VERB	<NA>	OUT-HEAD	second-middle	<NA>	<NA>	<NA>	<NA>
garraiatza__elektronikoa__eta__litioaren__difusioa__errazten__.	EDU	garraiatza	elektronikoa	eta	NOUN	ADJ	CONJ	.	PUNCT	short	errazten	<NA>	<NA>	VERB	<NA>	<NA>	OUT-HEAD	end	<NA>	<NA>	<NA>	<NA>
prestatutako__materialak__zenbait__tekniken__bidez__aztertzen__dira__:__x-izpien__difrakzioa__,__oinarrizko__analisiak__,__raman__eta__infragorri__espektroskopia__,__suszeptibilitate__magnetikoa__,__epr__,__mossbauer__,__inpedanzia__elektrokimikoa__eta__transmisio__eta__ekorketa__mikroskopia__.	EDU	Prestatutako	X-izpien	materialak	VERB	NOUN	NOUN	.	PUNCT	verylong	difrakzioa	aztertzen	<NA>	NOUN	VERB	<NA>	IN-HEAD	end	<NA>	<NA>	<NA>	<NA>
teknika__hauen__guztien__medio__,__materialen__purutasuna__,__konposizioa__,__morfologia__eta__propietate__elektriko__eta__magnetikoak__ezagutzen__dira__.	EDU	Teknika	hauen	guztien	NOUN	DET	DET	.	PUNCT	long	ezagutzen	<NA>	<NA>	VERB	<NA>	<NA>	IN-HEAD	end	<NA>	<NA>	<NA>	<NA>
honen__ondoren__,__beste__karakterizazio__mota__bat__behar__da__,__aplikaziotik__gertuagokoa__.	EDU	Honen	ondoren	,	DET	ADP	PUNCT	.	PUNCT	short	da	<NA>	<NA>	VERB	<NA>	<NA>	IN-HEAD	end	<NA>	<NA>	<NA>	<NA>
lan__hau__cidetec__fundazioa__eta__cegasa__ren__arteko__lankidetzaren__bidez__egiten__da__.	EDU	Lan	hau	CIDETEC	NOUN	DET	PROPN	.	PUNCT	short	egiten	<NA>	<NA>	VERB	<NA>	<NA>	IN-HEAD	end	<NA>	<NA>	<NA>	<NA>
karakterizazio__elektrokimikoa__bi__zentro__hauen__instalazioetan__egiten__da__,	EDU	Karakterizazio	elektrokimikoa	bi	NOUN	ADJ	NUM	,	PUNCT	short	egiten	<NA>	<NA>	VERB	<NA>	<NA>	IN-HEAD	end	<NA>	<NA>	<NA>	<NA>
eta__teknika__hauetaz__osatua__dago__:__boltanperometria__ziklikoa__,__ziklaketau__galbanostatikoa__eta__,__material__onenekin__,__botoi-pilak__eta__prototipoen__fabrikazioa__.	EDU	boltanperometria	ziklikoa	,	NOUN	ADJ	PUNCT	.	PUNCT	long	boltanperometria	<NA>	<NA>	NOUN	<NA>	<NA>	IN-HEAD	end	<NA>	<NA>	<NA>	<NA>
unibertsitatean__egindako__karakterizazioan__lortutako__datuekin__,__cidetec__en__eta__cegasa__n__egindako__testen__emaitzak__osatzen__eta__ulertzen__dira__.	EDU	Unibertsitatean	egindako	karakterizazioan	NOUN	VERB	NOUN	.	PUNCT	long	osatzen	<NA>	<NA>	VERB	<NA>	<NA>	IN-HEAD	end	<NA>	<NA>	<NA>	<NA>
enpresak__,__zentro__teknologikoak__eta__unibertsitateak__sortutako__elkarlanak__ikerkuntza__aberesten__du__.	EDU	EnpresaK	,	Zentro	PROPN	PUNCT	PROPN	.	PUNCT	short	aberesten	<NA>	<NA>	VERB	<NA>	<NA>	IN-HEAD	last	<NA>	<NA>	<NA>	<NA>

odol__mamituak__/__alaine__agirre__/__elkar__,__2014__positiboa__psikosia__iraitz__urkulo__/__berria__,__2014-12-07	EDU	Odol	mamituak	/	NOUN	NOUN	PUNCT	2014-12-07	NUM	long	mamituak	/	Alaine	NOUN	PUNCT	PROPN	OUT-HEAD	first	numb	<NA>	<NA>	date
alaine__agirrek__psikosiak__jotako__emakume__gazte__bat__aukeratu__du__helduentzat__idazten__duen__lehen__eleberriko__protagonista__gisa__.	EDU	Alaine	Agirrek	psikosiak	PROPN	PROPN	NOUN	.	PUNCT	long	aukeratu	<NA>	<NA>	VERB	<NA>	<NA>	IN-HEAD	beginning	<NA>	<NA>	<NA>	<NA>
haren__eskutik__,__gaixotasunaren__iluna__eta__,__psikiatrikoan__egindako__egonaldia__eta__terapia__tarteko__,__sendatzerainoko__bidea__ibiliko__dugu__.	EDU	Haren	eskutik	,	DET	ADP	PUNCT	.	PUNCT	long	ibiliko	<NA>	<NA>	VERB	<NA>	<NA>	IN-HEAD	beginning	<NA>	<NA>	<NA>	<NA>
ni-tik__eraikitako__literaturaren__bide__bihurgunetsua__,__hain__zuzen__.	EDU	Ni-tik	eraikitako	literaturaren	NOUN	VERB	NOUN	.	PUNCT	short	bide	<NA>	<NA>	NOUN	<NA>	<NA>	IN-HEAD	beginning	<NA>	<NA>	<NA>	<NA>
istorioaren__abiapuntua__eta__amaierari__dagokienez__,	EDU	Istorioaren	abiapuntua	eta	ADJ	NOUN	CONJ	,	PUNCT	short	abiapuntua	<NA>	<NA>	NOUN	<NA>	<NA>	OUT-HEAD	beginning	<NA>	<NA>	<NA>	<NA>
misterio__handirik__ez__da__,__beraz__,	EDU	misterio	handirik	ez	NOUN	ADJ	PART	,	PUNCT	short	da	<NA>	<NA>	VERB	<NA>	<NA>	IN-HEAD	beginning	<NA>	<NA>	<NA>	<NA>
horiek__jadanik__kontrazalean__irakur__daitezke__eta__.	EDU	horiek	jadanik	kontrazalean	DET	ADV	NOUN	.	PUNCT	short	irakur	eta	<NA>	VERB	CONJ	<NA>	OUT-HEAD	beginning	<NA>	<NA>	<NA>	<NA>
hobe__zuketen__,__alde__horretatik__,__miren__agur__meabek__liburuaren__ezaugarri__nagusiak__laburbiltzen__dituen__hitzaurrea__hitzatze__bihurtu__izana__,	EDU	Hobe	zuketen	,	ADJ	AUX	PUNCT	,	PUNCT	long	bihurtu	<NA>	<NA>	VERB	<NA>	<NA>	IN-HEAD	beginning	<NA>	<NA>	<NA>	<NA>
benetan__lastima__baita__gehiegizko__informazioak__irakurketa__gatzgabetzea__;__are__gehiago__,__halako__hasiera__indartsua__zapuztea__.	EDU	benetan	lastima	baita	ADV	NOUN	VERB	.	PUNCT	long	benetan	are	zapuztea	ADV	ADV	VERB	OUT-HEAD	beginning	<NA>	<NA>	<NA>	<NA>
lana__bost__atalek__,__guztira__100__pasarte__laburrek__osatzen__dute__.	EDU	Lana	bost	atalek	NOUN	NUM	NOUN	.	PUNCT	short	osatzen	<NA>	<NA>	VERB	<NA>	<NA>	IN-HEAD	beginning	numb	<NA>	<NA>	<NA>
denetan__izenik__ez__eta__a__batekin__identifikatzen__den__protagonista__da__beti__fokua__.	EDU	Denetan	izenik	ez	DET	NOUN	PART	.	PUNCT	short	protagonista	<NA>	<NA>	NOUN	<NA>	<NA>	IN-HEAD	first-middle	<NA>	<NA>	<NA>	<NA>
narratzailea__,__berriz__,__lehen__pertsonatik__bigarrenera__eta__,__azkenik__,__hirugarrenera__igarotzen__da__.	EDU	Narratzailea	,	berriz	NOUN	PUNCT	CONJ	.	PUNCT	short	igarotzen	<NA>	<NA>	VERB	<NA>	<NA>	IN-HEAD	first-middle	<NA>	<NA>	<NA>	<NA>
egitura__garbia__du__,__hortaz__,__liburuak__.	EDU	Egitura	garbia	du	NOUN	ADJ	VERB	.	PUNCT	short	du	<NA>	<NA>	VERB	<NA>	<NA>	IN-HEAD	first-middle	<NA>	<NA>	<NA>	<NA>
ordenatuegia__,__agian__.	EDU	Ordenatuegia	,	agian	CONJ	PUNCT	ADV	.	PUNCT	veryshort	<NA>	<NA>	<NA>	<NA>	<NA>	<NA>	OUT-HEAD	first-middle	<NA>	<NA>	<NA>	<NA>
gaiekin__ere__antzeko__inpresioa__nagusitu__zait__,__gaixotzea__,__sendatzea__eta__sexura__mugatzen__direlakoa__,__alegia__,	EDU	Gaiekin	ere	antzeko	PROPN	CONJ	ADJ	,	PUNCT	long	nagusitu	<NA>	<NA>	VERB	<NA>	<NA>	IN-HEAD	first-middle	<NA>	<NA>	<NA>	<NA>
baina__sekula__elkar__ukitu__gabe__.	EDU	baina	sekula	elkar	CONJ	ADV	PRON	.	PUNCT	short	baina	ukitu	<NA>	CONJ	VERB	<NA>	OUT-HEAD	first-middle	<NA>	<NA>	<NA>	<NA>
badirudi__egileak__gai__bat__aukeratu	EDU	Badirudi	egileak	gai	VERB	NOUN	NOUN	aukeratu	VERB	veryshort	Badirudi	<NA>	<NA>	VERB	<NA>	<NA>	IN-HEAD	first-middle	<NA>	<NA>	<NA>	<NA>
eta__,__hori__sakonki__landu	EDU	eta	,	hori	CONJ	PUNCT	DET	landu	VERB	veryshort	eta	landu	<NA>	CONJ	VERB	<NA>	OUT-HEAD	first-middle	<NA>	<NA>	<NA>	<NA>
ondoren__,	EDU	ondoren	<NA>	<NA>	ADV	<NA>	<NA>	,	PUNCT	veryshort	ondoren	<NA>	<NA>	ADV	<NA>	<NA>	OUT-HEAD	first-middle	<NA>	<NA>	<NA>	<NA>
behin__hura__agorturik	EDU	behin	hura	<NA>	ADV	DET	<NA>	agorturik	VERB	veryshort	agorturik	<NA>	<NA>	VERB	<NA>	<NA>	OUT-HEAD	first-middle	<NA>	<NA>	<NA>	<NA>
baino__ez__duela__hurrengorako__urratsa__egin__nahi__izan__.	EDU	baino	ez	duela	X	PART	AUX	.	PUNCT	short	izan	<NA>	<NA>	VERB	<NA>	<NA>	OUT-HEAD	second-middle	<NA>	<NA>	<NA>	<NA>
``__idazkera__organikoa__''__aipatzen__du__miren__agur__meabek__.	EDU	"	Idazkera	organikoa	SYM	NOUN	ADJ	.	PUNCT	short	aipatzen	<NA>	<NA>	VERB	<NA>	<NA>	IN-HEAD	second-middle	<NA>	<NA>	<NA>	<NA>
literaturan__txertatutako__korporalitatea__,__hots__,__gorputzaren__bidezko__hizkuntzaren__adibide__bikaina__,__gehituko__nuke__.	EDU	Literaturan	txertatutako	korporalitatea	NOUN	VERB	NOUN	.	PUNCT	short	gehituko	<NA>	<NA>	VERB	<NA>	<NA>	IN-HEAD	second-middle	<NA>	<NA>	<NA>	<NA>
gordintasuna__eta__irudi__indartsuak__baliatuz__,	EDU	Gordintasuna	eta	irudi	NOUN	CONJ	NOUN	,	PUNCT	short	baliatuz	<NA>	<NA>	VERB	<NA>	<NA>	OUT-HEAD	second-middle	<NA>	<NA>	<NA>	<NA>
agirrek__protagonistaren__eldarnioa__eta__ezinegona__kutsatzen__dizkigu__.	EDU	Agirrek	protagonistaren	eldarnioa	PROPN	NOUN	NOUN	.	PUNCT	short	kutsatzen	<NA>	<NA>	VERB	<NA>	<NA>	IN-HEAD	second-middle	<NA>	<NA>	<NA>	<NA>
izan__ere__,__minaren__espresio__fisikoa__hain__da__erreala__,	EDU	Izan	ere	,	VERB	CONJ	PUNCT	,	PUNCT	short	erreala	<NA>	<NA>	ADJ	<NA>	<NA>	IN-HEAD	second-middle	<NA>	<NA>	<NA>	<NA>
non__sentitu__ere__egin__daitekeen__,__arnasbiderik__gabeko__pasarte__itogarrietan__,__intentsitateari__mailarik__gorenean__eusten__dioten__horietan__,	EDU	non	sentitu	ere	ADV	VERB	CONJ	,	PUNCT	long	sentitu	<NA>	<NA>	VERB	<NA>	<NA>	OUT-HEAD	second-middle	<NA>	<NA>	<NA>	<NA>
goia__joz__.	EDU	goia	joz	<NA>	NOUN	NOUN	<NA>	.	PUNCT	veryshort	goia	<NA>	<NA>	NOUN	<NA>	<NA>	OUT-HEAD	second-middle	<NA>	<NA>	<NA>	<NA>
eta__halere__,__kontaketak__badu__,__kontraste__ederrean__,__samurtasun__puntu__bat__,__sentsibilitate__berezi__baten__emaitza__dena__,__zalantzarik__gabe__.	EDU	Eta	halere	,	CONJ	CONJ	PUNCT	.	PUNCT	long	badu	<NA>	<NA>	VERB	<NA>	<NA>	IN-HEAD	second-middle	<NA>	<NA>	<NA>	<NA>
testuan__murgildu__ahala__,	EDU	Testuan	murgildu	ahala	NOUN	VERB	ADV	,	PUNCT	veryshort	murgildu	<NA>	<NA>	VERB	<NA>	<NA>	OUT-HEAD	second-middle	<NA>	<NA>	<NA>	<NA>
jadanik__azken__urteetako__idazle__berriengan	EDU	jadanik	azken	urteetako	ADV	NUM	NOUN	berriengan	DET	veryshort	idazle	<NA>	<NA>	NOUN	<NA>	<NA>	OUT-HEAD	second-middle	<NA>	<NA>	<NA>	<NA>
--__garazi__goia__eta__danele__sarriugarte__datozkit__gogora__--	EDU	-	-	Garazi	PUNCT	PUNCT	VERB	-	PUNCT	short	Garazi	-	-	VERB	PUNCT	PUNCT	IN-HEAD	end	<NA>	<NA>	<NA>	<NA>
ikusitako__antzeko__zenbait__ezaugarri__eta__baliabide__hauteman__ditut__.	EDU	ikusitako	antzeko	zenbait	VERB	ADJ	DET	.	PUNCT	short	hauteman	<NA>	<NA>	VERB	<NA>	<NA>	IN-HEAD	end	<NA>	<NA>	<NA>	<NA>
istorio__mailan__,__neska__gazte__baten__biluzte__emozionala__;__tonu__zintzoa__,__ahuleziak__agerian__uzten__dituena__;__descensus__ad__inferos__planteamendua__;__eta__intelektualismoarekiko__erakarpen__aitortua__.	EDU	Istorio	mailan	,	NOUN	NOUN	PUNCT	.	PUNCT	verylong	uzten	<NA>	<NA>	VERB	<NA>	<NA>	IN-HEAD	end	<NA>	<NA>	<NA>	<NA>
formari__dagokionez__,__egitura__zatikatua__,__letrak__erabiltzea__izenen__ordez__,__sinonimoen__pilaketa__eta__puntuazioaren__lehertzea__.	EDU	Formari	dagokionez	,	NOUN	VERB	PUNCT	.	PUNCT	long	lehertzea	<NA>	<NA>	VERB	<NA>	<NA>	IN-HEAD	end	<NA>	<NA>	<NA>	<NA>
idazleak__irakurle__helduei__zuzendutako__lehen__obra__izanik__,	EDU	Idazleak	irakurle	helduei	NOUN	NOUN	NOUN	,	PUNCT	short	izanik	<NA>	<NA>	VERB	<NA>	<NA>	OUT-HEAD	end	<NA>	<NA>	<NA>	<NA>
estiloak__,__jakin-mina__pizteaz__gain__,__garrantzi__nabarmena__bereganatzen__du__,__jakina__.	EDU	estiloak	,	jakin-mina	NOUN	PUNCT	NOUN	.	PUNCT	short	bereganatzen	<NA>	<NA>	VERB	<NA>	<NA>	IN-HEAD	end	<NA>	<NA>	<NA>	<NA>
estilo__landua__eta__,__aldi__berean__,__arina__,__zeharo__atsegina__erakusten__du__agirrek__,	EDU	Estilo	landua	eta	NOUN	NOUN	CONJ	,	PUNCT	short	erakusten	<NA>	<NA>	VERB	<NA>	<NA>	IN-HEAD	end	<NA>	<NA>	<NA>	<NA>
atalen__laburrak__areagotua__.	EDU	atalen	laburrak	areagotua	NOUN	ADJ	NOUN	.	PUNCT	veryshort	areagotua	<NA>	<NA>	NOUN	<NA>	<NA>	OUT-HEAD	end	<NA>	<NA>	<NA>	<NA>
lehen__orrialdetik__bertatik__,__musikaltasun__goxoak__eta__sinestesiak__blaitutako__protagonistaren__diskurtso__ahaltsuak__irakurketan__aurrera__zain__dugun__gozamena__iragartzen__digu__.	EDU	Lehen	orrialdetik	bertatik	NUM	NOUN	NOUN	.	PUNCT	long	iragartzen	<NA>	<NA>	VERB	<NA>	<NA>	IN-HEAD	end	<NA>	<NA>	<NA>	<NA>
erritmoa__,__sintaxia__eta__hitzen__morfologiarekin__esperimentatzen__ere__ausartzen__da__,__benetan__poztekoa__dena__,	EDU	Erritmoa	,	sintaxia	NOUN	PUNCT	NOUN	,	PUNCT	short	ausartzen	<NA>	<NA>	VERB	<NA>	<NA>	IN-HEAD	end	<NA>	<NA>	<NA>	<NA>
jarrera__horrek__molde__tradizionalak__gainditu__eta__bide__berriei__ekiteko__arriskua__hartzeko__prest__dagoen__autore__baten__aurrean__kokatzen__gaituelako__.	EDU	jarrera	horrek	molde	NOUN	DET	NOUN	.	PUNCT	long	gainditu	<NA>	<NA>	VERB	<NA>	<NA>	OUT-HEAD	last	<NA>	<NA>	<NA>	<NA>

terminologiako__datu-baseak__diseinatzea__eta__kudeatzea__:__etengabeko__erronka__.	EDU	Terminologiako	etengabeko	datu-baseak	PROPN	ADJ	NOUN	:	PUNCT	short	erronka	diseinatzea	<NA>	NOUN	VERB	<NA>	IN-HEAD	first	<NA>	<NA>	<NA>	<NA>
informatikak__hizkuntzako__datuak__gorde__eta__,__aurrerago__,__tratatzeko__aukera__eman__zigunetik__,	EDU	Informatikak	hizkuntzako	datuak	NOUN	NOUN	NOUN	,	PUNCT	short	Informatikak	gorde	aurrerago	NOUN	VERB	ADV	OUT-HEAD	beginning	<NA>	<NA>	<NA>	<NA>
terminologiak__teknologi__berrikuntzetara__egokitu__behar__izan__du__etengabe__.	EDU	terminologiak	teknologi	berrikuntzetara	NOUN	NOUN	ADV	.	PUNCT	short	izan	<NA>	<NA>	VERB	<NA>	<NA>	IN-HEAD	beginning	<NA>	<NA>	<NA>	<NA>
horrek__amaieragabeko__erronka__ekarri__izan__dio	EDU	Horrek	amaieragabeko	erronka	DET	ADJ	NOUN	dio	AUX	short	ekarri	<NA>	<NA>	VERB	<NA>	<NA>	IN-HEAD	beginning	<NA>	<NA>	<NA>	<NA>
-eta__oraindik__ere__hala__dakarkio-	EDU	-	eta	oraindik	PUNCT	CONJ	ADV	dakarkio-	PUNCT	short	-	eta	oraindik	PUNCT	CONJ	ADV	OUT-HEAD	first-middle	<NA>	<NA>	<NA>	<NA>
terminologo__eta__informatikoen__elkarlanari__.	EDU	terminologo	eta	informatikoen	NOUN	CONJ	ADJ	.	PUNCT	veryshort	elkarlanari	<NA>	<NA>	NOUN	<NA>	<NA>	OUT-HEAD	first-middle	<NA>	<NA>	<NA>	<NA>
hala__da__,__terminologiako__datu-baseak__diseinatzeak__eta__kudeatzeak__hainbat__arazo__dakar__bai__teoria__eta__metodologiaren__aldetik	EDU	Hala	da	,	ADV	VERB	PUNCT	aldetik	ADP	long	da	teoria	<NA>	VERB	NOUN	<NA>	OUT-HEAD	first-middle	<NA>	<NA>	<NA>	<NA>
-LRB-__nola__adierazi__terminoa__?	EDU	-LRB-	nola	adierazi	PUNCT	ADV	VERB	?	PUNCT	veryshort	adierazi	<NA>	<NA>	VERB	<NA>	<NA>	OUT-HEAD	first-middle	<NA>	<NA>	<NA>	<NA>
ba__al__da__gutxieneko__adierazpenik__?	EDU	Ba	al	da	CONJ	NOUN	VERB	?	PUNCT	short	al	<NA>	<NA>	NOUN	<NA>	<NA>	IN-HEAD	second-middle	<NA>	<NA>	<NA>	<NA>
nola__sailkatu__terminoak__?__-RRB-__,	EDU	Nola	-RRB-	sailkatu	ADV	PUNCT	VERB	?	PUNCT	short	-RRB-	sailkatu	<NA>	PUNCT	VERB	<NA>	IN-HEAD	second-middle	<NA>	<NA>	<NA>	<NA>
eta__baita__informatikaren__aldetik__ere	EDU	eta	baita	informatikaren	CONJ	CONJ	NOUN	ere	CONJ	veryshort	eta	baita	informatikaren	CONJ	CONJ	NOUN	OUT-HEAD	second-middle	<NA>	<NA>	<NA>	<NA>
-LRB-__zein__egitura__eduki__behar__luke__terminologiako__datu-base__batek__?	EDU	-LRB-	zein	egitura	PUNCT	DET	NOUN	?	PUNCT	short	luke	<NA>	<NA>	VERB	<NA>	<NA>	IN-HEAD	second-middle	<NA>	<NA>	<NA>	<NA>
zein__erlazio__jaso__behar__lituzke__?	EDU	Zein	erlazio	jaso	DET	NOUN	VERB	?	PUNCT	short	lituzke	<NA>	<NA>	NOUN	<NA>	<NA>	IN-HEAD	end	<NA>	<NA>	<NA>	<NA>
zein__da__hiztegi__bateko__unitatea__?__-RRB-__.	EDU	Zein	-RRB-	da	DET	PUNCT	VERB	?	PUNCT	short	Zein	-RRB-	<NA>	DET	PUNCT	<NA>	IN-HEAD	end	<NA>	<NA>	<NA>	<NA>
benetako__testuinguruetan__ondo__aplikatzeko__balioko__duten__konponbideak__aurkitu__beharrak__ikuspuntu__jakin__bat__hartzera__eraman__gaitu__,	EDU	Benetako	testuinguruetan	ondo	ADJ	NOUN	ADV	,	PUNCT	long	eraman	<NA>	<NA>	VERB	<NA>	<NA>	IN-HEAD	end	<NA>	<NA>	<NA>	<NA>
informatikako__postulatuak__eta__metodologiak__begi__aurretik__galdu__gabe__bada__ere__,	EDU	informatikako	postulatuak	eta	NOUN	NOUN	CONJ	,	PUNCT	short	bada	<NA>	<NA>	VERB	<NA>	<NA>	OUT-HEAD	end	<NA>	<NA>	<NA>	<NA>
arazo__horiei__aurre__egin__,__terminologi__lana__bete__eta__emaitzak__zabaltzeko__aukera__izan__dezagun__.	EDU	arazo	horiei	aurre	NOUN	DET	NOUN	.	PUNCT	short	egin	bete	<NA>	VERB	VERB	<NA>	OUT-HEAD	last	<NA>	<NA>	<NA>	<NA>

euskarak__,__katalanak__eta__gaztelaniak__atzizki__eta__aurrizkien__bidez__gauzatzen__dituzten__eratorpen-bideen__arteko__erkaketa__:__ondorio__lexikografikoak__.	EDU	Euskarak	ondorio	,	PROPN	NOUN	PUNCT	:	PUNCT	long	ondorio	gauzatzen	<NA>	NOUN	VERB	<NA>	IN-HEAD	first	<NA>	<NA>	<NA>	<NA>
hitzaldi__honek__azken__hiru__urteotan__lau__unibertsitate__hauen__taldeek__egindako__ikerkuntzaren__ondorioetako__batzuk__azaltzeko__helburua__izango__luke__.	EDU	Hitzaldi	honek	azken	NOUN	DET	NUM	.	PUNCT	long	izango	<NA>	<NA>	VERB	<NA>	<NA>	IN-HEAD	beginning	<NA>	<NA>	<NA>	<NA>
lan__hori__,__madrilgo__hezkuntza__ministeritzak__diruz__babesturiko__configuración__morfológica__y__estructura__argumental__:__léxico__y__diccionario__izeneko__proiektuaren__barruan__egin__da__,__ikuspuntu__hirukoitz__baten__barruan__.	EDU	Lan	léxico	hori	NOUN	NOUN	DET	.	PUNCT	verylong	egin	estructura	<NA>	VERB	NOUN	<NA>	IN-HEAD	beginning	<NA>	<NA>	<NA>	<NA>
lehenik__,__atzizki__eta__aurrizkien__bidezko__eratorpen-prozesuak__aztertu__dira__hiru__hizkuntzetan__,	EDU	Lehenik	,	atzizki	ADV	PUNCT	ADV	,	PUNCT	short	aztertu	<NA>	<NA>	VERB	<NA>	<NA>	OUT-HEAD	beginning	<NA>	<NA>	<NA>	<NA>
bereziki__eratorpen-oinarri__modura__aditza__dutenak__edo__eratorri__modura__aditza__ematen__dutenak__arakatuz__;	EDU	bereziki	eratorpen-oinarri	modura	ADV	VERB	NOUN	;	PUNCT	short	dutenak	edo	ematen	VERB	CONJ	VERB	OUT-HEAD	beginning	<NA>	<NA>	<NA>	<NA>
ondorioz__,__bi__desberdintasun__nagusi__aurkitu__dira__:__euskararen__barruan__atzizki__eta__aurrizkien__bidezko__eratorpenen__arteko__,__eta__euskal__eratorrien__eta__eratorri__erromanikoen__artekoa__.	EDU	euskararen	barruan	atzizki	NOUN	ADP	NOUN	:	PUNCT	long	aurkitu	<NA>	<NA>	VERB	<NA>	<NA>	IN-HEAD	beginning	<NA>	<NA>	<NA>	<NA>
bigarrenik__,__bi__desberdintasun__horietarako__azalpen__teoriko__bat__bilatu__eta__aurkitu__da__.	EDU	Bigarrenik	,	bi	ADV	PUNCT	NUM	.	PUNCT	short	bilatu	<NA>	<NA>	VERB	<NA>	<NA>	IN-HEAD	beginning	<NA>	<NA>	<NA>	<NA>
hirugarrenik__,__azalpen__teoriko__horrek__lexikogintzan__eman__dezakeen__laguntza__finkatzen__saiatu__gara__.	EDU	Hirugarrenik	,	azalpen	ADV	PUNCT	NOUN	.	PUNCT	short	saiatu	<NA>	<NA>	VERB	<NA>	<NA>	IN-HEAD	beginning	<NA>	<NA>	<NA>	<NA>
komunikazio__honek__,__azalpen__teorikoa__eta__ondorio__lexikografikoak__laburbilduko__lituzke__batez__ere__.	EDU	Komunikazio	honek	,	NOUN	DET	PUNCT	.	PUNCT	short	laburbilduko	<NA>	<NA>	VERB	<NA>	<NA>	IN-HEAD	beginning	<NA>	<NA>	<NA>	<NA>
edozein__azalpen__teorikok__argitu__behar__dituen__bi__desberdintasunak__,__zehazkiago__,__hauexek__dira__:	EDU	Edozein	azalpen	teorikok	DET	NOUN	NOUN	:	PUNCT	short	dituen	<NA>	<NA>	VERB	<NA>	<NA>	IN-HEAD	first-middle	<NA>	<NA>	<NA>	<NA>
a__-RRB-__euskarak__atzizki__ugari__baditu__ere__,	EDU	a	-RRB-	euskarak	NOUN	PUNCT	NOUN	,	PUNCT	short	a	<NA>	<NA>	NOUN	<NA>	<NA>	OUT-HEAD	first-middle	<NA>	<NA>	<NA>	<NA>
oso__aurrizki__gutxi__dauka__,	EDU	oso	aurrizki	gutxi	ADV	NOUN	DET	,	PUNCT	veryshort	dauka	<NA>	<NA>	VERB	<NA>	<NA>	IN-HEAD	first-middle	<NA>	<NA>	<NA>	<NA>
eta__b__-RRB-__desoreka__hori__ez__dago__inola__ere__hizkuntza__erromanikoetan__.	EDU	eta	b	-RRB-	CONJ	NOUN	PUNCT	.	PUNCT	short	eta	dago	<NA>	CONJ	VERB	<NA>	OUT-HEAD	first-middle	<NA>	<NA>	<NA>	<NA>
gure__hipotesiak__,__euskararen__eta__hizkuntza__erromanikoen__ezaugarri__sintaktiko__bat__morfologiaraino__estrapolatuko__du__:	EDU	Gure	hipotesiak	,	PRON	NOUN	PUNCT	:	PUNCT	short	estrapolatuko	<NA>	<NA>	VERB	<NA>	<NA>	IN-HEAD	first-middle	<NA>	<NA>	<NA>	<NA>
eratorpenean__ere__euskarak__egituraren__burua__edo__gunean__eskuinaldean__jartzen__du__,__eta__hizkuntza__erromanikoek__ezkerraldean__.	EDU	eratorpenean	ere	euskarak	NOUN	CONJ	NOUN	.	PUNCT	long	jartzen	<NA>	<NA>	VERB	<NA>	<NA>	IN-HEAD	first-middle	<NA>	<NA>	<NA>	<NA>
hau__hobeto__azaltzeko__,	EDU	Hau	hobeto	azaltzeko	DET	ADV	VERB	,	PUNCT	veryshort	azaltzeko	<NA>	<NA>	VERB	<NA>	<NA>	OUT-HEAD	first-middle	<NA>	<NA>	<NA>	<NA>
kontutan__hartu__behar__da__hizkuntza__erromanikoen__aurrizkiek__bi__eratara__jokatzen__dutela__:	EDU	kontutan	hartu	behar	NOUN	VERB	NOUN	:	PUNCT	short	da	<NA>	<NA>	VERB	<NA>	<NA>	IN-HEAD	first-middle	<NA>	<NA>	<NA>	<NA>
buru__baten__modifikatzaile__modura__jokatzen__dutenak__,__buru__horren__ezkerraldean__ager__daitezke__-LRB-__refer__/__rehacer__,__desfer__/__deshacer__,__predir__/__predecir__-RRB-__,	EDU	buru	baten	modifikatzaile	NOUN	NUM	NOUN	,	PUNCT	verylong	jokatzen	<NA>	<NA>	VERB	<NA>	<NA>	OUT-HEAD	first-middle	<NA>	<NA>	<NA>	<NA>
eta__buru__modura__jokatzen__dutenak__ere__,__lehenengo__gunean__kokatzen__dira__,	EDU	eta	buru	modura	CONJ	NOUN	ADP	,	PUNCT	short	eta	jokatzen	kokatzen	CONJ	VERB	VERB	IN-HEAD	first-middle	<NA>	<NA>	<NA>	<NA>
osagarria__eskuinaldean__hartzen__baitute__-LRB-__eslomar-se__/__desplomarse__,__desfullar__/__deshojar__-RRB-__.	EDU	osagarria	eskuinaldean	hartzen	NOUN	NOUN	VERB	.	PUNCT	short	hartzen	-LRB-	eslomar-se	VERB	PUNCT	ADV	OUT-HEAD	second-middle	<NA>	<NA>	<NA>	<NA>
lehenengo__kasuan__,__aurrizkiak__buruaren__zehaztasun__bat__adierazten__du	EDU	Lehenengo	kasuan	,	NUM	NOUN	PUNCT	du	AUX	short	adierazten	<NA>	<NA>	VERB	<NA>	<NA>	OUT-HEAD	second-middle	<NA>	<NA>	<NA>	<NA>
-LRB-__predecir__eratorria__,__decir__oinarriburuaren__zehaztasun__bat__da__:__aurretik__esan__,__baina__esan__,__azken__finean__-RRB-__;	EDU	aurretik	esan	,	NOUN	VERB	PUNCT	:	PUNCT	long	esan	-LRB-	predecir	VERB	PUNCT	NOUN	OUT-HEAD	second-middle	<NA>	<NA>	<NA>	<NA>
bigarren__kasuan__,__aurrizkia__bera__da__burua__,	EDU	bigarren	kasuan	,	NUM	NOUN	PUNCT	,	PUNCT	short	kasuan	burua	<NA>	NOUN	NOUN	<NA>	OUT-HEAD	second-middle	<NA>	<NA>	<NA>	<NA>
osagarria__eratorpen-oinarria__delarik__;	EDU	osagarria	eratorpen-oinarria	delarik	NOUN	ADJ	VERB	;	PUNCT	veryshort	delarik	<NA>	<NA>	VERB	<NA>	<NA>	IN-HEAD	second-middle	<NA>	<NA>	<NA>	<NA>
izan__ere__,__prehistoria__ez__da__historia__oinarri-osagarriaren__zehaztasun__bat__,__oinarria__-LRB-__historia__-RRB-__ez__den__bestelako__gauza__bat__baizik__-RRB-__.	EDU	izan	ere	,	VERB	CONJ	PUNCT	.	PUNCT	long	izan	baizik	-RRB-	VERB	CONJ	PUNCT	OUT-HEAD	second-middle	<NA>	<NA>	<NA>	<NA>
euskarak__bere__aldetik__,__lehenengo__eredua__baino__ez__dauka__eskuragarri__,__bi__ikuspegitatik__egiazta__daitekeenaren__arabera__:	EDU	Euskarak	bere	aldetik	NOUN	DET	ADP	:	PUNCT	long	dauka	<NA>	<NA>	VERB	<NA>	<NA>	IN-HEAD	second-middle	<NA>	<NA>	<NA>	<NA>
lehenik__,__erromantikoetan__aurreko__era__bietara__jokatzen__duen__des-__atzizki__mailegatuak__,__desegin__eratorrian__,__egin__oinarri-buruaren__modifikatzaile__modura__jokatzen__du	EDU	Lehenik	,	erromantikoetan	ADV	PUNCT	ADV	du	AUX	long	jokatzen	<NA>	<NA>	VERB	<NA>	<NA>	OUT-HEAD	second-middle	<NA>	<NA>	<NA>	<NA>
aurrean__kokatuz	EDU	aurrean	<NA>	<NA>	NOUN	<NA>	<NA>	kokatuz	VERB	veryshort	kokatuz	<NA>	<NA>	VERB	<NA>	<NA>	OUT-HEAD	second-middle	<NA>	<NA>	<NA>	<NA>
-LRB-__egitearen__alderantzizkoa__-RRB-__,	EDU	-LRB-	egitearen	alderantzizkoa	PUNCT	VERB	NOUN	,	PUNCT	veryshort	-LRB-	alderantzizkoa	-RRB-	PUNCT	NOUN	PUNCT	OUT-HEAD	second-middle	<NA>	<NA>	<NA>	<NA>
baina__aurrizki-osagarria/oinarriburua__eredua__aurkitu__nahi__dugunean__-LRB-__deshojar__-RRB-__,	EDU	baina	aurrizki-osagarria	/oinarriburua	CONJ	ADJ	NOUN	,	PUNCT	short	baina	aurkitu	-RRB-	CONJ	VERB	PUNCT	OUT-HEAD	end	<NA>	<NA>	<NA>	<NA>
desostatu__gaizki__eginda__dagoela__beha__daiteke__nonbait__;	EDU	desostatu	gaizki	eginda	VERB	ADV	VERB	;	PUNCT	short	beha	<NA>	<NA>	NOUN	<NA>	<NA>	OUT-HEAD	end	<NA>	<NA>	<NA>	<NA>
ber-/bir-__'re-__'__eta__ez-__'in-/des-__'__aurrizkiek__ere__,__horrelaxe__jokatzen__dute__.	EDU	ber-/bir-	're	-	PUNCT	ADV	PUNCT	.	PUNCT	long	jokatzen	<NA>	<NA>	VERB	<NA>	<NA>	IN-HEAD	end	<NA>	<NA>	<NA>	<NA>
ondorio__lexikografikoei__begira__,__lehenik__desostatu__bezalakoak__egiteko__eragozpenak__azpimarratuko__genituzke__hitzaldi__honetan__.	EDU	Ondorio	lexikografikoei	begira	NOUN	NOUN	ADP	.	PUNCT	short	azpimarratuko	<NA>	<NA>	VERB	<NA>	<NA>	IN-HEAD	end	<NA>	<NA>	<NA>	<NA>
bigarrenik__,__agerian__utziko__genuke__hizkuntza__erromanikoen__-LRB-__eta__ingelesen__-RRB-__aurrizki-burua/oinarri-osagarriaren__euskal__ordaina__oinarriosagarria/__atzizki-burua__dela__zuzen-zuzenean__.	EDU	Bigarrenik	,	agerian	ADV	PUNCT	ADV	.	PUNCT	long	utziko	<NA>	<NA>	VERB	<NA>	<NA>	IN-HEAD	end	<NA>	<NA>	<NA>	<NA>
honek__laguntza__paregabea__emango__du__gaurko__lexikogintzan__:	EDU	Honek	laguntza	paregabea	DET	NOUN	ADJ	:	PUNCT	short	emango	<NA>	<NA>	VERB	<NA>	<NA>	IN-HEAD	end	<NA>	<NA>	<NA>	<NA>
des1__hoja2__r__?__hosto2__gabe1__tu__bezalako__saioetatik__haruntzago__,__kontutan__hartu__beharko__dugu__hostoak2__galdu/kendu1__bezalako__aukera__,	EDU	des1	hosto2	hoja2	NUM	NUM	NUM	,	PUNCT	long	r	beharko	hostoak2	NOUN	VERB	NUM	IN-HEAD	end	numb	<NA>	<NA>	<NA>
baina__bereziki__,__pozoin-du__'envenenar__'__,__bigun-du__'re-blandecerse__'__,__lerro-ka-tu__'a-linear__'__,__irin-ez-ta-tu__'en-harinar__'__,__lur-reratu__'a-terrizar__'__direlako__``__jauziak__''__estandartzat__hartu__beharko__dira__,	EDU	baina	bereziki	,	CONJ	ADV	PUNCT	,	PUNCT	verylong	baina	pozoin-du	beharko	CONJ	NOUN	VERB	OUT-HEAD	end	<NA>	<NA>	<NA>	<NA>
a-__,__des-__,__en-__,__es-__,__in-__edo__re-__bezalako__aurrizkien__ordainak__aurkitzerakoan	EDU	a	-	,	NOUN	PUNCT	PUNCT	aurkitzerakoan	VERB	long	en	re	-	NOUN	PRON	PUNCT	OUT-HEAD	end	<NA>	<NA>	<NA>	<NA>
bide__emankorrak__eriden__nahi__baditugu__.	EDU	bide	emankorrak	eriden	NOUN	ADJ	NOUN	.	PUNCT	short	baditugu	<NA>	<NA>	VERB	<NA>	<NA>	OUT-HEAD	end	<NA>	<NA>	<NA>	<NA>

odolaren__deia__/__iñaki__irasizabal__/__elkar__,__2014__ildo__berean__saioa__ruiz__gonzalez__/__argia__,__2014-05-25__aspaldi__elkar__ikusi__gabeko__bi__anaien__harremanari__buruzko__istorioarekin__itzuli__da__iñaki__irasizabal__.	EDU	Odolaren	deia	/	NOUN	NOUN	PUNCT	.	PUNCT	verylong	ikusi	<NA>	<NA>	VERB	<NA>	<NA>	IN-HEAD	first	numb	<NA>	<NA>	date
igelak__benetan__hiltzen__dira__-LRB-__2011__-RRB-__eta__bizkartzainaren__lehentasunak__-LRB-__2013__-RRB-__irakurri__ondoren__,	EDU	Igelak	benetan	hiltzen	NOUN	ADV	VERB	,	PUNCT	long	hiltzen	<NA>	<NA>	VERB	<NA>	<NA>	OUT-HEAD	beginning	numb	<NA>	<NA>	date
esan__daiteke__,__odolaren__deia__-LRB-__elkar__,__2014__-RRB-__izendatu__duen__azken__eleberriak__idazlearen__tematika__eta__kontaketa__estilo__berdintsuari__heltzen__diola__.	EDU	esan	daiteke	,	VERB	AUX	PUNCT	.	PUNCT	long	esan	<NA>	<NA>	VERB	<NA>	<NA>	IN-HEAD	beginning	numb	<NA>	<NA>	date
honetan__ere__,__gizartearen__analisi-deskripzio__bati__ekiteaz__gainera__zirkulu__familiarrean__gertatzen__den__tragedia__aurkituko__dugu__.	EDU	Honetan	ere	,	DET	CONJ	PUNCT	.	PUNCT	long	aurkituko	<NA>	<NA>	VERB	<NA>	<NA>	IN-HEAD	beginning	<NA>	<NA>	<NA>	<NA>
bi__anaiek__gazte__garaitik__ez__dute__elkarren__berririk__izan	EDU	Bi	anaiek	gazte	NUM	NOUN	NOUN	izan	VERB	short	izan	<NA>	<NA>	VERB	<NA>	<NA>	IN-HEAD	beginning	<NA>	<NA>	<NA>	<NA>
eta__bakoitzak__bere__bizitza__ahal__bezala__bideratu__du__.	EDU	eta	bakoitzak	bere	CONJ	ADJ	DET	.	PUNCT	short	eta	bideratu	<NA>	CONJ	VERB	<NA>	OUT-HEAD	beginning	<NA>	<NA>	<NA>	<NA>
gorkak	EDU	<NA>	<NA>	<NA>	<NA>	<NA>	<NA>	Gorkak	PROPN	veryshort	Gorkak	<NA>	<NA>	PROPN	<NA>	<NA>	OUT-HEAD	beginning	<NA>	<NA>	<NA>	<NA>
asteburuetan__pub__bateko__zerbitzari__lanetan__arituz	EDU	asteburuetan	pub	bateko	NOUN	NOUN	NUM	arituz	VERB	short	arituz	<NA>	<NA>	VERB	<NA>	<NA>	OUT-HEAD	beginning	<NA>	<NA>	<NA>	<NA>
egiten__du__aurrera__.	EDU	egiten	du	aurrera	VERB	AUX	ADV	.	PUNCT	veryshort	egiten	<NA>	<NA>	VERB	<NA>	<NA>	IN-HEAD	beginning	<NA>	<NA>	<NA>	<NA>
ez__du__familia__eredugarri__esaten__den__gisako__ezer__eraikitzea__lortu__,	EDU	Ez	du	familia	PART	VERB	NOUN	,	PUNCT	short	du	<NA>	<NA>	VERB	<NA>	<NA>	IN-HEAD	beginning	<NA>	<NA>	<NA>	<NA>
baina__,__nadia__eta__gica__,__ama-seme__errumaniarrekin__partekatzen__du__bere__mundu__pertsonala__.	EDU	baina	,	Nadia	CONJ	PUNCT	NOUN	.	PUNCT	short	baina	Nadia	partekatzen	CONJ	NOUN	VERB	OUT-HEAD	first-middle	<NA>	<NA>	<NA>	<NA>
gorkak__aspaldi__galdu__zuen__bere__familiarekiko__kontaktua__iraganeko__hainbat__gertakari__gogorrek__bultzaturik__.	EDU	Gorkak	aspaldi	galdu	NOUN	ADV	VERB	.	PUNCT	short	galdu	<NA>	<NA>	VERB	<NA>	<NA>	IN-HEAD	first-middle	<NA>	<NA>	<NA>	<NA>
eta__hala__izan__dadin__nahiago__duen__arren__,	EDU	Eta	hala	izan	CONJ	ADV	VERB	,	PUNCT	short	izan	<NA>	<NA>	VERB	<NA>	<NA>	OUT-HEAD	first-middle	<NA>	<NA>	<NA>	<NA>
odola__,__odola__da__,	EDU	odola	,	odola	ADV	PUNCT	NOUN	,	PUNCT	veryshort	odola	<NA>	<NA>	NOUN	<NA>	<NA>	IN-HEAD	first-middle	<NA>	<NA>	<NA>	<NA>
eta__beti__izango__gara__sendi__bateko__partaide__.	EDU	eta	beti	izango	CONJ	ADV	VERB	.	PUNCT	short	eta	izango	<NA>	CONJ	VERB	<NA>	OUT-HEAD	first-middle	<NA>	<NA>	<NA>	<NA>
aldiz__,__eleberri__osoan__barrena__anonimoki__aurkezten__den__gorkaren__anaia__enpresari__txikia__da__.	EDU	Aldiz	,	eleberri	CONJ	PUNCT	NOUN	.	PUNCT	short	enpresari	<NA>	<NA>	NOUN	<NA>	<NA>	IN-HEAD	first-middle	<NA>	<NA>	<NA>	<NA>
bera__ere__ezkondugabea__,__baina__aspaldiko__bikotearekin__seme-alaba__banaren__aita__.	EDU	Bera	ere	ezkondugabea	DET	CONJ	NOUN	.	PUNCT	short	ezkondugabea	<NA>	<NA>	NOUN	<NA>	<NA>	IN-HEAD	first-middle	<NA>	<NA>	<NA>	<NA>
familia__ez__estereotipatuen__irudia__bilatu__du__idazleak__,	EDU	Familia	ez	estereotipatuen	NOUN	PART	VERB	,	PUNCT	short	bilatu	<NA>	<NA>	VERB	<NA>	<NA>	IN-HEAD	first-middle	<NA>	<NA>	<NA>	<NA>
errealistagotzat__jotzen__baitu__gaur__egun__ikusten__dugun__aniztasuna__islatzea__,	EDU	errealistagotzat	jotzen	baitu	NOUN	VERB	AUX	,	PUNCT	short	ikusten	<NA>	<NA>	VERB	<NA>	<NA>	OUT-HEAD	first-middle	<NA>	<NA>	<NA>	<NA>
eta__testuinguru__horretan__bi__anaien__arteko__erlazioa__txertatu__du__.	EDU	eta	testuinguru	horretan	CONJ	NOUN	DET	.	PUNCT	short	eta	txertatu	<NA>	CONJ	VERB	<NA>	OUT-HEAD	first-middle	<NA>	<NA>	<NA>	<NA>
narrazioaren__tentsioa__in__crescendo__joango__da	EDU	Narrazioaren	tentsioa	in	ADJ	NOUN	NOUN	da	AUX	short	joango	<NA>	<NA>	VERB	<NA>	<NA>	IN-HEAD	second-middle	<NA>	<NA>	<NA>	<NA>
hastapenetik__planteatzen__diren__zenbait__enigma__argituz__doazen__neurrian__:	EDU	hastapenetik	planteatzen	diren	NOUN	VERB	AUX	:	PUNCT	short	neurrian	:	<NA>	NOUN	PUNCT	<NA>	OUT-HEAD	second-middle	<NA>	<NA>	<NA>	<NA>
zerk__eragin__zuen__gorka__familiatik__aldentzera__?	EDU	Zerk	eragin	zuen	DET	VERB	AUX	?	PUNCT	short	eragin	<NA>	<NA>	VERB	<NA>	<NA>	IN-HEAD	second-middle	<NA>	<NA>	<NA>	<NA>
zenbateraino__gara__gai__familiaren__alde__emateko__?	EDU	Zenbateraino	gara	gai	ADV	VERB	NOUN	?	PUNCT	short	gara	<NA>	<NA>	VERB	<NA>	<NA>	IN-HEAD	second-middle	<NA>	<NA>	<NA>	<NA>
zein__punturaino__pentsa__genezake__familiak__,__gure__odolaren__odolak__,__traizionatu__gaitzakeela__?	EDU	Zein	punturaino	pentsa	DET	NOUN	VERB	?	PUNCT	short	pentsa	<NA>	<NA>	VERB	<NA>	<NA>	IN-HEAD	second-middle	<NA>	<NA>	<NA>	<NA>
urte__askoren__ondoren__ustekabean__harrapatuko__du__gorka__,	EDU	Urte	askoren	ondoren	NOUN	DET	ADP	,	PUNCT	short	harrapatuko	<NA>	<NA>	VERB	<NA>	<NA>	IN-HEAD	second-middle	<NA>	<NA>	<NA>	<NA>
bere__anaiak__aitaren__heriotzaren__berri__emateko__deitzen__duenean__.	EDU	bere	anaiak	aitaren	DET	NOUN	NOUN	.	PUNCT	short	deitzen	<NA>	<NA>	VERB	<NA>	<NA>	OUT-HEAD	second-middle	<NA>	<NA>	<NA>	<NA>
anaiaren__dei__fatalak__iraganeko__mamuen__kutxa__zabalduko__du	EDU	Anaiaren	dei	fatalak	NOUN	NOUN	ADJ	du	AUX	short	zabalduko	<NA>	<NA>	VERB	<NA>	<NA>	OUT-HEAD	second-middle	<NA>	<NA>	<NA>	<NA>
eta__polik-poliki__,	EDU	eta	polik-poliki	<NA>	CONJ	ADV	<NA>	,	PUNCT	veryshort	eta	polik-poliki	<NA>	CONJ	ADV	<NA>	OUT-HEAD	second-middle	<NA>	<NA>	<NA>	<NA>
bere__identitate__ordura__arte	EDU	bere	identitate	ordura	DET	NOUN	NOUN	arte	NOUN	veryshort	ordura	arte	<NA>	NOUN	NOUN	<NA>	OUT-HEAD	second-middle	<NA>	<NA>	<NA>	<NA>
anonimoa__agerian__geratuko__da__.	EDU	anonimoa	agerian	geratuko	NOUN	ADV	VERB	.	PUNCT	veryshort	geratuko	<NA>	<NA>	VERB	<NA>	<NA>	IN-HEAD	second-middle	<NA>	<NA>	<NA>	<NA>
aldi__berean__gorka__,	EDU	Aldi	berean	Gorka	NOUN	DET	PROPN	,	PUNCT	veryshort	Aldi	Gorka	<NA>	NOUN	PROPN	<NA>	OUT-HEAD	end	<NA>	<NA>	<NA>	<NA>
odolaren__senari__jarraituz__,	EDU	odolaren	senari	jarraituz	ADJ	NOUN	VERB	,	PUNCT	veryshort	odolaren	jarraituz	<NA>	ADJ	VERB	<NA>	OUT-HEAD	end	<NA>	<NA>	<NA>	<NA>
ezin__pentsatuzko__gertaeretan__sartua__ikusiko__da__:__pederastia__,__txantaiak__,__sexu-abusuak__,__eta__abar__.	EDU	pederastia	,	txantaiak	NOUN	PUNCT	NOUN	:	PUNCT	long	pederastia	ikusiko	<NA>	NOUN	VERB	<NA>	IN-HEAD	end	<NA>	<NA>	<NA>	<NA>
irasizabalen__eleberrietan__ohikoak__diren__gaiak__,__alegia__.	EDU	Irasizabalen	eleberrietan	ohikoak	PROPN	NOUN	ADJ	.	PUNCT	short	gaiak	<NA>	<NA>	NOUN	<NA>	<NA>	IN-HEAD	end	<NA>	<NA>	<NA>	<NA>
odolaren__deia__anaien__arteko__erlazioan__gorpuzten__den__eleberria__da__.	EDU	Odolaren	deia	anaien	NOUN	NOUN	NOUN	.	PUNCT	short	eleberria	<NA>	<NA>	NOUN	<NA>	<NA>	IN-HEAD	end	<NA>	<NA>	<NA>	<NA>
pertsonaien__natura__,__familia__bereko__partaide__izatean__definitzen__da__,	EDU	Pertsonaien	natura	,	NOUN	NOUN	PUNCT	,	PUNCT	short	definitzen	<NA>	<NA>	VERB	<NA>	<NA>	IN-HEAD	end	<NA>	<NA>	<NA>	<NA>
eta__horrek__ematen__die__ekintzei__esanahi__eta__pisu__berezia__.	EDU	eta	horrek	ematen	CONJ	DET	VERB	.	PUNCT	short	eta	ematen	<NA>	CONJ	VERB	<NA>	OUT-HEAD	end	<NA>	<NA>	<NA>	<NA>
hortaz__gainera__,__ez__diot__eleberri__honi__deus__originalik__aurkitu__,	EDU	Hortaz	gainera	,	CONJ	CONJ	PUNCT	,	PUNCT	short	aurkitu	<NA>	<NA>	VERB	<NA>	<NA>	IN-HEAD	end	<NA>	<NA>	<NA>	<NA>
eta__idazlearen__ibilbide__linealaren__erakusle__iruditu__zait__.	EDU	eta	idazlearen	ibilbide	CONJ	NOUN	NOUN	.	PUNCT	short	eta	iruditu	<NA>	CONJ	VERB	<NA>	OUT-HEAD	end	<NA>	<NA>	<NA>	<NA>
hortaz__,__jada__ezagutzen__dutenek__ez__dute__ezer__berririk__aurkituko__,	EDU	Hortaz	,	jada	CONJ	PUNCT	ADV	,	PUNCT	short	aurkituko	<NA>	<NA>	VERB	<NA>	<NA>	IN-HEAD	end	<NA>	<NA>	<NA>	<NA>
eta__ezezaguna__zaionarentzat__ez__dezala__momentu__entretenigarri__bat__pasatzea__baino__espero__.	EDU	eta	ezezaguna	zaionarentzat	CONJ	NOUN	NOUN	.	PUNCT	short	eta	espero	<NA>	CONJ	NOUN	<NA>	OUT-HEAD	last	<NA>	<NA>	<NA>	<NA>

