word pos prefw1 prefw2 prefw3 prefp1 prefp2 prefp3 suffw1 suffp1 len headw1 headw2 headw3 headp1 headp2 headp3 head position numb perc money date
sargori__/__pello__lizarralde__/__pamiela__,__1994__sargori__asier__sarasua__/__eibartik,2015-01-09	EDU	Sargori	/	Pello	PROPN	PUNCT	PROPN	,2015-01-09	NUM	short	Sargori	,2015-01-09	<NA>	PROPN	NUM	<NA>	OUT-HEAD	first	numb	<NA>	<NA>	date
idazle__berezia__da__pello__lizarralde__-LRB-__zumarraga__,__1956__-RRB-__.	EDU	Idazle	berezia	da	NOUN	ADJ	VERB	.	PUNCT	short	Pello	<NA>	<NA>	PROPN	<NA>	<NA>	OUT-HEAD	beginning	numb	<NA>	<NA>	date
gutxitxo__argitaratzen__du__.	EDU	Gutxitxo	argitaratzen	du	DET	VERB	AUX	.	PUNCT	veryshort	argitaratzen	<NA>	<NA>	VERB	<NA>	<NA>	IN-HEAD	beginning	<NA>	<NA>	<NA>	<NA>
berezi__idazten__du__.	EDU	Berezi	idazten	du	NOUN	VERB	AUX	.	PUNCT	veryshort	idazten	<NA>	<NA>	VERB	<NA>	<NA>	IN-HEAD	beginning	<NA>	<NA>	<NA>	<NA>
euskal__letretan__ahots__bakarrez__.	EDU	Euskal	letretan	ahots	NOUN	ADV	VERB	.	PUNCT	veryshort	ahots	<NA>	<NA>	VERB	<NA>	<NA>	IN-HEAD	beginning	<NA>	<NA>	<NA>	<NA>
bere__idazkera__gustatuko__zaizu__ala__ez__,	EDU	Bere	idazkera	gustatuko	DET	NOUN	VERB	,	PUNCT	short	gustatuko	<NA>	<NA>	VERB	<NA>	<NA>	IN-HEAD	first-middle	<NA>	<NA>	<NA>	<NA>
baina__ezingo__duzu__esan__beste__edozein__idazleren__tankerakoa__denik__.	EDU	baina	ezingo	duzu	CONJ	VERB	AUX	.	PUNCT	short	baina	ezingo	<NA>	CONJ	VERB	<NA>	OUT-HEAD	first-middle	<NA>	<NA>	<NA>	<NA>
eta__niri__izugarri__gustatzen__zait__.	EDU	Eta	niri	izugarri	CONJ	PRON	ADV	.	PUNCT	short	gustatzen	<NA>	<NA>	VERB	<NA>	<NA>	IN-HEAD	first-middle	<NA>	<NA>	<NA>	<NA>
atmosferak__sortzeko__duen__erraztasuna__,__xehetasunik__txikiena__ere__adierazteko__duen__gaitasuna__,__beti__ere__voyeur__ukituarekin__...	EDU	Atmosferak	sortzeko	duen	NOUN	VERB	AUX	...	PUNCT	long	gaitasuna	beti	voyeur	NOUN	ADV	NOUN	OUT-HEAD	first-middle	<NA>	<NA>	<NA>	<NA>
sargori__ere__bide__berean__sortutako__ipuin-bilduma__da__.	EDU	Sargori	ere	bide	PROPN	CONJ	NOUN	.	PUNCT	short	ipuin-bilduma	<NA>	<NA>	NOUN	<NA>	<NA>	IN-HEAD	first-middle	<NA>	<NA>	<NA>	<NA>
udako__giro__sapa__horretan__gertatzen__diren__kontakizun__xumeak__ekarriko__dizkigu__idazleak__.	EDU	Udako	giro	sapa	PROPN	NOUN	NOUN	.	PUNCT	short	ekarriko	<NA>	<NA>	VERB	<NA>	<NA>	IN-HEAD	second-middle	<NA>	<NA>	<NA>	<NA>
hamar__ipuin__txiki__zoragarri__,__uda__garaiko__bazkalosteko__giro__itogarrian__murgilduta__daude__pertsonaien__eskutik__.	EDU	Hamar	ipuin	txiki	NUM	NOUN	ADJ	.	PUNCT	short	daude	<NA>	<NA>	VERB	<NA>	<NA>	IN-HEAD	second-middle	<NA>	<NA>	<NA>	<NA>
askotan__balirudike__ezer__gertatzen__ez__dela__,	EDU	Askotan	balirudike	ezer	ADV	NOUN	PRON	,	PUNCT	short	gertatzen	<NA>	<NA>	VERB	<NA>	<NA>	IN-HEAD	second-middle	<NA>	<NA>	<NA>	<NA>
baina__lizarralde__maixu__da__elipsien__bidez__istorio__zoragarriak__kontatzen	EDU	baina	Lizarralde	maixu	CONJ	PROPN	VERB	kontatzen	VERB	short	baina	maixu	<NA>	CONJ	VERB	<NA>	OUT-HEAD	second-middle	<NA>	<NA>	<NA>	<NA>
;__edo__kontatu__gabe__,__irakurlearen__eskuetan__ezinegon__sentsazioa__uzten__.	EDU	;	edo	kontatu	PUNCT	CONJ	VERB	.	PUNCT	short	kontatu	ezinegon	<NA>	VERB	VERB	<NA>	OUT-HEAD	second-middle	<NA>	<NA>	<NA>	<NA>
izen__iradokitzaileak__dituzte__10__ipuinok__,	EDU	Izen	iradokitzaileak	dituzte	PROPN	NOUN	VERB	,	PUNCT	short	dituzte	<NA>	<NA>	VERB	<NA>	<NA>	IN-HEAD	second-middle	numb	<NA>	<NA>	<NA>
eta__horien__artean__benetako__perlak__aurkituko__ditugu__,__``__barnetik__''__,__``__bazterretik__''__edo__``__azpian__''__,__adibidez__.	EDU	eta	horien	artean	CONJ	DET	ADP	.	PUNCT	long	eta	aurkituko	<NA>	CONJ	VERB	<NA>	OUT-HEAD	end	<NA>	<NA>	<NA>	<NA>
izugarria__da__lizarraldek__irudiak__,__egoerak__,__eszenak__...__deskribatzeko__duen__gaitasuna__.	EDU	Izugarria	deskribatzeko	da	ADJ	VERB	VERB	...	PUNCT	short	Izugarria	<NA>	<NA>	ADJ	<NA>	<NA>	IN-HEAD	end	<NA>	<NA>	<NA>	<NA>
irakurri__ahala	EDU	Irakurri	<NA>	<NA>	ADV	<NA>	<NA>	ahala	ADV	veryshort	Irakurri	ahala	<NA>	ADV	ADV	<NA>	OUT-HEAD	end	<NA>	<NA>	<NA>	<NA>
``__ikusi__''__egiten__dituzu__gertakizunak__.	EDU	"	ikusi	'	SYM	VERB	PUNCT	.	PUNCT	short	ikusi	<NA>	<NA>	VERB	<NA>	<NA>	IN-HEAD	end	<NA>	<NA>	<NA>	<NA>
eta__ikusi__ez__ezik__,__usaindu__,__entzun__eta__sentitu__ere__egiten__dituzu__lizarraldek__kontatzen__dituenak__.	EDU	Eta	ikusi	ez	CONJ	VERB	PART	.	PUNCT	long	usaindu	<NA>	<NA>	VERB	<NA>	<NA>	IN-HEAD	end	<NA>	<NA>	<NA>	<NA>
argazkilaria__dirudi__-LRB-__edo__zinemagilea__,__beharbada__-RRB-__,__idazlea__baino__gehiago__,__egoerak__azaltzeko__duen__erraztasun__eta__gaitasun__handi__eta__arin__horregatik__.	EDU	Argazkilaria	dirudi	-LRB-	NOUN	VERB	PUNCT	.	PUNCT	long	dirudi	<NA>	<NA>	VERB	<NA>	<NA>	IN-HEAD	last	<NA>	<NA>	<NA>	<NA>

terminologia-funtzioak__galizieran__:__metodologia-arazoak__eta__dagozkion__konponbideak__.	EDU	Terminologia-funtzioak	metodologia-arazoak	galizieran	NOUN	NOUN	NOUN	.	PUNCT	short	Terminologia-funtzioak	metodologia-arazoak	<NA>	NOUN	NOUN	<NA>	IN-HEAD	first	<NA>	<NA>	<NA>	<NA>
teknologia__berrien__mundura__sartzen__ari__den__neurrian__,	EDU	Teknologia	berrien	mundura	NOUN	ADJ	NOUN	,	PUNCT	short	neurrian	<NA>	<NA>	NOUN	<NA>	<NA>	OUT-HEAD	beginning	<NA>	<NA>	<NA>	<NA>
eraso__terminologiko__gogorrak__jasaten__ari__da__galiziera__,	EDU	eraso	terminologiko	gogorrak	NOUN	ADJ	ADJ	,	PUNCT	short	da	<NA>	<NA>	VERB	<NA>	<NA>	IN-HEAD	beginning	<NA>	<NA>	<NA>	<NA>
eta__arlo__hori__ere__gaztelerarekiko__menpekotasunaren__beste__adar__bat__izan__daiteke__.	EDU	eta	arlo	hori	CONJ	NOUN	DET	.	PUNCT	short	eta	adar	<NA>	CONJ	NOUN	<NA>	OUT-HEAD	beginning	<NA>	<NA>	<NA>	<NA>
galizierari__emandako__irtenbide__terminologikoekin__leundu__egin__nahi__da__arazo__larri__hori__,	EDU	Galizierari	emandako	irtenbide	NOUN	VERB	NOUN	,	PUNCT	short	da	<NA>	<NA>	VERB	<NA>	<NA>	IN-HEAD	first-middle	<NA>	<NA>	<NA>	<NA>
batetik__,__gaztelerakadak__besterik__gabe__onartzea__saihestuz__,	EDU	batetik	,	gaztelerakadak	NUM	PUNCT	NOUN	,	PUNCT	short	batetik	saihestuz	<NA>	NUM	VERB	<NA>	OUT-HEAD	first-middle	<NA>	<NA>	<NA>	<NA>
eta__,__bestetik__,__gaztelerak__moldatutako__terminoak__bere__corpus__terminologikora__bilduz__.	EDU	eta	,	bestetik	CONJ	PUNCT	NOUN	.	PUNCT	short	eta	bestetik	bilduz	CONJ	NOUN	VERB	OUT-HEAD	first-middle	<NA>	<NA>	<NA>	<NA>
menpekotasun__oso__horrek	EDU	Menpekotasun	oso	<NA>	NOUN	ADJ	<NA>	horrek	DET	veryshort	Menpekotasun	<NA>	<NA>	NOUN	<NA>	<NA>	OUT-HEAD	first-middle	<NA>	<NA>	<NA>	<NA>
-komunitatean__sortutako__hiztegi__terminologikoen__analisia__eginez	EDU	-komunitatean	sortutako	hiztegi	NOUN	VERB	NOUN	eginez	VERB	short	eginez	<NA>	<NA>	VERB	<NA>	<NA>	OUT-HEAD	first-middle	<NA>	<NA>	<NA>	<NA>
ikusia-	EDU	ikusia	<NA>	<NA>	NOUN	<NA>	<NA>	-	PUNCT	veryshort	ikusia	<NA>	<NA>	NOUN	<NA>	<NA>	OUT-HEAD	second-middle	<NA>	<NA>	<NA>	<NA>
gaz__-LRB-__x__-RRB-__funtzio__matematiko-terminologikoa__dagoela__froga__dezake__,__eta__ga__-LRB-__x__-RRB-__funtzio__terminologikoan__eragin__osoa__daukala__.	EDU	Gaz	-LRB-	x	ADV	PUNCT	PROPN	.	PUNCT	long	Gaz	-LRB-	x	ADV	PUNCT	PROPN	IN-HEAD	second-middle	<NA>	<NA>	<NA>	<NA>
bi__funtzio__esponentzial__hauen__artean__aplikazio__bijektibo__bat__egongo__da__,	EDU	Bi	funtzio	esponentzial	NUM	NOUN	ADJ	,	PUNCT	short	egongo	<NA>	<NA>	VERB	<NA>	<NA>	IN-HEAD	second-middle	<NA>	<NA>	<NA>	<NA>
eta__galizieraren__terminologiaren__sorrera__moldatuko__du__;	EDU	eta	galizieraren	terminologiaren	CONJ	ADJ	NOUN	;	PUNCT	short	eta	moldatuko	<NA>	CONJ	VERB	<NA>	OUT-HEAD	second-middle	<NA>	<NA>	<NA>	<NA>
hau__da__,__metodologia__errealak__falta__direla__utziko__du__agerian__.	EDU	hau	da	,	DET	VERB	PUNCT	.	PUNCT	short	utziko	<NA>	<NA>	VERB	<NA>	<NA>	OUT-HEAD	second-middle	<NA>	<NA>	<NA>	<NA>
erlazio__horrek__,__bada__,__hiru__modutako__irtenbide__terminologikoak__ugaltzea__ekarriko__du__:__gaztelerakadak__,__``__hiperenxebrismoak__''__,__eta__sorkuntza__terminologikoa__.	EDU	Erlazio	gaztelerakadak	horrek	NOUN	NOUN	DET	:	PUNCT	long	gaztelerakadak	ekarriko	<NA>	NOUN	VERB	<NA>	IN-HEAD	end	<NA>	<NA>	<NA>	<NA>
arazo__horren__irtenbidea__,__beraz__,__batetik__,__bi__funtzio__horien__arteko__erlazio__funtzionala__onartzea__izango__litzateke__,__eta__bestetik__,__ilg-rag__arauetako__4.__printzipioan__aipatutakoa__onartzea__,	EDU	Arazo	horren	irtenbidea	NOUN	DET	NOUN	,	PUNCT	verylong	irtenbidea	beraz	batetik	NOUN	CONJ	NUM	OUT-HEAD	end	numb	<NA>	<NA>	<NA>
bertan__esaten__denez__,__ezinbestekoa__baita__lusofoniako__munduarekin__lotu__beharra	EDU	bertan	esaten	denez	ADV	VERB	AUX	beharra	NOUN	short	lotu	beharra	<NA>	VERB	NOUN	<NA>	IN-HEAD	end	<NA>	<NA>	<NA>	<NA>
galizieraren__terminologia__sortzeko__.	EDU	galizieraren	terminologia	sortzeko	ADJ	NOUN	VERB	.	PUNCT	veryshort	galizieraren	sortzeko	<NA>	ADJ	VERB	<NA>	OUT-HEAD	end	<NA>	<NA>	<NA>	<NA>
galiziera-portugesaren__hizkuntz__diasisteman__sartzea__saihesteak__,__hartara__,__eragin__nabaria__sortuko__du__xxi.__mendeko__hizkuntza__batentzat__hain__garrantzi__handikoa__den__arlo__terminologikoan__.	EDU	Galiziera-portugesaren	hizkuntz	diasisteman	NOUN	NOUN	NOUN	.	PUNCT	long	sortuko	<NA>	<NA>	VERB	<NA>	<NA>	IN-HEAD	last	<NA>	<NA>	<NA>	<NA>

zientzia-arloko__terminologiaren__normalizazio-joera__orokorrak__serbiera__:__egoeraren__analisi__kritikoa__.	EDU	Zientzia-arloko	egoeraren	terminologiaren	PROPN	NOUN	NOUN	:	PUNCT	short	analisi	serbiera	:	NOUN	NOUN	PUNCT	IN-HEAD	first	<NA>	<NA>	<NA>	<NA>
edozein__zientzia-arlotako__terminologia__eraikitzea__lan__luzea__eta__neketsua__da__.	EDU	Edozein	zientzia-arlotako	terminologia	DET	VERB	NOUN	.	PUNCT	short	lan	<NA>	<NA>	NOUN	<NA>	<NA>	IN-HEAD	beginning	<NA>	<NA>	<NA>	<NA>
aurreko__hamarkadetan__,__serbierako__zientzia-arloko__ikertzaile__askok__joera__bat__nabaritu__dute	EDU	Aurreko	hamarkadetan	,	NOUN	NOUN	PUNCT	dute	AUX	short	nabaritu	<NA>	<NA>	VERB	<NA>	<NA>	IN-HEAD	beginning	<NA>	<NA>	<NA>	<NA>
eta__horren__berri__eman__dute__:	EDU	eta	horren	berri	CONJ	DET	NOUN	:	PUNCT	short	eta	eman	:	CONJ	VERB	PUNCT	OUT-HEAD	beginning	<NA>	<NA>	<NA>	<NA>
ingeleseko__unitate__lexikalen__maileguak__eta__unitate-egitura__luzeagoen__maileguak__hartzen__dira__zientzia-erregistro__zehatz__baterako__,	EDU	ingeleseko	unitate	lexikalen	NOUN	NOUN	ADJ	,	PUNCT	short	hartzen	erregistro	<NA>	VERB	NOUN	<NA>	IN-HEAD	first-middle	<NA>	<NA>	<NA>	<NA>
itzulpenak__edo__kalkoak__egin__ordez__.	EDU	itzulpenak	edo	kalkoak	NOUN	CONJ	NOUN	.	PUNCT	short	itzulpenak	edo	kalkoak	NOUN	CONJ	NOUN	OUT-HEAD	first-middle	<NA>	<NA>	<NA>	<NA>
izan__ere__,	EDU	Izan	ere	<NA>	VERB	CONJ	<NA>	,	PUNCT	veryshort	Izan	<NA>	<NA>	VERB	<NA>	<NA>	OUT-HEAD	first-middle	<NA>	<NA>	<NA>	<NA>
iritzi__ezberdinetako__zientzialari__serbiarrek__adostasuna__lortu__dute	EDU	iritzi	ezberdinetako	zientzialari	NOUN	ADJ	NOUN	dute	AUX	short	lortu	<NA>	<NA>	VERB	<NA>	<NA>	IN-HEAD	first-middle	<NA>	<NA>	<NA>	<NA>
eta__aurreko__hamarkadetan__ingelesari__eman__diote__zientzia-komunikaziorako__hizkuntza__bakarraren__estatusa__.	EDU	eta	aurreko	hamarkadetan	CONJ	NOUN	NOUN	.	PUNCT	short	eta	eman	<NA>	CONJ	VERB	<NA>	OUT-HEAD	first-middle	<NA>	<NA>	<NA>	<NA>
komunikazio__honetan__,__joera__hori__modu__kritikoan__aztertzen__saiatzen__gara__,__linguistikaren__zein__soziolinguistikaren__ikuspegitik__.	EDU	Komunikazio	honetan	,	NOUN	DET	PUNCT	.	PUNCT	long	saiatzen	<NA>	<NA>	VERB	<NA>	<NA>	IN-HEAD	second-middle	<NA>	<NA>	<NA>	<NA>
bugarski-k__-LRB-__1988__;__1996__-RRB-__diziplina__anitzeko__eta__amaiera__zehatzik__gabeko__ikuspegi__bat__garatu__zuen__;	EDU	Bugarski-k	-LRB-	1988	PROPN	PUNCT	NUM	;	PUNCT	long	garatu	<NA>	<NA>	VERB	<NA>	<NA>	OUT-HEAD	second-middle	numb	<NA>	<NA>	date
hitzaldi__honetarako__egokitu__dugu	EDU	hitzaldi	honetarako	egokitu	NOUN	DET	VERB	dugu	AUX	veryshort	egokitu	<NA>	<NA>	VERB	<NA>	<NA>	OUT-HEAD	second-middle	<NA>	<NA>	<NA>	<NA>
eta	EDU	<NA>	<NA>	<NA>	<NA>	<NA>	<NA>	eta	CONJ	veryshort	eta	<NA>	<NA>	CONJ	<NA>	<NA>	OUT-HEAD	second-middle	<NA>	<NA>	<NA>	<NA>
zientzia-arlo__askotatik__-LRB-__injinerutzatik__,__kalitate-kontroletik__eta__kalitate-kudeaketatik__,__informatikatik__,__ekonomiatik__,__eta__abarretik__-RRB-__datozen__datuak__alderatzeko	EDU	zientzia-arlo	askotatik	-LRB-	NOUN	DET	PUNCT	alderatzeko	VERB	long	zientzia-arlo	-LRB-	injinerutzatik	NOUN	PUNCT	NOUN	OUT-HEAD	second-middle	<NA>	<NA>	<NA>	<NA>
erabili__dugu__.	EDU	erabili	dugu	<NA>	VERB	AUX	<NA>	.	PUNCT	veryshort	erabili	<NA>	<NA>	VERB	<NA>	<NA>	IN-HEAD	end	<NA>	<NA>	<NA>	<NA>
eskuratu__ditugun__datuek__-LRB-__baita__alor__jakinetako__adituek__emandako__iritziek__ere__-RRB-__adierazten__dutenez__,	EDU	Eskuratu	ditugun	datuek	VERB	AUX	NOUN	,	PUNCT	short	adierazten	<NA>	<NA>	VERB	<NA>	<NA>	OUT-HEAD	end	<NA>	<NA>	<NA>	<NA>
zientzia-alor__jakin__batean__onartuko__diren__terminoak__ebaluatzeko__hierarkia__bat__ezarri__behar__da__.	EDU	zientzia-alor	jakin	batean	NOUN	ADJ	NUM	.	PUNCT	short	da	<NA>	<NA>	VERB	<NA>	<NA>	IN-HEAD	end	<NA>	<NA>	<NA>	<NA>
hierarkia__hori__hizkuntzaz__kanpoko__irizpideetan__oinarrituko__da__,__adibidez__,__nazioarteko__kooperazioa__eta__komunikazioa__.	EDU	Hierarkia	hori	hizkuntzaz	NOUN	DET	NOUN	.	PUNCT	short	oinarrituko	<NA>	<NA>	VERB	<NA>	<NA>	IN-HEAD	end	<NA>	<NA>	<NA>	<NA>
horien__arabera__,__ingelesetik__hartutako__maileguei__lehentasuna__ematen__zaie__â€œserbieraren__zientzia-barietate__modernoaâ€__izeneko__hizkuntzakodean__,__itzulpena__eta__egitura-kalkoaren__aurretik__.	EDU	Horien	arabera	,	DET	ADP	PUNCT	.	PUNCT	long	hizkuntzakodean	<NA>	<NA>	NOUN	<NA>	<NA>	OUT-HEAD	last	<NA>	<NA>	<NA>	<NA>

jon__miranderen__gutunak__-LRB-__1948__-__1972__-RRB-__/__jon__mirande__/__susa__,__1995__positiboa__idazle__ez__emankor__baten__fruitu__emankorra__ritxi__lizartza__/__argia__,__1997-02-09__.	EDU	Jon	Miranderen	gutunak	PROPN	PROPN	NOUN	.	PUNCT	verylong	Jon	<NA>	<NA>	PROPN	<NA>	<NA>	OUT-HEAD	first	numb	<NA>	<NA>	date
euskal__literaturan__ugari__dira__lan__gutxi__-LRB-__askotan__bakarra__-RRB-__argitaratu__eta__ospe__handia__lortu__duten__idazleak__.	EDU	Euskal	literaturan	ugari	NOUN	NOUN	DET	.	PUNCT	long	dira	<NA>	<NA>	VERB	<NA>	<NA>	IN-HEAD	beginning	<NA>	<NA>	<NA>	<NA>
frankotiradoreak__.	EDU	Frankotiradoreak	<NA>	<NA>	PROPN	<NA>	<NA>	.	PUNCT	veryshort	Frankotiradoreak	<NA>	<NA>	PROPN	<NA>	<NA>	OUT-HEAD	beginning	<NA>	<NA>	<NA>	<NA>
lan__horrek__lortutako__oihartzuna__,__ordea__,__idazle__emankor__askok__bizitza__osoan__lortzen__dutena__baino__handiagoa__izan__da__.	EDU	Lan	horrek	lortutako	NOUN	DET	VERB	.	PUNCT	long	handiagoa	<NA>	<NA>	ADJ	<NA>	<NA>	IN-HEAD	beginning	<NA>	<NA>	<NA>	<NA>
jon__mirande__zuberotarrak__,	EDU	Jon	Mirande	zuberotarrak	PROPN	PROPN	ADJ	,	PUNCT	veryshort	zuberotarrak	<NA>	<NA>	ADJ	<NA>	<NA>	OUT-HEAD	beginning	<NA>	<NA>	<NA>	<NA>
lan__bateko__egilea__ez__bada__ere__,	EDU	lan	bateko	egilea	NOUN	NUM	NOUN	,	PUNCT	short	bada	<NA>	<NA>	VERB	<NA>	<NA>	OUT-HEAD	beginning	<NA>	<NA>	<NA>	<NA>
literatur__mailan__emankorregia__ez__izan__arren__,	EDU	literatur	mailan	emankorregia	NOUN	NOUN	NOUN	,	PUNCT	short	izan	<NA>	<NA>	VERB	<NA>	<NA>	OUT-HEAD	first-middle	<NA>	<NA>	<NA>	<NA>
genioei__gorderiko__txoko__horietako__bat__lortu__du__bere__eleberri__lahurra__,__ipuin__bilduma__,__poesiak__eta__kazetari-lanei__esker__.	EDU	genioei	gorderiko	txoko	NOUN	VERB	NOUN	.	PUNCT	long	lortu	<NA>	<NA>	VERB	<NA>	<NA>	IN-HEAD	first-middle	<NA>	<NA>	<NA>	<NA>
bada__,__ordea__,__mirandezale__gehienoi__orain__arte__ukatu__egin__zaigun__idazle__honen__informazio__ugariena__ematen__duen__sorkuntza__lanik__,__bere__gutunak__,__alegia__,__batez__ere__txomin__peillen__,__andima__ibinagabeitia__eta__jon__etxaiderekin__.	EDU	Bada	,	ordea	CONJ	PUNCT	CONJ	.	PUNCT	verylong	Txomin	<NA>	<NA>	PROPN	<NA>	<NA>	IN-HEAD	first-middle	<NA>	<NA>	<NA>	<NA>
luxuzko__edizioan__aurkeztuak__,__informazio__osagarri__ugari__ematen__du__ediziogileak__:__mirandez__argitaratu__diren__lan__gehienak__,__bere__liburuen__edizioak__,__gutunen__aurkibidea__hartzailearen__arabera__sailkatuak__...	EDU	Luxuzko	Mirandez	edizioan	PROPN	PROPN	NOUN	...	PUNCT	verylong	lan	ematen	edizioak	NOUN	VERB	NOUN	IN-HEAD	first-middle	<NA>	<NA>	<NA>	<NA>
bere__literatur__lanak__genio__handi__eta__polemiko__baten__uzta__utzi__digu__,	EDU	Bere	literatur	lanak	DET	NOUN	NOUN	,	PUNCT	short	utzi	<NA>	<NA>	VERB	<NA>	<NA>	OUT-HEAD	first-middle	<NA>	<NA>	<NA>	<NA>
baina__gutunek__,__mirandek__horren__gustuko__zuen__ohituraren__--__harremanak__idatziz__izatea__,__peillenen__berak__aipatzen__digun__telefonoa__erabiltzeko__zailtasunak__medio__--__ondorio__zuzena__,__pertsona__horren__inguruko__bizitza__eta__sentimenduak__erakusten__dizkigu__,__bere__gordinkerian__.	EDU	baina	gutunek	,	CONJ	NOUN	PUNCT	.	PUNCT	verylong	baina	gutunek	erakusten	CONJ	NOUN	VERB	IN-HEAD	first-middle	<NA>	<NA>	<NA>	<NA>
era__berean__,__eskutitzen__bidez__,__hainbat__poema__eta__eginiko__beste__lanen__aipamena__ere__egiten__digu__mirandek__.	EDU	Era	berean	,	NOUN	DET	PUNCT	.	PUNCT	long	egiten	<NA>	<NA>	VERB	<NA>	<NA>	IN-HEAD	first-middle	<NA>	<NA>	<NA>	<NA>
patri__urkizuk__dioenez__,	EDU	Patri	Urkizuk	dioenez	PROPN	PROPN	VERB	,	PUNCT	veryshort	dioenez	<NA>	<NA>	VERB	<NA>	<NA>	OUT-HEAD	second-middle	<NA>	<NA>	<NA>	<NA>
350__gutun__bildu__zituen__arren__,	EDU	350	gutun	bildu	NUM	NOUN	VERB	,	PUNCT	short	bildu	<NA>	<NA>	VERB	<NA>	<NA>	IN-HEAD	second-middle	numb	<NA>	<NA>	<NA>
275__baizik__ez__ditu__hautatu__.	EDU	275	baizik	ez	NUM	CONJ	PART	.	PUNCT	short	275	<NA>	<NA>	NUM	<NA>	<NA>	OUT-HEAD	second-middle	numb	<NA>	<NA>	<NA>
erabakiarekin__erahat__ados__ez__nago__,	EDU	Erabakiarekin	erahat	ados	NOUN	NOUN	ADV	,	PUNCT	short	nago	<NA>	<NA>	VERB	<NA>	<NA>	IN-HEAD	second-middle	<NA>	<NA>	<NA>	<NA>
baina__nahikoa__informazio__biltzen__da	EDU	baina	nahikoa	informazio	CONJ	ADV	NOUN	da	AUX	veryshort	baina	biltzen	<NA>	CONJ	VERB	<NA>	OUT-HEAD	second-middle	<NA>	<NA>	<NA>	<NA>
mirandek__euskal__herriaz__eta__inguruko__gizarteaz__bizi__zuen__maitasun__eta__gorroto__harremana__argi__azaltzeko__.	EDU	Mirandek	Euskal	Herriaz	PROPN	NOUN	NOUN	.	PUNCT	short	Mirandek	azaltzeko	<NA>	PROPN	VERB	<NA>	OUT-HEAD	second-middle	<NA>	<NA>	<NA>	<NA>
aukera__ederra__da__irakurlearentzat__,__mirandek	EDU	Aukera	ederra	da	NOUN	ADJ	VERB	Mirandek	PROPN	short	da	irakurlearentzat	Mirandek	VERB	NOUN	PROPN	IN-HEAD	second-middle	<NA>	<NA>	<NA>	<NA>
gaztetik__hasi__eta__ia__hil__arte	EDU	gaztetik	hasi	eta	NOUN	VERB	CONJ	arte	NOUN	short	hasi	hil	<NA>	VERB	VERB	<NA>	OUT-HEAD	end	<NA>	<NA>	<NA>	<NA>
eutsi__zion__ohitura__horri__esker__,__modu__kronologikoan__emana__gainera__.	EDU	eutsi	zion	ohitura	VERB	AUX	NOUN	.	PUNCT	short	eutsi	emana	<NA>	VERB	VERB	<NA>	OUT-HEAD	end	<NA>	<NA>	<NA>	<NA>
froga__bat__egin__liteke__,__herrien__izena__eta__batez__ere__bere__izena__zein__hizkuntzatan__idazten__duen__begiratzea__,	EDU	Froga	bat	egin	NOUN	NUM	VERB	,	PUNCT	long	egin	begiratzea	<NA>	VERB	VERB	<NA>	IN-HEAD	end	<NA>	<NA>	<NA>	<NA>
une__horretan__bere__herriarekiko__sentimenduak__eta__harremanak__nolakoak__diren__jakiteko__.	EDU	une	horretan	bere	NOUN	DET	DET	.	PUNCT	short	jakiteko	<NA>	<NA>	VERB	<NA>	<NA>	OUT-HEAD	end	<NA>	<NA>	<NA>	<NA>
pena__bakarra__,__agian__,__alerik__ez__ematea	EDU	Pena	bakarra	,	PROPN	ADJ	PUNCT	ematea	VERB	short	Pena	agian	ematea	PROPN	ADV	VERB	OUT-HEAD	end	<NA>	<NA>	<NA>	<NA>
eskuz__idatzita	EDU	eskuz	<NA>	<NA>	NOUN	<NA>	<NA>	idatzita	VERB	veryshort	idatzita	<NA>	<NA>	VERB	<NA>	<NA>	IN-HEAD	end	<NA>	<NA>	<NA>	<NA>
izan__zen__moduan__.	EDU	izan	zen	moduan	VERB	AUX	NOUN	.	PUNCT	veryshort	izan	zen	moduan	VERB	AUX	NOUN	OUT-HEAD	last	<NA>	<NA>	<NA>	<NA>

lege-testu__itzulietako__euskal__terminologiaren__hustuketarako__metodologia__.	EDU	Lege-testu	itzulietako	euskal	VERB	NOUN	NOUN	.	PUNCT	short	Lege-testu	<NA>	<NA>	VERB	<NA>	<NA>	IN-HEAD	first	<NA>	<NA>	<NA>	<NA>
alor__zehatz__bateko__corpus__osoan__erabili__den__euskarazko__terminologia__juridikoa__lokalizatu__eta__aztertzeko__metodologiaren__berri__eman__nahi__dugu__komunikazio__honetan__.	EDU	Alor	zehatz	bateko	NOUN	ADJ	NUM	.	PUNCT	long	lokalizatu	<NA>	<NA>	VERB	<NA>	<NA>	IN-HEAD	beginning	<NA>	<NA>	<NA>	<NA>
terminologiaren__ohiko__metodologiaz__at__,__hiru__oinetan__finkatu__dugu__gure__lana__:__baliabide__informatikoak__,__corpus-linguistika__eta__traduktologia__.	EDU	Terminologiaren	baliabide	ohiko	NOUN	NOUN	ADJ	:	PUNCT	long	baliabide	finkatu	<NA>	NOUN	VERB	<NA>	IN-HEAD	beginning	<NA>	<NA>	<NA>	<NA>
legeriak	EDU	<NA>	<NA>	<NA>	<NA>	<NA>	<NA>	Legeriak	NOUN	veryshort	Legeriak	<NA>	<NA>	NOUN	<NA>	<NA>	OUT-HEAD	beginning	<NA>	<NA>	<NA>	<NA>
-legea__dagoenez__zuzenbidearen__hastapenean-	EDU	-legea	dagoenez	zuzenbidearen	NOUN	VERB	NOUN	-	PUNCT	veryshort	dagoenez	<NA>	<NA>	VERB	<NA>	<NA>	OUT-HEAD	first-middle	<NA>	<NA>	<NA>	<NA>
zuzenbideko__terminologia__osoan__duen__garrantzian__oinarrituz__,	EDU	zuzenbideko	terminologia	osoan	NOUN	NOUN	ADJ	,	PUNCT	short	oinarrituz	<NA>	<NA>	VERB	<NA>	<NA>	OUT-HEAD	first-middle	<NA>	<NA>	<NA>	<NA>
eusko__legebiltzarreko__legegintza-produkzio__osoa__hartu__dugu__aztergai__.	EDU	Eusko	Legebiltzarreko	legegintza-produkzio	NOUN	NOUN	NOUN	.	PUNCT	short	hartu	<NA>	<NA>	VERB	<NA>	<NA>	IN-HEAD	first-middle	<NA>	<NA>	<NA>	<NA>
legeen__euskal__bertsioak__gaztelaniazko__jatorrizko__testuen__itzulpenak__direnez__,	EDU	Legeen	euskal	bertsioak	NOUN	NOUN	NOUN	,	PUNCT	short	direnez	<NA>	<NA>	VERB	<NA>	<NA>	OUT-HEAD	first-middle	<NA>	<NA>	<NA>	<NA>
erdal__testuez__baliatu__gara__,	EDU	erdal	testuez	baliatu	NOUN	NOUN	VERB	,	PUNCT	veryshort	baliatu	<NA>	<NA>	VERB	<NA>	<NA>	IN-HEAD	first-middle	<NA>	<NA>	<NA>	<NA>
gaztelaniazko__terminologia__juridikoa__aski__finkatua__eta__bildua__dagoelakoan__,	EDU	gaztelaniazko	terminologia	juridikoa	NOUN	NOUN	ADJ	,	PUNCT	short	finkatua	<NA>	<NA>	VERB	<NA>	<NA>	OUT-HEAD	second-middle	<NA>	<NA>	<NA>	<NA>
euskal__terminoak__bilatzeko__.	EDU	euskal	terminoak	bilatzeko	NOUN	ADJ	VERB	.	PUNCT	veryshort	bilatzeko	<NA>	<NA>	VERB	<NA>	<NA>	OUT-HEAD	second-middle	<NA>	<NA>	<NA>	<NA>
bi__hizkuntzetako__testu__guztiak__euskarri__informatikoan__eskuratu__ondoren__,	EDU	Bi	hizkuntzetako	testu	NUM	NOUN	NOUN	,	PUNCT	short	eskuratu	<NA>	<NA>	VERB	<NA>	<NA>	OUT-HEAD	second-middle	<NA>	<NA>	<NA>	<NA>
bi__bertsioen__alderatzeari__,__eta__paralelizatzeari__ekin__diogu__,	EDU	bi	bertsioen	alderatzeari	NUM	NOUN	VERB	,	PUNCT	short	alderatzeari	<NA>	<NA>	VERB	<NA>	<NA>	IN-HEAD	second-middle	<NA>	<NA>	<NA>	<NA>
eduki__bereko__testu-zatiak__zenbaki__bereko__paragrafoan__ager__daitezen__bietan__.	EDU	eduki	bereko	testu-zatiak	VERB	DET	NOUN	.	PUNCT	short	eduki	<NA>	<NA>	VERB	<NA>	<NA>	OUT-HEAD	second-middle	<NA>	<NA>	<NA>	<NA>
ondoren__aplikazio__berezi__baten__bidez__,__aldez__aurretik__prestaturiko__gaztelaniazko__zerrenda__bateko__termino__garrantzitsuenen__agerpenak__,__bere__testuinguru-paragrafo__osoarekin__,__eta__zenbaki__bereko__euskal__bertsioko__paragrafoarekin__,__lortu__ditugu__.	EDU	Ondoren	aplikazio	berezi	ADV	NOUN	ADJ	.	PUNCT	verylong	lortu	<NA>	<NA>	VERB	<NA>	<NA>	IN-HEAD	end	<NA>	<NA>	<NA>	<NA>
ondoren__,__euskarazko__paragrafoetan__,__erdal__terminoaren__eduki__baliokidea__daraman__segmentua__lokalizatu__dugu__,	EDU	Ondoren	,	euskarazko	ADV	PUNCT	NOUN	,	PUNCT	short	lokalizatu	<NA>	<NA>	VERB	<NA>	<NA>	IN-HEAD	end	<NA>	<NA>	<NA>	<NA>
eta__guztia__,__datu-base__erlazional__batera__eraman__.	EDU	eta	guztia	,	CONJ	DET	PUNCT	.	PUNCT	short	eta	guztia	eraman	CONJ	DET	VERB	OUT-HEAD	end	<NA>	<NA>	<NA>	<NA>
honela__,__jakin__ahal__izan__dugu__zein__diren__agertzen__eta__agertzen__ez__diren__terminoak__,__zuzenbideko__zein__alorretakoak__diren__,__zenbaterainoko__finkapen-maila__aurkitzen__den__euskal__termino__horietan__,__zein__den__gaztelaniazko__terminoen__euskal__segmentu__baliokideen__egitura__sintaktikoa__,	EDU	Honela	,	jakin	ADV	PUNCT	VERB	,	PUNCT	verylong	izan	euskal	termino	VERB	NOUN	ADV	OUT-HEAD	end	<NA>	<NA>	<NA>	<NA>
eta__oraindik__burutu__gabe__dagoen__azterketa__lexikologiko__baten__bidez__,__termino__horien__zenbait__alderdi__lexikogenetiko__aztertzeko__parada__dugu__.	EDU	eta	oraindik	burutu	CONJ	ADV	VERB	.	PUNCT	long	eta	oraindik	dugu	CONJ	ADV	VERB	IN-HEAD	last	<NA>	<NA>	<NA>	<NA>

birjinak__/__irene__nemirovski__-LRB-__jose__antonio__sarasola__-RRB-__/__alberdania__,__2011__aukeran__eleberria__saioa__ruiz__gonzalez__/__argia,2012-09-09__.	EDU	Birjinak	/	Irene	PROPN	PUNCT	PROPN	.	PUNCT	long	eleberria	<NA>	<NA>	NOUN	<NA>	<NA>	IN-HEAD	first	numb	<NA>	<NA>	date
aspaldi__nenbilen	EDU	Aspaldi	<NA>	<NA>	ADV	<NA>	<NA>	nenbilen	VERB	veryshort	nenbilen	<NA>	<NA>	VERB	<NA>	<NA>	IN-HEAD	beginning	<NA>	<NA>	<NA>	<NA>
irene__nemirovski__-LRB-__kiev__,__1903__-__auschwitz__,__1942__-RRB-__irakurtzeko__gogoz__.	EDU	Irene	Nemirovski	-LRB-	PROPN	PROPN	PUNCT	.	PUNCT	short	1903	-	gogoz	NUM	PUNCT	NOUN	OUT-HEAD	beginning	numb	<NA>	<NA>	date
haren__garaikide__izandako__antzerkilari__frantses__baten__obraren__inguruko__ikerketa__lanean__ari__nintzela__,	EDU	Haren	garaikide	izandako	DET	NOUN	VERB	,	PUNCT	short	nintzela	<NA>	<NA>	VERB	<NA>	<NA>	IN-HEAD	beginning	<NA>	<NA>	<NA>	<NA>
orduko__paris__okupatuaren__testuingurua__zela__eta__,	EDU	orduko	Paris	okupatuaren	ADV	PROPN	NOUN	,	PUNCT	short	orduko	testuingurua	eta	ADV	NOUN	CONJ	OUT-HEAD	beginning	<NA>	<NA>	<NA>	<NA>
dantzaldia__irakurtzeko__gomendatu__zidaten__.	EDU	Dantzaldia	irakurtzeko	gomendatu	NOUN	VERB	VERB	.	PUNCT	veryshort	gomendatu	<NA>	<NA>	VERB	<NA>	<NA>	OUT-HEAD	beginning	<NA>	<NA>	<NA>	<NA>
suite__frantsesa-rekin__batera__,__hura__baita__nemirovskiren__eleberririk__ezagunena__.	EDU	Suite	frantsesa-rekin	batera	PROPN	PROPN	ADP	.	PUNCT	short	ezagunena	<NA>	<NA>	ADJ	<NA>	<NA>	IN-HEAD	beginning	<NA>	<NA>	<NA>	<NA>
ordutik__izan__dut__heziketa__frantsesdun__idazle__ukrainar__honekiko__kuriositatea__.	EDU	Ordutik	izan	dut	ADV	VERB	AUX	.	PUNCT	short	izan	<NA>	<NA>	VERB	<NA>	<NA>	OUT-HEAD	beginning	<NA>	<NA>	<NA>	<NA>
bata__zein__bestea__irakurri__gabe__,__aldiz__,__joxe__antonio__sarasolak__itzuli__eta__alberdaniak__kaleratu__duen__birjinak__.	EDU	Bata	zein	bestea	NUM	CONJ	DET	.	PUNCT	long	itzuli	<NA>	<NA>	VERB	<NA>	<NA>	IN-HEAD	beginning	<NA>	<NA>	<NA>	<NA>
eta__beste__kontakizun__batzuk__izeneko__ipuin__bildumatik__abiatu__naiz	EDU	Eta	beste	kontakizun	CONJ	DET	NOUN	naiz	AUX	short	abiatu	<NA>	<NA>	VERB	<NA>	<NA>	IN-HEAD	beginning	<NA>	<NA>	<NA>	<NA>
emakume__honen__obra__literarioa__ezagutzera__.	EDU	emakume	honen	obra	NOUN	DET	NOUN	.	PUNCT	short	ezagutzera	<NA>	<NA>	VERB	<NA>	<NA>	OUT-HEAD	first-middle	<NA>	<NA>	<NA>	<NA>
eta__egia__esan__,__ez__dakit__nire__kuriositatea__zertxobait__zapuztu__egin__ote__den__.	EDU	Eta	egia	esan	CONJ	NOUN	VERB	.	PUNCT	short	dakit	<NA>	<NA>	VERB	<NA>	<NA>	IN-HEAD	first-middle	<NA>	<NA>	<NA>	<NA>
liburua__osatzen__duten__hamabi__kontakizunetatik__bost__izan__ziren__garaiko__aldizkarietan__argitaratuak__,	EDU	Liburua	osatzen	duten	NOUN	VERB	AUX	,	PUNCT	short	izan	<NA>	<NA>	VERB	<NA>	<NA>	OUT-HEAD	first-middle	<NA>	<NA>	<NA>	<NA>
eta__horietan__azkenak__,__birjinak__-LRB-__1942__-RRB-__deritzonak__,__hain__zuzen__ere__,__irabazi__du__bilduma__honen__izenburua__koroatzeko__lekua__.	EDU	eta	horietan	azkenak	CONJ	DET	NUM	.	PUNCT	long	eta	horietan	irabazi	CONJ	DET	VERB	IN-HEAD	first-middle	numb	<NA>	<NA>	date
beste__kontakizunak__eskuizkribuan__gorde__ziren__,	EDU	Beste	kontakizunak	eskuizkribuan	DET	NOUN	ADP	,	PUNCT	short	gorde	<NA>	<NA>	VERB	<NA>	<NA>	IN-HEAD	first-middle	<NA>	<NA>	<NA>	<NA>
2009.__urtean__liburuan__argitaratu__ziren__arte__.	EDU	2009.	urtean	liburuan	NUM	NOUN	NOUN	.	PUNCT	short	argitaratu	<NA>	<NA>	VERB	<NA>	<NA>	OUT-HEAD	first-middle	numb	<NA>	<NA>	<NA>
birjinak__da__,__dudarik__ez__,__hamabietarik__txapelduna	EDU	Birjinak	da	,	NOUN	VERB	PUNCT	txapelduna	NOUN	short	txapelduna	<NA>	<NA>	NOUN	<NA>	<NA>	IN-HEAD	first-middle	<NA>	<NA>	<NA>	<NA>
eta__zine__mintzatua__-LRB-__1935__-RRB-__izenekoari__emango__nioke__bigarren__postua__.	EDU	eta	Zine	mintzatua	CONJ	NOUN	ADJ	.	PUNCT	short	eta	emango	<NA>	CONJ	VERB	<NA>	OUT-HEAD	first-middle	numb	<NA>	<NA>	date
hauetan__biltzen__da__gordintasun__erabatekoan__eta__ezbeharretan__oinarritzen__den__benetako__bizitzaz__zein__patuaz__idazleak__duen__ikusmoldea__;	EDU	Hauetan	biltzen	da	DET	VERB	AUX	;	PUNCT	long	biltzen	<NA>	<NA>	VERB	<NA>	<NA>	IN-HEAD	first-middle	<NA>	<NA>	<NA>	<NA>
``__geure__indar__guztiekin__bizi__nahi__dugu	EDU	"	geure	indar	SYM	PRON	NOUN	dugu	VERB	short	dugu	<NA>	<NA>	VERB	<NA>	<NA>	OUT-HEAD	first-middle	<NA>	<NA>	<NA>	<NA>
edo__bakea__nahi__dugu__''__-LRB-__170.orr.__-RRB-__,	EDU	-RRB-	,	edo	PUNCT	PUNCT	CONJ	.	PUNCT	short	-RRB-	edo	dugu	PUNCT	CONJ	VERB	OUT-HEAD	second-middle	numb	<NA>	<NA>	<NA>
esango__du__ipuineko__emakume__protagonistetako__batek__.	EDU	esango	du	ipuineko	VERB	AUX	NOUN	.	PUNCT	short	esango	<NA>	<NA>	VERB	<NA>	<NA>	IN-HEAD	second-middle	<NA>	<NA>	<NA>	<NA>
pertsonaia__zauritu__eta__hondatuek__aditzera__ematen__dutenez	EDU	Pertsonaia	zauritu	eta	NOUN	VERB	CONJ	dutenez	AUX	short	zauritu	ematen	<NA>	VERB	VERB	<NA>	OUT-HEAD	second-middle	<NA>	<NA>	<NA>	<NA>
ez__du__balio__zoritxarra__saihesten__ahalegintzeak__,	EDU	ez	du	balio	PART	AUX	NOUN	,	PUNCT	short	saihesten	ahalegintzeak	<NA>	VERB	NOUN	<NA>	OUT-HEAD	second-middle	<NA>	<NA>	<NA>	<NA>
hobe__da__aurrez__aurre__eta__begietara__begiratzea__.	EDU	hobe	da	aurrez	ADJ	VERB	ADV	.	PUNCT	short	hobe	<NA>	<NA>	ADJ	<NA>	<NA>	IN-HEAD	second-middle	<NA>	<NA>	<NA>	<NA>
ondo__egosiriko__bizitza__ez__da__benetako__bizitza__.	EDU	Ondo	egosiriko	bizitza	ADV	VERB	NOUN	.	PUNCT	short	bizitza	<NA>	<NA>	NOUN	<NA>	<NA>	IN-HEAD	second-middle	<NA>	<NA>	<NA>	<NA>
ipuin__batetik__bestera__askotariko__sentsazioak__esperimentatzeko__aukera__izan__dut__.	EDU	Ipuin	batetik	bestera	NOUN	NUM	DET	.	PUNCT	short	izan	<NA>	<NA>	VERB	<NA>	<NA>	OUT-HEAD	second-middle	<NA>	<NA>	<NA>	<NA>
batzuk__hogei__orrialdekoak__,__hamar__edo__bostekoak__beste__batzuk__,__baina__ez__da__ipuinen__luzera__kontua__izan__.	EDU	Batzuk	hogei	orrialdekoak	DET	NUM	NOUN	.	PUNCT	long	hamar	<NA>	<NA>	NUM	<NA>	<NA>	IN-HEAD	second-middle	<NA>	<NA>	<NA>	<NA>
gorabehera__ugari__sumatu__dut__liburuaren__irakurketan__zehar__,	EDU	Gorabehera	ugari	sumatu	NOUN	DET	VERB	,	PUNCT	short	sumatu	<NA>	<NA>	VERB	<NA>	<NA>	IN-HEAD	second-middle	<NA>	<NA>	<NA>	<NA>
eta__nagusitzen__zaidan__sentsazioa__asperdurarena__da__.	EDU	eta	nagusitzen	zaidan	CONJ	VERB	NOUN	.	PUNCT	short	eta	asperdurarena	<NA>	CONJ	NOUN	<NA>	OUT-HEAD	second-middle	<NA>	<NA>	<NA>	<NA>
eleberri__batean__,__hamar__orrialderen__tarteko__asperdurak__ez__gaitu__zertan__eleberri__osoa__deuseztatzera__bultzatzen__,__bai__aldiz__ipuinen__kasuan__.	EDU	Eleberri	batean	,	NOUN	NUM	PUNCT	.	PUNCT	long	ipuinen	<NA>	<NA>	VERB	<NA>	<NA>	IN-HEAD	end	<NA>	<NA>	<NA>	<NA>
hala__gertatu__zait__mamuak__,__ezezaguna__eta__magia__bezalako__ipuinekin__,	EDU	Hala	gertatu	zait	ADV	VERB	AUX	,	PUNCT	short	gertatu	<NA>	<NA>	VERB	<NA>	<NA>	OUT-HEAD	end	<NA>	<NA>	<NA>	<NA>
inolako__erakargarritasunik__gabe__irakurri__ditut__.	EDU	inolako	erakargarritasunik	gabe	ADJ	NOUN	ADP	.	PUNCT	short	irakurri	<NA>	<NA>	VERB	<NA>	<NA>	IN-HEAD	end	<NA>	<NA>	<NA>	<NA>
nemirovskiren__ipuinak__bizipen__eta__esperientzia__pertsonaletatik__abiatzen__diren__arren__,	EDU	Nemirovskiren	ipuinak	bizipen	PROPN	NOUN	NOUN	,	PUNCT	short	abiatzen	<NA>	<NA>	VERB	<NA>	<NA>	OUT-HEAD	end	<NA>	<NA>	<NA>	<NA>
transzendentzia__ontologiko__unibertsal__zaindu__batez__hornituak__dira__.	EDU	transzendentzia	ontologiko	unibertsal	NOUN	ADJ	NOUN	.	PUNCT	short	hornituak	<NA>	<NA>	NOUN	<NA>	<NA>	IN-HEAD	end	<NA>	<NA>	<NA>	<NA>
zentzu__horretan__,__azpi__eduki__aldetik__ezin__zaio__sakontasunik__ukatu__.	EDU	Zentzu	horretan	,	NOUN	DET	PUNCT	.	PUNCT	short	ukatu	<NA>	<NA>	VERB	<NA>	<NA>	IN-HEAD	end	<NA>	<NA>	<NA>	<NA>
hala__ere__,	EDU	Hala	ere	<NA>	ADV	CONJ	<NA>	,	PUNCT	veryshort	Hala	<NA>	<NA>	ADV	<NA>	<NA>	OUT-HEAD	end	<NA>	<NA>	<NA>	<NA>
gure__patua__josteko__baliatzen__dugun__bizitzaren__oihalaz__hausnartzea__sobera__ez__badago__ere__,	EDU	gure	patua	josteko	PRON	NOUN	VERB	,	PUNCT	short	hausnartzea	<NA>	<NA>	VERB	<NA>	<NA>	OUT-HEAD	end	<NA>	<NA>	<NA>	<NA>
karga__bera__garraiatzen__duten__hamabi__ipuin__irakurtzea__astunegi__suertatzen__da__.	EDU	karga	bera	garraiatzen	NOUN	DET	VERB	.	PUNCT	short	suertatzen	<NA>	<NA>	VERB	<NA>	<NA>	IN-HEAD	end	<NA>	<NA>	<NA>	<NA>
agian__eleberritik__abiatzea__izan__zitekeen__bide__zuzena__,	EDU	Agian	eleberritik	abiatzea	ADV	NOUN	VERB	,	PUNCT	short	abiatzea	<NA>	<NA>	VERB	<NA>	<NA>	IN-HEAD	end	<NA>	<NA>	<NA>	<NA>
eta__aukera__baduzue__hura__gomendatzen__dizuet__.	EDU	eta	aukera	baduzue	CONJ	NOUN	AUX	.	PUNCT	short	eta	gomendatzen	<NA>	CONJ	VERB	<NA>	OUT-HEAD	last	<NA>	<NA>	<NA>	<NA>

paradisu__zinemak__/__aritz__arrizabalaga__/__beta__,__2014__paradisu__zapuztua__iraitz__urkulo__/__berria,2015-02-01	EDU	Paradisu	zinemak	/	NOUN	NOUN	PUNCT	,2015-02-01	NOUN	long	zinemak	/	Aritz	NOUN	PUNCT	PROPN	OUT-HEAD	first	numb	<NA>	<NA>	date
idazleak__protagonista__gris__xamarra__irudikatu__du__,__20-30__urte__bitartekoa__,__bakar__edo__berezitzat__jotzeko__moduko__ezaugarri__nabarmenik__ez__duena__eta__,__bere__jokaeran__,__une__oro__guztiz__moderatua__.	EDU	Idazleak	protagonista	gris	ADJ	NOUN	NOUN	.	PUNCT	verylong	Idazleak	irudikatu	<NA>	ADJ	VERB	<NA>	IN-HEAD	beginning	numb	<NA>	<NA>	<NA>
bizitzan__eroso__sentitu__nahi__baina__bere__burua__etengabe__atsekabetzea__baino__lortzen__ez__duten__horietakoa__.	EDU	Bizitzan	eroso	sentitu	NOUN	ADV	VERB	.	PUNCT	short	horietakoa	<NA>	<NA>	NOUN	<NA>	<NA>	OUT-HEAD	beginning	<NA>	<NA>	<NA>	<NA>
irakurleok__hurbileko__antzemango__dugun__testuinguru__arrunt__batean__kokaturik__,	EDU	Irakurleok	hurbileko	antzemango	PROPN	ADJ	VERB	,	PUNCT	short	kokaturik	<NA>	<NA>	VERB	<NA>	<NA>	OUT-HEAD	beginning	<NA>	<NA>	<NA>	<NA>
liburu__honek__eguneroko__gatazka__txiki-handietatik__oinarritutako__istorioa__eskaintzen__digu__.	EDU	liburu	honek	eguneroko	NOUN	DET	ADJ	.	PUNCT	short	eskaintzen	<NA>	<NA>	VERB	<NA>	<NA>	IN-HEAD	beginning	<NA>	<NA>	<NA>	<NA>
trama__nahiko__sinplea__eta__egitura__garbikoa__izanik__,	EDU	Trama	nahiko	sinplea	NOUN	ADV	NOUN	,	PUNCT	short	izanik	<NA>	<NA>	VERB	<NA>	<NA>	OUT-HEAD	beginning	<NA>	<NA>	<NA>	<NA>
funtsean__pertsonaia__nagusiarengan__bat__egiten__duten__hiru__egoeratatik__abiatzen__da__.	EDU	funtsean	pertsonaia	nagusiarengan	ADV	NOUN	NOUN	.	PUNCT	short	abiatzen	<NA>	<NA>	VERB	<NA>	<NA>	IN-HEAD	beginning	<NA>	<NA>	<NA>	<NA>
lehena__urte__luzetan__zehar__egositako__familiarekiko__gatazka__da__.	EDU	Lehena	urte	luzetan	NUM	NOUN	ADJ	.	PUNCT	short	gatazka	<NA>	<NA>	NOUN	<NA>	<NA>	IN-HEAD	first-middle	<NA>	<NA>	<NA>	<NA>
gurasoen__etxeko__tentsio-giro__jasanezinetik__ihesi__,__denek__txiki__ezizenez__ezagutzen__duten__protagonistak__hiria__utzi__eta__herrian__hartuko__du__babes__.	EDU	Gurasoen	etxeko	tentsio-giro	NOUN	NOUN	NOUN	.	PUNCT	long	utzi	<NA>	<NA>	VERB	<NA>	<NA>	IN-HEAD	first-middle	<NA>	<NA>	<NA>	<NA>
bertan__,__luzia__neska-lagunarekin__bizitza__berria__hasiko__du__.	EDU	Bertan	,	Luzia	ADV	PUNCT	PROPN	.	PUNCT	short	hasiko	<NA>	<NA>	VERB	<NA>	<NA>	IN-HEAD	first-middle	<NA>	<NA>	<NA>	<NA>
bigarren__egoera__gatazkatsua__bere__buruarekiko__garatutako__frustrazio-sentipena__da__.	EDU	Bigarren	egoera	gatazkatsua	NUM	NOUN	ADJ	.	PUNCT	short	frustrazio-sentipena	<NA>	<NA>	NOUN	<NA>	<NA>	IN-HEAD	first-middle	<NA>	<NA>	<NA>	<NA>
zortzi__urte__lehenago__,__txokolatea__izenburuko__ipuinarekin__lehiaketa__bat__irabazi__zuenetik__hain__zuzen__,	EDU	Zortzi	urte	lehenago	NUM	NOUN	ADV	,	PUNCT	short	irabazi	<NA>	<NA>	VERB	<NA>	<NA>	IN-HEAD	first-middle	<NA>	<NA>	<NA>	<NA>
besterik__idatzi__ezinik__dabil__txiki__.	EDU	besterik	idatzi	ezinik	DET	VERB	ADV	.	PUNCT	short	Txiki	<NA>	<NA>	ADJ	<NA>	<NA>	OUT-HEAD	first-middle	<NA>	<NA>	<NA>	<NA>
hirugarren__gatazkaren__erdigunean__paradisu__zinemak__daude__.	EDU	Hirugarren	gatazkaren	erdigunean	NUM	NOUN	NOUN	.	PUNCT	short	daude	<NA>	<NA>	VERB	<NA>	<NA>	IN-HEAD	first-middle	<NA>	<NA>	<NA>	<NA>
izan__ere__,__izenburutik__bertatik__,__narrazio__osoan__zehar__agerikoa__da__zinemarekiko__lilura__.	EDU	Izan	ere	,	VERB	CONJ	PUNCT	.	PUNCT	short	narrazio	<NA>	<NA>	NOUN	<NA>	<NA>	IN-HEAD	first-middle	<NA>	<NA>	<NA>	<NA>
are__gehiago__,__eleberri__honetan__egileak__zazpigarren__arteari__omenaldi__xume__bat__egin__nahi__izan__diola__esango__nuke__.	EDU	Are	gehiago	,	NOUN	DET	PUNCT	.	PUNCT	long	esango	<NA>	<NA>	VERB	<NA>	<NA>	IN-HEAD	second-middle	<NA>	<NA>	<NA>	<NA>
txikiri__dagokionez__,__astero__jon__eta__txapas__adiskideekin__batera__zinemara__joan__eta__filmak__ikustea__erritual__aringarria__suertatzen__zaio__.	EDU	Txikiri	dagokionez	,	PROPN	VERB	PUNCT	.	PUNCT	long	suertatzen	<NA>	<NA>	VERB	<NA>	<NA>	IN-HEAD	second-middle	<NA>	<NA>	<NA>	<NA>
idazle__protagonistaren__figura__euskal__literatura__garaikidean__ezohikoa__ez__den__arren__,	EDU	Idazle	protagonistaren	figura	NOUN	ADJ	NOUN	,	PUNCT	short	den	<NA>	<NA>	VERB	<NA>	<NA>	OUT-HEAD	second-middle	<NA>	<NA>	<NA>	<NA>
kasu__honetan__baldintza__horrek__,	EDU	kasu	honetan	baldintza	NOUN	DET	NOUN	,	PUNCT	veryshort	kasu	baldintza	<NA>	NOUN	NOUN	<NA>	OUT-HEAD	second-middle	<NA>	<NA>	<NA>	<NA>
txokolatea__ipuinaren__zenbait__pasarte__tartekatzearen__ondorioz__,	EDU	Txokolatea	ipuinaren	zenbait	NOUN	ADJ	DET	,	PUNCT	short	ondorioz	<NA>	<NA>	NOUN	<NA>	<NA>	OUT-HEAD	second-middle	<NA>	<NA>	<NA>	<NA>
ariketa__metadiegetiko__bihurria__bideratzen__du__.	EDU	ariketa	metadiegetiko	bihurria	NOUN	ADJ	ADJ	.	PUNCT	short	bideratzen	<NA>	<NA>	VERB	<NA>	<NA>	IN-HEAD	second-middle	<NA>	<NA>	<NA>	<NA>
tamalez__,__pertsonaia__nagusiaren__hausnarketek__eta__deskribapenek__berez__nahiko__urria__den__ekintza__behin__eta__berriro__eteten__dute__,__ideia__bera__hamaika__modutara__,	EDU	Tamalez	,	pertsonaia	ADV	PUNCT	NOUN	,	PUNCT	long	eteten	ideia	modutara	VERB	NOUN	NOUN	IN-HEAD	second-middle	<NA>	<NA>	<NA>	<NA>
hitz__ezberdinekin__adieraziz__,	EDU	hitz	ezberdinekin	adieraziz	NOUN	NOUN	NOUN	,	PUNCT	veryshort	adieraziz	<NA>	<NA>	NOUN	<NA>	<NA>	OUT-HEAD	second-middle	<NA>	<NA>	<NA>	<NA>
irakurleok__gogaitzeraino__.	EDU	irakurleok	gogaitzeraino	<NA>	NOUN	ADJ	<NA>	.	PUNCT	veryshort	irakurleok	<NA>	<NA>	NOUN	<NA>	<NA>	OUT-HEAD	end	<NA>	<NA>	<NA>	<NA>
halere__,__pentsa__litekeenaren__aurka__,__gaien__urritasunak__eta__diskurtso__errepikakorrak__ez__dakarte__ñabardura__aberastasunik__,__are__gutxiago__argumentu-mailako__sakontasunik__.	EDU	Halere	,	pentsa	CONJ	PUNCT	VERB	.	PUNCT	long	pentsa	<NA>	<NA>	VERB	<NA>	<NA>	IN-HEAD	end	<NA>	<NA>	<NA>	<NA>
arazo__nagusia__,__nire__ustez__,__gaien__emankortasun__zalantzazkoan__eta__ekintzaren__bilakaera__eskasean__datza__.	EDU	Arazo	nagusia	,	NOUN	ADJ	PUNCT	.	PUNCT	short	datza	<NA>	<NA>	VERB	<NA>	<NA>	IN-HEAD	end	<NA>	<NA>	<NA>	<NA>
hori__gutxi__balitz__bezala__,	EDU	Hori	gutxi	balitz	DET	DET	VERB	,	PUNCT	veryshort	balitz	<NA>	<NA>	VERB	<NA>	<NA>	OUT-HEAD	end	<NA>	<NA>	<NA>	<NA>
narrazioak__ere__ez__du__arretarik__bereganatzen__,	EDU	narrazioak	ere	ez	NOUN	CONJ	PART	,	PUNCT	short	bereganatzen	<NA>	<NA>	VERB	<NA>	<NA>	IN-HEAD	end	<NA>	<NA>	<NA>	<NA>
autoreak__molde__zeharo__tradizionalak__baitarabiltza__:__hirugarren__pertsona__,__narratzaile__orojakilea__,__kontaera__errealista__,__ordenatua__...	EDU	hirugarren	pertsona	,	NUM	NOUN	PUNCT	:	PUNCT	long	<NA>	<NA>	<NA>	<NA>	<NA>	<NA>	OUT-HEAD	end	<NA>	<NA>	<NA>	<NA>
emaitza__ezustekorik__gabeko__istorio__bat__da__,	EDU	Emaitza	ezustekorik	gabeko	NOUN	ADJ	ADJ	,	PUNCT	short	istorio	<NA>	<NA>	NOUN	<NA>	<NA>	IN-HEAD	end	<NA>	<NA>	<NA>	<NA>
irakurlea__epel__uzteko__arrisku__dezente__duen__tonu__arras__moderatu__batean__emana__.	EDU	irakurlea	epel	uzteko	NOUN	NOUN	VERB	.	PUNCT	short	moderatu	<NA>	<NA>	VERB	<NA>	<NA>	OUT-HEAD	last	<NA>	<NA>	<NA>	<NA>

rf__eta__mikrouhinak__.	EDU	RF	eta	mikrouhinak	PROPN	CONJ	NOUN	.	PUNCT	veryshort	<NA>	<NA>	<NA>	<NA>	<NA>	<NA>	OUT-HEAD	first	<NA>	<NA>	<NA>	<NA>
gure__ikerkuntza__taldearen__helburu__nagusia__,__komunikazioetarako__rf__eta__mikrouhin__anplifikadore__eta__transmisoreen__analisi__,__diseinu__,__fabrikazio__eta__testerako__teknologien__azterketa__eta__garapena__da__,__baita__ere__sistema__hauen__karakterizazioa__,__ereduztatzea__eta__simulazioa__seinale-konplexuen__presentzian__.	EDU	Gure	ikerkuntza	taldearen	PRON	NOUN	NOUN	.	PUNCT	verylong	analisi	<NA>	<NA>	VERB	<NA>	<NA>	IN-HEAD	beginning	<NA>	<NA>	<NA>	<NA>
telekomunikazio__sistema__baten__transmititutako__seinalearen__kalitatea__,__nagusiki__,__transmisio-kateetako__potentzia-anplifikadoreek__sortzen__duten__distortsioaren__araberakoa__da__.	EDU	Telekomunikazio	sistema	baten	NOUN	NOUN	NUM	.	PUNCT	long	araberakoa	<NA>	<NA>	NOUN	<NA>	<NA>	IN-HEAD	beginning	<NA>	<NA>	<NA>	<NA>
gainera__,__zirkuitu__hauek__sistema__osoaren__kontsumo__totalaren__parte__oso__garrantzitsu__baten__eragile__dira__.	EDU	Gainera	,	zirkuitu	CONJ	PUNCT	NOUN	.	PUNCT	short	eragile	<NA>	<NA>	ADJ	<NA>	<NA>	IN-HEAD	beginning	<NA>	<NA>	<NA>	<NA>
honegatik__,__ekipamendu__mugikor__edo__espazioratutako__ekipamenduetan__potentzia-anplifikadoreen__errendimenduaren__optimizazioa__ezinbestekoa__da	EDU	Honegatik	,	ekipamendu	DET	PUNCT	NOUN	da	VERB	short	ezinbestekoa	<NA>	<NA>	ADJ	<NA>	<NA>	IN-HEAD	beginning	<NA>	<NA>	<NA>	<NA>
bateriaren__iraupena__luzatzeko__.	EDU	bateriaren	iraupena	luzatzeko	NOUN	NOUN	VERB	.	PUNCT	veryshort	luzatzeko	<NA>	<NA>	VERB	<NA>	<NA>	OUT-HEAD	first-middle	<NA>	<NA>	<NA>	<NA>
eraginkortasun__handiko__eta__distortsio-baxuko__anplifikadoreen__beharrak__,__besteak__beste__,__anplifikadore__zein__transmisoreetarako__linealizazio__teknikak__sustatu__ditu__.	EDU	Eraginkortasun	handiko	eta	NOUN	ADJ	CONJ	.	PUNCT	long	sustatu	<NA>	<NA>	VERB	<NA>	<NA>	IN-HEAD	first-middle	<NA>	<NA>	<NA>	<NA>
gaur__egun__,__lan__hauei__dagozkien__aplikazioak__interes__estrategikokoak__dira__:__telefonia__mugikorra__,__wlan__,__vsat__sistemak__,__wireless__broadband__...	EDU	Gaur	telefonia	egun	ADV	NOUN	ADV	...	PUNCT	long	telefonia	interes	<NA>	NOUN	NOUN	<NA>	IN-HEAD	first-middle	<NA>	<NA>	<NA>	<NA>
bestalde__,__espero__ez__diren__seinaleen__edo__portaera__oszilakorren__agerpena__arazo__oso__kritikoa__da__maiztasun__altuko__potentzia-anplifikadoreen__diseinatzaileentzat__.	EDU	Bestalde	,	espero	CONJ	PUNCT	NOUN	.	PUNCT	long	arazo	<NA>	<NA>	NOUN	<NA>	<NA>	IN-HEAD	first-middle	<NA>	<NA>	<NA>	<NA>
ezinbestekoa__da__diseinu-fasean__portaera__hauen__agerpena__aurreikusi__ahal__izatea__-LRB-__ohiko__cad__tresnen__bidez__-RRB-__eta__portaera__hauek__aztertzeko__aukera__izatea__anplifikadorearen__lan-eremu__osoan__.	EDU	Ezinbestekoa	da	diseinu-fasean	NOUN	VERB	NOUN	.	PUNCT	verylong	eremu	<NA>	<NA>	NOUN	<NA>	<NA>	IN-HEAD	first-middle	<NA>	<NA>	<NA>	<NA>
era__honetan__,__iragarpen__fidagarri__bati__esker__,__portaera__hauek__ezabatzeko__estrategiak__hasierako__diseinu__faseetatik__aplika__daitezke__,	EDU	Era	honetan	,	NOUN	DET	PUNCT	,	PUNCT	long	Era	iragarpen	estrategiak	NOUN	NOUN	NOUN	OUT-HEAD	first-middle	<NA>	<NA>	<NA>	<NA>
anplifikadoreen__diseinu__eta__garapen__zikloak__nabarmenki__laburtuz__.	EDU	anplifikadoreen	diseinu	eta	NOUN	NOUN	CONJ	.	PUNCT	short	diseinu	eta	garapen	NOUN	CONJ	NOUN	IN-HEAD	second-middle	<NA>	<NA>	<NA>	<NA>
zentzu__honetan__,__gure__ikerkuntza__taldeak__mikrouhin-zirkuituen__dinamika__ez-linealaren__arloan__etengabeko__lana__egin__du__azken__urte__hauetan__zehar__.	EDU	Zentzu	honetan	,	NOUN	DET	PUNCT	.	PUNCT	long	egin	<NA>	<NA>	VERB	<NA>	<NA>	IN-HEAD	second-middle	<NA>	<NA>	<NA>	<NA>
lan__hauen__emaitza__izan__da__polo-zero__identifikazioan__oinarritutako__egonkortasun__analisirako__tekniken__garapena__.	EDU	Lan	hauen	emaitza	NOUN	DET	NOUN	.	PUNCT	short	emaitza	<NA>	<NA>	NOUN	<NA>	<NA>	IN-HEAD	second-middle	<NA>	<NA>	<NA>	<NA>
ikerkuntza__lerro__honetan__eman__diren__aurrerapausoetan__berebiziko__garrantzia__izan__du__gure__saileko__beste__jakintza__arloetako__ikertzaileekin__egindako__lankidetzak__-LRB-__zehazki__josu__jugo__eta__ibone__lizarraga__,__sistemen__ingeniaritza__eta__automatika__arlokoak__-RRB-__.	EDU	Ikerkuntza	lerro	honetan	NOUN	NOUN	DET	.	PUNCT	verylong	izan	<NA>	<NA>	VERB	<NA>	<NA>	IN-HEAD	second-middle	<NA>	<NA>	<NA>	<NA>
gainera__,__etorkizuneko__haririk__gabeko__komunikazio-sistemen__garapenean__,__potentzia-anplifikadoreek__birkonfigurazio__dinamikorako__aukera__izan__beharko__dute	EDU	Gainera	,	etorkizuneko	CONJ	PUNCT	NOUN	dute	AUX	short	beharko	<NA>	<NA>	VERB	<NA>	<NA>	IN-HEAD	second-middle	<NA>	<NA>	<NA>	<NA>
aplikazio__ezberdinetara__egokitzeko__.	EDU	aplikazio	ezberdinetara	egokitzeko	NOUN	ADJ	VERB	.	PUNCT	veryshort	egokitzeko	<NA>	<NA>	VERB	<NA>	<NA>	OUT-HEAD	second-middle	<NA>	<NA>	<NA>	<NA>
honela__izanda__,__potentzia-anplifikadorearen__multi-banda__funtzionamendua__ahalbidetzeko__egokitzapen-sare__birkonfiguragarriak__behar__izango__dira__.	EDU	Honela	izanda	,	ADV	VERB	PUNCT	.	PUNCT	short	izango	<NA>	<NA>	VERB	<NA>	<NA>	IN-HEAD	end	<NA>	<NA>	<NA>	<NA>
mems-ek__dituzten__egokitze__,__isolamendu__eta__integrazio__ezaugarriak__direla__eta__,	EDU	MEMS-ek	dituzten	egokitze	PROPN	VERB	VERB	,	PUNCT	short	egokitze	<NA>	<NA>	VERB	<NA>	<NA>	IN-HEAD	end	<NA>	<NA>	<NA>	<NA>
egokitzapen-sare__birkonfiguragarrien__inplementaziorako__rf-ko__mems-ak__erabiltzea__soluzio__berria__,__erakargarria__eta__potentzialki__oso__eraginkorra__da__.	EDU	egokitzapen-sare	birkonfiguragarrien	inplementaziorako	NOUN	ADJ	NOUN	.	PUNCT	long	eraginkorra	<NA>	<NA>	ADJ	<NA>	<NA>	OUT-HEAD	end	<NA>	<NA>	<NA>	<NA>
bukatzeko__,__komunikazio__sistemetan__zarataren__eragina__kontuan__hartu__beharreko__gai__garrantzitsua__da__.	EDU	Bukatzeko	,	komunikazio	VERB	PUNCT	NOUN	.	PUNCT	short	hartu	<NA>	<NA>	VERB	<NA>	<NA>	IN-HEAD	end	<NA>	<NA>	<NA>	<NA>
alor__honetan__,__gure__ikerkuntza__taldearen__helburu__nagusiak__bi__dira__.	EDU	Alor	honetan	,	NOUN	DET	PUNCT	.	PUNCT	short	helburu	<NA>	<NA>	NOUN	<NA>	<NA>	IN-HEAD	end	<NA>	<NA>	<NA>	<NA>
alde__batetik__,__anplifikadore__eta__nahasgailuen__zarata-figuraren__neurketen__zehaztasuna__hobetzea__,__eta__beste__alde__batetik__,__zirkuitu__eta__sistemetan__-LRB-__anplifikadore__,__osziladore__eta__nahasgailuetan__bereziki__-RRB-__seinalearen__presentzian__anplitude-zarata__eta__fase-zarata__neurtu__ahal__izateko__tekniken__garapena__.	EDU	Alde	batetik	,	NOUN	NUM	PUNCT	.	PUNCT	verylong	hobetzea	<NA>	<NA>	VERB	<NA>	<NA>	IN-HEAD	last	<NA>	<NA>	<NA>	<NA>

