word pos prefw1 prefw2 prefw3 prefp1 prefp2 prefp3 suffw1 suffp1 len headw1 headw2 headw3 headp1 headp2 headp3 head position numb perc money date
gerra__txikia__/__lander__garro__/__susa__,__2014__zenbaitzuen__gerra__txikia__txema__arinas__/quejicakexontzia.blogspot.fr,2014-12-01	EDU	Gerra	blogspot.fr	txikia	NOUN	ADV	ADJ	/quejicakexontzia.	NUM	long	gerra	/quejicakexontzia.	<NA>	NOUN	NUM	<NA>	OUT-HEAD	first	numb	<NA>	<NA>	date
azkenean__bukatu__dut__lander__garroren__gerra__txikia__.	EDU	Azkenean	bukatu	dut	NOUN	VERB	AUX	.	PUNCT	short	bukatu	<NA>	<NA>	VERB	<NA>	<NA>	IN-HEAD	beginning	<NA>	<NA>	<NA>	<NA>
gogoratu__zait__,__ezinbestez__,__duela__gutxi__ikusitako__infancia__clandestina__fim__argentinarra	EDU	Gogoratu	zait	,	VERB	AUX	PUNCT	argentinarra	ADJ	short	Gogoratu	fim	<NA>	VERB	NOUN	<NA>	IN-HEAD	beginning	<NA>	<NA>	<NA>	<NA>
non__haur__batek__euren__gurasoen__ezkutuko__militantzia__montoneroaren__gorabeherak__jorratzen__dituen__.	EDU	non	haur	batek	ADV	NOUN	NUM	.	PUNCT	short	jorratzen	<NA>	<NA>	VERB	<NA>	<NA>	OUT-HEAD	beginning	<NA>	<NA>	<NA>	<NA>
lander__garrok__antzerako__ikuspustua__hautatu__du	EDU	Lander	Garrok	antzerako	PROPN	PROPN	NOUN	du	AUX	short	hautatu	<NA>	<NA>	VERB	<NA>	<NA>	IN-HEAD	first-middle	<NA>	<NA>	<NA>	<NA>
bere__pertsonaien__``__gerra__''__txikiaren__nondik__norakoen__berri__ematera__aldera__,__hau__da__,__euskal__errefuxiatu__batzuen__gorabeherak__mugaz__bi__aldeetan__azken__hamarkadetan__zehar__.	EDU	bere	pertsonaien	"	DET	DET	SYM	.	PUNCT	verylong	nondik	berri	da	ADV	NOUN	VERB	OUT-HEAD	first-middle	<NA>	<NA>	<NA>	<NA>
bada__alde__horretatik__lubaki__baten__aldetik__egindako__errelatoa__,__noski__,	EDU	Bada	alde	horretatik	CONJ	NOUN	DET	,	PUNCT	short	errelatoa	noski	<NA>	NOUN	ADV	<NA>	OUT-HEAD	first-middle	<NA>	<NA>	<NA>	<NA>
hortaz__ezin__dugu__gure__burua__inondik__inora__ere__engainatu__.	EDU	hortaz	ezin	dugu	DET	NOUN	VERB	.	PUNCT	short	dugu	<NA>	<NA>	VERB	<NA>	<NA>	IN-HEAD	first-middle	<NA>	<NA>	<NA>	<NA>
hau__aldez__aurretik__aintzakotzat__hartuta	EDU	Hau	aldez	aurretik	DET	ADP	NOUN	hartuta	VERB	veryshort	hartuta	<NA>	<NA>	VERB	<NA>	<NA>	OUT-HEAD	second-middle	<NA>	<NA>	<NA>	<NA>
lubaki__horretakoekin__bat__egiten__duen__inor__derrigorrezko__enpatia__ariketa__bat__egin__beharrean__dago	EDU	lubaki	horretakoekin	bat	NOUN	NOUN	NUM	dago	VERB	short	dago	<NA>	<NA>	VERB	<NA>	<NA>	OUT-HEAD	second-middle	<NA>	<NA>	<NA>	<NA>
garroren__testuak__dituen__bertute__literario__nabarmenak__,__bikainak__,__goxatzeko__asmotan__,	EDU	Garroren	testuak	dituen	PROPN	NOUN	VERB	,	PUNCT	short	nabarmenak	bikainak	asmotan	ADJ	ADJ	NOUN	IN-HEAD	second-middle	<NA>	<NA>	<NA>	<NA>
ikaragarri__ondo__idatzita__baitago__eleberria__,	EDU	ikaragarri	ondo	idatzita	ADJ	ADV	VERB	,	PUNCT	short	baitago	eleberria	<NA>	VERB	NOUN	<NA>	OUT-HEAD	second-middle	<NA>	<NA>	<NA>	<NA>
hainbat__pasartetan__hunkigarria__ere__iristeraino__.	EDU	hainbat	pasartetan	hunkigarria	DET	ADV	ADJ	.	PUNCT	short	hunkigarria	<NA>	<NA>	ADJ	<NA>	<NA>	OUT-HEAD	second-middle	<NA>	<NA>	<NA>	<NA>
hala__ere__,__eta__lubakiak__lubaki__edo__enpatiak__enpatia__,__badago__nobelan__benetan__txunditu__egin__nauen__zerbait__,__eta__orain__arte__gainerako__``__lubaki__''__nobeletan__ozta-ozta__topatu__egin__dudana__,	EDU	Hala	ere	,	ADV	CONJ	PUNCT	,	PUNCT	verylong	badago	<NA>	<NA>	VERB	<NA>	<NA>	OUT-HEAD	end	<NA>	<NA>	<NA>	<NA>
hori__da__idazleak__berak__nola__edo__hala__bere__pertsonaien__lubakitik__kanpokoekiko__egindako__ustezko__edo__balizko__enpatia__ariketa__bat__edo__auskalo__zer__.	EDU	hori	da	idazleak	DET	VERB	NOUN	.	PUNCT	long	ustezko	<NA>	<NA>	ADJ	<NA>	<NA>	OUT-HEAD	end	<NA>	<NA>	<NA>	<NA>
esan__nahi__dut__badagoela__lubaki__horretatik__kanpo__dagoen__pertsonaia__baten__arrazoiak__eta__kontuan__hartzeko__enpatia__moduko__saio__bat__,	EDU	Esan	nahi	dut	VERB	NOUN	VERB	,	PUNCT	long	dut	<NA>	<NA>	VERB	<NA>	<NA>	IN-HEAD	end	<NA>	<NA>	<NA>	<NA>
baldin__bada__ere__nobelako__protagonistetako__batekin__,__haur__narratzailearen__aitarekin__,__ika-mikan__nork__bere__kontrako__argudioei__gogor__eutsiz__.	EDU	baldin	bada	ere	CONJ	VERB	CONJ	.	PUNCT	long	eutsiz	<NA>	<NA>	VERB	<NA>	<NA>	OUT-HEAD	end	<NA>	<NA>	<NA>	<NA>
osabaren__ezusteko__bisitarekin__lotutako__atalaz__ari__naiz__,__nire__ustetan__euskal__``__lubaki__''__literaturaren__norabide__berri__bat__gogora__edo__irizpidera__ekartzen__duena__:__lubakitik__kanpokoen__ikus/pentsamodeak__nolabait__kontuan__hartzekoa__.	EDU	Osabaren	lubakitik	ezusteko	ADJ	NOUN	NOUN	:	PUNCT	verylong	hartzekoa	naiz	<NA>	VERB	VERB	<NA>	IN-HEAD	last	<NA>	<NA>	<NA>	<NA>

galdakaoko__ospitaleko__larrialdi__zerbitzuak__erabiltzen__dituzten__erabiltzaileen__soslaia__.	EDU	Galdakaoko	Ospitaleko	larrialdi	PROPN	NOUN	NOUN	.	PUNCT	short	erabiltzen	<NA>	<NA>	VERB	<NA>	<NA>	IN-HEAD	first	<NA>	<NA>	<NA>	<NA>
larrialdi__zerbitzuetako__asistentzia__medikuen__kopurua__gehituz__doa__etengabe__,	EDU	Larrialdi	zerbitzuetako	asistentzia	PROPN	NOUN	NOUN	,	PUNCT	short	doa	<NA>	<NA>	VERB	<NA>	<NA>	IN-HEAD	beginning	<NA>	<NA>	<NA>	<NA>
estatu__españolean__igoera__hau__urteko__%__4an__kokatzen__da__.	EDU	estatu	españolean	igoera	NOUN	NOUN	NOUN	.	PUNCT	short	kokatzen	<NA>	<NA>	VERB	<NA>	<NA>	OUT-HEAD	first-middle	numb	<NA>	<NA>	<NA>
erabiltzaileen__%__80ak__bere__kabuz__erabakitzen__dute__larrialdi__zerbitzu__batetara__jotzea	EDU	Erabiltzaileen	%	80ak	NOUN	PUNCT	NUM	jotzea	VERB	short	erabakitzen	<NA>	<NA>	VERB	<NA>	<NA>	IN-HEAD	first-middle	numb	<NA>	<NA>	<NA>
eta__kontsulta__hauen__%__70a__larritasun__gutxikotzat__jotzen__dituzte__zerbitzu__hauetako__medikuek__.	EDU	eta	kontsulta	hauen	CONJ	NOUN	DET	.	PUNCT	short	eta	jotzen	<NA>	CONJ	VERB	<NA>	OUT-HEAD	second-middle	numb	<NA>	<NA>	<NA>
zerbitzu__hauen__perfila__azaltzen__duten__ikerketa__epidemiologikoak__egitea__baliagarria__izan__daiteke__osasun__planifikazioaren__aldetik__,	EDU	Zerbitzu	hauen	perfila	NOUN	DET	NOUN	,	PUNCT	short	baliagarria	<NA>	<NA>	ADJ	<NA>	<NA>	IN-HEAD	second-middle	<NA>	<NA>	<NA>	<NA>
hau__dela__eta__,__galdakaoko__ospitaleko__larrialdi__zerbitzuaren__erabiltzaileen__perfil__deskriptibo__bat__egitea__aproposa__iruditu__zaigu__.	EDU	hau	dela	eta	DET	VERB	CONJ	.	PUNCT	long	dela	iruditu	<NA>	VERB	VERB	<NA>	OUT-HEAD	second-middle	<NA>	<NA>	<NA>	<NA>
emaitzak__:	EDU	Emaitzak	<NA>	<NA>	NOUN	<NA>	<NA>	:	PUNCT	veryshort	Emaitzak	<NA>	<NA>	NOUN	<NA>	<NA>	IN-HEAD	end	<NA>	<NA>	<NA>	<NA>
erabiltzaileen__perfil__orokorra__ondokoa__dela__esan__daiteke__:__gizonezkoa__-LRB-__%__51,4__-RRB-__,__heldua__-LRB-__43,2__urteko__media__-RRB-__eta__patologia__traumatologikoagatik__kontsultatzen__duena__-LRB-__%__50,5__-RRB-__.	EDU	Erabiltzaileen	gizonezkoa	perfil	NOUN	NOUN	NOUN	.	PUNCT	verylong	gizonezkoa	esan	<NA>	NOUN	VERB	<NA>	IN-HEAD	end	numb	<NA>	<NA>	<NA>
galdakao__inguruko__herrietatik__datorrelarik__gehiengoa__.	EDU	Galdakao	inguruko	herrietatik	PROPN	ADP	NOUN	.	PUNCT	short	gehiengoa	<NA>	<NA>	NOUN	<NA>	<NA>	IN-HEAD	last	<NA>	<NA>	<NA>	<NA>

rf__eta__mikrouhinak__.	EDU	RF	eta	mikrouhinak	PROPN	CONJ	NOUN	.	PUNCT	veryshort	<NA>	<NA>	<NA>	<NA>	<NA>	<NA>	OUT-HEAD	first	<NA>	<NA>	<NA>	<NA>
gure__ikerkuntza__taldearen__helburu__nagusia__,__komunikazioetarako__rf__eta__mikrouhin__anplifikadore__eta__transmisoreen__analisi__,__diseinu__,__fabrikazio__eta__testerako__teknologien__azterketa__eta__garapena__da__,__baita__ere__sistema__hauen__karakterizazioa__,__ereduztatzea__eta__simulazioa__seinale-konplexuen__presentzian__.	EDU	Gure	ikerkuntza	taldearen	PRON	NOUN	NOUN	.	PUNCT	verylong	analisi	<NA>	<NA>	VERB	<NA>	<NA>	IN-HEAD	beginning	<NA>	<NA>	<NA>	<NA>
telekomunikazio__sistema__baten__transmititutako__seinalearen__kalitatea__,__nagusiki__,__transmisio-kateetako__potentzia-anplifikadoreek__sortzen__duten__distortsioaren__araberakoa__da__.	EDU	Telekomunikazio	sistema	baten	NOUN	NOUN	NUM	.	PUNCT	long	araberakoa	<NA>	<NA>	NOUN	<NA>	<NA>	IN-HEAD	beginning	<NA>	<NA>	<NA>	<NA>
gainera__,__zirkuitu__hauek__sistema__osoaren__kontsumo__totalaren__parte__oso__garrantzitsu__baten__eragile__dira__.	EDU	Gainera	,	zirkuitu	CONJ	PUNCT	NOUN	.	PUNCT	short	eragile	<NA>	<NA>	ADJ	<NA>	<NA>	IN-HEAD	beginning	<NA>	<NA>	<NA>	<NA>
honegatik__,__ekipamendu__mugikor__edo__espazioratutako__ekipamenduetan__potentzia-anplifikadoreen__errendimenduaren__optimizazioa__ezinbestekoa__da	EDU	Honegatik	,	ekipamendu	DET	PUNCT	NOUN	da	VERB	short	ezinbestekoa	<NA>	<NA>	ADJ	<NA>	<NA>	IN-HEAD	beginning	<NA>	<NA>	<NA>	<NA>
bateriaren__iraupena__luzatzeko__.	EDU	bateriaren	iraupena	luzatzeko	NOUN	NOUN	VERB	.	PUNCT	veryshort	luzatzeko	<NA>	<NA>	VERB	<NA>	<NA>	OUT-HEAD	first-middle	<NA>	<NA>	<NA>	<NA>
eraginkortasun__handiko__eta__distortsio-baxuko__anplifikadoreen__beharrak__,__besteak__beste__,__anplifikadore__zein__transmisoreetarako__linealizazio__teknikak__sustatu__ditu__.	EDU	Eraginkortasun	handiko	eta	NOUN	ADJ	CONJ	.	PUNCT	long	sustatu	<NA>	<NA>	VERB	<NA>	<NA>	IN-HEAD	first-middle	<NA>	<NA>	<NA>	<NA>
gaur__egun__,__lan__hauei__dagozkien__aplikazioak__interes__estrategikokoak__dira__:__telefonia__mugikorra__,__wlan__,__vsat__sistemak__,__wireless__broadband__...	EDU	Gaur	telefonia	egun	ADV	NOUN	ADV	...	PUNCT	long	telefonia	interes	<NA>	NOUN	NOUN	<NA>	IN-HEAD	first-middle	<NA>	<NA>	<NA>	<NA>
bestalde__,__espero__ez__diren__seinaleen__edo__portaera__oszilakorren__agerpena__arazo__oso__kritikoa__da__maiztasun__altuko__potentzia-anplifikadoreen__diseinatzaileentzat__.	EDU	Bestalde	,	espero	CONJ	PUNCT	NOUN	.	PUNCT	long	arazo	<NA>	<NA>	NOUN	<NA>	<NA>	IN-HEAD	first-middle	<NA>	<NA>	<NA>	<NA>
ezinbestekoa__da__diseinu-fasean__portaera__hauen__agerpena__aurreikusi__ahal__izatea__-LRB-__ohiko__cad__tresnen__bidez__-RRB-__eta__portaera__hauek__aztertzeko__aukera__izatea__anplifikadorearen__lan-eremu__osoan__.	EDU	Ezinbestekoa	da	diseinu-fasean	NOUN	VERB	NOUN	.	PUNCT	verylong	eremu	<NA>	<NA>	NOUN	<NA>	<NA>	IN-HEAD	first-middle	<NA>	<NA>	<NA>	<NA>
era__honetan__,__iragarpen__fidagarri__bati__esker__,__portaera__hauek__ezabatzeko__estrategiak__hasierako__diseinu__faseetatik__aplika__daitezke__,	EDU	Era	honetan	,	NOUN	DET	PUNCT	,	PUNCT	long	Era	iragarpen	estrategiak	NOUN	NOUN	NOUN	OUT-HEAD	first-middle	<NA>	<NA>	<NA>	<NA>
anplifikadoreen__diseinu__eta__garapen__zikloak__nabarmenki__laburtuz__.	EDU	anplifikadoreen	diseinu	eta	NOUN	NOUN	CONJ	.	PUNCT	short	diseinu	eta	garapen	NOUN	CONJ	NOUN	IN-HEAD	second-middle	<NA>	<NA>	<NA>	<NA>
zentzu__honetan__,__gure__ikerkuntza__taldeak__mikrouhin-zirkuituen__dinamika__ez-linealaren__arloan__etengabeko__lana__egin__du__azken__urte__hauetan__zehar__.	EDU	Zentzu	honetan	,	NOUN	DET	PUNCT	.	PUNCT	long	egin	<NA>	<NA>	VERB	<NA>	<NA>	IN-HEAD	second-middle	<NA>	<NA>	<NA>	<NA>
lan__hauen__emaitza__izan__da__polo-zero__identifikazioan__oinarritutako__egonkortasun__analisirako__tekniken__garapena__.	EDU	Lan	hauen	emaitza	NOUN	DET	NOUN	.	PUNCT	short	emaitza	<NA>	<NA>	NOUN	<NA>	<NA>	IN-HEAD	second-middle	<NA>	<NA>	<NA>	<NA>
ikerkuntza__lerro__honetan__eman__diren__aurrerapausoetan__berebiziko__garrantzia__izan__du__gure__saileko__beste__jakintza__arloetako__ikertzaileekin__egindako__lankidetzak__-LRB-__zehazki__josu__jugo__eta__ibone__lizarraga__,__sistemen__ingeniaritza__eta__automatika__arlokoak__-RRB-__.	EDU	Ikerkuntza	lerro	honetan	NOUN	NOUN	DET	.	PUNCT	verylong	izan	<NA>	<NA>	VERB	<NA>	<NA>	IN-HEAD	second-middle	<NA>	<NA>	<NA>	<NA>
gainera__,__etorkizuneko__haririk__gabeko__komunikazio-sistemen__garapenean__,__potentzia-anplifikadoreek__birkonfigurazio__dinamikorako__aukera__izan__beharko__dute	EDU	Gainera	,	etorkizuneko	CONJ	PUNCT	NOUN	dute	AUX	short	beharko	<NA>	<NA>	VERB	<NA>	<NA>	IN-HEAD	second-middle	<NA>	<NA>	<NA>	<NA>
aplikazio__ezberdinetara__egokitzeko__.	EDU	aplikazio	ezberdinetara	egokitzeko	NOUN	ADJ	VERB	.	PUNCT	veryshort	egokitzeko	<NA>	<NA>	VERB	<NA>	<NA>	OUT-HEAD	second-middle	<NA>	<NA>	<NA>	<NA>
honela__izanda__,__potentzia-anplifikadorearen__multi-banda__funtzionamendua__ahalbidetzeko__egokitzapen-sare__birkonfiguragarriak__behar__izango__dira__.	EDU	Honela	izanda	,	ADV	VERB	PUNCT	.	PUNCT	short	izango	<NA>	<NA>	VERB	<NA>	<NA>	IN-HEAD	end	<NA>	<NA>	<NA>	<NA>
mems-ek__dituzten__egokitze__,__isolamendu__eta__integrazio__ezaugarriak__direla__eta__,	EDU	MEMS-ek	dituzten	egokitze	PROPN	VERB	VERB	,	PUNCT	short	egokitze	<NA>	<NA>	VERB	<NA>	<NA>	IN-HEAD	end	<NA>	<NA>	<NA>	<NA>
egokitzapen-sare__birkonfiguragarrien__inplementaziorako__rf-ko__mems-ak__erabiltzea__soluzio__berria__,__erakargarria__eta__potentzialki__oso__eraginkorra__da__.	EDU	egokitzapen-sare	birkonfiguragarrien	inplementaziorako	NOUN	ADJ	NOUN	.	PUNCT	long	eraginkorra	<NA>	<NA>	ADJ	<NA>	<NA>	OUT-HEAD	end	<NA>	<NA>	<NA>	<NA>
bukatzeko__,__komunikazio__sistemetan__zarataren__eragina__kontuan__hartu__beharreko__gai__garrantzitsua__da__.	EDU	Bukatzeko	,	komunikazio	VERB	PUNCT	NOUN	.	PUNCT	short	hartu	<NA>	<NA>	VERB	<NA>	<NA>	IN-HEAD	end	<NA>	<NA>	<NA>	<NA>
alor__honetan__,__gure__ikerkuntza__taldearen__helburu__nagusiak__bi__dira__.	EDU	Alor	honetan	,	NOUN	DET	PUNCT	.	PUNCT	short	helburu	<NA>	<NA>	NOUN	<NA>	<NA>	IN-HEAD	end	<NA>	<NA>	<NA>	<NA>
alde__batetik__,__anplifikadore__eta__nahasgailuen__zarata-figuraren__neurketen__zehaztasuna__hobetzea__,__eta__beste__alde__batetik__,__zirkuitu__eta__sistemetan__-LRB-__anplifikadore__,__osziladore__eta__nahasgailuetan__bereziki__-RRB-__seinalearen__presentzian__anplitude-zarata__eta__fase-zarata__neurtu__ahal__izateko__tekniken__garapena__.	EDU	Alde	batetik	,	NOUN	NUM	PUNCT	.	PUNCT	verylong	hobetzea	<NA>	<NA>	VERB	<NA>	<NA>	IN-HEAD	last	<NA>	<NA>	<NA>	<NA>

erraiak__/__danele__sarriugarte__/__elkar__,__2014__erraien__mintzoa__ibon__egaña__/__deia,2014-05-10	EDU	Erraiak	/	Danele	PROPN	PUNCT	PROPN	2014-05-10	NUM	long	Erraiak	/	Danele	PROPN	PUNCT	PROPN	OUT-HEAD	first	numb	<NA>	<NA>	date
pertsonaia__nagusi__baten__eta__haren__ahots__narratiboaren__gainean__eraikia__da__danele__sarriugarteren__lehen__eleberria__,__erraiak__.	EDU	Pertsonaia	nagusi	baten	NOUN	ADJ	NUM	.	PUNCT	long	Pertsonaia	eta	ahots	NOUN	CONJ	NOUN	IN-HEAD	beginning	<NA>	<NA>	<NA>	<NA>
nobela__abiarazteko__aitzakia__narratiboa__,__aldiz__,__bikote-haustura__du__.	EDU	Nobela	abiarazteko	aitzakia	NOUN	VERB	NOUN	.	PUNCT	short	du	<NA>	<NA>	VERB	<NA>	<NA>	IN-HEAD	beginning	<NA>	<NA>	<NA>	<NA>
izenik__gabeko__narratzaileak__,__hogeitaka__urteko__neska__gazteak__,__etxera__heldu__eta__bikotekide__izandako__mutilaren__agur-oharra__aurkitu__du__.	EDU	Izenik	gabeko	narratzaileak	NOUN	ADP	NOUN	.	PUNCT	long	heldu	<NA>	<NA>	VERB	<NA>	<NA>	IN-HEAD	beginning	<NA>	<NA>	<NA>	<NA>
horrek__abiaraziko__du__narratzailearen__barne-bakarrizketa__,__bikote-harreman__horren__sorreraren__eta__gainbeheraren__zein__aurretik__gazteak__izandako__harremanen__gaineko__gogoeta__eta__disekzioa__.	EDU	Horrek	abiaraziko	du	DET	VERB	AUX	.	PUNCT	long	abiaraziko	<NA>	<NA>	VERB	<NA>	<NA>	IN-HEAD	beginning	<NA>	<NA>	<NA>	<NA>
berlin__,__denver__,__gasteiz__eta__sorterriaren__artean__ibilitako__narratzailearen__bakarrizketa__neurotikoak__denboran__atzera-aurrerak__egingo__ditu__,	EDU	Berlin	,	Denver	PROPN	PUNCT	PROPN	,	PUNCT	long	egingo	<NA>	<NA>	VERB	<NA>	<NA>	IN-HEAD	beginning	<NA>	<NA>	<NA>	<NA>
orainaldi__zentripetu__batetik__abiatuta__,	EDU	orainaldi	zentripetu	batetik	NOUN	NOUN	NUM	,	PUNCT	veryshort	abiatuta	<NA>	<NA>	VERB	<NA>	<NA>	OUT-HEAD	beginning	<NA>	<NA>	<NA>	<NA>
eta__bide__horretan__z-rekiko__harremana__,__y-rekikoa__edo__u-rekiko__adiskidantzaren__akabera__aletuko__ditu__,__ikuspegi__eszeptiko__,__batzuetan__ironiko__eta__anti-erromantiko__batetik__,__bukowskiren__eta__mari__luz__estebanen__arteko__halako__balizko__talaia__berezitik__,__gorputza__norbere__buruaren__eta__harremanen__ezagutzarako__bitarteko__gisa__hartzen__duen__ikuspegitik__.	EDU	eta	bide	horretan	CONJ	NOUN	DET	.	PUNCT	verylong	eta	aletuko	ikuspegitik	CONJ	VERB	NOUN	OUT-HEAD	beginning	<NA>	<NA>	<NA>	<NA>
trebe__dabil__narrazioaren__atzera-aurreretan__narratzailea__,	EDU	Trebe	dabil	narrazioaren	PROPN	VERB	NOUN	,	PUNCT	short	narratzailea	<NA>	<NA>	ADJ	<NA>	<NA>	OUT-HEAD	first-middle	<NA>	<NA>	<NA>	<NA>
eraman__egiten__du__irakurlea__denboran__atzera__,	EDU	eraman	egiten	du	VERB	VERB	AUX	,	PUNCT	short	eraman	irakurlea	denboran	VERB	NOUN	NOUN	OUT-HEAD	first-middle	<NA>	<NA>	<NA>	<NA>
berriro__ere__ezinegonezko__orainaldira__itzultzeko__;	EDU	berriro	ere	ezinegonezko	ADV	CONJ	ADJ	;	PUNCT	short	itzultzeko	<NA>	<NA>	VERB	<NA>	<NA>	OUT-HEAD	first-middle	<NA>	<NA>	<NA>	<NA>
tartean__,__sinesgarriro__birsortzen__ditu__zenbait__eszenatoki__eta__giro__,__gauekoak__eta__urbanoak__nagusiki__.	EDU	tartean	,	sinesgarriro	NOUN	PUNCT	ADV	.	PUNCT	short	tartean	birsortzen	<NA>	NOUN	VERB	<NA>	IN-HEAD	first-middle	<NA>	<NA>	<NA>	<NA>
hogeita__hamar__urteak__oso__urrun__ez__dituen__narratzailearen__nortasunaren__sorrera__dateke__eleberriaren__gaietako__bat__,__artistaren__gaztetako__portreta__gisakoa__;	EDU	Hogeita	hamar	urteak	NOUN	NUM	NOUN	;	PUNCT	long	urrun	<NA>	<NA>	VERB	<NA>	<NA>	IN-HEAD	first-middle	<NA>	<NA>	<NA>	<NA>
herritik__,__berlin__eta__denverretik__barrena__,__gasteiza__egindako__ibilbidean__narratzailearen__inguruarekiko__aldaketa__-LRB-__lagunekiko__,__sendiarekiko__,__mutilekiko__-RRB-__ezagutzen__dugu__,__baina__batez__ere__artista__identitatearen__sorrera__.	EDU	herritik	,	Berlin	NOUN	PUNCT	PROPN	.	PUNCT	verylong	herritik	Berlin	ezagutzen	NOUN	PROPN	VERB	OUT-HEAD	first-middle	<NA>	<NA>	<NA>	<NA>
hala__,__berezitasunaren__eta__normaltasunaren__arteko__dikotomian__,__konbentzio__sozialetatik__kanpo__baina__aldi__berean__barnean__dago__protagonista__gaztea__,	EDU	Hala	,	berezitasunaren	ADV	PUNCT	NOUN	,	PUNCT	long	dago	<NA>	<NA>	VERB	<NA>	<NA>	IN-HEAD	first-middle	<NA>	<NA>	<NA>	<NA>
eta__kontraesan__horiek__arakatzen__ditu__egileak__.	EDU	eta	kontraesan	horiek	CONJ	NOUN	DET	.	PUNCT	short	eta	arakatzen	<NA>	CONJ	VERB	<NA>	OUT-HEAD	first-middle	<NA>	<NA>	<NA>	<NA>
orobat__,__idazle__eta__musikarien__aipu__ugariek__pertsonaiaren__artista__izaera__hori__azpimarratzera__datoz__.	EDU	Orobat	,	idazle	ADV	PUNCT	NOUN	.	PUNCT	short	artista	<NA>	<NA>	NOUN	<NA>	<NA>	IN-HEAD	first-middle	<NA>	<NA>	<NA>	<NA>
ordea__,__narratzaileak__artistaren__pose__hori__inoiz__autoironiaz__hartzen__badu__ere__,	EDU	Ordea	,	narratzaileak	CONJ	PUNCT	NOUN	,	PUNCT	short	hartzen	<NA>	<NA>	VERB	<NA>	<NA>	OUT-HEAD	second-middle	<NA>	<NA>	<NA>	<NA>
inpresioa__izan__dut__ironia__azalekoak__ez__duela__erabat__deusezten__posea__eleberrian__zehar__eta__horrek__urrundu__egiten__duela__pertsonaia__eta__haren__ahotsa__irakurlearengandik__.	EDU	inpresioa	izan	dut	NOUN	VERB	AUX	.	PUNCT	long	deusezten	<NA>	<NA>	VERB	<NA>	<NA>	IN-HEAD	second-middle	<NA>	<NA>	<NA>	<NA>
ahotsa__da__,__dena__den__,__eleberriaren__lorpenik__eta__ezaugarri-markarik__esanguratsuenetakoa__ziurrenik__.	EDU	Ahotsa	da	,	NOUN	VERB	PUNCT	.	PUNCT	short	Ahotsa	<NA>	<NA>	NOUN	<NA>	<NA>	IN-HEAD	second-middle	<NA>	<NA>	<NA>	<NA>
estilo__hotza__,__arrazionala__,__gordina__,__bihurria__eta__aldi__berean__jolastia__,__diferentziak__diferentzia__,__uxue__apaolazarena__edo__iratxe__esnaolarena__gogora__ekar__dezakeena__.	EDU	Estilo	hotza	,	NOUN	ADJ	PUNCT	.	PUNCT	long	ekar	<NA>	<NA>	VERB	<NA>	<NA>	IN-HEAD	second-middle	<NA>	<NA>	<NA>	<NA>
beldurrik__gabe__ibili__da__sarriugarte__sintaxia__bihurritzen__,	EDU	Beldurrik	gabe	ibili	NOUN	ADP	VERB	,	PUNCT	short	ibili	<NA>	<NA>	VERB	<NA>	<NA>	IN-HEAD	second-middle	<NA>	<NA>	<NA>	<NA>
gauzei__bere__izenez__deitzen	EDU	gauzei	bere	izenez	NOUN	DET	ADV	deitzen	VERB	veryshort	deitzen	<NA>	<NA>	VERB	<NA>	<NA>	OUT-HEAD	second-middle	<NA>	<NA>	<NA>	<NA>
edo__hiztegia__bera__berritzen__,	EDU	edo	hiztegia	bera	CONJ	NOUN	DET	,	PUNCT	veryshort	edo	berritzen	<NA>	CONJ	VERB	<NA>	OUT-HEAD	second-middle	<NA>	<NA>	<NA>	<NA>
aldi__berean__hoztasun__analitikoa__eta__pertsonalitate__bakana__lortuz__.	EDU	aldi	berean	hoztasun	NOUN	DET	NOUN	.	PUNCT	short	lortuz	<NA>	<NA>	VERB	<NA>	<NA>	OUT-HEAD	second-middle	<NA>	<NA>	<NA>	<NA>
haatik__,	EDU	Haatik	<NA>	<NA>	CONJ	<NA>	<NA>	,	PUNCT	veryshort	Haatik	<NA>	<NA>	CONJ	<NA>	<NA>	OUT-HEAD	second-middle	<NA>	<NA>	<NA>	<NA>
eleberriaren__hasieran__estilo__hori__narrazioari__ongi__egokitzen__bazaio__ere__,	EDU	eleberriaren	hasieran	estilo	NOUN	NOUN	NOUN	,	PUNCT	short	egokitzen	<NA>	<NA>	VERB	<NA>	<NA>	OUT-HEAD	end	<NA>	<NA>	<NA>	<NA>
inpresioa__dut__oro__har__estiloaren__bortiztasuna__eta__gordintasuna__ez__dela__kontakizunaren__edukiei__dagokiena__.	EDU	inpresioa	dut	oro	NOUN	VERB	DET	.	PUNCT	short	dut	<NA>	<NA>	VERB	<NA>	<NA>	IN-HEAD	end	<NA>	<NA>	<NA>	<NA>
alegia__,__idazkeran__bertan__dagoen__tentsiorik__ez__dagoela__narratzen__den__horretan	EDU	Alegia	,	idazkeran	CONJ	PUNCT	NOUN	horretan	DET	short	dagoela	<NA>	<NA>	VERB	<NA>	<NA>	OUT-HEAD	end	<NA>	<NA>	<NA>	<NA>
-LRB-__edo__neuri__behintzat__ez__zait__iritsi__-RRB-	EDU	-LRB-	edo	neuri	PUNCT	CONJ	PRON	-RRB-	PUNCT	short	-LRB-	edo	iritsi	PUNCT	CONJ	VERB	OUT-HEAD	end	<NA>	<NA>	<NA>	<NA>
eta__,__hala__,__une__batzuetan__kontakizunari__estilo-ariketaren__traza__hartu__diot__,	EDU	eta	,	hala	CONJ	PUNCT	ADV	,	PUNCT	short	eta	hala	hartu	CONJ	ADV	VERB	IN-HEAD	end	<NA>	<NA>	<NA>	<NA>
estiloa__handiegi__etorriko__balitzaio__bezala__,	EDU	estiloa	handiegi	etorriko	NOUN	DET	VERB	,	PUNCT	short	etorriko	<NA>	<NA>	VERB	<NA>	<NA>	OUT-HEAD	end	<NA>	<NA>	<NA>	<NA>
gaina__hartuko__balio__bezala	EDU	gaina	hartuko	balio	NOUN	VERB	NOUN	bezala	ADV	veryshort	hartuko	bezala	<NA>	VERB	ADV	<NA>	OUT-HEAD	end	<NA>	<NA>	<NA>	<NA>
kontatu__nahi__den__istorioari__.	EDU	kontatu	nahi	den	VERB	NOUN	VERB	.	PUNCT	veryshort	istorioari	<NA>	<NA>	NOUN	<NA>	<NA>	OUT-HEAD	end	<NA>	<NA>	<NA>	<NA>
edonola__ere__,__ahots__berri__indartsu__eta__arras__pertsonala__ekarri__du__sarriugartek__euskarazko__nobelara__,__oso__kontuan__hartzekoa__inondik__ere__.	EDU	Edonola	ere	,	ADV	CONJ	PUNCT	.	PUNCT	long	ekarri	<NA>	<NA>	VERB	<NA>	<NA>	IN-HEAD	last	<NA>	<NA>	<NA>	<NA>

lege-testu__itzulietako__euskal__terminologiaren__hustuketarako__metodologia__.	EDU	Lege-testu	itzulietako	euskal	VERB	NOUN	NOUN	.	PUNCT	short	Lege-testu	<NA>	<NA>	VERB	<NA>	<NA>	IN-HEAD	first	<NA>	<NA>	<NA>	<NA>
alor__zehatz__bateko__corpus__osoan__erabili__den__euskarazko__terminologia__juridikoa__lokalizatu__eta__aztertzeko__metodologiaren__berri__eman__nahi__dugu__komunikazio__honetan__.	EDU	Alor	zehatz	bateko	NOUN	ADJ	NUM	.	PUNCT	long	lokalizatu	<NA>	<NA>	VERB	<NA>	<NA>	IN-HEAD	beginning	<NA>	<NA>	<NA>	<NA>
terminologiaren__ohiko__metodologiaz__at__,__hiru__oinetan__finkatu__dugu__gure__lana__:__baliabide__informatikoak__,__corpus-linguistika__eta__traduktologia__.	EDU	Terminologiaren	baliabide	ohiko	NOUN	NOUN	ADJ	:	PUNCT	long	baliabide	finkatu	<NA>	NOUN	VERB	<NA>	IN-HEAD	beginning	<NA>	<NA>	<NA>	<NA>
legeriak	EDU	<NA>	<NA>	<NA>	<NA>	<NA>	<NA>	Legeriak	NOUN	veryshort	Legeriak	<NA>	<NA>	NOUN	<NA>	<NA>	OUT-HEAD	beginning	<NA>	<NA>	<NA>	<NA>
-legea__dagoenez__zuzenbidearen__hastapenean-	EDU	-legea	dagoenez	zuzenbidearen	NOUN	VERB	NOUN	-	PUNCT	veryshort	dagoenez	<NA>	<NA>	VERB	<NA>	<NA>	OUT-HEAD	first-middle	<NA>	<NA>	<NA>	<NA>
zuzenbideko__terminologia__osoan__duen__garrantzian__oinarrituz__,	EDU	zuzenbideko	terminologia	osoan	NOUN	NOUN	ADJ	,	PUNCT	short	oinarrituz	<NA>	<NA>	VERB	<NA>	<NA>	OUT-HEAD	first-middle	<NA>	<NA>	<NA>	<NA>
eusko__legebiltzarreko__legegintza-produkzio__osoa__hartu__dugu__aztergai__.	EDU	Eusko	Legebiltzarreko	legegintza-produkzio	NOUN	NOUN	NOUN	.	PUNCT	short	hartu	<NA>	<NA>	VERB	<NA>	<NA>	IN-HEAD	first-middle	<NA>	<NA>	<NA>	<NA>
legeen__euskal__bertsioak__gaztelaniazko__jatorrizko__testuen__itzulpenak__direnez__,	EDU	Legeen	euskal	bertsioak	NOUN	NOUN	NOUN	,	PUNCT	short	direnez	<NA>	<NA>	VERB	<NA>	<NA>	OUT-HEAD	first-middle	<NA>	<NA>	<NA>	<NA>
erdal__testuez__baliatu__gara__,	EDU	erdal	testuez	baliatu	NOUN	NOUN	VERB	,	PUNCT	veryshort	baliatu	<NA>	<NA>	VERB	<NA>	<NA>	IN-HEAD	first-middle	<NA>	<NA>	<NA>	<NA>
gaztelaniazko__terminologia__juridikoa__aski__finkatua__eta__bildua__dagoelakoan__,	EDU	gaztelaniazko	terminologia	juridikoa	NOUN	NOUN	ADJ	,	PUNCT	short	finkatua	<NA>	<NA>	VERB	<NA>	<NA>	OUT-HEAD	second-middle	<NA>	<NA>	<NA>	<NA>
euskal__terminoak__bilatzeko__.	EDU	euskal	terminoak	bilatzeko	NOUN	ADJ	VERB	.	PUNCT	veryshort	bilatzeko	<NA>	<NA>	VERB	<NA>	<NA>	OUT-HEAD	second-middle	<NA>	<NA>	<NA>	<NA>
bi__hizkuntzetako__testu__guztiak__euskarri__informatikoan__eskuratu__ondoren__,	EDU	Bi	hizkuntzetako	testu	NUM	NOUN	NOUN	,	PUNCT	short	eskuratu	<NA>	<NA>	VERB	<NA>	<NA>	OUT-HEAD	second-middle	<NA>	<NA>	<NA>	<NA>
bi__bertsioen__alderatzeari__,__eta__paralelizatzeari__ekin__diogu__,	EDU	bi	bertsioen	alderatzeari	NUM	NOUN	VERB	,	PUNCT	short	alderatzeari	<NA>	<NA>	VERB	<NA>	<NA>	IN-HEAD	second-middle	<NA>	<NA>	<NA>	<NA>
eduki__bereko__testu-zatiak__zenbaki__bereko__paragrafoan__ager__daitezen__bietan__.	EDU	eduki	bereko	testu-zatiak	VERB	DET	NOUN	.	PUNCT	short	eduki	<NA>	<NA>	VERB	<NA>	<NA>	OUT-HEAD	second-middle	<NA>	<NA>	<NA>	<NA>
ondoren__aplikazio__berezi__baten__bidez__,__aldez__aurretik__prestaturiko__gaztelaniazko__zerrenda__bateko__termino__garrantzitsuenen__agerpenak__,__bere__testuinguru-paragrafo__osoarekin__,__eta__zenbaki__bereko__euskal__bertsioko__paragrafoarekin__,__lortu__ditugu__.	EDU	Ondoren	aplikazio	berezi	ADV	NOUN	ADJ	.	PUNCT	verylong	lortu	<NA>	<NA>	VERB	<NA>	<NA>	IN-HEAD	end	<NA>	<NA>	<NA>	<NA>
ondoren__,__euskarazko__paragrafoetan__,__erdal__terminoaren__eduki__baliokidea__daraman__segmentua__lokalizatu__dugu__,	EDU	Ondoren	,	euskarazko	ADV	PUNCT	NOUN	,	PUNCT	short	lokalizatu	<NA>	<NA>	VERB	<NA>	<NA>	IN-HEAD	end	<NA>	<NA>	<NA>	<NA>
eta__guztia__,__datu-base__erlazional__batera__eraman__.	EDU	eta	guztia	,	CONJ	DET	PUNCT	.	PUNCT	short	eta	guztia	eraman	CONJ	DET	VERB	OUT-HEAD	end	<NA>	<NA>	<NA>	<NA>
honela__,__jakin__ahal__izan__dugu__zein__diren__agertzen__eta__agertzen__ez__diren__terminoak__,__zuzenbideko__zein__alorretakoak__diren__,__zenbaterainoko__finkapen-maila__aurkitzen__den__euskal__termino__horietan__,__zein__den__gaztelaniazko__terminoen__euskal__segmentu__baliokideen__egitura__sintaktikoa__,	EDU	Honela	,	jakin	ADV	PUNCT	VERB	,	PUNCT	verylong	izan	euskal	termino	VERB	NOUN	ADV	OUT-HEAD	end	<NA>	<NA>	<NA>	<NA>
eta__oraindik__burutu__gabe__dagoen__azterketa__lexikologiko__baten__bidez__,__termino__horien__zenbait__alderdi__lexikogenetiko__aztertzeko__parada__dugu__.	EDU	eta	oraindik	burutu	CONJ	ADV	VERB	.	PUNCT	long	eta	oraindik	dugu	CONJ	ADV	VERB	IN-HEAD	last	<NA>	<NA>	<NA>	<NA>

xabaltx__/__xabaltx__/__maiatz__,__2009__oso__positiboa__lautadetako__haizea__igor__estankona__/__argia__,__2010-01-31	EDU	Xabaltx	/	Xabaltx	PROPN	PUNCT	PROPN	2010-01-31	NUM	long	Xabaltx	/	Xabaltx	PROPN	PUNCT	PROPN	OUT-HEAD	first	numb	<NA>	<NA>	date
sarako__idazleen__biltzarrera__maiatzekoek__uzta__beti__interesgarria__ekartzen__dute__.	EDU	Sarako	idazleen	biltzarrera	NOUN	NOUN	NOUN	.	PUNCT	short	ekartzen	<NA>	<NA>	VERB	<NA>	<NA>	IN-HEAD	beginning	<NA>	<NA>	<NA>	<NA>
2009ko__apirilean__xabaltx__zuraidarraren__letraz__osatutako__liburua__agertu__zen__aipatutako__elkartearen__eskutik__.	EDU	2009ko	apirilean	Xabaltx	NUM	NOUN	PROPN	.	PUNCT	short	agertu	<NA>	<NA>	VERB	<NA>	<NA>	IN-HEAD	beginning	numb	<NA>	<NA>	<NA>
poema__liburu__baten__antzera__irakurri__dugu__,	EDU	Poema	liburu	baten	NOUN	NOUN	NUM	,	PUNCT	short	irakurri	<NA>	<NA>	VERB	<NA>	<NA>	IN-HEAD	beginning	<NA>	<NA>	<NA>	<NA>
tributu__baten__moduan__ulertu__,	EDU	tributu	baten	moduan	NOUN	NUM	NOUN	,	PUNCT	veryshort	ulertu	<NA>	<NA>	VERB	<NA>	<NA>	OUT-HEAD	beginning	<NA>	<NA>	<NA>	<NA>
eta__musika__bera__bezala__gozatu__.	EDU	eta	musika	bera	CONJ	NOUN	DET	.	PUNCT	short	eta	gozatu	<NA>	CONJ	VERB	<NA>	OUT-HEAD	beginning	<NA>	<NA>	<NA>	<NA>
daukan__barne-erritmoagatik__izango__da__agian__.	EDU	Daukan	barne-erritmoagatik	izango	VERB	NOUN	VERB	.	PUNCT	short	Daukan	<NA>	<NA>	VERB	<NA>	<NA>	IN-HEAD	beginning	<NA>	<NA>	<NA>	<NA>
nafarroa__garaian__bizi__den__kantariaren__xabaltx__&__h2o__-LRB-__1994__,__autoekoiztua__-RRB-__,__zalantzak__-LRB-__1998__,__iz__-RRB-__,__gauerdi__pasa__eta__-LRB-__2001__,__agorila__-RRB-__,__sms__galduak__-LRB-__2005__,__gaztelupeko__hotsak__-RRB-__eta__cymeus__-LRB-__2009__,__agorila__-RRB-__diskoetako__letren__hustuketa__honetan__murgiltzea__abentura__polita__da__,	EDU	Nafarroa	H2O	garaian	PROPN	PROPN	NOUN	,	PUNCT	verylong	Xabaltx	&	pasa	PROPN	PUNCT	VERB	IN-HEAD	beginning	numb	<NA>	<NA>	date
nahiz__eta__piezetako__asko__,	EDU	nahiz	eta	piezetako	CONJ	CONJ	NOUN	,	PUNCT	veryshort	nahiz	<NA>	<NA>	CONJ	<NA>	<NA>	OUT-HEAD	beginning	<NA>	<NA>	<NA>	<NA>
normala__denez__,	EDU	normala	denez	<NA>	ADJ	VERB	<NA>	,	PUNCT	veryshort	normala	<NA>	<NA>	ADJ	<NA>	<NA>	OUT-HEAD	beginning	<NA>	<NA>	<NA>	<NA>
pobreak__izan	EDU	pobreak	<NA>	<NA>	NOUN	<NA>	<NA>	izan	VERB	veryshort	pobreak	izan	<NA>	NOUN	VERB	<NA>	OUT-HEAD	first-middle	<NA>	<NA>	<NA>	<NA>
irakurtzeko	EDU	<NA>	<NA>	<NA>	<NA>	<NA>	<NA>	irakurtzeko	VERB	veryshort	irakurtzeko	<NA>	<NA>	VERB	<NA>	<NA>	OUT-HEAD	first-middle	<NA>	<NA>	<NA>	<NA>
eta__egokiagoak__kantatzeko__.	EDU	eta	egokiagoak	kantatzeko	CONJ	ADJ	VERB	.	PUNCT	veryshort	eta	kantatzeko	<NA>	CONJ	VERB	<NA>	OUT-HEAD	first-middle	<NA>	<NA>	<NA>	<NA>
zu__gabe__,__eresia__,__izarren__bizia__,__satelita__,__zaldi__ibiltari__eta__halakoek__ez__dute__funtzionatzen__liburuan__,	EDU	Zu	gabe	,	PRON	ADV	PUNCT	,	PUNCT	long	funtzionatzen	<NA>	<NA>	VERB	<NA>	<NA>	OUT-HEAD	first-middle	<NA>	<NA>	<NA>	<NA>
baina__beste__batzuk__itzelak__dira__--__chico__mendez__,__arin__arin__,__mozarten__lacrimosa__--__.	EDU	baina	beste	batzuk	CONJ	DET	DET	.	PUNCT	long	baina	Chico	<NA>	CONJ	PROPN	<NA>	OUT-HEAD	first-middle	<NA>	<NA>	<NA>	<NA>
are__gehiago__:__itxuraz__xaloak__diren__letra__jakin__batzuetan__geratu__zait	EDU	Are	itxuraz	gehiago	NOUN	ADV	DET	zait	AUX	short	Are	geratu	<NA>	NOUN	VERB	<NA>	IN-HEAD	first-middle	<NA>	<NA>	<NA>	<NA>
iltzatuta	EDU	<NA>	<NA>	<NA>	<NA>	<NA>	<NA>	iltzatuta	VERB	veryshort	iltzatuta	<NA>	<NA>	VERB	<NA>	<NA>	OUT-HEAD	first-middle	<NA>	<NA>	<NA>	<NA>
gogoa__.	EDU	gogoa	<NA>	<NA>	NOUN	<NA>	<NA>	.	PUNCT	veryshort	gogoa	<NA>	<NA>	NOUN	<NA>	<NA>	OUT-HEAD	first-middle	<NA>	<NA>	<NA>	<NA>
belar__hoberena__da__adibide__on__bat__:	EDU	Belar	hoberena	da	NOUN	ADJ	VERB	:	PUNCT	short	Belar	<NA>	<NA>	NOUN	<NA>	<NA>	IN-HEAD	first-middle	<NA>	<NA>	<NA>	<NA>
zuzen__eta__garratz__hitz__egiten__du__xabaltxek__autoritarismoaren__kontra__.	EDU	zuzen	eta	garratz	ADJ	CONJ	ADJ	.	PUNCT	short	egiten	<NA>	<NA>	VERB	<NA>	<NA>	IN-HEAD	first-middle	<NA>	<NA>	<NA>	<NA>
hitzetako__asko__maila__poetiko__altuegikoak__ez__direla__jakin__arren__,	EDU	Hitzetako	asko	maila	NOUN	DET	NOUN	,	PUNCT	short	jakin	<NA>	<NA>	VERB	<NA>	<NA>	OUT-HEAD	second-middle	<NA>	<NA>	<NA>	<NA>
barrunta__daiteke__abestia__euren__baitan__,__musika__euren__eitean__.	EDU	barrunta	daiteke	abestia	VERB	AUX	NOUN	.	PUNCT	short	barrunta	<NA>	<NA>	VERB	<NA>	<NA>	IN-HEAD	second-middle	<NA>	<NA>	<NA>	<NA>
neil__youngekin__gertatzen__den__bezala	EDU	Neil	Youngekin	gertatzen	PROPN	PROPN	VERB	bezala	ADV	veryshort	bezala	<NA>	<NA>	ADV	<NA>	<NA>	OUT-HEAD	second-middle	<NA>	<NA>	<NA>	<NA>
--__ez__da__,__inondik__ere__,__konparagarri__--__,	EDU	-	-	ez	PUNCT	PUNCT	PART	,	PUNCT	short	-	-	ez	PUNCT	PUNCT	PART	OUT-HEAD	second-middle	<NA>	<NA>	<NA>	<NA>
letrak__goratu__egiten__du__kantua__.	EDU	letrak	goratu	egiten	NOUN	VERB	VERB	.	PUNCT	short	goratu	<NA>	<NA>	VERB	<NA>	<NA>	IN-HEAD	second-middle	<NA>	<NA>	<NA>	<NA>
hori__meritu__handikoa__da__,	EDU	Hori	meritu	handikoa	DET	NOUN	ADJ	,	PUNCT	veryshort	meritu	<NA>	<NA>	NOUN	<NA>	<NA>	IN-HEAD	second-middle	<NA>	<NA>	<NA>	<NA>
musikaltasuna__eta__esanahia__uztartu__behar__baitira__.	EDU	musikaltasuna	eta	esanahia	NOUN	CONJ	NOUN	.	PUNCT	short	baitira	<NA>	<NA>	VERB	<NA>	<NA>	OUT-HEAD	second-middle	<NA>	<NA>	<NA>	<NA>
arestian__aipatutako__horregatik__guztiagatik__atsegin__ditut__,__txarragoak__edo__hobeak__,	EDU	Arestian	aipatutako	horregatik	ADV	VERB	ADV	,	PUNCT	short	ditut	<NA>	<NA>	VERB	<NA>	<NA>	IN-HEAD	second-middle	<NA>	<NA>	<NA>	<NA>
inoren__letrekin__ez__dabiltzan__kantariak__.	EDU	inoren	letrekin	ez	PRON	NOUN	PART	.	PUNCT	short	dabiltzan	<NA>	<NA>	VERB	<NA>	<NA>	OUT-HEAD	second-middle	<NA>	<NA>	<NA>	<NA>
cohen__,__jim__morrison__,__dylan__,__víctor__jara__,__silvio__edo__moustaki__dira__batzuk__--__askorentzat__poesia__irakasle__--__,	EDU	Cohen	,	Jim	ADV	PUNCT	PROPN	,	PUNCT	long	irakasle	<NA>	<NA>	NOUN	<NA>	<NA>	OUT-HEAD	second-middle	<NA>	<NA>	<NA>	<NA>
baina__hurragokoak__eta__bikainak__dira__,__baita__,__juan__carlos__perez__,__niko__etxart__eta__anje__duhalde__.	EDU	baina	hurragokoak	eta	CONJ	ADJ	CONJ	.	PUNCT	long	baina	hurragokoak	eta	CONJ	ADJ	CONJ	IN-HEAD	end	<NA>	<NA>	<NA>	<NA>
xabaltx__azken__hauen__arrazakoa__da__,__eta__lou__reeden__senidea__:__idazle__moduan__ez__hain__poeta__,__poeta__moduan__ez__hain__idazle__...__musikari__,__finean__.	EDU	Xabaltx	idazle	azken	PROPN	NOUN	NUM	.	PUNCT	verylong	arrazakoa	poeta	<NA>	ADJ	NOUN	<NA>	IN-HEAD	end	<NA>	<NA>	<NA>	<NA>
xabaltxek__ekologiari__,__gizarte__arazoei__,__alaitasunari__eta__amodioari__kantatzen__dienean__,	EDU	Xabaltxek	ekologiari	,	PROPN	NOUN	PUNCT	,	PUNCT	short	dienean	<NA>	<NA>	NOUN	<NA>	<NA>	OUT-HEAD	end	<NA>	<NA>	<NA>	<NA>
beti__kantatzen__die__musikariaren__askatasun-senarekin__.	EDU	beti	kantatzen	die	ADV	VERB	AUX	.	PUNCT	short	kantatzen	<NA>	<NA>	VERB	<NA>	<NA>	IN-HEAD	end	<NA>	<NA>	<NA>	<NA>
azken__mohikanoaren__antzera__,__arean__bakartia__du__tonua__,__arean__iluna__,	EDU	Azken	mohikanoaren	antzera	NUM	NOUN	ADP	,	PUNCT	short	du	<NA>	<NA>	VERB	<NA>	<NA>	IN-HEAD	end	<NA>	<NA>	<NA>	<NA>
baina__era__berean__kultua__eta__erreferentziaz__betea__da__bere__idazkera__.	EDU	baina	era	berean	CONJ	NOUN	DET	.	PUNCT	short	baina	kultua	<NA>	CONJ	VERB	<NA>	OUT-HEAD	end	<NA>	<NA>	<NA>	<NA>
zabaltza__baserriko__semeak__asko__ikusi__du__bizitzan__,	EDU	Zabaltza	baserriko	semeak	ADJ	NOUN	NOUN	,	PUNCT	short	ikusi	<NA>	<NA>	VERB	<NA>	<NA>	IN-HEAD	end	<NA>	<NA>	<NA>	<NA>
eta__liburu__honetan__ageri__da__garbi__zelan__fenixa__behin__eta__berriro__itzultzen__den__errautsetatik__.	EDU	eta	liburu	honetan	CONJ	NOUN	DET	.	PUNCT	short	eta	errautsetatik	<NA>	CONJ	NOUN	<NA>	OUT-HEAD	end	<NA>	<NA>	<NA>	<NA>
liburu__sano__gomendagarria__da__,	EDU	Liburu	sano	gomendagarria	PROPN	NOUN	ADJ	,	PUNCT	veryshort	sano	<NA>	<NA>	NOUN	<NA>	<NA>	OUT-HEAD	end	<NA>	<NA>	<NA>	<NA>
zuzena__delako__.	EDU	zuzena	delako	<NA>	ADJ	VERB	<NA>	.	PUNCT	veryshort	zuzena	<NA>	<NA>	ADJ	<NA>	<NA>	IN-HEAD	end	<NA>	<NA>	<NA>	<NA>
lore__ximelduen__enpalagua__larregizkoa__denean__irakurtzeko__modukoa__.	EDU	Lore	ximelduen	enpalagua	NOUN	VERB	NOUN	.	PUNCT	short	modukoa	<NA>	<NA>	NOUN	<NA>	<NA>	OUT-HEAD	last	<NA>	<NA>	<NA>	<NA>

informatika__juridikoko__sistema__argentinarreko__thesaurusetik__terminologia__juridikora__ekarpenak__.	EDU	Informatika	juridikoko	sistema	NOUN	ADJ	NOUN	.	PUNCT	short	terminologia	<NA>	<NA>	NOUN	<NA>	<NA>	OUT-HEAD	first	<NA>	<NA>	<NA>	<NA>
informatika__zuzenbidearen__esparrura__aplikatzean__,	EDU	Informatika	zuzenbidearen	esparrura	NUM	NOUN	NOUN	,	PUNCT	veryshort	aplikatzean	<NA>	<NA>	VERB	<NA>	<NA>	OUT-HEAD	beginning	<NA>	<NA>	<NA>	<NA>
informatika__juridikoaz__hitz__egiten__da__.	EDU	informatika	juridikoaz	hitz	NOUN	ADJ	DET	.	PUNCT	short	egiten	<NA>	<NA>	VERB	<NA>	<NA>	IN-HEAD	first-middle	<NA>	<NA>	<NA>	<NA>
agirietako__informatika__juridikoa__datu-base__juridikoen__inguruan__dago__oinarrituta__.	EDU	Agirietako	informatika	juridikoa	NOUN	NOUN	ADJ	.	PUNCT	short	dago	<NA>	<NA>	VERB	<NA>	<NA>	IN-HEAD	first-middle	<NA>	<NA>	<NA>	<NA>
datu-base__horietan__hiru__agiri-mota__aurkitzen__dira__batez__ere__,__zuzenbidearen__hiru__iturri__nagusien__arabera__,__hain__zuzen__:__jurisprudentzia__,__legegintza__eta__autoreen__doktrina__.	EDU	Datu-base	jurisprudentzia	horietan	NOUN	NOUN	DET	:	PUNCT	long	jurisprudentzia	aurkitzen	<NA>	NOUN	VERB	<NA>	IN-HEAD	second-middle	<NA>	<NA>	<NA>	<NA>
datu-base__batzuk__publikoak__eta__beste__batzuk__pribatuak__dira__.	EDU	Datu-base	batzuk	publikoak	NOUN	DET	ADJ	.	PUNCT	short	pribatuak	<NA>	<NA>	VERB	<NA>	<NA>	IN-HEAD	second-middle	<NA>	<NA>	<NA>	<NA>
gure__herrialdean__,__datubase__publiko__bakarra__informatika__juridikoko__sistema__argentinarra__da__,__estatuko__justizi__ministerioaren__mende__dagoena__.	EDU	Gure	herrialdean	,	PRON	NOUN	PUNCT	.	PUNCT	long	ARGENTINARRA	<NA>	<NA>	NOUN	<NA>	<NA>	IN-HEAD	end	<NA>	<NA>	<NA>	<NA>
gaur__egun__,__base__horrek__510.000__agiri__baino__gehiago__ditu__.	EDU	Gaur	egun	,	ADV	ADV	PUNCT	.	PUNCT	short	ditu	<NA>	<NA>	VERB	<NA>	<NA>	IN-HEAD	end	numb	<NA>	<NA>	<NA>
lantxo__honetan__,__sistemaren__erabiltzaileak__eskura__duen__baliabide__linguistiko__baten__gainean__jardungo__dugu__batez__ere__:__thesaurus__juridikoa__,__informazioa__gaika__berreskuratzeko__aukera__ematen__duena__.	EDU	Lantxo	thesaurus	honetan	NOUN	NOUN	DET	:	PUNCT	verylong	ematen	jardungo	<NA>	VERB	VERB	<NA>	IN-HEAD	last	<NA>	<NA>	<NA>	<NA>

whipple__gaixotasunaren__ezohiko__aztarnak__:__lau__kasuren__ikerketa__.	EDU	Whipple	Lau	gaixotasunaren	NOUN	NUM	ADJ	:	PUNCT	short	ikerketa	aztarnak	<NA>	NOUN	NOUN	<NA>	IN-HEAD	first	<NA>	<NA>	<NA>	<NA>
whipple__-LRB-__ew__-RRB-__gaixotasunak__hesteei__eragiten__die__bereziki__.	EDU	Whipple	-LRB-	EW	PROPN	PUNCT	PROPN	.	PUNCT	short	eragiten	<NA>	<NA>	VERB	<NA>	<NA>	IN-HEAD	first-middle	<NA>	<NA>	<NA>	<NA>
gehientsuenetan__,__diagnostikoaren__oinarrian__gaizki__xurgatzea__eta__sindrome__toxikoa__daude__.	EDU	Gehientsuenetan	,	diagnostikoaren	ADV	PUNCT	NOUN	.	PUNCT	short	xurgatzea	<NA>	<NA>	VERB	<NA>	<NA>	IN-HEAD	second-middle	<NA>	<NA>	<NA>	<NA>
ew__gaitza__duten__lau__gaixo__ditugu__,__oso__ohikoak__ez__diren__ezaugarri__edo__agerpenekin__:__eztul__lehor__etengabea__,__abdomeneko__mina__eta__idorreria__,__hesteen__azpibuxadura__eta__sintoma__neuropsikiatrikoak__.	EDU	EW	eztul	gaitza	NOUN	NOUN	ADJ	.	PUNCT	verylong	eztul	ditugu	<NA>	NOUN	VERB	<NA>	IN-HEAD	second-middle	<NA>	<NA>	<NA>	<NA>
agerpen__kliniko__horiek__aztertu__,	EDU	Agerpen	kliniko	horiek	NOUN	ADJ	DET	,	PUNCT	veryshort	aztertu	<NA>	<NA>	VERB	<NA>	<NA>	IN-HEAD	end	<NA>	<NA>	<NA>	<NA>
eta__gaur__egunera__arte__deskribatu__diren__adibideetan__daukaten__maiztasuna__alderatu__da__.	EDU	eta	gaur	egunera	CONJ	ADV	NOUN	.	PUNCT	short	eta	alderatu	<NA>	CONJ	VERB	<NA>	OUT-HEAD	last	<NA>	<NA>	<NA>	<NA>

funtzio__askotako__sistemak__,__ingurumenean__hainbat__aplikazio__dituztenak__:__material__mikorporotsuak__eta__sofc__pilak__.	EDU	Funtzio	material	askotako	NOUN	NOUN	DET	:	PUNCT	short	material	dituztenak	<NA>	NOUN	VERB	<NA>	IN-HEAD	first	<NA>	<NA>	<NA>	<NA>
bada__zientziaren__esparru__bat__,__bereziki__egokia__,	EDU	Bada	zientziaren	esparru	CONJ	NOUN	NOUN	,	PUNCT	short	esparru	<NA>	<NA>	NOUN	<NA>	<NA>	OUT-HEAD	beginning	<NA>	<NA>	<NA>	<NA>
material__berrien__garapena__sustatzen__duten__diziplina__arteko__interakzioak__aztertzeko__:	EDU	material	berrien	garapena	NOUN	ADJ	NOUN	:	PUNCT	short	aztertzeko	<NA>	<NA>	VERB	<NA>	<NA>	IN-HEAD	beginning	<NA>	<NA>	<NA>	<NA>
materialak__izeneko__esparrua__,__hain__zuzen__.	EDU	Materialak	izeneko	esparrua	PROPN	NOUN	NOUN	.	PUNCT	short	Materialak	<NA>	<NA>	PROPN	<NA>	<NA>	OUT-HEAD	beginning	<NA>	<NA>	<NA>	<NA>
azterketa__horien__funtsa__,__konposizioa__,__egitura__,__propietateak__eta__konposatuak__bukaerako__produktuan__izango__duten__aplikazioa__zehaztea__da__.	EDU	Azterketa	horien	funtsa	NOUN	DET	NOUN	.	PUNCT	long	da	<NA>	<NA>	VERB	<NA>	<NA>	OUT-HEAD	beginning	<NA>	<NA>	<NA>	<NA>
izan__ere__,__gure__talde__honen__erronka__nagusia__ikertutako__materialok__etorkizunean__izan__litzateketen__aplikazioak__zehaztea__da__.	EDU	Izan	ere	,	VERB	CONJ	PUNCT	.	PUNCT	long	da	<NA>	<NA>	VERB	<NA>	<NA>	OUT-HEAD	beginning	<NA>	<NA>	<NA>	<NA>
gure__azterketek__era__askotakoak__dira__:__hasi__fosfato__,__fosfito__,__vanadato__,__selenito__eta__arseniatoetatik__eta__industriarako__bereziki__interesgarriak__izan__litezkeen__aplikazio__magnetikoak__,__eroaleak__,__katalitikoak__,__magnetoerresistiboak__edo__elektrokimikoak__izan__ditzaketen__oxido__mistoen__mikroegituren__,__morfologiaren__eta__ezaugarri__termomekanikoen__azterketaraino__.	EDU	Gure	hasi	azterketek	PRON	VERB	NOUN	.	PUNCT	verylong	askotakoak	mikroegituren	<NA>	VERB	NOUN	<NA>	IN-HEAD	first-middle	<NA>	<NA>	<NA>	<NA>
horrela__,__bada__,__talde__honen__aztergaiak__bi__multzotan__sailka__ditzakegu__:	EDU	Horrela	,	bada	ADV	PUNCT	CONJ	:	PUNCT	short	sailka	<NA>	<NA>	VERB	<NA>	<NA>	IN-HEAD	first-middle	<NA>	<NA>	<NA>	<NA>
1.__solido__mikroporotsuak__,__hau__da__,__beren__konposizioan__eraikin__ezorganikoari__lotuta__-LRB-__hibridoak__-RRB-__edo__ez__lotuta__-LRB-__template__-RRB-__dauden__molekula__organikoak__dituztenak__,__barne-porositatea__edo__ehundura-porositatea__duten__materialen__balizko__aitzindariak__izan__daitezke__.	EDU	1.	Solido	mikroporotsuak	NUM	NOUN	ADJ	.	PUNCT	verylong	izan	<NA>	<NA>	VERB	<NA>	<NA>	OUT-HEAD	first-middle	numb	<NA>	<NA>	<NA>
fase__horiek__,__zeolitak__,__eta__oro__har__,__zeotipoak__bezala__erabil__daitezke__:__gasen__banaketa__industri-prozesuetan__,	EDU	Fase	gasen	horiek	NOUN	NOUN	DET	:	PUNCT	long	erabil	<NA>	<NA>	VERB	<NA>	<NA>	IN-HEAD	first-middle	<NA>	<NA>	<NA>	<NA>
molekulak__hautatzeko	EDU	molekulak	<NA>	<NA>	NOUN	<NA>	<NA>	hautatzeko	VERB	veryshort	hautatzeko	<NA>	<NA>	VERB	<NA>	<NA>	IN-HEAD	first-middle	<NA>	<NA>	<NA>	<NA>
edota__prozesu__katalitikoetan__.	EDU	edota	prozesu	katalitikoetan	CONJ	NOUN	NOUN	.	PUNCT	veryshort	edota	<NA>	<NA>	CONJ	<NA>	<NA>	OUT-HEAD	first-middle	<NA>	<NA>	<NA>	<NA>
halaber__,__solido__mikroporotsu__horien__egituretan__protonatuak__dauden__diamina__organikoen__ordez__,__li+__edo__na+__bezalako__katioi__alkalino__txikiak__gehitzeak__eroaletasun__ionikoen__fenomenoa__errazten__du__.	EDU	Halaber	,	solido	CONJ	PUNCT	NOUN	.	PUNCT	verylong	errazten	<NA>	<NA>	VERB	<NA>	<NA>	IN-HEAD	first-middle	<NA>	<NA>	<NA>	<NA>
horrela__,__bada__,__materialok__,__aurrez__,__energia__eraginkor__,__berriztagarri__eta__garbiaren__eremura__bidera__daitezke__.	EDU	Horrela	,	bada	ADV	PUNCT	CONJ	.	PUNCT	long	bidera	<NA>	<NA>	VERB	<NA>	<NA>	IN-HEAD	second-middle	<NA>	<NA>	<NA>	<NA>
2.__azken__urteotan__oxido__solidozko__erregai__zelulen__-LRB-__so__fc__-RRB-__teknologiak__aurrerapen__handia__bizi__izan__du__energia__garbia__sortzeko__sistema__legez__.	EDU	2.	Azken	urteotan	NUM	NUM	NOUN	.	PUNCT	long	izan	<NA>	<NA>	VERB	<NA>	<NA>	IN-HEAD	second-middle	numb	<NA>	<NA>	<NA>
testuinguru__horretan__,__ikerketa__talde__honen__jarduerak__ardatz__bi__hauek__ditu__nagusi__:__batetik__,__beren__ezaugarri__elektrokimikoak__hobetze__aldera__,__material__berriak__sintetizatzea__;__bestetik__,	EDU	Testuinguru	batetik	horretan	NOUN	NUM	DET	,	PUNCT	verylong	ditu	sintetizatzea	bestetik	VERB	VERB	NOUN	IN-HEAD	second-middle	<NA>	<NA>	<NA>	<NA>
elektrodo__berriak__diseinatzeko__asmoz__,	EDU	elektrodo	berriak	diseinatzeko	NOUN	ADJ	VERB	,	PUNCT	veryshort	asmoz	<NA>	<NA>	NOUN	<NA>	<NA>	OUT-HEAD	second-middle	<NA>	<NA>	<NA>	<NA>
erregai__zelulen__portaera__elektrokimikoa__eta__zelula__osatzen__duten__materialen__karakterizazioa__aztertzea__.	EDU	erregai	zelulen	portaera	NOUN	ADJ	NOUN	.	PUNCT	short	aztertzea	<NA>	<NA>	VERB	<NA>	<NA>	OUT-HEAD	second-middle	<NA>	<NA>	<NA>	<NA>
epe__luzera__planteatu__diren__helburuak__eta__lan-ildoa__,__besteak__beste__,__honexetara__bideratu__dira__:	EDU	Epe	luzera	planteatu	NOUN	ADJ	VERB	:	PUNCT	short	bideratu	<NA>	<NA>	VERB	<NA>	<NA>	IN-HEAD	second-middle	<NA>	<NA>	<NA>	<NA>
teknologia__honetan__baliatzen__diren__materialen__kostua__gutxitzera__,	EDU	teknologia	honetan	baliatzen	NOUN	DET	VERB	,	PUNCT	short	gutxitzera	<NA>	<NA>	VERB	<NA>	<NA>	OUT-HEAD	second-middle	<NA>	<NA>	<NA>	<NA>
tenperatura__baxuagoetan__lan__egitea__ahalbidetzen__duten__materialak__aztertzera	EDU	tenperatura	baxuagoetan	lan	NOUN	ADV	NOUN	aztertzera	VERB	short	aztertzera	<NA>	<NA>	VERB	<NA>	<NA>	OUT-HEAD	end	<NA>	<NA>	<NA>	<NA>
eta__,__azkenik__,__lortutakoen__iraunkortasuna__handitzera__,	EDU	eta	,	azkenik	CONJ	PUNCT	ADV	,	PUNCT	short	eta	azkenik	handitzera	CONJ	ADV	VERB	OUT-HEAD	end	<NA>	<NA>	<NA>	<NA>
hots__,__teknologia__honekin__batera__sortzen__diren__arazoak__murriztera__;	EDU	hots	,	teknologia	CONJ	PUNCT	NOUN	;	PUNCT	short	hots	murriztera	<NA>	CONJ	VERB	<NA>	OUT-HEAD	end	<NA>	<NA>	<NA>	<NA>
izan__ere__,__gerora__,__teknologia__hau__errazago__merkaturatu__ahal__izatea__ekarriko__du__horrek__.	EDU	izan	ere	,	VERB	CONJ	PUNCT	.	PUNCT	short	izan	ekarriko	<NA>	VERB	VERB	<NA>	IN-HEAD	end	<NA>	<NA>	<NA>	<NA>
gure__ikerketa-taldeak__-LRB-__imacr__is/makrisi__-RRB-__hainbat__unibertsitate__-LRB-__uc__,__uab__,__ull__-RRB-__,__teknologia__zentro__-LRB-__ikerlan__,__cidetec__-RRB-__eta__instituturekin__-LRB-__cs__ic__,__madril__eta__bartzelona__-RRB-__ditu__harremanak__;	EDU	Gure	ikerketa-taldeak	-LRB-	PRON	NOUN	PUNCT	;	PUNCT	verylong	ditu	<NA>	<NA>	VERB	<NA>	<NA>	IN-HEAD	end	<NA>	<NA>	<NA>	<NA>
hartara__,__ikerketa__zientifiko-teknologikoak__areagotzeko__bideaz__gain__,	EDU	hartara	,	ikerketa	DET	PUNCT	NOUN	,	PUNCT	short	hartara	gain	<NA>	DET	ADP	<NA>	OUT-HEAD	end	<NA>	<NA>	<NA>	<NA>
ikerketa-gaitasun__handia__eta__teknologia__berriak__garatzeko__modua__ere__eskaintzen__du__.	EDU	ikerketa-gaitasun	handia	eta	NOUN	ADJ	CONJ	.	PUNCT	short	eskaintzen	<NA>	<NA>	VERB	<NA>	<NA>	OUT-HEAD	last	<NA>	<NA>	<NA>	<NA>

