word pos prefw1 prefw2 prefw3 prefp1 prefp2 prefp3 suffw1 suffp1 len headw1 headw2 headw3 headp1 headp2 headp3 head position numb perc money date
euskarak__,__katalanak__eta__gaztelaniak__atzizki__eta__aurrizkien__bidez__gauzatzen__dituzten__eratorpen-bideen__arteko__erkaketa__:__ondorio__lexikografikoak__.	EDU	Euskarak	ondorio	,	PROPN	NOUN	PUNCT	:	PUNCT	long	ondorio	gauzatzen	<NA>	NOUN	VERB	<NA>	IN-HEAD	first	<NA>	<NA>	<NA>	<NA>
hitzaldi__honek__azken__hiru__urteotan__lau__unibertsitate__hauen__taldeek__egindako__ikerkuntzaren__ondorioetako__batzuk__azaltzeko__helburua__izango__luke__.	EDU	Hitzaldi	honek	azken	NOUN	DET	NUM	.	PUNCT	long	izango	<NA>	<NA>	VERB	<NA>	<NA>	IN-HEAD	beginning	<NA>	<NA>	<NA>	<NA>
lan__hori__,__madrilgo__hezkuntza__ministeritzak__diruz__babesturiko__configuración__morfológica__y__estructura__argumental__:__léxico__y__diccionario__izeneko__proiektuaren__barruan__egin__da__,__ikuspuntu__hirukoitz__baten__barruan__.	EDU	Lan	léxico	hori	NOUN	NOUN	DET	.	PUNCT	verylong	egin	estructura	<NA>	VERB	NOUN	<NA>	IN-HEAD	beginning	<NA>	<NA>	<NA>	<NA>
lehenik__,__atzizki__eta__aurrizkien__bidezko__eratorpen-prozesuak__aztertu__dira__hiru__hizkuntzetan__,	EDU	Lehenik	,	atzizki	ADV	PUNCT	ADV	,	PUNCT	short	aztertu	<NA>	<NA>	VERB	<NA>	<NA>	OUT-HEAD	beginning	<NA>	<NA>	<NA>	<NA>
bereziki__eratorpen-oinarri__modura__aditza__dutenak__edo__eratorri__modura__aditza__ematen__dutenak__arakatuz__;	EDU	bereziki	eratorpen-oinarri	modura	ADV	VERB	NOUN	;	PUNCT	short	dutenak	edo	ematen	VERB	CONJ	VERB	OUT-HEAD	beginning	<NA>	<NA>	<NA>	<NA>
ondorioz__,__bi__desberdintasun__nagusi__aurkitu__dira__:__euskararen__barruan__atzizki__eta__aurrizkien__bidezko__eratorpenen__arteko__,__eta__euskal__eratorrien__eta__eratorri__erromanikoen__artekoa__.	EDU	euskararen	barruan	atzizki	NOUN	ADP	NOUN	:	PUNCT	long	aurkitu	<NA>	<NA>	VERB	<NA>	<NA>	IN-HEAD	beginning	<NA>	<NA>	<NA>	<NA>
bigarrenik__,__bi__desberdintasun__horietarako__azalpen__teoriko__bat__bilatu__eta__aurkitu__da__.	EDU	Bigarrenik	,	bi	ADV	PUNCT	NUM	.	PUNCT	short	bilatu	<NA>	<NA>	VERB	<NA>	<NA>	IN-HEAD	beginning	<NA>	<NA>	<NA>	<NA>
hirugarrenik__,__azalpen__teoriko__horrek__lexikogintzan__eman__dezakeen__laguntza__finkatzen__saiatu__gara__.	EDU	Hirugarrenik	,	azalpen	ADV	PUNCT	NOUN	.	PUNCT	short	saiatu	<NA>	<NA>	VERB	<NA>	<NA>	IN-HEAD	beginning	<NA>	<NA>	<NA>	<NA>
komunikazio__honek__,__azalpen__teorikoa__eta__ondorio__lexikografikoak__laburbilduko__lituzke__batez__ere__.	EDU	Komunikazio	honek	,	NOUN	DET	PUNCT	.	PUNCT	short	laburbilduko	<NA>	<NA>	VERB	<NA>	<NA>	IN-HEAD	beginning	<NA>	<NA>	<NA>	<NA>
edozein__azalpen__teorikok__argitu__behar__dituen__bi__desberdintasunak__,__zehazkiago__,__hauexek__dira__:	EDU	Edozein	azalpen	teorikok	DET	NOUN	NOUN	:	PUNCT	short	dituen	<NA>	<NA>	VERB	<NA>	<NA>	IN-HEAD	first-middle	<NA>	<NA>	<NA>	<NA>
a__-RRB-__euskarak__atzizki__ugari__baditu__ere__,	EDU	a	-RRB-	euskarak	NOUN	PUNCT	NOUN	,	PUNCT	short	a	<NA>	<NA>	NOUN	<NA>	<NA>	OUT-HEAD	first-middle	<NA>	<NA>	<NA>	<NA>
oso__aurrizki__gutxi__dauka__,	EDU	oso	aurrizki	gutxi	ADV	NOUN	DET	,	PUNCT	veryshort	dauka	<NA>	<NA>	VERB	<NA>	<NA>	IN-HEAD	first-middle	<NA>	<NA>	<NA>	<NA>
eta__b__-RRB-__desoreka__hori__ez__dago__inola__ere__hizkuntza__erromanikoetan__.	EDU	eta	b	-RRB-	CONJ	NOUN	PUNCT	.	PUNCT	short	eta	dago	<NA>	CONJ	VERB	<NA>	OUT-HEAD	first-middle	<NA>	<NA>	<NA>	<NA>
gure__hipotesiak__,__euskararen__eta__hizkuntza__erromanikoen__ezaugarri__sintaktiko__bat__morfologiaraino__estrapolatuko__du__:	EDU	Gure	hipotesiak	,	PRON	NOUN	PUNCT	:	PUNCT	short	estrapolatuko	<NA>	<NA>	VERB	<NA>	<NA>	IN-HEAD	first-middle	<NA>	<NA>	<NA>	<NA>
eratorpenean__ere__euskarak__egituraren__burua__edo__gunean__eskuinaldean__jartzen__du__,__eta__hizkuntza__erromanikoek__ezkerraldean__.	EDU	eratorpenean	ere	euskarak	NOUN	CONJ	NOUN	.	PUNCT	long	jartzen	<NA>	<NA>	VERB	<NA>	<NA>	IN-HEAD	first-middle	<NA>	<NA>	<NA>	<NA>
hau__hobeto__azaltzeko__,	EDU	Hau	hobeto	azaltzeko	DET	ADV	VERB	,	PUNCT	veryshort	azaltzeko	<NA>	<NA>	VERB	<NA>	<NA>	OUT-HEAD	first-middle	<NA>	<NA>	<NA>	<NA>
kontutan__hartu__behar__da__hizkuntza__erromanikoen__aurrizkiek__bi__eratara__jokatzen__dutela__:	EDU	kontutan	hartu	behar	NOUN	VERB	NOUN	:	PUNCT	short	da	<NA>	<NA>	VERB	<NA>	<NA>	IN-HEAD	first-middle	<NA>	<NA>	<NA>	<NA>
buru__baten__modifikatzaile__modura__jokatzen__dutenak__,__buru__horren__ezkerraldean__ager__daitezke__-LRB-__refer__/__rehacer__,__desfer__/__deshacer__,__predir__/__predecir__-RRB-__,	EDU	buru	baten	modifikatzaile	NOUN	NUM	NOUN	,	PUNCT	verylong	jokatzen	<NA>	<NA>	VERB	<NA>	<NA>	OUT-HEAD	first-middle	<NA>	<NA>	<NA>	<NA>
eta__buru__modura__jokatzen__dutenak__ere__,__lehenengo__gunean__kokatzen__dira__,	EDU	eta	buru	modura	CONJ	NOUN	ADP	,	PUNCT	short	eta	jokatzen	kokatzen	CONJ	VERB	VERB	IN-HEAD	first-middle	<NA>	<NA>	<NA>	<NA>
osagarria__eskuinaldean__hartzen__baitute__-LRB-__eslomar-se__/__desplomarse__,__desfullar__/__deshojar__-RRB-__.	EDU	osagarria	eskuinaldean	hartzen	NOUN	NOUN	VERB	.	PUNCT	short	hartzen	-LRB-	eslomar-se	VERB	PUNCT	ADV	OUT-HEAD	second-middle	<NA>	<NA>	<NA>	<NA>
lehenengo__kasuan__,__aurrizkiak__buruaren__zehaztasun__bat__adierazten__du	EDU	Lehenengo	kasuan	,	NUM	NOUN	PUNCT	du	AUX	short	adierazten	<NA>	<NA>	VERB	<NA>	<NA>	OUT-HEAD	second-middle	<NA>	<NA>	<NA>	<NA>
-LRB-__predecir__eratorria__,__decir__oinarriburuaren__zehaztasun__bat__da__:__aurretik__esan__,__baina__esan__,__azken__finean__-RRB-__;	EDU	aurretik	esan	,	NOUN	VERB	PUNCT	:	PUNCT	long	esan	-LRB-	predecir	VERB	PUNCT	NOUN	OUT-HEAD	second-middle	<NA>	<NA>	<NA>	<NA>
bigarren__kasuan__,__aurrizkia__bera__da__burua__,	EDU	bigarren	kasuan	,	NUM	NOUN	PUNCT	,	PUNCT	short	kasuan	burua	<NA>	NOUN	NOUN	<NA>	OUT-HEAD	second-middle	<NA>	<NA>	<NA>	<NA>
osagarria__eratorpen-oinarria__delarik__;	EDU	osagarria	eratorpen-oinarria	delarik	NOUN	ADJ	VERB	;	PUNCT	veryshort	delarik	<NA>	<NA>	VERB	<NA>	<NA>	IN-HEAD	second-middle	<NA>	<NA>	<NA>	<NA>
izan__ere__,__prehistoria__ez__da__historia__oinarri-osagarriaren__zehaztasun__bat__,__oinarria__-LRB-__historia__-RRB-__ez__den__bestelako__gauza__bat__baizik__-RRB-__.	EDU	izan	ere	,	VERB	CONJ	PUNCT	.	PUNCT	long	izan	baizik	-RRB-	VERB	CONJ	PUNCT	OUT-HEAD	second-middle	<NA>	<NA>	<NA>	<NA>
euskarak__bere__aldetik__,__lehenengo__eredua__baino__ez__dauka__eskuragarri__,__bi__ikuspegitatik__egiazta__daitekeenaren__arabera__:	EDU	Euskarak	bere	aldetik	NOUN	DET	ADP	:	PUNCT	long	dauka	<NA>	<NA>	VERB	<NA>	<NA>	IN-HEAD	second-middle	<NA>	<NA>	<NA>	<NA>
lehenik__,__erromantikoetan__aurreko__era__bietara__jokatzen__duen__des-__atzizki__mailegatuak__,__desegin__eratorrian__,__egin__oinarri-buruaren__modifikatzaile__modura__jokatzen__du	EDU	Lehenik	,	erromantikoetan	ADV	PUNCT	ADV	du	AUX	long	jokatzen	<NA>	<NA>	VERB	<NA>	<NA>	OUT-HEAD	second-middle	<NA>	<NA>	<NA>	<NA>
aurrean__kokatuz	EDU	aurrean	<NA>	<NA>	NOUN	<NA>	<NA>	kokatuz	VERB	veryshort	kokatuz	<NA>	<NA>	VERB	<NA>	<NA>	OUT-HEAD	second-middle	<NA>	<NA>	<NA>	<NA>
-LRB-__egitearen__alderantzizkoa__-RRB-__,	EDU	-LRB-	egitearen	alderantzizkoa	PUNCT	VERB	NOUN	,	PUNCT	veryshort	-LRB-	alderantzizkoa	-RRB-	PUNCT	NOUN	PUNCT	OUT-HEAD	second-middle	<NA>	<NA>	<NA>	<NA>
baina__aurrizki-osagarria/oinarriburua__eredua__aurkitu__nahi__dugunean__-LRB-__deshojar__-RRB-__,	EDU	baina	aurrizki-osagarria	/oinarriburua	CONJ	ADJ	NOUN	,	PUNCT	short	baina	aurkitu	-RRB-	CONJ	VERB	PUNCT	OUT-HEAD	end	<NA>	<NA>	<NA>	<NA>
desostatu__gaizki__eginda__dagoela__beha__daiteke__nonbait__;	EDU	desostatu	gaizki	eginda	VERB	ADV	VERB	;	PUNCT	short	beha	<NA>	<NA>	NOUN	<NA>	<NA>	OUT-HEAD	end	<NA>	<NA>	<NA>	<NA>
ber-/bir-__'re-__'__eta__ez-__'in-/des-__'__aurrizkiek__ere__,__horrelaxe__jokatzen__dute__.	EDU	ber-/bir-	're	-	PUNCT	ADV	PUNCT	.	PUNCT	long	jokatzen	<NA>	<NA>	VERB	<NA>	<NA>	IN-HEAD	end	<NA>	<NA>	<NA>	<NA>
ondorio__lexikografikoei__begira__,__lehenik__desostatu__bezalakoak__egiteko__eragozpenak__azpimarratuko__genituzke__hitzaldi__honetan__.	EDU	Ondorio	lexikografikoei	begira	NOUN	NOUN	ADP	.	PUNCT	short	azpimarratuko	<NA>	<NA>	VERB	<NA>	<NA>	IN-HEAD	end	<NA>	<NA>	<NA>	<NA>
bigarrenik__,__agerian__utziko__genuke__hizkuntza__erromanikoen__-LRB-__eta__ingelesen__-RRB-__aurrizki-burua/oinarri-osagarriaren__euskal__ordaina__oinarriosagarria/__atzizki-burua__dela__zuzen-zuzenean__.	EDU	Bigarrenik	,	agerian	ADV	PUNCT	ADV	.	PUNCT	long	utziko	<NA>	<NA>	VERB	<NA>	<NA>	IN-HEAD	end	<NA>	<NA>	<NA>	<NA>
honek__laguntza__paregabea__emango__du__gaurko__lexikogintzan__:	EDU	Honek	laguntza	paregabea	DET	NOUN	ADJ	:	PUNCT	short	emango	<NA>	<NA>	VERB	<NA>	<NA>	IN-HEAD	end	<NA>	<NA>	<NA>	<NA>
des1__hoja2__r__?__hosto2__gabe1__tu__bezalako__saioetatik__haruntzago__,__kontutan__hartu__beharko__dugu__hostoak2__galdu/kendu1__bezalako__aukera__,	EDU	des1	hosto2	hoja2	NUM	NUM	NUM	,	PUNCT	long	r	beharko	hostoak2	NOUN	VERB	NUM	IN-HEAD	end	numb	<NA>	<NA>	<NA>
baina__bereziki__,__pozoin-du__'envenenar__'__,__bigun-du__'re-blandecerse__'__,__lerro-ka-tu__'a-linear__'__,__irin-ez-ta-tu__'en-harinar__'__,__lur-reratu__'a-terrizar__'__direlako__``__jauziak__''__estandartzat__hartu__beharko__dira__,	EDU	baina	bereziki	,	CONJ	ADV	PUNCT	,	PUNCT	verylong	baina	pozoin-du	beharko	CONJ	NOUN	VERB	OUT-HEAD	end	<NA>	<NA>	<NA>	<NA>
a-__,__des-__,__en-__,__es-__,__in-__edo__re-__bezalako__aurrizkien__ordainak__aurkitzerakoan	EDU	a	-	,	NOUN	PUNCT	PUNCT	aurkitzerakoan	VERB	long	en	re	-	NOUN	PRON	PUNCT	OUT-HEAD	end	<NA>	<NA>	<NA>	<NA>
bide__emankorrak__eriden__nahi__baditugu__.	EDU	bide	emankorrak	eriden	NOUN	ADJ	NOUN	.	PUNCT	short	baditugu	<NA>	<NA>	VERB	<NA>	<NA>	OUT-HEAD	end	<NA>	<NA>	<NA>	<NA>

odol__mamituak__/__alaine__agirre__/__elkar__,__2014__infernuratzea__javier__rojo__/__el__correo,2014-12-27	EDU	Odol	mamituak	/	NOUN	NOUN	PUNCT	2014-12-27	NUM	long	mamituak	/	Alaine	NOUN	PUNCT	PROPN	OUT-HEAD	first	numb	<NA>	<NA>	date
alaine__agirrek__haur__eta__gazte__literaturaren__arloko__zenbait__liburu__argitaratu__ondoren	EDU	Alaine	Agirrek	haur	PROPN	PROPN	NOUN	ondoren	ADV	short	argitaratu	<NA>	<NA>	VERB	<NA>	<NA>	OUT-HEAD	beginning	<NA>	<NA>	<NA>	<NA>
helduentzako__literaturaren__munduan__murgiltzea__erabaki__du__,	EDU	helduentzako	literaturaren	munduan	NOUN	NOUN	NOUN	,	PUNCT	short	erabaki	<NA>	<NA>	VERB	<NA>	<NA>	IN-HEAD	beginning	<NA>	<NA>	<NA>	<NA>
eta__ahalegin__horren__ondorioa__``__odol__mamituak__''__nobela__dugu__.	EDU	eta	ahalegin	horren	CONJ	NOUN	DET	.	PUNCT	short	eta	<NA>	<NA>	CONJ	<NA>	<NA>	OUT-HEAD	beginning	<NA>	<NA>	<NA>	<NA>
idazlan__honetan__infernuratze__baten__kontaketarekin__egiten__dugu__topo__,	EDU	Idazlan	honetan	infernuratze	NOUN	DET	NOUN	,	PUNCT	short	egiten	<NA>	<NA>	VERB	<NA>	<NA>	OUT-HEAD	beginning	<NA>	<NA>	<NA>	<NA>
bertan__azaltzen__baitzaigu__zein__izan__den__protagonistaren__ibilbidea	EDU	bertan	azaltzen	baitzaigu	ADV	VERB	AUX	ibilbidea	NOUN	short	ibilbidea	<NA>	<NA>	NOUN	<NA>	<NA>	OUT-HEAD	beginning	<NA>	<NA>	<NA>	<NA>
prozesu__psikotiko__batetik__pasatzen__delarik__.	EDU	prozesu	psikotiko	batetik	NOUN	ADJ	NUM	.	PUNCT	short	pasatzen	<NA>	<NA>	VERB	<NA>	<NA>	IN-HEAD	beginning	<NA>	<NA>	<NA>	<NA>
protagonista__emakume__bat__da	EDU	Protagonista	emakume	bat	NOUN	NOUN	NUM	da	VERB	veryshort	emakume	<NA>	<NA>	NOUN	<NA>	<NA>	IN-HEAD	beginning	<NA>	<NA>	<NA>	<NA>
eta__ez__dugu__bere__izena__ezagutzen__.	EDU	eta	ez	dugu	CONJ	PART	VERB	.	PUNCT	short	eta	dugu	<NA>	CONJ	VERB	<NA>	OUT-HEAD	first-middle	<NA>	<NA>	<NA>	<NA>
izan__ere__,__nobela__honetan__pertsonaia__guztiek__letra__bakarra__dute__izentzat__.	EDU	Izan	ere	,	VERB	CONJ	PUNCT	.	PUNCT	short	dute	<NA>	<NA>	VERB	<NA>	<NA>	IN-HEAD	first-middle	<NA>	<NA>	<NA>	<NA>
pertsonaiek__erakusten__duten__anonimotasun__horrek__guztiz__esanguratsua__dirudi__,	EDU	Pertsonaiek	erakusten	duten	PRON	VERB	AUX	,	PUNCT	short	dirudi	<NA>	<NA>	VERB	<NA>	<NA>	IN-HEAD	first-middle	<NA>	<NA>	<NA>	<NA>
izenik__gabe__agertzerakoan	EDU	izenik	gabe	<NA>	NOUN	ADP	<NA>	agertzerakoan	VERB	veryshort	agertzerakoan	<NA>	<NA>	VERB	<NA>	<NA>	OUT-HEAD	first-middle	<NA>	<NA>	<NA>	<NA>
pertsonaiek__beren__identitateak__galtzen__baitituzte__.	EDU	pertsonaiek	beren	identitateak	PRON	DET	VERB	.	PUNCT	short	galtzen	<NA>	<NA>	VERB	<NA>	<NA>	OUT-HEAD	first-middle	<NA>	<NA>	<NA>	<NA>
buru-gaixotasunak__indartzen__duen__bestelakotze__prozesu__baten__erdian__topatzen__dira__pertsonaiak	EDU	Buru-gaixotasunak	indartzen	duen	NOUN	VERB	AUX	pertsonaiak	NOUN	short	topatzen	<NA>	<NA>	VERB	<NA>	<NA>	IN-HEAD	first-middle	<NA>	<NA>	<NA>	<NA>
eta__ez__dira__'beraiek__'__,__baizik__-__eta__gaixotasunak__beraiengandik__sortu__dituen__'beste__batzuk__'__.	EDU	eta	ez	dira	CONJ	PART	AUX	.	PUNCT	long	eta	sortu	<NA>	CONJ	VERB	<NA>	OUT-HEAD	first-middle	<NA>	<NA>	<NA>	<NA>
nobela__bost__ataletan__zatikatuta__dago	EDU	Nobela	bost	ataletan	ADV	NUM	NOUN	dago	VERB	veryshort	zatikatuta	<NA>	<NA>	VERB	<NA>	<NA>	IN-HEAD	first-middle	<NA>	<NA>	<NA>	<NA>
eta__antolamendu__hau__prozesu__psikotikoaren__isla__da__.	EDU	eta	antolamendu	hau	CONJ	NOUN	DET	.	PUNCT	short	eta	isla	<NA>	CONJ	NOUN	<NA>	OUT-HEAD	second-middle	<NA>	<NA>	<NA>	<NA>
bertan__ikusiko__dugu__nola__protagonista__ulertzen__ez__duen__putzu__batean__katigatuta__dagoen__,	EDU	Bertan	ikusiko	dugu	ADV	VERB	AUX	,	PUNCT	short	ikusiko	katigatuta	<NA>	VERB	VERB	<NA>	IN-HEAD	second-middle	<NA>	<NA>	<NA>	<NA>
nola__geratzen__den__mila__zatitan__hautsita__.	EDU	nola	geratzen	den	ADV	VERB	AUX	.	PUNCT	short	hautsita	<NA>	<NA>	VERB	<NA>	<NA>	OUT-HEAD	second-middle	<NA>	<NA>	<NA>	<NA>
eta__haustura__hau__gertatu__ondoren__,	EDU	Eta	haustura	hau	CONJ	NOUN	DET	,	PUNCT	short	Eta	gertatu	<NA>	CONJ	VERB	<NA>	OUT-HEAD	second-middle	<NA>	<NA>	<NA>	<NA>
nola__saiatzen__den__psikiatra__baten__laguntzarekin__bere__burua__berreraikitzen__,	EDU	nola	saiatzen	den	ADV	VERB	AUX	,	PUNCT	short	berreraikitzen	<NA>	<NA>	VERB	<NA>	<NA>	OUT-HEAD	second-middle	<NA>	<NA>	<NA>	<NA>
jakinda__agian__ez__duela__guztiz__lortuko__.	EDU	jakinda	agian	ez	VERB	ADV	PART	.	PUNCT	short	lortuko	<NA>	<NA>	VERB	<NA>	<NA>	IN-HEAD	second-middle	<NA>	<NA>	<NA>	<NA>
alaine__agirreren__helduentzako__lehen__liburua__da__hau__,	EDU	Alaine	Agirreren	helduentzako	PROPN	PROPN	NOUN	,	PUNCT	short	liburua	<NA>	<NA>	NOUN	<NA>	<NA>	IN-HEAD	second-middle	<NA>	<NA>	<NA>	<NA>
eta__idazleak__ahalegina__egin__du	EDU	eta	idazleak	ahalegina	CONJ	NOUN	NOUN	du	AUX	veryshort	eta	egin	<NA>	CONJ	VERB	<NA>	OUT-HEAD	second-middle	<NA>	<NA>	<NA>	<NA>
lehen__emaitza__ohiko__narrazio__lau__eta__sinpleetatik__aldendu__dadin__.	EDU	lehen	emaitza	ohiko	NUM	NOUN	ADJ	.	PUNCT	short	aldendu	<NA>	<NA>	VERB	<NA>	<NA>	OUT-HEAD	end	<NA>	<NA>	<NA>	<NA>
adibidez__,__ahots__narratibo__desberdinak__nahastu__ditu__kontaketan__,	EDU	Adibidez	,	ahots	ADV	PUNCT	CONJ	,	PUNCT	short	nahastu	<NA>	<NA>	VERB	<NA>	<NA>	IN-HEAD	end	<NA>	<NA>	<NA>	<NA>
nahasketa__honek__barne__logika__bati__jarraitzen__diolarik__.	EDU	nahasketa	honek	barne	NOUN	DET	NOUN	.	PUNCT	short	jarraitzen	<NA>	<NA>	VERB	<NA>	<NA>	OUT-HEAD	end	<NA>	<NA>	<NA>	<NA>
idazketa__dela__-__eta__,__garrantzia__handia__eman__dio__sinonimoen__erabiltzeari__.	EDU	Idazketa	dela	-	NOUN	VERB	PUNCT	.	PUNCT	short	eman	<NA>	<NA>	VERB	<NA>	<NA>	IN-HEAD	end	<NA>	<NA>	<NA>	<NA>
sentimendu__edo__sentsazio__berbera__hiru__edo__lau__hitzekin__azaltzerakoan__,	EDU	Sentimendu	edo	sentsazio	NOUN	CONJ	NOUN	,	PUNCT	short	azaltzerakoan	<NA>	<NA>	VERB	<NA>	<NA>	OUT-HEAD	end	<NA>	<NA>	<NA>	<NA>
sentimendu__hori__azpimarratuta__geratzen__da__,	EDU	sentimendu	hori	azpimarratuta	NOUN	DET	VERB	,	PUNCT	short	geratzen	<NA>	<NA>	VERB	<NA>	<NA>	IN-HEAD	end	<NA>	<NA>	<NA>	<NA>
sentsazioa__indartuta__.	EDU	sentsazioa	indartuta	<NA>	NOUN	VERB	<NA>	.	PUNCT	veryshort	indartuta	<NA>	<NA>	VERB	<NA>	<NA>	OUT-HEAD	end	<NA>	<NA>	<NA>	<NA>
kontuan__hartuta__idazlea__oso__gaztea__dela__-LRB-__90koa__da__-RRB-__,	EDU	Kontuan	hartuta	idazlea	NOUN	VERB	NOUN	,	PUNCT	short	gaztea	<NA>	<NA>	ADJ	<NA>	<NA>	IN-HEAD	end	numb	<NA>	<NA>	<NA>
hasiera__honek__literatur__ibilbide__interesgarri__baten__abiapuntua__dirudi__.	EDU	hasiera	honek	literatur	NOUN	DET	NOUN	.	PUNCT	short	dirudi	<NA>	<NA>	VERB	<NA>	<NA>	OUT-HEAD	last	<NA>	<NA>	<NA>	<NA>

disrupzio__endokrinoa__.	EDU	Disrupzio	endokrinoa	<NA>	NOUN	NOUN	<NA>	.	PUNCT	veryshort	endokrinoa	<NA>	<NA>	NOUN	<NA>	<NA>	IN-HEAD	first	<NA>	<NA>	<NA>	<NA>
laborategian__zein__euskal__itsasadarretan__bzit__taldeak__90.__hamarkadan__egin__dituen__ikerketa__lanetan__,__ingurumen–kutsatzaileek__organismo__urtarren__ugalketa__ahalmenean__eragin__dezaketela__frogatu__da__.	EDU	Laborategian	hamarkadan	zein	NOUN	NOUN	CONJ	.	PUNCT	long	Laborategian	frogatu	<NA>	NOUN	VERB	<NA>	IN-HEAD	beginning	numb	<NA>	<NA>	<NA>
mekanismo__anitz__dela__bide	EDU	Mekanismo	anitz	dela	NOUN	DET	VERB	bide	NOUN	veryshort	Mekanismo	bide	<NA>	NOUN	NOUN	<NA>	OUT-HEAD	beginning	<NA>	<NA>	<NA>	<NA>
eman__daitezke__efektuak__ugalketan__.	EDU	eman	daitezke	efektuak	VERB	AUX	VERB	.	PUNCT	veryshort	eman	<NA>	<NA>	VERB	<NA>	<NA>	IN-HEAD	beginning	<NA>	<NA>	<NA>	<NA>
honela__,__ingurumen__urtarrean__agertzen__diren__hainbat__konposatu__kimikok__animali__urtarren__hazkuntzan__,__jokamoldean__,__ugalketan__eta__funtzio__immunean__eragin__kaltegarriak__sor__ditzakete__,__sistema__endokrinoarekin__interferitzearen__bidez__.	EDU	Honela	,	ingurumen	ADV	PUNCT	ADV	.	PUNCT	verylong	sor	<NA>	<NA>	VERB	<NA>	<NA>	IN-HEAD	beginning	<NA>	<NA>	<NA>	<NA>
horrela__,__sistema__endokrinoaren__funtzioan__eragiten__duten__eta__ondorioz__,__organismo__baten__edo__bere__ondorengoen__,__edo__bere__-LRB-__azpi__-RRB-__populazioen__osasuna__kaltetu__dezaketen__konposatu__hauei__“disruptore__endokrino”__izena__ematen__zaie__.	EDU	Horrela	,	sistema	ADV	PUNCT	NOUN	.	PUNCT	verylong	eragiten	<NA>	<NA>	VERB	<NA>	<NA>	IN-HEAD	beginning	<NA>	<NA>	<NA>	<NA>
eb__k__diruz__lagundutako__bee__p__proiektuaren__baitan__-LRB-__2001–2004__-RRB-__,__gure__taldeak__hainbat__disruptore__endokrinoren__eraginak__aztertu__zituen__zebra–arrain__eta__muskuiluetan__.	EDU	EB	k	diruz	PROPN	PROPN	NOUN	.	PUNCT	long	aztertu	<NA>	<NA>	VERB	<NA>	<NA>	IN-HEAD	first-middle	numb	<NA>	<NA>	date
azterturiko__konposatuen__artean__alkilfenolak__,__pestizidak__,__plastifikatzaileak__,__petrolioaren__eratorriak__,__hormona__sintetikoak__eta__konposatu__polibrominatuak__zeuden__.	EDU	Azterturiko	konposatuen	artean	VERB	NOUN	ADP	.	PUNCT	long	polibrominatuak	<NA>	<NA>	VERB	<NA>	<NA>	IN-HEAD	first-middle	<NA>	<NA>	<NA>	<NA>
era__berean__,__2003tik__aurrera__galiza__eta__bizkaiko__golkoko__hainbat__muskuilu__populazioen__ziklo__gametogenikoa__aztertu__genuen__-LRB-__mec__–ak__diruz__lagundutako__preste__pse__proiektua__eta__etorte__k–impres__proiektua__,__2003–2007__-RRB-	EDU	Era	berean	,	NOUN	DET	PUNCT	-RRB-	PUNCT	verylong	aztertu	<NA>	<NA>	VERB	<NA>	<NA>	IN-HEAD	first-middle	numb	<NA>	<NA>	date
eta__gametoen__garapenean__zenbait__alterazio__aurkitu__genituen__.	EDU	eta	gametoen	garapenean	CONJ	NOUN	NOUN	.	PUNCT	short	eta	aurkitu	<NA>	CONJ	VERB	<NA>	OUT-HEAD	first-middle	<NA>	<NA>	<NA>	<NA>
2004.eko__martxoan__muskuilu__hermafroditen__ez–ohiko__kopuru__altua__aurkitu__genuen__urdaibaiko__biosferaren__erreserban__.	EDU	2004.eko	martxoan	muskuilu	NUM	NOUN	NOUN	.	PUNCT	short	aurkitu	<NA>	<NA>	VERB	<NA>	<NA>	IN-HEAD	first-middle	numb	<NA>	<NA>	<NA>
hau__dela__eta__,__upv/ehuko__unesco__katedrak__diruz__lagundutako__derb__iur__proiektua__abiarazi__zen__-LRB-__2007–2008__-RRB-__.	EDU	Hau	dela	eta	DET	VERB	CONJ	.	PUNCT	long	abiarazi	<NA>	<NA>	VERB	<NA>	<NA>	OUT-HEAD	first-middle	numb	<NA>	<NA>	date
bere__helburu__nagusia__,__urdaibain__disruptore__endokrino__potentzialen__presentzia__eta__molusku__bibalbioetan__zein__arrainetan__sortu__zitzaketen__aldaketak__determinatzea__zen__.	EDU	Bere	helburu	nagusia	DET	NOUN	ADJ	.	PUNCT	long	determinatzea	<NA>	<NA>	VERB	<NA>	<NA>	IN-HEAD	second-middle	<NA>	<NA>	<NA>	<NA>
proiektuaren__emaitzek__muskuiluetan__alterazioak__baieztatu__dituzte	EDU	Proiektuaren	emaitzek	muskuiluetan	NOUN	NOUN	NOUN	dituzte	AUX	short	baieztatu	<NA>	<NA>	VERB	<NA>	<NA>	OUT-HEAD	second-middle	<NA>	<NA>	<NA>	<NA>
eta__gernikako__hondakin–uren__araztegiaren__inguruko__arrainetan__-LRB-__lazunak__-RRB-__intersexaren__prebalentzia__altua__erakutsi__dute__.	EDU	eta	Gernikako	hondakin–uren	CONJ	PROPN	NOUN	.	PUNCT	short	eta	lazunak	-RRB-	CONJ	NOUN	PUNCT	IN-HEAD	second-middle	<NA>	<NA>	<NA>	<NA>
gainera__,__bartzelonako__cs__icak__burututako__analisi__kimikoetan__,__nonilfenol__-LRB-__disruptore__endokrino__garrantzitsua__eta__eb__k__argitaratutako__substantzia__prioritarioen__zerrendan__agertzen__dena__-RRB-__maila__altuak__neurtu__dira__arrainen__behazunean__.	EDU	Gainera	,	Bartzelonako	CONJ	PUNCT	PROPN	.	PUNCT	verylong	neurtu	<NA>	<NA>	VERB	<NA>	<NA>	IN-HEAD	second-middle	<NA>	<NA>	<NA>	<NA>
beraz__,__urdaibain__alkilfenolek__izan__dezaketen__garrantziagatik__,__upv/ehuko__unesco__katedrak__sicaes__-LRB-__2008–2009__-RRB-__izeneko__bigarren__proiektu__bat__abiarazi__du__.	EDU	Beraz	,	Urdaibain	CONJ	PUNCT	PROPN	.	PUNCT	long	abiarazi	<NA>	<NA>	VERB	<NA>	<NA>	IN-HEAD	second-middle	numb	<NA>	<NA>	date
bertan__,__gure__taldeak__,__upv/ehuko__kimika__analitikoa__eta__kimika__organikoa__ii–ko__taldeekin__elkarlana__hasi__du__.	EDU	Bertan	,	gure	ADV	PUNCT	PRON	.	PUNCT	long	hasi	<NA>	<NA>	VERB	<NA>	<NA>	IN-HEAD	second-middle	<NA>	<NA>	<NA>	<NA>
sicaes__proiektuaren__helburua__nonilfenol–isomero__berrien__karakterizazio__xenoestrogenikoa__burutzea__da__.	EDU	SICAES	proiektuaren	helburua	PROPN	NOUN	NOUN	.	PUNCT	short	burutzea	<NA>	<NA>	VERB	<NA>	<NA>	IN-HEAD	second-middle	<NA>	<NA>	<NA>	<NA>
honetarako__,__estrogeno–hartzaileetan__oinarrituriko__in__vitro__gene__reporter__motako__saiakerak__-LRB-__yes__-RRB-__eta__zebra–arrainekin__in__vivo__esperimentuak__burutuko__dira__.	EDU	Honetarako	,	estrogeno–	DET	PUNCT	NOUN	.	PUNCT	long	burutuko	<NA>	<NA>	VERB	<NA>	<NA>	IN-HEAD	end	<NA>	<NA>	<NA>	<NA>
aipatu__azterketa__guztietan__,__biomarkatzaileen__bateria__bat__erabiltzen__dugu__,	EDU	Aipatu	azterketa	guztietan	VERB	NOUN	DET	,	PUNCT	short	erabiltzen	<NA>	<NA>	VERB	<NA>	<NA>	OUT-HEAD	end	<NA>	<NA>	<NA>	<NA>
tartean__,__bitelogenina__-LRB-__emeen__espezifikoa__den__proteina__eta__xenoestrogenizitate__eta__feminizazio__markatzaile__gisa__erabiltzen__dena__-RRB-__mailen__aldaketak__,__aromatasa__-LRB-__hormona__estrogenikoen__sintesia__eragiten__duen__entzima__-RRB-__genearen__adierazpen__mailen__aldaketak__eta__gonadaren__histologia__azterketak__burutzen__dira__.	EDU	tartean	,	bitelogenina	NOUN	PUNCT	ADJ	.	PUNCT	verylong	tartean	bitelogenina	-LRB-	NOUN	ADJ	PUNCT	IN-HEAD	end	<NA>	<NA>	<NA>	<NA>
gainera__,__hormona–hartzaileen__gene__reporter__motako__saiakeren__bidezko__azterketak__egiten__dihardugu__in__vitro__.	EDU	Gainera	,	hormona–hartzaileen	CONJ	PUNCT	NOUN	.	PUNCT	short	egiten	<NA>	<NA>	VERB	<NA>	<NA>	IN-HEAD	end	<NA>	<NA>	<NA>	<NA>
tresna__hauek__biojarraipen__programetan__eta__konposatu__kimikoen__ustekabeko__isurketen__aurrean__erabil__daitezke__,	EDU	Tresna	hauek	biojarraipen	NOUN	DET	NOUN	,	PUNCT	short	erabil	<NA>	<NA>	VERB	<NA>	<NA>	OUT-HEAD	end	<NA>	<NA>	<NA>	<NA>
eb__k__diruz__lagundutako__prag__ma__proiektuan__-LRB-__2006–2007__-RRB-__aztertu__genuen__bezala__.	EDU	EB	k	diruz	PROPN	PROPN	NOUN	.	PUNCT	short	EB	aztertu	<NA>	PROPN	VERB	<NA>	IN-HEAD	end	numb	<NA>	<NA>	date
azkenik__esan__,__berriki__kantabriako__unibertsitateko__,__eta__bartzelonako__cs__ic–eko__ikertzaile__taldeekin__eta__ingenieritza__entrepresa__batekin__elkarlanean__hasi__garela__,__hirietako__hondakin–uren__eta__paper–lantegietako__isurketen__eragina__ikertzen__transplantaturiko__muskuiluetan__.	EDU	Azkenik	esan	,	ADV	VERB	PUNCT	.	PUNCT	verylong	esan	<NA>	<NA>	VERB	<NA>	<NA>	IN-HEAD	last	<NA>	<NA>	<NA>	<NA>

burezur__kanpoko__lesio__karotideoen__tratatze__kirurgikoa__:__10__urteko__esperientzia__.	EDU	Burezur	10	kanpoko	NOUN	NUM	ADJ	:	PUNCT	short	esperientzia	tratatze	<NA>	NOUN	NOUN	<NA>	IN-HEAD	first	numb	<NA>	<NA>	<NA>
burezur__kanpoko__lesio__karotideoen__tratatze__kirurgikoan__gure__taldeak__10__urtetan__zehar__bifurkazio__karotideoaren__endarterektomia__bitartez__izandako__esperientzia__aurkezten__dugu__.	EDU	Burezur	kanpoko	lesio	NOUN	ADJ	NOUN	.	PUNCT	long	aurkezten	<NA>	<NA>	VERB	<NA>	<NA>	IN-HEAD	second-middle	numb	<NA>	<NA>	<NA>
bereziki__azpimarratu__nahi__ditugu__hura__burutzeko__kontrol__peroperatorioa__shunt__endoluminalik__gabe__eta__emaitza__goiztiarrak__.	EDU	Bereziki	azpimarratu	nahi	ADV	VERB	NOUN	.	PUNCT	short	ditugu	<NA>	<NA>	VERB	<NA>	<NA>	IN-HEAD	last	<NA>	<NA>	<NA>	<NA>

1.__energiarako__materialak__:__erregai-pilak__.	EDU	1.	erregai-pilak	Energiarako	NUM	NOUN	NOUN	:	PUNCT	short	erregai-pilak	Energiarako	<NA>	NOUN	NOUN	<NA>	IN-HEAD	first	numb	<NA>	<NA>	<NA>
materialen__arloan__kokatutako__ikerlan__honek__,__sofc__-LRB-__solid__oxide__fuel__cells__-RRB-__motako__erregai-piletan__erabil__daitezkeen__perovskita__egitura__-LRB-__abo__3__-RRB-__duten__oxido__mistoen__ikerketa__du__helburu__,__oxido__hauen__sintesia__,__karakterizazioa__eta__propietate__elektriko__eta__magnetikoen__ikerketa__,__hain__zuzen__.	EDU	Materialen	arloan	kokatutako	PROPN	NOUN	VERB	.	PUNCT	verylong	helburu	<NA>	<NA>	NOUN	<NA>	<NA>	IN-HEAD	beginning	numb	<NA>	<NA>	<NA>
erregai-pilak__,__erregaiak__energia__elektriko__zuzen__bilakatzen__duten__gailu__elektrokimikoak__dira__.	EDU	Erregai-pilak	,	erregaiak	PROPN	PUNCT	NOUN	.	PUNCT	short	gailu	<NA>	<NA>	NOUN	<NA>	<NA>	IN-HEAD	beginning	<NA>	<NA>	<NA>	<NA>
sofc__pilek__bi__elektrodo__dauzkate__,__katodoa__eta__anodoa__,	EDU	SOFC	pilek	bi	NOUN	ADJ	NUM	,	PUNCT	short	dauzkate	<NA>	<NA>	VERB	<NA>	<NA>	IN-HEAD	beginning	<NA>	<NA>	<NA>	<NA>
elektrolito__solido__batez__banatuta__.	EDU	elektrolito	solido	batez	ADJ	NOUN	NUM	.	PUNCT	veryshort	banatuta	<NA>	<NA>	VERB	<NA>	<NA>	OUT-HEAD	beginning	<NA>	<NA>	<NA>	<NA>
sofc__pilen__funtzionamendua__oso__erraza__da__:	EDU	SOFC	pilen	funtzionamendua	PROPN	NOUN	NOUN	:	PUNCT	short	erraza	<NA>	<NA>	ADJ	<NA>	<NA>	IN-HEAD	beginning	<NA>	<NA>	<NA>	<NA>
katodotik__pasarazten__den__airearen__oxigenoak__,__kanpoko__zirkuitutik__heltzen__diren__elektroiekin__erreakzionatzean	EDU	katodotik	pasarazten	den	NOUN	VERB	AUX	erreakzionatzean	VERB	short	oxigenoak	erreakzionatzean	<NA>	ADJ	VERB	<NA>	OUT-HEAD	beginning	<NA>	<NA>	<NA>	<NA>
oxido__ioiak__sortzen__dira__.	EDU	oxido	ioiak	sortzen	NOUN	ADJ	VERB	.	PUNCT	veryshort	sortzen	<NA>	<NA>	VERB	<NA>	<NA>	IN-HEAD	beginning	<NA>	<NA>	<NA>	<NA>
ioi__hauek__elektrolitotik__zehar__anodorantz__mugitzen__dira	EDU	Ioi	hauek	elektrolitotik	NOUN	DET	NOUN	dira	AUX	short	mugitzen	<NA>	<NA>	VERB	<NA>	<NA>	OUT-HEAD	beginning	<NA>	<NA>	<NA>	<NA>
eta__anodoan__erregaiarekin__erreakzionatzen__dute	EDU	eta	anodoan	erregaiarekin	CONJ	NOUN	ADJ	dute	AUX	veryshort	eta	erreakzionatzen	<NA>	CONJ	VERB	<NA>	OUT-HEAD	beginning	<NA>	<NA>	<NA>	<NA>
kanpoko__zirkuitura__aterako__diren__elektroiak__sortzeko__,	EDU	kanpoko	zirkuitura	aterako	ADJ	NOUN	VERB	,	PUNCT	short	sortzeko	<NA>	<NA>	VERB	<NA>	<NA>	OUT-HEAD	beginning	<NA>	<NA>	<NA>	<NA>
aldi__berean__,__ura__eta__beroa__sortzen__dira__.	EDU	aldi	berean	,	NOUN	DET	PUNCT	.	PUNCT	short	aldi	sortzen	<NA>	NOUN	VERB	<NA>	IN-HEAD	first-middle	<NA>	<NA>	<NA>	<NA>
era__honetan__,__energia__etengabe__lor__daiteke__.	EDU	Era	honetan	,	NOUN	DET	PUNCT	.	PUNCT	short	lor	<NA>	<NA>	VERB	<NA>	<NA>	IN-HEAD	first-middle	<NA>	<NA>	<NA>	<NA>
material__hauek__pila__batetan__erabili__ahal__izateko__baldintza__batzuk__bete__beharko__dituzte__:	EDU	Material	hauek	pila	NOUN	DET	NOUN	:	PUNCT	short	beharko	<NA>	<NA>	VERB	<NA>	<NA>	IN-HEAD	first-middle	<NA>	<NA>	<NA>	<NA>
-LRB-__1__-RRB-__prozesua__burutuko__den__tenperaturetan__-LRB-__&__gt__;__600ºc__-RRB-__egonkorrak__izatea__;__-LRB-__2__-RRB-__elektrolitoak__eroankortasun__ionikoa__altua__azaldu__behar__du__,	EDU	-LRB-	gt	1	PUNCT	ADV	NUM	,	PUNCT	verylong	burutuko	du	<NA>	VERB	VERB	<NA>	IN-HEAD	first-middle	numb	<NA>	<NA>	<NA>
eroankortasun__elektronikoa__berriz__baztergarria__,__eta__elektrodoek__aktibitate__elektrokatalitiko__altua__izan__behar__dute__,	EDU	eroankortasun	elektronikoa	berriz	NOUN	ADJ	ADV	,	PUNCT	short	baztergarria	eta	elektrodoek	ADJ	CONJ	NOUN	OUT-HEAD	first-middle	<NA>	<NA>	<NA>	<NA>
honez__gaiz__,__oxigenoak__elektrolitoarekin__eta__erregaiarekin__interakziona__dezan__elektrolitoak__porositate__altua__erakutsi__behar__du__;	EDU	honez	gaiz	,	DET	NOUN	PUNCT	;	PUNCT	long	gaiz	du	<NA>	NOUN	VERB	<NA>	OUT-HEAD	first-middle	<NA>	<NA>	<NA>	<NA>
-LRB-__3__-RRB-__material__guzti__hauek__zabalkuntza__termikoaren__koefiziente__bateragarriak__izan__behar__dituzte__.	EDU	-LRB-	3	-RRB-	PUNCT	NUM	PUNCT	.	PUNCT	short	-LRB-	3	-RRB-	PUNCT	NUM	PUNCT	OUT-HEAD	first-middle	numb	<NA>	<NA>	<NA>
ikerlan__honen__helburu__nagusia__,__pila__hauetako__katodo__moduan__erabiltzeko__material__eroale__egokiak__lortzea__da__,__bai__eta__hauen__sintesi__bideak__optimizatzea__ere__:	EDU	Ikerlan	honen	helburu	NOUN	DET	NOUN	:	PUNCT	long	lortzea	<NA>	<NA>	VERB	<NA>	<NA>	IN-HEAD	first-middle	<NA>	<NA>	<NA>	<NA>
-__sintesia__:	EDU	-	Sintesia	<NA>	PUNCT	NOUN	<NA>	:	PUNCT	veryshort	Sintesia	<NA>	<NA>	NOUN	<NA>	<NA>	IN-HEAD	first-middle	<NA>	<NA>	<NA>	<NA>
tradizionalki__,__metodo__zeramikoa__erabili__ohi__da__,	EDU	tradizionalki	,	metodo	ADV	PUNCT	NOUN	,	PUNCT	short	erabili	<NA>	<NA>	VERB	<NA>	<NA>	IN-HEAD	first-middle	<NA>	<NA>	<NA>	<NA>
baina__produktu__homogeneoak__lortzeko__arazoak__ditu__.	EDU	baina	produktu	homogeneoak	CONJ	NOUN	ADJ	.	PUNCT	short	baina	ditu	<NA>	CONJ	VERB	<NA>	OUT-HEAD	first-middle	<NA>	<NA>	<NA>	<NA>
horregatik__,__guk__sol-gel__izeneko__metodoa__burutu__dugu__.	EDU	Horregatik	,	guk	ADV	PUNCT	PRON	.	PUNCT	short	burutu	<NA>	<NA>	VERB	<NA>	<NA>	IN-HEAD	first-middle	<NA>	<NA>	<NA>	<NA>
honez__gain__,__beste__metodo__batzuez__ere__baliatu__gara__:__liofilizazioa__,__errekuntza__eta__quenching-a__.	EDU	Honez	liofilizazioa	gain	DET	NOUN	NOUN	:	PUNCT	long	liofilizazioa	baliatu	<NA>	NOUN	VERB	<NA>	IN-HEAD	second-middle	<NA>	<NA>	<NA>	<NA>
era__honetan__,	EDU	Era	honetan	<NA>	NOUN	DET	<NA>	,	PUNCT	veryshort	Era	<NA>	<NA>	NOUN	<NA>	<NA>	OUT-HEAD	second-middle	<NA>	<NA>	<NA>	<NA>
sintesi__bide__desberdinak__erabiliz__,	EDU	sintesi	bide	desberdinak	NOUN	NOUN	ADJ	,	PUNCT	veryshort	erabiliz	<NA>	<NA>	VERB	<NA>	<NA>	OUT-HEAD	second-middle	<NA>	<NA>	<NA>	<NA>
laginen__morfologia__alda__daiteke__eta__honekin__lortutako__propietateak__ere__,	EDU	laginen	morfologia	alda	NOUN	NOUN	VERB	,	PUNCT	short	alda	propietateak	ere	VERB	NOUN	CONJ	IN-HEAD	second-middle	<NA>	<NA>	<NA>	<NA>
beraz__,__sortutako__diferentziak__erabilitako__metodoaren__arabera__aztertuko__dira__.	EDU	beraz	,	sortutako	CONJ	PUNCT	VERB	.	PUNCT	short	aztertuko	<NA>	<NA>	VERB	<NA>	<NA>	OUT-HEAD	second-middle	<NA>	<NA>	<NA>	<NA>
-__karakterizazio__estrukturala__:	EDU	-	Karakterizazio	estrukturala	PUNCT	NOUN	ADJ	:	PUNCT	veryshort	Karakterizazio	<NA>	<NA>	NOUN	<NA>	<NA>	IN-HEAD	second-middle	<NA>	<NA>	<NA>	<NA>
rietveld__metodoan__oinarrituz	EDU	Rietveld	metodoan	<NA>	PROPN	NOUN	<NA>	oinarrituz	VERB	veryshort	oinarrituz	<NA>	<NA>	VERB	<NA>	<NA>	OUT-HEAD	second-middle	<NA>	<NA>	<NA>	<NA>
eta__x__izpien__difrakzioaren__teknikaz__baliatuz__,	EDU	eta	X	izpien	CONJ	PROPN	NOUN	,	PUNCT	short	eta	baliatuz	<NA>	CONJ	VERB	<NA>	OUT-HEAD	second-middle	<NA>	<NA>	<NA>	<NA>
laginen__egitura__ikertzen__dugu__.	EDU	laginen	egitura	ikertzen	NOUN	NOUN	VERB	.	PUNCT	veryshort	ikertzen	<NA>	<NA>	VERB	<NA>	<NA>	IN-HEAD	second-middle	<NA>	<NA>	<NA>	<NA>
beharrezkoa__bada__,	EDU	Beharrezkoa	bada	<NA>	ADJ	VERB	<NA>	,	PUNCT	veryshort	Beharrezkoa	<NA>	<NA>	ADJ	<NA>	<NA>	OUT-HEAD	second-middle	<NA>	<NA>	<NA>	<NA>
neutroi__edo__elektroi__izpien__difrakzioak__erabiliko__dira__.	EDU	neutroi	edo	elektroi	NOUN	CONJ	NOUN	.	PUNCT	short	erabiliko	<NA>	<NA>	VERB	<NA>	<NA>	IN-HEAD	second-middle	<NA>	<NA>	<NA>	<NA>
-__azterketa__morfologikoa__:	EDU	-	Azterketa	morfologikoa	PUNCT	NOUN	ADJ	:	PUNCT	veryshort	Azterketa	<NA>	<NA>	NOUN	<NA>	<NA>	IN-HEAD	second-middle	<NA>	<NA>	<NA>	<NA>
transmisio-__eta__ekortze-mikroskopia__elektronikoak__erabiliz__,	EDU	transmisio	-	eta	NOUN	PUNCT	CONJ	,	PUNCT	short	erabiliz	<NA>	<NA>	VERB	<NA>	<NA>	OUT-HEAD	end	<NA>	<NA>	<NA>	<NA>
sinterizazio-maila__eta__partikulen__tamaina__aztertzen__dira__,__baita__dilatazio__termikoaren__koefizienteak__ere__.	EDU	sinterizazio-maila	eta	partikulen	NOUN	CONJ	NOUN	.	PUNCT	short	aztertzen	<NA>	<NA>	VERB	<NA>	<NA>	IN-HEAD	end	<NA>	<NA>	<NA>	<NA>
-__propietate__magnetikoak__:	EDU	-	Propietate	magnetikoak	PUNCT	NOUN	ADJ	:	PUNCT	veryshort	Propietate	<NA>	<NA>	NOUN	<NA>	<NA>	IN-HEAD	end	<NA>	<NA>	<NA>	<NA>
katioi__magnetikoen__presentzia__dela__eta__,	EDU	katioi	magnetikoen	presentzia	NOUN	ADJ	NOUN	,	PUNCT	short	dela	<NA>	<NA>	VERB	<NA>	<NA>	OUT-HEAD	end	<NA>	<NA>	<NA>	<NA>
propietate__magnetikoak__ere__interesgarriak__izan__daitezke__.	EDU	propietate	magnetikoak	ere	NOUN	ADJ	CONJ	.	PUNCT	short	interesgarriak	<NA>	<NA>	ADJ	<NA>	<NA>	IN-HEAD	end	<NA>	<NA>	<NA>	<NA>
squid__-LRB-__superconducting__quantum__interference__device__-RRB-__,__balantza__magnetiko__,__epr__-LRB-__electronic__paramagnetic__resonance__-RRB-__eta__,__burdina__duten__laginetan__,__mösbauer__espektroskopia__teknikak__erabiltzen__dira__.	EDU	SQUID	-LRB-	Superconducting	PROPN	PUNCT	PROPN	.	PUNCT	verylong	erabiltzen	<NA>	<NA>	VERB	<NA>	<NA>	IN-HEAD	end	<NA>	<NA>	<NA>	<NA>
-__geruza__meheak__:	EDU	-	Geruza	meheak	PUNCT	NOUN	ADJ	:	PUNCT	veryshort	Geruza	<NA>	<NA>	NOUN	<NA>	<NA>	IN-HEAD	end	<NA>	<NA>	<NA>	<NA>
duela__gutxi__,__geruza__meheak__lortzeko__laser__ablazioaren__teknika__erabiltzen__hasi__da__,	EDU	duela	gutxi	,	VERB	ADV	PUNCT	,	PUNCT	short	hasi	<NA>	<NA>	VERB	<NA>	<NA>	IN-HEAD	end	<NA>	<NA>	<NA>	<NA>
pilen__tamaina__eta__kostua__gutxitzeko__asmoz__.	EDU	pilen	tamaina	eta	NOUN	NOUN	CONJ	.	PUNCT	short	asmoz	<NA>	<NA>	NOUN	<NA>	<NA>	OUT-HEAD	end	<NA>	<NA>	<NA>	<NA>
-__eroankortasun__ionikoa__eta__elektronikoa__:	EDU	-	Eroankortasun	ionikoa	PUNCT	NOUN	ADJ	:	PUNCT	short	:	<NA>	<NA>	PUNCT	<NA>	<NA>	OUT-HEAD	end	<NA>	<NA>	<NA>	<NA>
eroankortasuna__inpedantzia__espektroskopiaren__bidez__aztertzen__da__.	EDU	eroankortasuna	inpedantzia	espektroskopiaren	NOUN	NOUN	NOUN	.	PUNCT	short	aztertzen	<NA>	<NA>	VERB	<NA>	<NA>	IN-HEAD	end	<NA>	<NA>	<NA>	<NA>
-__pilen__prestaketa__eta__ebaluaketa__:	EDU	-	Pilen	prestaketa	PUNCT	PROPN	NOUN	:	PUNCT	short	prestaketa	<NA>	<NA>	NOUN	<NA>	<NA>	IN-HEAD	end	<NA>	<NA>	<NA>	<NA>
diseinu__berriko__''gela__bakar__bateko__pila__''__esperimentaletan__sintetizatutako__materialak__aztertzen__ditugu__.	EDU	diseinu	berriko	'	NOUN	ADJ	PUNCT	.	PUNCT	short	aztertzen	<NA>	<NA>	VERB	<NA>	<NA>	IN-HEAD	last	<NA>	<NA>	<NA>	<NA>

