word pos prefw1 prefw2 prefw3 prefp1 prefp2 prefp3 suffw1 suffp1 len headw1 headw2 headw3 headp1 headp2 headp3 head position numb perc money date
argumentu-harremana__/__eremu-harremana__:__izenondo__erreferentzialen__euskal__ordainen__bila__.	EDU	Argumentu-harremana	izenondo	/	NOUN	NOUN	PUNCT	.	PUNCT	short	Argumentu-harremana	ordainen	<NA>	NOUN	NOUN	<NA>	IN-HEAD	first	<NA>	<NA>	<NA>	<NA>
ezaguna__da__izenondo__erreferentzialek__sekulako__arazoak__sortzen__dizkietela__edozein__testu__euskaratu__behar__duten__itzultzaileei__.	EDU	Ezaguna	da	izenondo	NOUN	VERB	NOUN	.	PUNCT	short	izenondo	<NA>	<NA>	NOUN	<NA>	<NA>	IN-HEAD	beginning	<NA>	<NA>	<NA>	<NA>
askotan__jarri__da__agerian__hainbat__bide__erabili__behar__direla	EDU	Askotan	jarri	da	ADV	VERB	AUX	direla	VERB	short	jarri	direla	<NA>	VERB	VERB	<NA>	IN-HEAD	beginning	<NA>	<NA>	<NA>	<NA>
inguruko__hizkuntzen__izenondo__erreferentzialen__euskal__ordainak__lortzeko__-LRB-__ensunza__,__1989__;__loinaz__,__1995__-RRB-	EDU	inguruko	hizkuntzen	izenondo	NOUN	NOUN	NOUN	-RRB-	PUNCT	long	lortzeko	-LRB-	Ensunza	VERB	PUNCT	NOUN	OUT-HEAD	beginning	numb	<NA>	<NA>	date
baina__edonola__,__idazle/itzultzailearen__zuhurtasunaren__,__intuizio__onaren__edota__estetika-zentzuaren__azpian__uzten__da__neurri__handian__kasu__bakoitzean__erabili__behar__den__baliabidearen__aukeraketa__.	EDU	baina	edonola	,	CONJ	ADV	PUNCT	.	PUNCT	long	baina	edonola	zuhurtasunaren	CONJ	ADV	NOUN	OUT-HEAD	beginning	<NA>	<NA>	<NA>	<NA>
izenondo__erreferentzialak__izenetatik__eratorritakoak__izaten__dira__beti	EDU	Izenondo	erreferentzialak	izenetatik	NOUN	ADJ	NOUN	beti	ADV	short	izaten	<NA>	<NA>	VERB	<NA>	<NA>	OUT-HEAD	beginning	<NA>	<NA>	<NA>	<NA>
baina__askotan__,__jatorria__eta__izaera__erreferentziala__nahasi	EDU	baina	askotan	,	CONJ	ADV	PUNCT	nahasi	VERB	short	baina	askotan	<NA>	CONJ	ADV	<NA>	OUT-HEAD	beginning	<NA>	<NA>	<NA>	<NA>
eta__zaku__berean__sartzen__dira__erabat__predikatiboak__diren__izenondoak__,__zalantzarik__gabe__erreferentzial__hutsak__diren__izenondoekin__.	EDU	eta	zaku	berean	CONJ	NOUN	DET	.	PUNCT	long	eta	sartzen	izenondoekin	CONJ	VERB	NOUN	OUT-HEAD	beginning	<NA>	<NA>	<NA>	<NA>
ingeleserako__levi-k__-LRB-__1978__-RRB-__garbi__utzi__du__izenetik__eratorriak__diren__baina__ezaugarri__semantiko__eta__sintaktiko__desberdinak__dituzten__bi__izenondo-mota__bereizteko__beharra__:__'nominal__nonpredicating__adjectives__'__eta__'denominal__adjectives__'__;	EDU	Ingeleserako	'nominal	Levi-k	NOUN	NOUN	PROPN	:	PUNCT	verylong	utzi	<NA>	<NA>	VERB	<NA>	<NA>	IN-HEAD	beginning	numb	<NA>	<NA>	date
azkenekoak__-y__,__-fill__eta__-ous__bezalako__atzizkien__bidez__eratorritakoak__dira	EDU	azkenekoak	-y	,	NOUN	PROPN	PUNCT	dira	VERB	short	azkenekoak	eratorritakoak	<NA>	NOUN	VERB	<NA>	IN-HEAD	beginning	<NA>	<NA>	<NA>	<NA>
eta__haien__gramatika-kategoria__ezezik__,__haien__predikatuizaera__ere__jasoko__lukete__atzizkitik__.	EDU	eta	haien	gramatika-kategoria	CONJ	DET	NOUN	.	PUNCT	short	eta	jasoko	<NA>	CONJ	VERB	<NA>	OUT-HEAD	beginning	<NA>	<NA>	<NA>	<NA>
'nominal__nonpredicating__adjectives__'__sailean__sartuko__liratekeenak__berriz__,	EDU	'Nominal	nonpredicating	adjectives	PROPN	PROPN	NOUN	,	PUNCT	short	sartuko	liratekeenak	berriz	VERB	NUM	CONJ	IN-HEAD	beginning	<NA>	<NA>	<NA>	<NA>
kategoriaz__izenondoak__izanik__ere__,	EDU	kategoriaz	izenondoak	izanik	NOUN	NOUN	VERB	,	PUNCT	veryshort	izanik	<NA>	<NA>	VERB	<NA>	<NA>	OUT-HEAD	beginning	<NA>	<NA>	<NA>	<NA>
izenen__antzeko__jokaera__sintaktikoa__izango__lukete__:__linguistic__difficulties__/__language__difficulties__.	EDU	linguistic	difficulties	/	NOUN	NOUN	PUNCT	:	PUNCT	short	difficulties	<NA>	<NA>	NOUN	<NA>	<NA>	OUT-HEAD	beginning	<NA>	<NA>	<NA>	<NA>
gaztelaniaren__kasuan__bosque-k__-LRB-__1989__-RRB-__defenditu__duen__bezala__,	EDU	Gaztelaniaren	kasuan	Bosque-k	PROPN	NOUN	PROPN	,	PUNCT	short	defenditu	<NA>	<NA>	VERB	<NA>	<NA>	OUT-HEAD	first-middle	numb	<NA>	<NA>	date
badira__izenondo__erreferentzialak__nekez__ematen__dituzten__atzizki__izenondo-sortzaileak__-LRB-__-esco__,__-oso__,__-ino__-RRB-__eta__izenondo__erreferentzialak__eman__ohi__dituztenak__-LRB-__-al__,__-ar__,__-ario__,__-ico__-RRB-__.	EDU	badira	izenondo	erreferentzialak	VERB	NOUN	ADJ	.	PUNCT	verylong	-ario	<NA>	<NA>	NOUN	<NA>	<NA>	IN-HEAD	first-middle	<NA>	<NA>	<NA>	<NA>
frantsesez__ere__atzizki__desberdinak__erabili__ohi__dira	EDU	Frantsesez	ere	atzizki	PROPN	CONJ	NOUN	dira	VERB	short	dira	<NA>	<NA>	VERB	<NA>	<NA>	OUT-HEAD	first-middle	<NA>	<NA>	<NA>	<NA>
izenondo__erreferentzialak__eta__predikatiboak__sortzeko	EDU	izenondo	erreferentzialak	eta	NOUN	ADJ	CONJ	sortzeko	VERB	veryshort	sortzeko	<NA>	<NA>	VERB	<NA>	<NA>	OUT-HEAD	first-middle	<NA>	<NA>	<NA>	<NA>
eta__ondorioz__,__familial-familier__eta__infantil-infantin__bezalako__bikoteak__dituzte__.	EDU	eta	ondorioz	,	CONJ	NOUN	PUNCT	.	PUNCT	short	eta	dituzte	<NA>	CONJ	VERB	<NA>	OUT-HEAD	first-middle	<NA>	<NA>	<NA>	<NA>
edonola__,__benetan__erreferentzialak__diren__izenondoen__artean__ere__,__modifikatzen__duten__izenarekin__duten__harremanagatik__-LRB-__bosque__,__1989__;__1992__;__bosque__eta__picallo__,__1994__-RRB-__,__bi__mota__bereiz__daitezke__:	EDU	Edonola	,	benetan	ADV	PUNCT	ADV	:	PUNCT	verylong	bereiz	<NA>	<NA>	VERB	<NA>	<NA>	IN-HEAD	first-middle	numb	<NA>	<NA>	date
alde__batetik	EDU	alde	<NA>	<NA>	NOUN	<NA>	<NA>	batetik	NUM	veryshort	alde	<NA>	<NA>	NOUN	<NA>	<NA>	OUT-HEAD	first-middle	<NA>	<NA>	<NA>	<NA>
modifikatzen__duten__izena__ekintza-__edo__ondorio-izena__denean__,	EDU	modifikatzen	duten	izena	VERB	AUX	NOUN	,	PUNCT	short	ekintza-	<NA>	<NA>	PUNCT	<NA>	<NA>	OUT-HEAD	first-middle	<NA>	<NA>	<NA>	<NA>
askotan__gertatzen__da__izenondo__erreferentziala__izen__horren__argumentua__izatea__.	EDU	askotan	gertatzen	da	ADV	VERB	AUX	.	PUNCT	short	gertatzen	<NA>	<NA>	VERB	<NA>	<NA>	IN-HEAD	first-middle	<NA>	<NA>	<NA>	<NA>
adibidez__,__decisión__presidencial__ezinbestean__izango__da__presidenteak__erabakitakoa__eta__extracción__dental__hortz__edo__hagin__baten__ateratzearen__ekintza__.	EDU	Adibidez	,	decisión	ADV	PUNCT	NOUN	.	PUNCT	long	izango	<NA>	<NA>	VERB	<NA>	<NA>	IN-HEAD	first-middle	<NA>	<NA>	<NA>	<NA>
bistan__da__azken__kasuan__dental__izenondoa__extraer__aditzaren__osagarri__zuzenaren__parekoa__dela__eta__euskaraz__izen__elkartu__sintetikoak__hautagai__bikainak__direla__hauetarako__-LRB-__hortz-ateratzea__-RRB-__.	EDU	Bistan	da	azken	NOUN	VERB	NUM	.	PUNCT	long	da	<NA>	<NA>	VERB	<NA>	<NA>	IN-HEAD	first-middle	<NA>	<NA>	<NA>	<NA>
decisión__presidencial__ostera__,__nekez__egingo__dugu__presidente-erabaki	EDU	Decisión	presidencial	ostera	NOUN	ADJ	CONJ	presidente-erabaki	NOUN	short	egingo	presidente-erabaki	<NA>	VERB	NOUN	<NA>	OUT-HEAD	first-middle	<NA>	<NA>	<NA>	<NA>
eta__presidentearen__erabaki__aukeratuko__dugu__ia__zalantzarik__gabe__.	EDU	eta	presidentearen	erabaki	CONJ	NOUN	VERB	.	PUNCT	short	eta	presidentearen	aukeratuko	CONJ	NOUN	VERB	IN-HEAD	first-middle	<NA>	<NA>	<NA>	<NA>
zein__da__desberdintasun__honen__arrazoia__,__izen__elkartuaren__mugatzailearen__'subjektutasuna__'__ala__elementu__horren__'mugatutasuna__'__?	EDU	Zein	da	desberdintasun	DET	VERB	NOUN	?	PUNCT	long	arrazoia	<NA>	<NA>	NOUN	<NA>	<NA>	IN-HEAD	first-middle	<NA>	<NA>	<NA>	<NA>
bestetik__,	EDU	Bestetik	<NA>	<NA>	DET	<NA>	<NA>	,	PUNCT	veryshort	Bestetik	<NA>	<NA>	DET	<NA>	<NA>	OUT-HEAD	first-middle	<NA>	<NA>	<NA>	<NA>
izenondo__erreferentzialek__modifikatzen__dutena__-LRB-__argurmentu-egiturarik__gabeko__objektu-__-RRB-__izena__denean__,	EDU	izenondo	erreferentzialek	modifikatzen	NOUN	ADJ	VERB	,	PUNCT	short	modifikatzen	<NA>	<NA>	VERB	<NA>	<NA>	IN-HEAD	second-middle	<NA>	<NA>	<NA>	<NA>
izenaren__eta__izenondoaren__arteko__harremana__ezin__aurresan__daiteke__;	EDU	izenaren	eta	izenondoaren	NOUN	CONJ	NOUN	;	PUNCT	short	aurresan	<NA>	<NA>	VERB	<NA>	<NA>	OUT-HEAD	second-middle	<NA>	<NA>	<NA>	<NA>
hiztegigileek__-ri__dagokion__perifrasiaren__bidez__definitzen__duten__esparru-harremana__edo__jabego-harremana__dugu__orduan__.	EDU	hiztegigileek	-ri	dagokion	NOUN	NOUN	VERB	.	PUNCT	short	dugu	<NA>	<NA>	VERB	<NA>	<NA>	OUT-HEAD	second-middle	<NA>	<NA>	<NA>	<NA>
adibidez__,__hilo__dental__hortzak__garbitzeko__erabiltzen__den__haria__da	EDU	Adibidez	,	hilo	ADV	PUNCT	ADV	da	VERB	short	haria	<NA>	<NA>	NOUN	<NA>	<NA>	IN-HEAD	second-middle	<NA>	<NA>	<NA>	<NA>
eta__euskaraz__,__hortzetako__haria__nahiago__genuke__seguruenik__hortz-haria__baino__.	EDU	eta	euskaraz	,	CONJ	NOUN	PUNCT	.	PUNCT	short	eta	genuke	<NA>	CONJ	VERB	<NA>	OUT-HEAD	second-middle	<NA>	<NA>	<NA>	<NA>
azkenik__,__fonetikaren__esparruan__erabiltzen__den__consonante__dental__multzorako__kontsonante__horzkaria__erabiltzen__da__eta__ez__hortz-kontsonante__.	EDU	Azkenik	,	fonetikaren	ADV	PUNCT	NOUN	.	PUNCT	long	erabiltzen	<NA>	<NA>	VERB	<NA>	<NA>	IN-HEAD	second-middle	<NA>	<NA>	<NA>	<NA>
laburbilduz__,__unibertsala__da__izenen__eta__haien__modifikatzaileen__artean__egon__daitezkeen__harremanen__sailkapena__:__predikatu-izaera__duten__modifikatzaileak__alde__batetik__eta__izaera__erreferentziala__duten__modifikatzaileak__bestetik__.	EDU	Laburbilduz	predikatu-	,	VERB	PUNCT	PUNCT	:	PUNCT	verylong	sailkapena	<NA>	<NA>	NOUN	<NA>	<NA>	IN-HEAD	second-middle	<NA>	<NA>	<NA>	<NA>
gainera__,__azken__multzo__honen__barruan__izenaren__argumentuak__diren__modifikatzaileak__eta__izenarekin__jabego-__edo__eremu-harremana__dutenak__daude__.	EDU	Gainera	,	azken	CONJ	PUNCT	NUM	.	PUNCT	long	jabego-	<NA>	<NA>	PUNCT	<NA>	<NA>	OUT-HEAD	second-middle	<NA>	<NA>	<NA>	<NA>
harreman__horiek__gramatika-kategoria__desberdinen__bidez__adieraz__daitezke__hizkuntza__batean__eta__beste__batean__:__izenondoen__bidez__,__preposizio-__edo__posposizio-sintagmen__bidez__,__izen__elkartuen__bidez__e.a__.	EDU	Harreman	izenondoen	horiek	NOUN	NOUN	DET	.	PUNCT	verylong	izenondoen	preposizio-	adieraz	NOUN	PUNCT	VERB	IN-HEAD	second-middle	<NA>	<NA>	<NA>	<NA>
esate__baterako__,__ingeleseko__marginal__adjektiboak__erabilera__erreferentziala__eta__predikatiboa__ditu__hurrenez__hurren__marginal__note__eta__marginal__case__multzoetan__;	EDU	Esate	baterako	,	NOUN	NUM	PUNCT	;	PUNCT	long	Esate	erabilera	eta	NOUN	NOUN	CONJ	IN-HEAD	second-middle	<NA>	<NA>	<NA>	<NA>
gaztelaniaz__berriz__,__erabilera__erreferentziala__eta__predikatiboa__bereizten__dituzte__,	EDU	gaztelaniaz	berriz	,	NOUN	CONJ	PUNCT	,	PUNCT	short	bereizten	<NA>	<NA>	VERB	<NA>	<NA>	OUT-HEAD	second-middle	<NA>	<NA>	<NA>	<NA>
nota__al__margen__eta__caso__marginal__eginez__.	EDU	nota	al	margen	NOUN	ADJ	NOUN	.	PUNCT	short	eginez	<NA>	<NA>	VERB	<NA>	<NA>	OUT-HEAD	second-middle	<NA>	<NA>	<NA>	<NA>
euskararako__,__'elhuyar__hiztegian__'__albo-ohar__edo__marjinako__ohar__aurki__daiteke__erabilera__erreferentzialerako__baina__bazterreko__kasu__bezalako__adibideak__erabilera__predikatiborako__.	EDU	Euskararako	,	'Elhuyar	NOUN	PUNCT	PROPN	.	PUNCT	long	aurki	<NA>	<NA>	VERB	<NA>	<NA>	IN-HEAD	second-middle	<NA>	<NA>	<NA>	<NA>
edonola__,__zenbait__hizkuntzatan__,__deskribaturiko__hiru__esparruak__estaltzen__dituzten__izenondoak__daude__;	EDU	Edonola	,	zenbait	ADV	PUNCT	DET	;	PUNCT	short	daude	<NA>	<NA>	VERB	<NA>	<NA>	IN-HEAD	second-middle	<NA>	<NA>	<NA>	<NA>
levi-ren__adibideak__gogoraraziko__ditugu__horretarako__:__musical__voice__,__musical__criticism__,__musical__comedy__.	EDU	musical	voice	,	NOUN	NOUN	PUNCT	:	PUNCT	short	voice	horretarako	:	NOUN	DET	PUNCT	IN-HEAD	second-middle	<NA>	<NA>	<NA>	<NA>
lan__honetan__,__harreman__unibertsal__horietako__bakoitza__euskaraz__zein__baliabideren__bidez__adieraz__daitekeen__eta__baliabide__bakoitzaren__mugak__-LRB-__gaur__egun__behintzat__-RRB-__non__egon__daitezkeen__finkatzen__saiatuko__gara__:	EDU	Lan	honetan	,	NOUN	DET	PUNCT	:	PUNCT	verylong	saiatuko	<NA>	<NA>	VERB	<NA>	<NA>	IN-HEAD	end	<NA>	<NA>	<NA>	<NA>
euskal__atzizki__izenondo-sortzaileen__bidez__,__zein__motatako__izenondoak__sor__daitezke__?	EDU	Euskal	atzizki	izenondo-sortzaileen	NOUN	NOUN	NOUN	?	PUNCT	short	sor	<NA>	<NA>	VERB	<NA>	<NA>	IN-HEAD	end	<NA>	<NA>	<NA>	<NA>
zenbait__izenondo__erreferentzial__izen__elkartuen__bidez__euskara__badaitezke__ere__,	EDU	Zenbait	izenondo	erreferentzial	DET	NOUN	NOUN	,	PUNCT	short	euskara	<NA>	<NA>	NOUN	<NA>	<NA>	OUT-HEAD	end	<NA>	<NA>	<NA>	<NA>
garbi__dago__bide__honek__ez__dituela__izenondo__erreferentzial__guztien__ordainak__eskaintzen__.	EDU	garbi	dago	bide	ADV	VERB	NOUN	.	PUNCT	short	dago	<NA>	<NA>	VERB	<NA>	<NA>	IN-HEAD	end	<NA>	<NA>	<NA>	<NA>
non__dago__muga__?	EDU	Non	dago	muga	ADV	VERB	NOUN	?	PUNCT	veryshort	dago	<NA>	<NA>	VERB	<NA>	<NA>	IN-HEAD	end	<NA>	<NA>	<NA>	<NA>
predikatu-/ez-predikatu__izaeran__,__argumentu-/eremu-__/jabego-harremanean__edo__beste__nonbait__al__datza__gakoa__?	EDU	Predikatu-	/ez-predikatu	izaeran	NOUN	VERB	NOUN	?	PUNCT	short	gakoa	<NA>	<NA>	NOUN	<NA>	<NA>	IN-HEAD	end	<NA>	<NA>	<NA>	<NA>
izenondoaren__jatorrian__dagoen__izenaren__mugatu/mugagabe__,__bizidun/bizigabe__,__zenbakarri/zenbakaitza__bezalako__tasunek__ba__al__dute__nolabaiteko__eraginik__?	EDU	Izenondoaren	jatorrian	dagoen	ADJ	NOUN	VERB	?	PUNCT	long	dute	<NA>	<NA>	VERB	<NA>	<NA>	IN-HEAD	end	<NA>	<NA>	<NA>	<NA>
modifikatua__den__izena__ekintza-__,__ondorio-__edo__objektu-izena__izateak__ba__al__du__eraginik__ezintasun__horretan__?	EDU	Modifikatua	den	izena	VERB	VERB	NOUN	?	PUNCT	long	al	<NA>	<NA>	VERB	<NA>	<NA>	IN-HEAD	end	<NA>	<NA>	<NA>	<NA>
zein__dira	EDU	Zein	<NA>	<NA>	DET	<NA>	<NA>	dira	VERB	veryshort	Zein	<NA>	<NA>	DET	<NA>	<NA>	IN-HEAD	end	<NA>	<NA>	<NA>	<NA>
erdal__izenondo__erreferentzial__bat__ezinbestean__mailegatu__behar__izatera	EDU	erdal	izenondo	erreferentzial	NOUN	NOUN	ADJ	izatera	VERB	short	izatera	<NA>	<NA>	VERB	<NA>	<NA>	OUT-HEAD	end	<NA>	<NA>	<NA>	<NA>
eraman__gaitzaketen__baldintzak__?	EDU	eraman	gaitzaketen	baldintzak	VERB	PROPN	NOUN	?	PUNCT	veryshort	eraman	<NA>	<NA>	VERB	<NA>	<NA>	OUT-HEAD	end	<NA>	<NA>	<NA>	<NA>
noiz__erabili__ohi__ditugu__euskal__izenlagunak	EDU	Noiz	erabili	ohi	ADV	VERB	X	izenlagunak	NOUN	short	ditugu	<NA>	<NA>	VERB	<NA>	<NA>	IN-HEAD	end	<NA>	<NA>	<NA>	<NA>
erdal__izenondoak__ordezkatzeko__?	EDU	erdal	izenondoak	ordezkatzeko	NOUN	NOUN	VERB	?	PUNCT	veryshort	ordezkatzeko	<NA>	<NA>	VERB	<NA>	<NA>	OUT-HEAD	end	<NA>	<NA>	<NA>	<NA>
lanaren__helburua__laburki__esanda__,	EDU	Lanaren	helburua	laburki	NOUN	NOUN	ADV	,	PUNCT	veryshort	esanda	<NA>	<NA>	VERB	<NA>	<NA>	IN-HEAD	end	<NA>	<NA>	<NA>	<NA>
inguruko__hizkuntzen__izenondo__erreferentzialak__euskaratzeko__beharrean__gaudenean	EDU	inguruko	hizkuntzen	izenondo	NOUN	NOUN	NOUN	gaudenean	NOUN	short	gaudenean	<NA>	<NA>	NOUN	<NA>	<NA>	OUT-HEAD	end	<NA>	<NA>	<NA>	<NA>
modu__automatiko__samarrean__egiten__lagunduko__ligukeen__sistematizazioa__lortzea__da__.	EDU	modu	automatiko	samarrean	NOUN	ADJ	ADV	.	PUNCT	short	lortzea	<NA>	<NA>	VERB	<NA>	<NA>	OUT-HEAD	last	<NA>	<NA>	<NA>	<NA>

informatika__juridikoko__sistema__argentinarreko__thesaurusetik__terminologia__juridikora__ekarpenak__.	EDU	Informatika	juridikoko	sistema	NOUN	ADJ	NOUN	.	PUNCT	short	terminologia	<NA>	<NA>	NOUN	<NA>	<NA>	OUT-HEAD	first	<NA>	<NA>	<NA>	<NA>
informatika__zuzenbidearen__esparrura__aplikatzean__,	EDU	Informatika	zuzenbidearen	esparrura	NUM	NOUN	NOUN	,	PUNCT	veryshort	aplikatzean	<NA>	<NA>	VERB	<NA>	<NA>	OUT-HEAD	beginning	<NA>	<NA>	<NA>	<NA>
informatika__juridikoaz__hitz__egiten__da__.	EDU	informatika	juridikoaz	hitz	NOUN	ADJ	DET	.	PUNCT	short	egiten	<NA>	<NA>	VERB	<NA>	<NA>	IN-HEAD	first-middle	<NA>	<NA>	<NA>	<NA>
agirietako__informatika__juridikoa__datu-base__juridikoen__inguruan__dago__oinarrituta__.	EDU	Agirietako	informatika	juridikoa	NOUN	NOUN	ADJ	.	PUNCT	short	dago	<NA>	<NA>	VERB	<NA>	<NA>	IN-HEAD	first-middle	<NA>	<NA>	<NA>	<NA>
datu-base__horietan__hiru__agiri-mota__aurkitzen__dira__batez__ere__,__zuzenbidearen__hiru__iturri__nagusien__arabera__,__hain__zuzen__:__jurisprudentzia__,__legegintza__eta__autoreen__doktrina__.	EDU	Datu-base	jurisprudentzia	horietan	NOUN	NOUN	DET	:	PUNCT	long	jurisprudentzia	aurkitzen	<NA>	NOUN	VERB	<NA>	IN-HEAD	second-middle	<NA>	<NA>	<NA>	<NA>
datu-base__batzuk__publikoak__eta__beste__batzuk__pribatuak__dira__.	EDU	Datu-base	batzuk	publikoak	NOUN	DET	ADJ	.	PUNCT	short	pribatuak	<NA>	<NA>	VERB	<NA>	<NA>	IN-HEAD	second-middle	<NA>	<NA>	<NA>	<NA>
gure__herrialdean__,__datubase__publiko__bakarra__informatika__juridikoko__sistema__argentinarra__da__,__estatuko__justizi__ministerioaren__mende__dagoena__.	EDU	Gure	herrialdean	,	PRON	NOUN	PUNCT	.	PUNCT	long	ARGENTINARRA	<NA>	<NA>	NOUN	<NA>	<NA>	IN-HEAD	end	<NA>	<NA>	<NA>	<NA>
gaur__egun__,__base__horrek__510.000__agiri__baino__gehiago__ditu__.	EDU	Gaur	egun	,	ADV	ADV	PUNCT	.	PUNCT	short	ditu	<NA>	<NA>	VERB	<NA>	<NA>	IN-HEAD	end	numb	<NA>	<NA>	<NA>
lantxo__honetan__,__sistemaren__erabiltzaileak__eskura__duen__baliabide__linguistiko__baten__gainean__jardungo__dugu__batez__ere__:__thesaurus__juridikoa__,__informazioa__gaika__berreskuratzeko__aukera__ematen__duena__.	EDU	Lantxo	thesaurus	honetan	NOUN	NOUN	DET	:	PUNCT	verylong	ematen	jardungo	<NA>	VERB	VERB	<NA>	IN-HEAD	last	<NA>	<NA>	<NA>	<NA>

alter__ero__/__bertol__arrieta__/__susa__,__2012__oso__positiboa__ispiluan__den__``__beste__ni__''__-a__saioa__ruiz__gonzalez__/__argia__,__2013-01-27__.	EDU	Alter	ero	/	PROPN	PROPN	PUNCT	.	PUNCT	verylong	<NA>	<NA>	<NA>	<NA>	<NA>	<NA>	IN-HEAD	first	numb	<NA>	<NA>	date
izugarri__gustura__irakurri__dut__bertol__arrietaren__alter__ero__narrazio__liburua__.	EDU	Izugarri	gustura	irakurri	ADV	ADV	VERB	.	PUNCT	short	irakurri	<NA>	<NA>	VERB	<NA>	<NA>	IN-HEAD	beginning	<NA>	<NA>	<NA>	<NA>
arin__irakurtzen__diren__zortzi__ipuin__laburretan__pertsonaia__maskulino__bana__topatzen__dugu__betiko__errealitatean__txertatuak__.	EDU	Arin	irakurtzen	diren	ADV	VERB	AUX	.	PUNCT	short	topatzen	<NA>	<NA>	VERB	<NA>	<NA>	IN-HEAD	beginning	<NA>	<NA>	<NA>	<NA>
hala__eta__guztiz__ere__,__bada__errutina__horretan__pertsonaiek__erakusten__duten__egiteko__modu__berezi__bat__,	EDU	Hala	eta	guztiz	ADV	CONJ	ADV	,	PUNCT	long	Hala	modu	<NA>	ADV	NOUN	<NA>	OUT-HEAD	beginning	<NA>	<NA>	<NA>	<NA>
errealitate__arruntenetan__aurkitzen__dena__baina__besteengan__ikusten__ez__dugun__arte__,	EDU	errealitate	arruntenetan	aurkitzen	NOUN	ADV	VERB	,	PUNCT	short	aurkitzen	<NA>	<NA>	VERB	<NA>	<NA>	IN-HEAD	beginning	<NA>	<NA>	<NA>	<NA>
harrapatzeko__zail__xamar__suerta__datekeena__.	EDU	harrapatzeko	zail	xamar	VERB	ADJ	ADV	.	PUNCT	short	suerta	<NA>	<NA>	NOUN	<NA>	<NA>	OUT-HEAD	beginning	<NA>	<NA>	<NA>	<NA>
ispiluaren__metodoa__inkontzienteaz__kontziente__izateko	EDU	Ispiluaren	metodoa	inkontzienteaz	ADJ	NOUN	VERB	izateko	VERB	veryshort	izateko	<NA>	<NA>	VERB	<NA>	<NA>	OUT-HEAD	beginning	<NA>	<NA>	<NA>	<NA>
metodo__ezin__hobea__iruditzen__zait__.	EDU	metodo	ezin	hobea	CONJ	NOUN	ADJ	.	PUNCT	short	iruditzen	<NA>	<NA>	VERB	<NA>	<NA>	IN-HEAD	beginning	<NA>	<NA>	<NA>	<NA>
hari__narratibo__landugabeegiak__eta__idazkera__sinpleegia__izan__arren__,	EDU	Hari	narratibo	landugabeegiak	NOUN	ADJ	NOUN	,	PUNCT	short	<NA>	<NA>	<NA>	<NA>	<NA>	<NA>	OUT-HEAD	beginning	<NA>	<NA>	<NA>	<NA>
ene__ustez__,__guztiongan__bizi__den__alter__ero__inkontziente__hura__biziki__ondo__islatzen__jakitetik__abiatzen__da__arrietaren__gaitasuna__.	EDU	ene	ustez	,	PRON	NOUN	PUNCT	.	PUNCT	long	abiatzen	<NA>	<NA>	VERB	<NA>	<NA>	IN-HEAD	first-middle	<NA>	<NA>	<NA>	<NA>
horrek__pentsatzera__eraman__nau__arrieta__bera__ez__ote__den__sekula__psikoanalisian__aritu__.	EDU	Horrek	pentsatzera	eraman	DET	VERB	VERB	.	PUNCT	short	eraman	<NA>	<NA>	VERB	<NA>	<NA>	IN-HEAD	first-middle	<NA>	<NA>	<NA>	<NA>
ez__erotasunagatik__,	EDU	Ez	erotasunagatik	<NA>	PART	NOUN	<NA>	,	PUNCT	veryshort	Ez	erotasunagatik	<NA>	PART	NOUN	<NA>	OUT-HEAD	first-middle	<NA>	<NA>	<NA>	<NA>
terapia__psikoanalitikoaren__defendatzaile__sutsua__nauzue__,	EDU	terapia	psikoanalitikoaren	defendatzaile	NOUN	ADJ	NOUN	,	PUNCT	short	nauzue	<NA>	<NA>	AUX	<NA>	<NA>	OUT-HEAD	first-middle	<NA>	<NA>	<NA>	<NA>
baizik__eta__errealitatea__perzibitzeko__modu__eta__perspektiba__berezi__batetik__idazten__jakin__izan__duelako__.	EDU	baizik	eta	errealitatea	CONJ	CONJ	NOUN	.	PUNCT	short	baizik	perzibitzeko	jakin	CONJ	VERB	VERB	IN-HEAD	first-middle	<NA>	<NA>	<NA>	<NA>
narrazio__gehienetan__ageri__diren__pertsonaiak__neurotiko__obsesibotzat__har__daitezke__:	EDU	Narrazio	gehienetan	ageri	NOUN	ADV	ADJ	:	PUNCT	short	har	<NA>	<NA>	VERB	<NA>	<NA>	IN-HEAD	first-middle	<NA>	<NA>	<NA>	<NA>
ipuin__perfektua__idatzi__nahi__duen__narrazio__horretako__pertsonaia__,__un__tal__ekain__izena__duen__ipuin__bereko__pertsonaia__,__bere__burua__cortazarren__oinordekotzat__daukana__,__edota__laurak__eta__hodei__ipuineko__pertsonaia__,__erlojuetan__orratz__handiak__etengabe__irentsi__baitu__txikia__!	EDU	Ipuin	perfektua	idatzi	NOUN	ADJ	VERB	!	PUNCT	verylong	irentsi	<NA>	<NA>	VERB	<NA>	<NA>	IN-HEAD	first-middle	<NA>	<NA>	<NA>	<NA>
arrietak__,__baina__,__ez__ditu__horrela__tratatzen__.	EDU	Arrietak	,	baina	PROPN	PUNCT	CONJ	.	PUNCT	short	tratatzen	<NA>	<NA>	VERB	<NA>	<NA>	IN-HEAD	first-middle	<NA>	<NA>	<NA>	<NA>
egiten__dutena__deskribatzera__mugatzen__da	EDU	Egiten	dutena	deskribatzera	VERB	AUX	VERB	da	AUX	veryshort	mugatzen	<NA>	<NA>	VERB	<NA>	<NA>	IN-HEAD	first-middle	<NA>	<NA>	<NA>	<NA>
oso__arruntak__diren__egoeratan__txertatuz__,	EDU	oso	arruntak	diren	ADV	ADJ	VERB	,	PUNCT	short	txertatuz	<NA>	<NA>	VERB	<NA>	<NA>	OUT-HEAD	first-middle	<NA>	<NA>	<NA>	<NA>
halakoxea__baita__egunerokotasuna__,__eta__bizitza__,__azken__finean__.	EDU	halakoxea	baita	egunerokotasuna	NOUN	VERB	NOUN	.	PUNCT	short	egunerokotasuna	eta	bizitza	NOUN	CONJ	NOUN	OUT-HEAD	second-middle	<NA>	<NA>	<NA>	<NA>
baina__hain__da__arrunta__,	EDU	Baina	hain	da	CONJ	ADV	VERB	,	PUNCT	veryshort	arrunta	<NA>	<NA>	ADJ	<NA>	<NA>	IN-HEAD	second-middle	<NA>	<NA>	<NA>	<NA>
askotan__begirada__lanbrotu__egiten__zaigula__,	EDU	askotan	begirada	lanbrotu	DET	NOUN	VERB	,	PUNCT	short	lanbrotu	<NA>	<NA>	VERB	<NA>	<NA>	OUT-HEAD	second-middle	<NA>	<NA>	<NA>	<NA>
eta__gure__beldurrez__,__obsesio__eta__frustrazioez__ohitura__egiten__dugu__,	EDU	eta	gure	beldurrez	CONJ	PRON	ADV	,	PUNCT	short	eta	egiten	<NA>	CONJ	VERB	<NA>	OUT-HEAD	second-middle	<NA>	<NA>	<NA>	<NA>
stand-by__egoeran__-LRB-__ipuin__baten__izenburuaren__antzera__-RRB-__geratzeraino__.	EDU	stand-by	egoeran	-LRB-	NOUN	NOUN	PUNCT	.	PUNCT	short	egoeran	-LRB-	izenburuaren	NOUN	PUNCT	NOUN	OUT-HEAD	second-middle	<NA>	<NA>	<NA>	<NA>
denbora__betibera__,__bizitzaz__aldatu__nahia__eta__ezin	EDU	Denbora	betibera	,	NOUN	DET	PUNCT	ezin	NOUN	short	aldatu	<NA>	<NA>	VERB	<NA>	<NA>	OUT-HEAD	second-middle	<NA>	<NA>	<NA>	<NA>
-LRB-__ausartu__ez__?__-RRB-	EDU	-RRB-	-LRB-	ausartu	PUNCT	PUNCT	VERB	?	PUNCT	veryshort	-RRB-	-LRB-	ausartu	PUNCT	PUNCT	VERB	IN-HEAD	second-middle	<NA>	<NA>	<NA>	<NA>
,__iraganeko__frustrazioen__arantzak__erauzi__nahia	EDU	,	iraganeko	frustrazioen	PUNCT	NOUN	NOUN	nahia	NOUN	short	erauzi	nahia	<NA>	VERB	NOUN	<NA>	OUT-HEAD	second-middle	<NA>	<NA>	<NA>	<NA>
-LRB-__zenbat__dira__ikasketa__unibertsitarioak__,__gurasoen__influentziak__bultzaturik__egin__dituztenak__?__-RRB-	EDU	-RRB-	-LRB-	zenbat	PUNCT	PUNCT	DET	?	PUNCT	short	-LRB-	egin	<NA>	PUNCT	VERB	<NA>	IN-HEAD	second-middle	<NA>	<NA>	<NA>	<NA>
,__egonkortasunari__bye__esateari__panikoa__,__zenbait__profesiotan__dauden__obsesio__perfekzionisten__azaleratzea__-LRB-__idazlearen__inspirazioa__versus__teknika__-RRB-__;	EDU	,	egonkortasunari	Bye	PUNCT	NOUN	PROPN	;	PUNCT	long	azaleratzea	<NA>	<NA>	VERB	<NA>	<NA>	IN-HEAD	second-middle	<NA>	<NA>	<NA>	<NA>
nor__ez__da__luzez__ezerezari__begira__geratu__,	EDU	nor	ez	da	PRON	PART	VERB	,	PUNCT	short	geratu	<NA>	<NA>	VERB	<NA>	<NA>	OUT-HEAD	end	<NA>	<NA>	<NA>	<NA>
inspirazioa__noiz__iritsiko__den__zain__?	EDU	inspirazioa	noiz	iritsiko	NOUN	ADV	VERB	?	PUNCT	short	iritsiko	<NA>	<NA>	VERB	<NA>	<NA>	OUT-HEAD	end	<NA>	<NA>	<NA>	<NA>
edo__,__idazteari__ekin__aurretik__milaka__liburu__irentsi__behar__dugulako__obsesioa__nork__ez__du__inoiz__ukan__?	EDU	Edo	,	idazteari	CONJ	PUNCT	VERB	?	PUNCT	long	ukan	<NA>	<NA>	VERB	<NA>	<NA>	IN-HEAD	end	<NA>	<NA>	<NA>	<NA>
ipuin__perfektuko__pertsonaiak__panikoa__dio__idazlearen__profesioari__.	EDU	Ipuin	perfektuko	pertsonaiak	NOUN	ADJ	NOUN	.	PUNCT	short	dio	<NA>	<NA>	VERB	<NA>	<NA>	IN-HEAD	end	<NA>	<NA>	<NA>	<NA>
bertol__arrietak__narrazio__liburu__interesagarria__eskaintzen__jakin__izan__digu__.	EDU	Bertol	Arrietak	narrazio	PROPN	PROPN	NOUN	.	PUNCT	short	jakin	<NA>	<NA>	VERB	<NA>	<NA>	IN-HEAD	end	<NA>	<NA>	<NA>	<NA>
gure__izaeraz	EDU	Gure	<NA>	<NA>	PRON	<NA>	<NA>	izaeraz	VERB	veryshort	izaeraz	<NA>	<NA>	VERB	<NA>	<NA>	OUT-HEAD	end	<NA>	<NA>	<NA>	<NA>
-LRB-__izanaz__?__-RRB-	EDU	-RRB-	-LRB-	izanaz	PUNCT	PUNCT	VERB	?	PUNCT	veryshort	-LRB-	izanaz	<NA>	PUNCT	VERB	<NA>	IN-HEAD	end	<NA>	<NA>	<NA>	<NA>
hausnartzeko__manual__gisa__eta__,	EDU	hausnartzeko	manual	gisa	VERB	NOUN	ADP	,	PUNCT	veryshort	manual	<NA>	<NA>	NOUN	<NA>	<NA>	OUT-HEAD	end	<NA>	<NA>	<NA>	<NA>
espresioa__onartzen__badidazue__,	EDU	espresioa	onartzen	badidazue	NOUN	VERB	AUX	,	PUNCT	veryshort	espresioa	onartzen	<NA>	NOUN	VERB	<NA>	OUT-HEAD	end	<NA>	<NA>	<NA>	<NA>
etxetik__ibiltzeko__dosi__psikoanalitiko__ttipi__moduan__hauteman__dut__nik__.	EDU	etxetik	ibiltzeko	dosi	NOUN	VERB	NOUN	.	PUNCT	short	hauteman	<NA>	<NA>	VERB	<NA>	<NA>	IN-HEAD	end	<NA>	<NA>	<NA>	<NA>
guztiz__gomendagarria__.	EDU	Guztiz	gomendagarria	<NA>	ADV	ADJ	<NA>	.	PUNCT	veryshort	gomendagarria	<NA>	<NA>	ADJ	<NA>	<NA>	IN-HEAD	last	<NA>	<NA>	<NA>	<NA>

bronkiektasia__eta__bgbk__duten__pazienteetan__pseudomonas__aeruginosaren__kolonizazio-infekzioa__.	EDU	Bronkiektasia	eta	BGBK	PROPN	CONJ	PROPN	.	PUNCT	short	kolonizazio-infekzioa	<NA>	<NA>	NOUN	<NA>	<NA>	OUT-HEAD	first	<NA>	<NA>	<NA>	<NA>
bronkiektasiak__-LRB-__fibrosi__kistikoa__-RRB-__edo__biriketako__gaixotasun__butxatzaile__kronikoak__-LRB-__bgbk__-RRB-__–pseudomonas__aeruginosa__bidezko__kolonizazio__edo__infekzioarekin–__dituzten__pazienteen__ezaugarri__epidemiologiko__,__kliniko__,__mikrobiologiko__eta__ebolutibo__jakin__batzuk__ezagutzea__.	EDU	Bronkiektasiak	-LRB-	fibrosi	PROPN	PUNCT	NOUN	.	PUNCT	verylong	dituzten	<NA>	<NA>	VERB	<NA>	<NA>	IN-HEAD	beginning	<NA>	<NA>	<NA>	<NA>
arnas__hartzeko__arazoak__dituzten__39__paziente__kroniko__aztertu__dira__;	EDU	Arnas	hartzeko	arazoak	NOUN	VERB	NOUN	;	PUNCT	short	aztertu	<NA>	<NA>	VERB	<NA>	<NA>	IN-HEAD	beginning	numb	<NA>	<NA>	<NA>
1998an__iritsi__ziren__gure__zentrora	EDU	1998an	iritsi	ziren	NUM	VERB	AUX	zentrora	NOUN	veryshort	iritsi	<NA>	<NA>	VERB	<NA>	<NA>	OUT-HEAD	beginning	numb	<NA>	<NA>	<NA>
eta__p.__aeruginosa__isolatu__zen__haien__kerruan__.	EDU	aeruginosa	isolatu	zen	NOUN	VERB	AUX	.	PUNCT	short	isolatu	eta	P	VERB	CONJ	PROPN	IN-HEAD	beginning	<NA>	<NA>	<NA>	<NA>
besteak__beste__,__parametro__klinikoak__,__epidemiologikoak__eta__mikrobiologikoak__analizatu__ziren__.	EDU	Besteak	beste	,	DET	DET	PUNCT	.	PUNCT	short	analizatu	<NA>	<NA>	VERB	<NA>	<NA>	IN-HEAD	beginning	<NA>	<NA>	<NA>	<NA>
era__berean__,__sentikortasun__antimikrobianoa__eta__tipo__genetikoak__ere__zehaztu__ziren__.	EDU	Era	berean	,	NOUN	DET	PUNCT	.	PUNCT	short	zehaztu	<NA>	<NA>	VERB	<NA>	<NA>	IN-HEAD	beginning	<NA>	<NA>	<NA>	<NA>
23__pazienteren__segimendu__kliniko__eta__mikrobiologikoa__egin__zen__urtebetez__-LRB-__azterketa__genetikoa__barne__-RRB-__.	EDU	23	pazienteren	segimendu	NUM	NOUN	NOUN	.	PUNCT	short	egin	<NA>	<NA>	VERB	<NA>	<NA>	IN-HEAD	beginning	numb	<NA>	<NA>	<NA>
24__pazientek__bronkiektasiak__zituzten__-LRB-__1998an__ingresatuko__%__12k__-RRB-__;__15__pazientek__,__bgbk__.	EDU	24	pazientek	bronkiektasiak	NUM	NOUN	VERB	.	PUNCT	long	bronkiektasiak	<NA>	<NA>	VERB	<NA>	<NA>	IN-HEAD	beginning	numb	<NA>	<NA>	<NA>
paziente__guztiek__butxadura-maila__handiak__zituzten__arnasbideetan__-LRB-__fev1__&__lt__;__%__45__-RRB-__.	EDU	Paziente	guztiek	butxadura-maila	NOUN	DET	NOUN	.	PUNCT	short	zituzten	<NA>	<NA>	VERB	<NA>	<NA>	IN-HEAD	first-middle	numb	<NA>	<NA>	<NA>
22__pazientek__-LRB-__%__56__-RRB-__arnas__gutxiegitasun__kroniko__zuten__.	EDU	22	pazientek	-LRB-	NUM	NOUN	PUNCT	.	PUNCT	short	kroniko	<NA>	<NA>	VERB	<NA>	<NA>	IN-HEAD	first-middle	numb	<NA>	<NA>	<NA>
aztertutako__42__anduietatik	EDU	Aztertutako	42	<NA>	VERB	NUM	<NA>	anduietatik	NOUN	veryshort	anduietatik	<NA>	<NA>	NOUN	<NA>	<NA>	OUT-HEAD	first-middle	numb	<NA>	<NA>	<NA>
-LRB-__3__pazientek__2na__andui__zituzten__-RRB-__,	EDU	-LRB-	3	pazientek	PUNCT	NUM	NOUN	,	PUNCT	short	-LRB-	andui	<NA>	PUNCT	VERB	<NA>	IN-HEAD	first-middle	numb	<NA>	<NA>	<NA>
14__mukizkoak__ziren__eta__28__ez-mukizkoak__.	EDU	14	mukizkoak	ziren	NUM	NOUN	VERB	.	PUNCT	short	ziren	eta	ez-mukizkoak	VERB	CONJ	NOUN	OUT-HEAD	first-middle	numb	<NA>	<NA>	<NA>
antibiogramak__erresistentzi__maila__apala__erakusten__du__amikazina__-LRB-__%__0__-RRB-__,__tikarzilina__-LRB-__%__5__-RRB-__,__imipenem__-LRB-__%__13,3__-RRB-__eta__gantamizinarekiko__-LRB-__%__14,2__-RRB-__.	EDU	Antibiogramak	erresistentzi	maila	PROPN	NOUN	NOUN	.	PUNCT	verylong	erakusten	<NA>	<NA>	VERB	<NA>	<NA>	IN-HEAD	first-middle	numb	<NA>	<NA>	<NA>
eboluzioan__zehar__,__pazienteen__%__74ek__antimikrobiano__bat__edo__gehiagorekiko__erresistentziak__garatu__dituzte__.	EDU	Eboluzioan	zehar	,	NOUN	ADP	PUNCT	.	PUNCT	short	garatu	<NA>	<NA>	VERB	<NA>	<NA>	IN-HEAD	first-middle	numb	<NA>	<NA>	<NA>
eboluzio__klinikoari__dagokionez__,__heriotza-tasa__%__38koa__izan__da__urtebetean__.	EDU	Eboluzio	klinikoari	dagokionez	NOUN	NOUN	VERB	.	PUNCT	short	izan	<NA>	<NA>	VERB	<NA>	<NA>	IN-HEAD	first-middle	numb	<NA>	<NA>	<NA>
kasuen__%__20an__bakarrik__lortu__da__p.__aeruginosa__behin__betiko__ezabatzea__;	EDU	Kasuen	aeruginosa	%	ADJ	NOUN	PUNCT	P.	PROPN	short	ezabatzea	lortu	<NA>	VERB	VERB	<NA>	IN-HEAD	first-middle	numb	<NA>	<NA>	<NA>
%__66ean__mikroorganismoak__iraun__egin__du	EDU	%	66ean	mikroorganismoak	PUNCT	NUM	NOUN	du	AUX	short	iraun	<NA>	<NA>	VERB	<NA>	<NA>	IN-HEAD	second-middle	numb	<NA>	<NA>	<NA>
eta__%__13,3an__berragertu__egin__da	EDU	eta	%	13,3an	CONJ	PUNCT	NUM	da	AUX	short	eta	%	berragertu	CONJ	PUNCT	VERB	OUT-HEAD	second-middle	numb	<NA>	<NA>	<NA>
itxuraz__ezabatua__izan__ondoren__.	EDU	itxuraz	ezabatua	izan	ADV	VERB	VERB	.	PUNCT	veryshort	ezabatua	<NA>	<NA>	VERB	<NA>	<NA>	OUT-HEAD	second-middle	<NA>	<NA>	<NA>	<NA>
azterketa__genetikoak__erakusten__duenez__,	EDU	Azterketa	genetikoak	erakusten	NOUN	ADJ	VERB	,	PUNCT	veryshort	erakusten	<NA>	<NA>	VERB	<NA>	<NA>	OUT-HEAD	second-middle	<NA>	<NA>	<NA>	<NA>
pazienteen__%__82k__klon__bakar__bat__dute__;	EDU	pazienteen	%	82k	NOUN	PUNCT	PROPN	;	PUNCT	short	dute	<NA>	<NA>	VERB	<NA>	<NA>	IN-HEAD	second-middle	numb	<NA>	<NA>	<NA>
klon__hori__da__,__oro__har__,__irauteko__joera__duena__,__aldagai__subzionalekin__kasuren__batean__edo__beste__.	EDU	klon	hori	da	ADV	DET	VERB	.	PUNCT	long	klon	da	<NA>	ADV	VERB	<NA>	OUT-HEAD	second-middle	<NA>	<NA>	<NA>	<NA>
genetikoki__aztertutako__41__pazienteetatik__,__29k__-LRB-__%__70__-RRB-__klon__propioa__dute__-LRB-__esklusiboa__-RRB-	EDU	Genetikoki	aztertutako	41	ADV	VERB	NUM	-RRB-	PUNCT	long	dute	<NA>	<NA>	VERB	<NA>	<NA>	IN-HEAD	second-middle	numb	<NA>	<NA>	<NA>
eta__12k__-LRB-__%__29__-RRB-__paziente__batekin__edo__birekin__gehienez__elkarbanatzen__dute__berea__.	EDU	eta	12k	-LRB-	CONJ	PROPN	PUNCT	.	PUNCT	short	eta	12k	-LRB-	CONJ	PROPN	PUNCT	OUT-HEAD	second-middle	numb	<NA>	<NA>	<NA>
kerruan__identifikatutako__p.__aeruginosa__eta__ondesteko__frotisekoa__berberak__dira	EDU	Kerruan	aeruginosa	identifikatutako	NOUN	NOUN	VERB	dira	VERB	short	P.	berberak	dira	PROPN	DET	VERB	IN-HEAD	second-middle	<NA>	<NA>	<NA>	<NA>
mikroorganismo__hori__bi__laginetan__identifikatu__zen__kasuen__-LRB-__10__kasu__-RRB-__%__90ean__.	EDU	mikroorganismo	hori	bi	NOUN	DET	NUM	.	PUNCT	short	identifikatu	<NA>	<NA>	VERB	<NA>	<NA>	IN-HEAD	end	numb	<NA>	<NA>	<NA>
p.__aeruginosa__bidezko__kolonizazio-infekzioak__bronkio-gaixotasun__kronikoak__dituzten__pazienteei__eragiten__die	EDU	P	aeruginosa	.	PROPN	NOUN	PUNCT	die	AUX	short	P	eragiten	<NA>	PROPN	VERB	<NA>	IN-HEAD	end	<NA>	<NA>	<NA>	<NA>
eta__haien__eboluzioa__korapilatzen__du__;	EDU	eta	haien	eboluzioa	CONJ	DET	NOUN	;	PUNCT	short	eta	korapilatzen	<NA>	CONJ	VERB	<NA>	OUT-HEAD	end	<NA>	<NA>	<NA>	<NA>
horrek__heriotza-tasa__handitu	EDU	horrek	heriotza-tasa	<NA>	DET	NOUN	<NA>	handitu	VERB	veryshort	handitu	<NA>	<NA>	VERB	<NA>	<NA>	OUT-HEAD	end	<NA>	<NA>	<NA>	<NA>
eta__ospitaleko__ingresu__berrien__kopurua__areagotzen__du__.	EDU	eta	ospitaleko	ingresu	CONJ	NOUN	NOUN	.	PUNCT	short	eta	areagotzen	<NA>	CONJ	VERB	<NA>	OUT-HEAD	end	<NA>	<NA>	<NA>	<NA>
pseudomonak__tratamendu__antibiotikoa__izan__duten__pazienteetan__irauteko__gaitasuna__du__.	EDU	Pseudomonak	tratamendu	antibiotikoa	PROPN	NOUN	ADJ	.	PUNCT	short	du	<NA>	<NA>	VERB	<NA>	<NA>	IN-HEAD	end	<NA>	<NA>	<NA>	<NA>
azterketa__genetikoen__arabera__,__pseudomona__bera__da__irauteko__joera__duena__;	EDU	Azterketa	genetikoen	arabera	NOUN	ADJ	ADP	;	PUNCT	short	duena	<NA>	<NA>	VERB	<NA>	<NA>	IN-HEAD	end	<NA>	<NA>	<NA>	<NA>
beraz__,__sentikortasun__antimikrobianoaren__etengabeko__aldaketa__ebolutiboak__ez__daude__,__oro__har__,__geruza__berrien__mende__.	EDU	beraz	,	sentikortasun	CONJ	PUNCT	NOUN	.	PUNCT	long	beraz	daude	mende	CONJ	VERB	NOUN	OUT-HEAD	end	<NA>	<NA>	<NA>	<NA>
paziente__gehienek__ez__dituzte__klon__berdinak__elkarbanatzen__;	EDU	Paziente	gehienek	ez	NOUN	DET	PART	;	PUNCT	short	elkarbanatzen	<NA>	<NA>	VERB	<NA>	<NA>	OUT-HEAD	end	<NA>	<NA>	<NA>	<NA>
ondorioz__,__ez__dirudi__infekzio-iturri__komun__bat__dagoenik__,__salbuespenak__salbuespen__.	EDU	ondorioz	,	ez	NOUN	PUNCT	PART	.	PUNCT	short	ondorioz	dirudi	<NA>	NOUN	VERB	<NA>	IN-HEAD	last	<NA>	<NA>	<NA>	<NA>

terminologia-kudeaketa__eta__ezagutza-prozesaketa__hizkuntza__minorizatuetan__.	EDU	Terminologia-kudeaketa	eta	ezagutza-prozesaketa	NOUN	CONJ	NOUN	.	PUNCT	short	minorizatuetan	<NA>	<NA>	NOUN	<NA>	<NA>	OUT-HEAD	first	<NA>	<NA>	<NA>	<NA>
terminologia-kudeaketa__-LRB-__terminoak__biltzea__,__aztertzea__,__baliozkotzea__eta__antolatzea__-RRB-__oso__garrantzitsua__da	EDU	Terminologia-kudeaketa	-LRB-	terminoak	NOUN	PUNCT	NOUN	da	VERB	short	garrantzitsua	<NA>	<NA>	ADJ	<NA>	<NA>	IN-HEAD	beginning	<NA>	<NA>	<NA>	<NA>
informazioa__ezagutza__ulergarri__eta__aplikagarri__bilakatzeko__.	EDU	informazioa	ezagutza	ulergarri	NOUN	NOUN	ADJ	.	PUNCT	short	bilakatzeko	<NA>	<NA>	VERB	<NA>	<NA>	OUT-HEAD	beginning	<NA>	<NA>	<NA>	<NA>
joera__guztietako__adituak__dabiltza__terminoak__sortzen__,__dagoen__terminologia__aldatzen__,__termino__batzuk__arkaikotzat__ematen__edo__baztertutako__terminoak__esanahi__berriekin__birsartzen__.	EDU	Joera	guztietako	adituak	NOUN	DET	NOUN	.	PUNCT	long	sortzen	<NA>	<NA>	VERB	<NA>	<NA>	IN-HEAD	beginning	<NA>	<NA>	<NA>	<NA>
badirudi__adituen__eginbeharreko__bat__dela__neologismoak__sortzea__,__erretronimoak__-LRB-__berrezarpen__lexikalak__-RRB-__sartzea__,__terminoak__itzultzea__,__terminoak__baliozkotzea__eta__,__nahiko__zeharka__,__euren__espezialitateetako__terminologia-bildumak__egitea__edo__egiten__laguntzea__.	EDU	Badirudi	adituen	eginbeharreko	VERB	NOUN	NOUN	.	PUNCT	verylong	Badirudi	<NA>	<NA>	VERB	<NA>	<NA>	IN-HEAD	beginning	<NA>	<NA>	<NA>	<NA>
zientzia__modernoa__,__gaur__egungo__aisia__eta__dibertsioa__,__enpresa__berritzaileak__,__euren__enkarnazio__zaharrengatik__nabaritzen__dira__,__ez__bakarrik__ondasun__,__zerbitzu__edo__tresnen__bidez__,__bai__eta__zientziak__,__arteak__eta__kultura__,__eta__negozioak__eta__enpresak__deskribatzeko__erabiltzen__duten__terminologiaren__bidez__ere__.	EDU	Zientzia	modernoa	,	NOUN	ADJ	PUNCT	.	PUNCT	verylong	nabaritzen	<NA>	<NA>	VERB	<NA>	<NA>	IN-HEAD	beginning	<NA>	<NA>	<NA>	<NA>
terminologia-kudeaketa__,__oro__har__,__eskulana__da	EDU	Terminologia-kudeaketa	,	oro	NOUN	PUNCT	ADV	da	VERB	short	har	<NA>	<NA>	VERB	<NA>	<NA>	IN-HEAD	beginning	<NA>	<NA>	<NA>	<NA>
eta__motibaturiko__dokumentalistengan__,__itzultzaileengan__eta__terminologoengan__bermatzen__da__;	EDU	eta	motibaturiko	dokumentalistengan	CONJ	NOUN	DET	;	PUNCT	short	eta	bermatzen	<NA>	CONJ	VERB	<NA>	OUT-HEAD	beginning	<NA>	<NA>	<NA>	<NA>
azken__horrek__beste__bien__funtzioa__betetzen__du__.	EDU	azken	horrek	beste	NUM	DET	DET	.	PUNCT	short	betetzen	<NA>	<NA>	VERB	<NA>	<NA>	OUT-HEAD	beginning	<NA>	<NA>	<NA>	<NA>
termino__espezializatuak__artxibatzearekin__eta__aurkeztearekin__lotuta__dauden__biltegiratze-__eta__berreskuratze-lan__batzuk__arindu__dituzte__gaur__egun__terminologia__kudeatzeko__sistemek__.	EDU	Termino	espezializatuak	artxibatzearekin	PROPN	NOUN	ADJ	.	PUNCT	long	arindu	<NA>	<NA>	VERB	<NA>	<NA>	IN-HEAD	beginning	<NA>	<NA>	<NA>	<NA>
hala__ere__,__gizaki__adituek__egiten__dituzte__bilketak__,__azterketak__eta__baliozkotzeak__.	EDU	Hala	ere	,	ADV	CONJ	PUNCT	.	PUNCT	short	egiten	<NA>	<NA>	VERB	<NA>	<NA>	IN-HEAD	beginning	<NA>	<NA>	<NA>	<NA>
hiztun__ugariko__hizkuntzetan__,__datu-base__terminologikoak__behar__dituzten__eta__horiek__sortzeko__dirua__inbertitzeko__prest__dauden__pertsona-kopuru__handia__egongo__denaren__esperantzak__bermatzen__du__terminologia-kudeaketaren__lan__garestia__.	EDU	Hiztun	ugariko	hizkuntzetan	NOUN	VERB	NOUN	.	PUNCT	verylong	dituzten	<NA>	<NA>	VERB	<NA>	<NA>	IN-HEAD	beginning	<NA>	<NA>	<NA>	<NA>
hiztun__gutxiago__dauzkaten__hizkuntzetan__ez__da__hori__gertatzen__.	EDU	Hiztun	gutxiago	dauzkaten	NOUN	DET	VERB	.	PUNCT	short	gertatzen	<NA>	<NA>	VERB	<NA>	<NA>	IN-HEAD	first-middle	<NA>	<NA>	<NA>	<NA>
kasu__horietan__,__terminologia-kudeaketa__hizkuntza__plangintzaren__lanarekin__lotzen__da__sarritan__.	EDU	Kasu	horietan	,	NOUN	DET	PUNCT	.	PUNCT	short	lotzen	<NA>	<NA>	VERB	<NA>	<NA>	IN-HEAD	first-middle	<NA>	<NA>	<NA>	<NA>
lan__horrek__,__era__berean__,__motibazio__politikoak__eta__,__askotan__,__emozio-karga__bat__ere__badauzka__.	EDU	Lan	horrek	,	NOUN	DET	PUNCT	.	PUNCT	long	badauzka	<NA>	<NA>	VERB	<NA>	<NA>	IN-HEAD	first-middle	<NA>	<NA>	<NA>	<NA>
hizkuntza__minorizatuetan__,__terminologia__kudeaketak__gizakiengan__daukan__menpekotasuna__handiagoa__da__beste__hizkuntza__batzuetan__baino__.	EDU	Hizkuntza	minorizatuetan	,	NOUN	NOUN	PUNCT	.	PUNCT	short	handiagoa	<NA>	<NA>	ADJ	<NA>	<NA>	IN-HEAD	first-middle	<NA>	<NA>	<NA>	<NA>
terminologia-kudeaketaren__automatizazioa__ez__da__programa__informatikoak__idaztea__besterik__gabe__,	EDU	Terminologia-kudeaketaren	automatizazioa	ez	NOUN	NOUN	PART	,	PUNCT	short	automatizazioa	<NA>	<NA>	NOUN	<NA>	<NA>	OUT-HEAD	first-middle	<NA>	<NA>	<NA>	<NA>
lan__hori__,__berez__,__zaila__izan__arren__.	EDU	lan	hori	,	NOUN	DET	PUNCT	.	PUNCT	short	lan	berez	zaila	NOUN	ADV	ADJ	IN-HEAD	first-middle	<NA>	<NA>	<NA>	<NA>
automatizazio__hori__egiteko	EDU	Automatizazio	hori	<NA>	NOUN	DET	<NA>	egiteko	NOUN	veryshort	Automatizazio	egiteko	<NA>	NOUN	NOUN	<NA>	OUT-HEAD	first-middle	<NA>	<NA>	<NA>	<NA>
jakin__egin__behar__da__zelan__idazten__diren__adituen__testuak__,__gizakiak__zelan__konpontzen__diren__arlo__espezializatuen__semantikarekin__,__diskurtsoaren__ereduak__zelan__aldatzen__diren__testuaren__egilearen__eta__irakurleen__beharrizanen__arabera__.	EDU	jakin	egin	behar	VERB	VERB	NOUN	.	PUNCT	verylong	da	<NA>	<NA>	VERB	<NA>	<NA>	IN-HEAD	first-middle	<NA>	<NA>	<NA>	<NA>
hizkuntza__minorizatuetan__idatzitako__testuak__eta__hizkuntza__minorizatuei__buruzko__testuak__ez__dira__erraz__lortzen	EDU	Hizkuntza	minorizatuetan	idatzitako	NOUN	ADV	VERB	lortzen	VERB	short	lortzen	<NA>	<NA>	VERB	<NA>	<NA>	IN-HEAD	first-middle	<NA>	<NA>	<NA>	<NA>
eta__badirudi__zaila__dela__arlo__horietan	EDU	eta	badirudi	zaila	CONJ	VERB	ADJ	horietan	DET	short	eta	badirudi	arlo	CONJ	VERB	NOUN	OUT-HEAD	first-middle	<NA>	<NA>	<NA>	<NA>
azterketak__eta__datu-bilketak__egiten__hasteko	EDU	azterketak	eta	datu-	NOUN	CONJ	PUNCT	hasteko	VERB	short	azterketak	datu-	egiten	NOUN	PUNCT	VERB	OUT-HEAD	first-middle	<NA>	<NA>	<NA>	<NA>
inor__konbentzitzea__.	EDU	inor	konbentzitzea	<NA>	PRON	VERB	<NA>	.	PUNCT	veryshort	konbentzitzea	<NA>	<NA>	VERB	<NA>	<NA>	OUT-HEAD	first-middle	<NA>	<NA>	<NA>	<NA>
zelanbait__,__idazketa__espezializatua__``__idazketa__teknikoa__''__terminoarekin__lotuta__dago__,__makinekin__zerikusia__daukan__diskurtso-eredu__bat__.	EDU	Zelanbait	,	idazketa	ADV	PUNCT	NOUN	.	PUNCT	long	<NA>	<NA>	<NA>	<NA>	<NA>	<NA>	IN-HEAD	second-middle	<NA>	<NA>	<NA>	<NA>
horren__ondorioz__,__ez__du__lortzen__hizkuntzaren__eredu__matematiko__baten__arabera__esaldiak__aztertzeari__edo__testuetan__ikono__kulturalak__bilatzeari__,	EDU	Horren	ondorioz	,	DET	NOUN	PUNCT	,	PUNCT	long	lortzen	<NA>	<NA>	VERB	<NA>	<NA>	IN-HEAD	second-middle	<NA>	<NA>	<NA>	<NA>
lan__abstraktuagoak__baitira__,	EDU	lan	abstraktuagoak	baitira	NOUN	ADJ	VERB	,	PUNCT	veryshort	lan	<NA>	<NA>	NOUN	<NA>	<NA>	OUT-HEAD	second-middle	<NA>	<NA>	<NA>	<NA>
ematen__zaien__estatus__bera__.	EDU	ematen	zaien	estatus	VERB	AUX	NOUN	.	PUNCT	veryshort	ematen	<NA>	<NA>	VERB	<NA>	<NA>	OUT-HEAD	second-middle	<NA>	<NA>	<NA>	<NA>
ezagutza-prozesaketa__terminoa	EDU	Ezagutza-prozesaketa	<NA>	<NA>	NOUN	<NA>	<NA>	terminoa	ADJ	veryshort	Ezagutza-prozesaketa	<NA>	<NA>	NOUN	<NA>	<NA>	OUT-HEAD	second-middle	<NA>	<NA>	<NA>	<NA>
hezkuntza__,__prestakuntza__,__irakaskuntza__eta__ikaskuntza__,__arazoak__konpontzea__,__eta__abarren__moduko__ekintza__parekoak__garatzeko	EDU	hezkuntza	,	prestakuntza	NOUN	PUNCT	NOUN	garatzeko	VERB	long	konpontzea	garatzeko	<NA>	VERB	VERB	<NA>	IN-HEAD	second-middle	<NA>	<NA>	<NA>	<NA>
erabil__dezakegu__.	EDU	erabil	dezakegu	<NA>	VERB	AUX	<NA>	.	PUNCT	veryshort	erabil	<NA>	<NA>	VERB	<NA>	<NA>	OUT-HEAD	second-middle	<NA>	<NA>	<NA>	<NA>
terminologia__espezializatuen__bildumen__eskuragarritasunaren__menpe__dago__ezagutza__prozesaketa__.	EDU	Terminologia	espezializatuen	bildumen	NOUN	NOUN	NOUN	.	PUNCT	short	dago	<NA>	<NA>	VERB	<NA>	<NA>	IN-HEAD	second-middle	<NA>	<NA>	<NA>	<NA>
hori__egia__da__,__batez__ere__haurraren__hezkuntza-urteetan__,__hasberriaren__edo__berriro__prestatzen__ari__denaren__hasierako__ikasketetan__:	EDU	Hori	egia	da	DET	NOUN	VERB	:	PUNCT	long	egia	<NA>	<NA>	NOUN	<NA>	<NA>	IN-HEAD	second-middle	<NA>	<NA>	<NA>	<NA>
gizakiaren__edozein__ekintzarekin__zerikusia__daukaten__gertakariak__,__printzipioak__,__teoriak__eta__esperientziak__-LRB-__ezagutza__-RRB-__asimilatu__egiten__dira	EDU	gizakiaren	edozein	ekintzarekin	NOUN	DET	ADJ	dira	AUX	long	asimilatu	<NA>	<NA>	VERB	<NA>	<NA>	IN-HEAD	second-middle	<NA>	<NA>	<NA>	<NA>
eta__gero	EDU	eta	<NA>	<NA>	CONJ	<NA>	<NA>	gero	ADV	veryshort	eta	gero	<NA>	CONJ	ADV	<NA>	OUT-HEAD	second-middle	<NA>	<NA>	<NA>	<NA>
irakasteko__,	EDU	irakasteko	<NA>	<NA>	VERB	<NA>	<NA>	,	PUNCT	veryshort	irakasteko	<NA>	<NA>	VERB	<NA>	<NA>	OUT-HEAD	second-middle	<NA>	<NA>	<NA>	<NA>
ikasteko__,	EDU	ikasteko	<NA>	<NA>	VERB	<NA>	<NA>	,	PUNCT	veryshort	ikasteko	<NA>	<NA>	VERB	<NA>	<NA>	OUT-HEAD	second-middle	<NA>	<NA>	<NA>	<NA>
arazoak__konpontzeko__eta__abarretarako	EDU	arazoak	konpontzeko	eta	NOUN	VERB	CONJ	abarretarako	NOUN	veryshort	konpontzeko	eta	abarretarako	VERB	CONJ	NOUN	OUT-HEAD	end	<NA>	<NA>	<NA>	<NA>
erabiltzen__da__.	EDU	erabiltzen	da	<NA>	VERB	AUX	<NA>	.	PUNCT	veryshort	erabiltzen	<NA>	<NA>	VERB	<NA>	<NA>	OUT-HEAD	end	<NA>	<NA>	<NA>	<NA>
liburuetan__,__egunkarietan__,__iraganeko__esperientzia__ez-artikulatuan__eskuratzen__den__``__material__gordina__''__terminoen__bidez__komunikatu__behar__da__,	EDU	Liburuetan	,	egunkarietan	NOUN	PUNCT	ADV	,	PUNCT	long	material	<NA>	<NA>	NOUN	<NA>	<NA>	IN-HEAD	end	<NA>	<NA>	<NA>	<NA>
zeinen__esanahiak__ondo__definituta__baitaude	EDU	zeinen	esanahiak	ondo	DET	NOUN	ADV	baitaude	VERB	veryshort	definituta	<NA>	<NA>	VERB	<NA>	<NA>	OUT-HEAD	end	<NA>	<NA>	<NA>	<NA>
eta__adituek__sarritan__erabiliko__baitituzte__.	EDU	eta	adituek	sarritan	CONJ	NOUN	ADV	.	PUNCT	short	eta	erabiliko	<NA>	CONJ	VERB	<NA>	OUT-HEAD	end	<NA>	<NA>	<NA>	<NA>
beraz__,__ezagutza-prozesaketak__eta__terminologia-kudeaketak__daukaten__lotura__askaezina__da__;	EDU	Beraz	,	ezagutza-prozesaketak	CONJ	PUNCT	NOUN	;	PUNCT	short	daukaten	<NA>	<NA>	VERB	<NA>	<NA>	IN-HEAD	end	<NA>	<NA>	<NA>	<NA>
terminologia-kudeaketa__,__era__berean__,__hizkuntz__plangintzarekin__eta__politikarekin__dago__lotuta__.	EDU	terminologia-kudeaketa	,	era	NOUN	PUNCT	NOUN	.	PUNCT	short	terminologia-kudeaketa	era	dago	NOUN	NOUN	VERB	OUT-HEAD	end	<NA>	<NA>	<NA>	<NA>
azken__hamar__urteotan__hiztun__ugariko__hizkuntzetako__terminologia-bilketak__egiten__ibili__gara__,__adibidez__,__ingelesean__,__alemanieran__eta__gazteleran__.	EDU	Azken	hamar	urteotan	NUM	NUM	NOUN	.	PUNCT	long	ibili	<NA>	<NA>	VERB	<NA>	<NA>	IN-HEAD	end	<NA>	<NA>	<NA>	<NA>
aldi__berean__,__metodo__horiek__hizkuntza__minorizatuei__egokitzen__saiatu__gara__,__adibidez__,__galeserari__,__norvegierari__,__flandeserari__eta__katalanari__.	EDU	Aldi	berean	,	NOUN	DET	PUNCT	.	PUNCT	long	saiatu	<NA>	<NA>	VERB	<NA>	<NA>	IN-HEAD	end	<NA>	<NA>	<NA>	<NA>
komunikazio__honen__gaiak__izango__dira__aurkitutako__erronkak__,__identifikatutako__aukerak__eta__emandako__irtenbideak	EDU	Komunikazio	honen	gaiak	NOUN	DET	NOUN	irtenbideak	NOUN	short	erronkak	irtenbideak	<NA>	NOUN	NOUN	<NA>	IN-HEAD	end	<NA>	<NA>	<NA>	<NA>
hizkera__espezializatuen__terminologia__inguru__eleanizdun__batean__kudeatzeko__,	EDU	hizkera	espezializatuen	terminologia	NOUN	NOUN	NOUN	,	PUNCT	short	kudeatzeko	<NA>	<NA>	VERB	<NA>	<NA>	OUT-HEAD	end	<NA>	<NA>	<NA>	<NA>
zeinetan__hizkuntza__bat__gutxienez__hizkuntza__minorizatua__baita__.	EDU	zeinetan	hizkuntza	bat	ADV	NOUN	NUM	.	PUNCT	short	hizkuntza	<NA>	<NA>	NOUN	<NA>	<NA>	OUT-HEAD	end	<NA>	<NA>	<NA>	<NA>
gure__marko__teorikoa__hizkuntza__corpusari__,__filosofiari__eta__zientziaren__historiari__buruzko__ikerketa__berrietatik__hartu__dugu__,__alde__batetik__,__eta__informatikako__ikerketatik__,__bestetik__.	EDU	Gure	marko	teorikoa	PRON	NOUN	ADJ	.	PUNCT	long	hartu	<NA>	<NA>	VERB	<NA>	<NA>	IN-HEAD	last	<NA>	<NA>	<NA>	<NA>

